\relax 
\abx@aux@sortscheme{nty}
\@writefile{toc}{\boolfalse {citerequest}\boolfalse {citetracker}\boolfalse {pagetracker}\boolfalse {backtracker}\relax }
\@writefile{lof}{\boolfalse {citerequest}\boolfalse {citetracker}\boolfalse {pagetracker}\boolfalse {backtracker}\relax }
\@writefile{lot}{\boolfalse {citerequest}\boolfalse {citetracker}\boolfalse {pagetracker}\boolfalse {backtracker}\relax }
\@writefile{toc}{\defcounter {refsection}{0}\relax }\@writefile{toc}{\contentsline {section}{\numberline {1}System Description}{2}}
\newlabel{sec:system-description}{{1}{2}}
\newlabel{sec:system-description@cref}{{[section][1][]1}{2}}
\@writefile{toc}{\defcounter {refsection}{0}\relax }\@writefile{toc}{\contentsline {subsection}{\numberline {1.1}Database}{2}}
\newlabel{sec:database}{{1.1}{2}}
\newlabel{sec:database@cref}{{[subsection][1][1]1.1}{2}}
\@writefile{toc}{\defcounter {refsection}{0}\relax }\@writefile{toc}{\contentsline {subsubsection}{\numberline {1.1.1}Schema and Indexes}{2}}
\newlabel{sec:schema-and-indexes}{{1.1.1}{2}}
\newlabel{sec:schema-and-indexes@cref}{{[subsubsection][1][1,1]1.1.1}{2}}
\@writefile{toc}{\defcounter {refsection}{0}\relax }\@writefile{toc}{\contentsline {paragraph}{\numberline {1.1.1.1}Clients table}{2}}
\@writefile{toc}{\defcounter {refsection}{0}\relax }\@writefile{toc}{\contentsline {paragraph}{\numberline {1.1.1.2}Queues table}{2}}
\@writefile{toc}{\defcounter {refsection}{0}\relax }\@writefile{toc}{\contentsline {paragraph}{\numberline {1.1.1.3}Messages table}{2}}
\@writefile{toc}{\defcounter {refsection}{0}\relax }\@writefile{toc}{\contentsline {paragraph}{\numberline {1.1.1.4}Foreign key constraint}{2}}
\@writefile{toc}{\defcounter {refsection}{0}\relax }\@writefile{toc}{\contentsline {paragraph}{\numberline {1.1.1.5}Logs table}{3}}
\@writefile{toc}{\defcounter {refsection}{0}\relax }\@writefile{toc}{\contentsline {paragraph}{\numberline {1.1.1.6}Indexes}{3}}
\@writefile{toc}{\defcounter {refsection}{0}\relax }\@writefile{toc}{\contentsline {subsubsection}{\numberline {1.1.2}Stored Procedures}{3}}
\newlabel{sec:stored-procedures}{{1.1.2}{3}}
\newlabel{sec:stored-procedures@cref}{{[subsubsection][2][1,1]1.1.2}{3}}
\@writefile{lol}{\defcounter {refsection}{0}\relax }\@writefile{lol}{\contentsline {lstlisting}{\numberline {1}Stored procedure for the inserting of a new message}{3}}
\@writefile{toc}{\defcounter {refsection}{0}\relax }\@writefile{toc}{\contentsline {subsubsection}{\numberline {1.1.3}Design decisions}{3}}
\newlabel{sec:design-decisions}{{1.1.3}{3}}
\newlabel{sec:design-decisions@cref}{{[subsubsection][3][1,1]1.1.3}{3}}
\@writefile{toc}{\defcounter {refsection}{0}\relax }\@writefile{toc}{\contentsline {subsubsection}{\numberline {1.1.4}Performance characteristics}{4}}
\newlabel{sec:performance-characteristics}{{1.1.4}{4}}
\newlabel{sec:performance-characteristics@cref}{{[subsubsection][4][1,1]1.1.4}{4}}
\@writefile{toc}{\defcounter {refsection}{0}\relax }\@writefile{toc}{\contentsline {subsection}{\numberline {1.2}Middleware}{4}}
\newlabel{sec:middleware}{{1.2}{4}}
\newlabel{sec:middleware@cref}{{[subsection][2][1]1.2}{4}}
\@writefile{toc}{\defcounter {refsection}{0}\relax }\@writefile{toc}{\contentsline {subsubsection}{\numberline {1.2.1}Design overview}{4}}
\newlabel{sec:design-overview}{{1.2.1}{4}}
\newlabel{sec:design-overview@cref}{{[subsubsection][1][1,2]1.2.1}{4}}
\@writefile{lof}{\defcounter {refsection}{0}\relax }\@writefile{lof}{\contentsline {figure}{\numberline {1}{\ignorespaces Overall design of the system\relax }}{5}}
\providecommand*\caption@xref[2]{\@setref\relax\@undefined{#1}}
\newlabel{fig:overall_design}{{1}{5}}
\newlabel{fig:overall_design@cref}{{[figure][1][]1}{5}}
\@writefile{toc}{\defcounter {refsection}{0}\relax }\@writefile{toc}{\contentsline {paragraph}{\numberline {1.2.1.1}Message Server}{5}}
\@writefile{toc}{\defcounter {refsection}{0}\relax }\@writefile{toc}{\contentsline {paragraph}{\numberline {1.2.1.2}Request Handler}{5}}
\@writefile{toc}{\defcounter {refsection}{0}\relax }\@writefile{toc}{\contentsline {paragraph}{\numberline {1.2.1.3}Message Handler}{5}}
\newlabel{subsec:operations}{{1.2.1.3}{5}}
\newlabel{subsec:operations@cref}{{[paragraph][3][1,2,1]1.2.1.3}{5}}
\@writefile{toc}{\defcounter {refsection}{0}\relax }\@writefile{toc}{\contentsline {subsubsection}{\numberline {1.2.2}Interfacing with clients}{6}}
\newlabel{sec:interfacing-with-clients}{{1.2.2}{6}}
\newlabel{sec:interfacing-with-clients@cref}{{[subsubsection][2][1,2]1.2.2}{6}}
\@writefile{toc}{\defcounter {refsection}{0}\relax }\@writefile{toc}{\contentsline {subsubsection}{\numberline {1.2.3}Termination}{6}}
\@writefile{toc}{\defcounter {refsection}{0}\relax }\@writefile{toc}{\contentsline {subsubsection}{\numberline {1.2.4}Queuing and Connection pool to database}{6}}
\newlabel{sec:queuing-and-connection-pool-to-database}{{1.2.4}{6}}
\newlabel{sec:queuing-and-connection-pool-to-database@cref}{{[subsubsection][4][1,2]1.2.4}{6}}
\@writefile{toc}{\defcounter {refsection}{0}\relax }\@writefile{toc}{\contentsline {subsubsection}{\numberline {1.2.5}Performance characteristics}{7}}
\newlabel{sec:performance-characteristics-1}{{1.2.5}{7}}
\newlabel{sec:performance-characteristics-1@cref}{{[subsubsection][5][1,2]1.2.5}{7}}
\@writefile{toc}{\defcounter {refsection}{0}\relax }\@writefile{toc}{\contentsline {subsection}{\numberline {1.3}Clients}{7}}
\newlabel{sec:clients}{{1.3}{7}}
\newlabel{sec:clients@cref}{{[subsection][3][1]1.3}{7}}
\@writefile{toc}{\defcounter {refsection}{0}\relax }\@writefile{toc}{\contentsline {subsubsection}{\numberline {1.3.1}Design and interface}{7}}
\newlabel{sec:design-and-interface}{{1.3.1}{7}}
\newlabel{sec:design-and-interface@cref}{{[subsubsection][1][1,3]1.3.1}{7}}
\@writefile{toc}{\defcounter {refsection}{0}\relax }\@writefile{toc}{\contentsline {subsubsection}{\numberline {1.3.2}Instrumentation}{8}}
\newlabel{sec:instrumentation}{{1.3.2}{8}}
\newlabel{sec:instrumentation@cref}{{[subsubsection][2][1,3]1.3.2}{8}}
\@writefile{toc}{\defcounter {refsection}{0}\relax }\@writefile{toc}{\contentsline {subsubsection}{\numberline {1.3.3}Workloads and deployment}{8}}
\newlabel{sec:workloads-and-deployment}{{1.3.3}{8}}
\newlabel{sec:workloads-and-deployment@cref}{{[subsubsection][3][1,3]1.3.3}{8}}
\@writefile{toc}{\defcounter {refsection}{0}\relax }\@writefile{toc}{\contentsline {paragraph}{\numberline {1.3.3.1}RandomizedX Workload}{8}}
\@writefile{toc}{\defcounter {refsection}{0}\relax }\@writefile{toc}{\contentsline {paragraph}{\numberline {1.3.3.2}Justwrite Workload}{8}}
\@writefile{toc}{\defcounter {refsection}{0}\relax }\@writefile{toc}{\contentsline {subsubsection}{\numberline {1.3.4}Sanity checks}{9}}
\newlabel{sec:sanity-checks}{{1.3.4}{9}}
\newlabel{sec:sanity-checks@cref}{{[subsubsection][4][1,3]1.3.4}{9}}
\@writefile{toc}{\defcounter {refsection}{0}\relax }\@writefile{toc}{\contentsline {paragraph}{\numberline {1.3.4.1}Unit Testing}{9}}
\@writefile{toc}{\defcounter {refsection}{0}\relax }\@writefile{toc}{\contentsline {paragraph}{\numberline {1.3.4.2}Logging and console printing}{9}}
\@writefile{toc}{\defcounter {refsection}{0}\relax }\@writefile{toc}{\contentsline {paragraph}{\numberline {1.3.4.3}Database status}{9}}
\@writefile{toc}{\defcounter {refsection}{0}\relax }\@writefile{toc}{\contentsline {section}{\numberline {2}Experimental Setup}{9}}
\newlabel{sec:experimental-setup}{{2}{9}}
\newlabel{sec:experimental-setup@cref}{{[section][2][]2}{9}}
\@writefile{toc}{\defcounter {refsection}{0}\relax }\@writefile{toc}{\contentsline {subsection}{\numberline {2.1}System Configurations}{9}}
\newlabel{sec:system-configurations}{{2.1}{9}}
\newlabel{sec:system-configurations@cref}{{[subsection][1][2]2.1}{9}}
\@writefile{lof}{\defcounter {refsection}{0}\relax }\@writefile{lof}{\contentsline {figure}{\numberline {2}{\ignorespaces Configuration 1: 1 client and 1 middleware machine\relax }}{9}}
\newlabel{fig:stability_throughput}{{2}{9}}
\newlabel{fig:stability_throughput@cref}{{[figure][2][]2}{9}}
\@writefile{lof}{\defcounter {refsection}{0}\relax }\@writefile{lof}{\contentsline {figure}{\numberline {3}{\ignorespaces Configuration 2: 2 client and 2 middleware machines\relax }}{9}}
\newlabel{fig:stability_throughput}{{3}{9}}
\newlabel{fig:stability_throughput@cref}{{[figure][3][]3}{9}}
\@writefile{toc}{\defcounter {refsection}{0}\relax }\@writefile{toc}{\contentsline {subsection}{\numberline {2.2}Configuration and Deployment mechanisms}{10}}
\newlabel{sec:configuration-and-deployment-mechanisms}{{2.2}{10}}
\newlabel{sec:configuration-and-deployment-mechanisms@cref}{{[subsection][2][2]2.2}{10}}
\@writefile{toc}{\defcounter {refsection}{0}\relax }\@writefile{toc}{\contentsline {subsubsection}{\numberline {2.2.1}Install script}{10}}
\@writefile{toc}{\defcounter {refsection}{0}\relax }\@writefile{toc}{\contentsline {subsubsection}{\numberline {2.2.2}Run experiment script}{10}}
\@writefile{toc}{\defcounter {refsection}{0}\relax }\@writefile{toc}{\contentsline {subsubsection}{\numberline {2.2.3}Configuration}{10}}
\@writefile{toc}{\defcounter {refsection}{0}\relax }\@writefile{toc}{\contentsline {subsubsection}{\numberline {2.2.4}Experiment chaining}{10}}
\@writefile{toc}{\defcounter {refsection}{0}\relax }\@writefile{toc}{\contentsline {subsection}{\numberline {2.3}Logging and Benchmarking mechanisms}{11}}
\newlabel{sec:logging-and-benchmarking-mechanisms}{{2.3}{11}}
\newlabel{sec:logging-and-benchmarking-mechanisms@cref}{{[subsection][3][2]2.3}{11}}
\@writefile{toc}{\defcounter {refsection}{0}\relax }\@writefile{toc}{\contentsline {section}{\numberline {3}Evaluation}{11}}
\newlabel{sec:evaluation}{{3}{11}}
\newlabel{sec:evaluation@cref}{{[section][3][]3}{11}}
\@writefile{toc}{\defcounter {refsection}{0}\relax }\@writefile{toc}{\contentsline {subsection}{\numberline {3.1}System Stability}{11}}
\newlabel{sec:system-stability}{{3.1}{11}}
\newlabel{sec:system-stability@cref}{{[subsection][1][3]3.1}{11}}
\@writefile{toc}{\defcounter {refsection}{0}\relax }\@writefile{toc}{\contentsline {paragraph}{\numberline {3.1.0.1}Configuration}{12}}
\@writefile{toc}{\defcounter {refsection}{0}\relax }\@writefile{toc}{\contentsline {paragraph}{\numberline {3.1.0.2}Expected Behavior}{12}}
\@writefile{toc}{\defcounter {refsection}{0}\relax }\@writefile{toc}{\contentsline {paragraph}{\numberline {3.1.0.3}Observed Behavior}{12}}
\@writefile{lof}{\defcounter {refsection}{0}\relax }\@writefile{lof}{\contentsline {figure}{\numberline {4}{\ignorespaces Throughput over running time while keeping the same load for 30 minutes\relax }}{12}}
\newlabel{fig:stability_throughput}{{4}{12}}
\newlabel{fig:stability_throughput@cref}{{[figure][4][]4}{12}}
\@writefile{lof}{\defcounter {refsection}{0}\relax }\@writefile{lof}{\contentsline {figure}{\numberline {5}{\ignorespaces Response time over running time while keeping the same load for 30 minutes.\relax }}{13}}
\newlabel{fig:stability_responsetime}{{5}{13}}
\newlabel{fig:stability_responsetime@cref}{{[figure][5][]5}{13}}
\@writefile{lof}{\defcounter {refsection}{0}\relax }\@writefile{lof}{\contentsline {figure}{\numberline {6}{\ignorespaces Variance of the response time while running for 30 minutes.\relax }}{13}}
\newlabel{fig:stability_responsetime_var}{{6}{13}}
\newlabel{fig:stability_responsetime_var@cref}{{[figure][6][]6}{13}}
\@writefile{toc}{\defcounter {refsection}{0}\relax }\@writefile{toc}{\contentsline {subsection}{\numberline {3.2}System Throughput}{14}}
\newlabel{sec:system-throughput}{{3.2}{14}}
\newlabel{sec:system-throughput@cref}{{[subsection][2][3]3.2}{14}}
\@writefile{toc}{\defcounter {refsection}{0}\relax }\@writefile{toc}{\contentsline {subsubsection}{\numberline {3.2.1}Configuration}{14}}
\@writefile{toc}{\defcounter {refsection}{0}\relax }\@writefile{toc}{\contentsline {subsubsection}{\numberline {3.2.2}Expected Behavior}{14}}
\@writefile{toc}{\defcounter {refsection}{0}\relax }\@writefile{toc}{\contentsline {subsubsection}{\numberline {3.2.3}Observed Behavior}{14}}
\@writefile{lof}{\defcounter {refsection}{0}\relax }\@writefile{lof}{\contentsline {figure}{\numberline {7}{\ignorespaces Throughput versus number of clients.\relax }}{15}}
\newlabel{fig:rt_40-600_clients}{{7}{15}}
\newlabel{fig:rt_40-600_clients@cref}{{[figure][7][]7}{15}}
\@writefile{lof}{\defcounter {refsection}{0}\relax }\@writefile{lof}{\contentsline {figure}{\numberline {8}{\ignorespaces Response time versus number of clients.\relax }}{15}}
\newlabel{fig:server_tp_ref_box}{{8}{15}}
\newlabel{fig:server_tp_ref_box@cref}{{[figure][8][]8}{15}}
\@writefile{toc}{\defcounter {refsection}{0}\relax }\@writefile{toc}{\contentsline {subsection}{\numberline {3.3}System Scalability}{15}}
\newlabel{sec:system-scalability}{{3.3}{15}}
\newlabel{sec:system-scalability@cref}{{[subsection][3][3]3.3}{15}}
\@writefile{toc}{\defcounter {refsection}{0}\relax }\@writefile{toc}{\contentsline {subsubsection}{\numberline {3.3.1}Database size}{15}}
\newlabel{sec:db-size}{{3.3.1}{15}}
\newlabel{sec:db-size@cref}{{[subsubsection][1][3,3]3.3.1}{15}}
\@writefile{toc}{\defcounter {refsection}{0}\relax }\@writefile{toc}{\contentsline {paragraph}{\numberline {3.3.1.1}Configuration}{16}}
\@writefile{toc}{\defcounter {refsection}{0}\relax }\@writefile{toc}{\contentsline {paragraph}{\numberline {3.3.1.2}Expected behavior}{16}}
\@writefile{toc}{\defcounter {refsection}{0}\relax }\@writefile{toc}{\contentsline {paragraph}{\numberline {3.3.1.3}Observed behavior}{16}}
\@writefile{toc}{\defcounter {refsection}{0}\relax }\@writefile{toc}{\contentsline {paragraph}{\numberline {3.3.1.4}Results}{16}}
\@writefile{lof}{\defcounter {refsection}{0}\relax }\@writefile{lof}{\contentsline {figure}{\numberline {9}{\ignorespaces Response time versus total number of messages in the system.\relax }}{16}}
\newlabel{fig:justwrite}{{9}{16}}
\newlabel{fig:justwrite@cref}{{[figure][9][]9}{16}}
\@writefile{lof}{\defcounter {refsection}{0}\relax }\@writefile{lof}{\contentsline {figure}{\numberline {10}{\ignorespaces Variance of the response time versus total number of messages in the system.\relax }}{17}}
\newlabel{fig:justwrite_rt_var}{{10}{17}}
\newlabel{fig:justwrite_rt_var@cref}{{[figure][10][]10}{17}}
\@writefile{toc}{\defcounter {refsection}{0}\relax }\@writefile{toc}{\contentsline {subsubsection}{\numberline {3.3.2}Multiple machines}{17}}
\@writefile{toc}{\defcounter {refsection}{0}\relax }\@writefile{toc}{\contentsline {paragraph}{\numberline {3.3.2.1}Configuration}{17}}
\@writefile{toc}{\defcounter {refsection}{0}\relax }\@writefile{toc}{\contentsline {paragraph}{\numberline {3.3.2.2}Expected Behavior}{17}}
\@writefile{toc}{\defcounter {refsection}{0}\relax }\@writefile{toc}{\contentsline {paragraph}{\numberline {3.3.2.3}Observed Behavior}{17}}
\@writefile{lof}{\defcounter {refsection}{0}\relax }\@writefile{lof}{\contentsline {figure}{\numberline {11}{\ignorespaces Response time versus number of middleware workers. The blue curve shows the throughput when the workers are distributed over two machines.\relax }}{18}}
\newlabel{fig:scalability_mw_2.pdf}{{11}{18}}
\newlabel{fig:scalability_mw_2.pdf@cref}{{[figure][11][]11}{18}}
\@writefile{lof}{\defcounter {refsection}{0}\relax }\@writefile{lof}{\contentsline {figure}{\numberline {12}{\ignorespaces Throughput versus number of middleware workers. The blue curve shows the throughput when the workers are distributed over two machines.\relax }}{18}}
\newlabel{fig:scalability_tp.pdf}{{12}{18}}
\newlabel{fig:scalability_tp.pdf@cref}{{[figure][12][]12}{18}}
\@writefile{toc}{\defcounter {refsection}{0}\relax }\@writefile{toc}{\contentsline {subsection}{\numberline {3.4}Response Time Variations}{18}}
\newlabel{sec:response-time-variations}{{3.4}{18}}
\newlabel{sec:response-time-variations@cref}{{[subsection][4][3]3.4}{18}}
\@writefile{toc}{\defcounter {refsection}{0}\relax }\@writefile{toc}{\contentsline {subsubsection}{\numberline {3.4.1}Message length}{18}}
\@writefile{toc}{\defcounter {refsection}{0}\relax }\@writefile{toc}{\contentsline {paragraph}{\numberline {3.4.1.1}Configuration}{18}}
\@writefile{toc}{\defcounter {refsection}{0}\relax }\@writefile{toc}{\contentsline {paragraph}{\numberline {3.4.1.2}Expected Behavior}{19}}
\@writefile{toc}{\defcounter {refsection}{0}\relax }\@writefile{toc}{\contentsline {paragraph}{\numberline {3.4.1.3}Observed Behavior}{19}}
\@writefile{toc}{\defcounter {refsection}{0}\relax }\@writefile{toc}{\contentsline {paragraph}{\numberline {3.4.1.4}Results}{19}}
\@writefile{lof}{\defcounter {refsection}{0}\relax }\@writefile{lof}{\contentsline {figure}{\numberline {13}{\ignorespaces Response time versus message length. The bars show the standard deviation.\relax }}{20}}
\newlabel{fig:message_length_responsetime}{{13}{20}}
\newlabel{fig:message_length_responsetime@cref}{{[figure][13][]13}{20}}
\@writefile{toc}{\defcounter {refsection}{0}\relax }\@writefile{toc}{\contentsline {subsubsection}{\numberline {3.4.2}Number of middleware workers}{20}}
\@writefile{toc}{\defcounter {refsection}{0}\relax }\@writefile{toc}{\contentsline {paragraph}{\numberline {3.4.2.1}Configuration}{20}}
\@writefile{toc}{\defcounter {refsection}{0}\relax }\@writefile{toc}{\contentsline {paragraph}{\numberline {3.4.2.2}Expected Behavior}{20}}
\@writefile{toc}{\defcounter {refsection}{0}\relax }\@writefile{toc}{\contentsline {paragraph}{\numberline {3.4.2.3}Observed Behavior}{20}}
\@writefile{toc}{\defcounter {refsection}{0}\relax }\@writefile{toc}{\contentsline {paragraph}{\numberline {3.4.2.4}Results}{21}}
\@writefile{lof}{\defcounter {refsection}{0}\relax }\@writefile{lof}{\contentsline {figure}{\numberline {14}{\ignorespaces Response time versus the number of middleware workers. The bars show the standard deviation.\relax }}{21}}
\newlabel{fig:mw_response_time}{{14}{21}}
\newlabel{fig:mw_response_time@cref}{{[figure][14][]14}{21}}
\@writefile{lof}{\defcounter {refsection}{0}\relax }\@writefile{lof}{\contentsline {figure}{\numberline {15}{\ignorespaces Throughput versus the number of middleware workers. The bars show the standard deviation.\relax }}{22}}
\newlabel{fig:mw_throughput}{{15}{22}}
\newlabel{fig:mw_throughput@cref}{{[figure][15][]15}{22}}
\@writefile{lof}{\defcounter {refsection}{0}\relax }\@writefile{lof}{\contentsline {figure}{\numberline {16}{\ignorespaces Utilization per middleware worker versus the number of middleware workers. The bars show the standard deviation.\relax }}{22}}
\newlabel{fig:mw_utilization}{{16}{22}}
\newlabel{fig:mw_utilization@cref}{{[figure][16][]16}{22}}
\@writefile{toc}{\defcounter {refsection}{0}\relax }\@writefile{toc}{\contentsline {subsubsection}{\numberline {3.4.3}Different number of clients}{22}}
\@writefile{toc}{\defcounter {refsection}{0}\relax }\@writefile{toc}{\contentsline {paragraph}{\numberline {3.4.3.1}Expected Behavior}{23}}
\@writefile{toc}{\defcounter {refsection}{0}\relax }\@writefile{toc}{\contentsline {paragraph}{\numberline {3.4.3.2}Observed Behavior}{23}}
\@writefile{toc}{\defcounter {refsection}{0}\relax }\@writefile{toc}{\contentsline {paragraph}{\numberline {3.4.3.3}Results}{23}}
\@writefile{lof}{\defcounter {refsection}{0}\relax }\@writefile{lof}{\contentsline {figure}{\numberline {17}{\ignorespaces The response time versus the number of clients. The vertical bars show the standard deviation.\relax }}{23}}
\newlabel{fig:clients_response_time}{{17}{23}}
\newlabel{fig:clients_response_time@cref}{{[figure][17][]17}{23}}
\@writefile{lof}{\defcounter {refsection}{0}\relax }\@writefile{lof}{\contentsline {figure}{\numberline {18}{\ignorespaces The throughput versus the number of clients. The vertical bars show the standard deviation.\relax }}{24}}
\newlabel{fig:client_throughput}{{18}{24}}
\newlabel{fig:client_throughput@cref}{{[figure][18][]18}{24}}
\@writefile{lof}{\defcounter {refsection}{0}\relax }\@writefile{lof}{\contentsline {figure}{\numberline {19}{\ignorespaces Utilization versus the number of clients. The vertical bars show the standard deviation.\relax }}{24}}
\newlabel{fig:client_utilization}{{19}{24}}
\newlabel{fig:client_utilization@cref}{{[figure][19][]19}{24}}
\@writefile{toc}{\defcounter {refsection}{0}\relax }\@writefile{toc}{\contentsline {subsection}{\numberline {3.5}$2^k$ Experiment}{24}}
\newlabel{sec:k-experiment}{{3.5}{24}}
\newlabel{sec:k-experiment@cref}{{[subsection][5][3]3.5}{24}}
\@writefile{toc}{\defcounter {refsection}{0}\relax }\@writefile{toc}{\contentsline {subsubsection}{\numberline {3.5.1}Workload and configuration}{25}}
\@writefile{toc}{\defcounter {refsection}{0}\relax }\@writefile{toc}{\contentsline {paragraph}{\numberline {3.5.1.1}Expected Behavior}{25}}
\@writefile{toc}{\defcounter {refsection}{0}\relax }\@writefile{toc}{\contentsline {subsubsection}{\numberline {3.5.2}Outcome of the experiments}{25}}
\@writefile{toc}{\defcounter {refsection}{0}\relax }\@writefile{toc}{\contentsline {subsubsection}{\numberline {3.5.3}Average and total effect of factors}{26}}
\@writefile{toc}{\defcounter {refsection}{0}\relax }\@writefile{toc}{\contentsline {subsection}{\numberline {3.6}Conclusion}{26}}
\newlabel{sec:conclusion}{{3.6}{26}}
\newlabel{sec:conclusion@cref}{{[subsection][6][3]3.6}{26}}
