timeStamp,totalRequests,failedRequests,totalHandleTime,upstreamTime,upstreamTimeVar,downstreamTime,downstreamTimeVar,CREATE_CLIENT_N,CREATE_CLIENT_time,CREATE_CLIENT_timeVar,CLIENT_LIST_N,CLIENT_LIST_time,CLIENT_LIST_timeVar,QUEUE_LIST_N,QUEUE_LIST_time,QUEUE_LIST_timeVar,MESSAGE_COUNT_N,MESSAGE_COUNT_time,MESSAGE_COUNT_timeVar,CREATE_QUEUE_N,CREATE_QUEUE_time,CREATE_QUEUE_timeVar,DELETE_QUEUE_N,DELETE_QUEUE_time,DELETE_QUEUE_timeVar,SEND_MESSAGE_N,SEND_MESSAGE_time,SEND_MESSAGE_timeVar,RECEIVE_MESSAGE_N,RECEIVE_MESSAGE_time,RECEIVE_MESSAGE_timeVar,POP_QUEUE_N,POP_QUEUE_time,POP_QUEUE_timeVar,TOP_QUEUE_N,TOP_QUEUE_time,TOP_QUEUE_timeVar,INBOX_QUEUES_N,INBOX_QUEUES_time,INBOX_QUEUES_timeVar,timeStamp,totalRequests,failedRequests,clientThinkTime,clientThinkTimeVar,waitingForConnectionTime,waitingForConnectionTimeVar,upstreamTime,upstreamTimeVar,waitingForResponseTime,waitingForResponseTimeVar
1445537876014,487.6,0.0,353.6,0.3775635767022147,0.28921137544435266,0.047990155865463555,0.28921137544435266,0,0.0,0.0,0,0.0,0.0,0,0.0,0.0,0,0.0,0.0,0,0.0,0.0,0,0.0,0.0,1650,0.0,0.0,0,0.0,0.0,812,0.003694581280788178,0.0036854701062362955,802,0.0,0.0,1612,2.1916873449131504,0.6280376228565093,1445537876111,487.3,0.0,100.14446952595922,0.13060210462327637,0.4044736302072648,0.3451934472211582,0.030781859224297114,0.029840459999252025,1.6659142212189617,1.613733241408968
1445537886029,489.3,0.0,371.6,0.3719599427753939,0.27044826331741323,0.04312282853055382,0.27044826331741323,0,0.0,0.0,0,0.0,0.0,0,0.0,0.0,0,0.0,0.0,0,0.0,0.0,0,0.0,0.0,1614,6.195786864931869E-4,6.195786864931849E-4,0,0.0,0.0,809,0.0,0.0,831,0.0,0.0,1639,2.2666259914582083,0.7475484992263511,1445537886124,489.0,0.0,100.1466257668712,0.1357883667730358,0.41042944785276075,0.2784348738309486,0.023312883435582892,0.022774050171475484,1.7175869120654417,1.8668413838335776
1445537896049,490.0,0.0,367.5,0.40734693877551004,0.5500991039404113,0.04346938775510199,0.5500991039404113,0,0.0,0.0,0,0.0,0.0,0,0.0,0.0,0,0.0,0.0,0,0.0,0.0,0,0.0,0.0,1610,0.0,0.0,0,0.0,0.0,831,0.0,0.0,816,0.0012254901960784316,0.0012254901960784314,1643,2.2361533779671343,0.8406653406508848,1445537896141,490.0,0.0,100.13877551020408,0.12403197653831889,0.4524489795918359,0.6262340502643194,0.028571428571428564,0.027760767503572162,1.7161224489795923,2.3715301748378463
1445537906064,490.0,0.0,348.1,0.3742857142857142,0.25343131251275786,0.04673469387755101,0.25343131251275786,0,0.0,0.0,0,0.0,0.0,0,0.0,0.0,0,0.0,0.0,0,0.0,0.0,0,0.0,0.0,1565,0.0019169329073482422,0.0019144815864948574,0,0.0,0.0,821,0.0,0.0,844,0.0,0.0,1670,2.0826347305389215,0.3718372721303946,1445537906157,490.0,0.0,100.13938775510215,0.1269234870923245,0.38979591836734573,0.2668891193954611,0.03387755102040829,0.03396128322731421,1.5899999999999999,1.2968585425597032
1445537916090,489.6,0.0,356.3,0.3956290849673202,0.2869594407391823,0.046772875816993416,0.2869594407391823,0,0.0,0.0,0,0.0,0.0,0,0.0,0.0,0,0.0,0.0,0,0.0,0.0,0,0.0,0.0,1690,0.0017751479289940877,0.001773045918420969,0,0.0,0.0,812,0.0,0.0,793,0.0,0.0,1601,2.223610243597753,0.7974672079950025,1445537916183,489.6,0.0,100.14093137254852,0.12191161449257912,0.495098039215687,1.1084540046866553,0.02900326797385615,0.028167831654282324,1.7279411764705919,1.7850087123715612
1445537926126,490.0,0.0,382.6,0.3820408163265298,0.2847151646941701,0.04775510204081633,0.2847151646941701,0,0.0,0.0,0,0.0,0.0,0,0.0,0.0,0,0.0,0.0,0,0.0,0.0,0,0.0,0.0,1622,0.0012330456226880427,0.0012322849529639883,0,0.0,0.0,818,0.0,0.0,820,0.0,0.0,1640,2.33170731707317,1.473795741008053,1445537926216,490.0,0.0,100.14653061224503,0.1259014126164824,0.4957142857142848,0.6313349663196566,0.02591836734693878,0.025251759001212255,1.8051020408163243,2.246350775460214
1445537936129,489.4,0.0,359.5,0.42051491622394715,9.021169078767828,0.042705353494074616,9.021169078767828,0,0.0,0.0,0,0.0,0.0,0,0.0,0.0,0,0.0,0.0,0,0.0,0.0,0,0.0,0.0,1631,0.0,0.0,0,0.0,0.0,798,0.0,0.0,834,0.0,0.0,1631,2.2041692213366066,0.773626778708534,1445537936222,489.4,0.0,100.15835717204739,0.13943862490563244,0.4413567633837354,0.4894071921298028,0.03167143440948109,0.03230961121327007,1.723334695545567,10.409032327359236
1445537946130,488.9,0.0,362.7,0.389650235221927,0.2562840224840902,0.044998977295970605,0.2562840224840902,0,0.0,0.0,0,0.0,0.0,0,0.0,0.0,0,0.0,0.0,0,0.0,0.0,0,0.0,0.0,1665,0.0,0.0,0,0.0,0.0,785,0.0,0.0,823,0.0012150668286755784,0.0012150668286755775,1616,2.2438118811881163,1.4179183398216,1445537946223,489.0,0.0,100.14151329243361,0.1231484560515407,0.5006134969325157,1.2330738718570708,0.027811860940695328,0.028680218227053834,1.7141104294478522,2.0794285907891417
1445537956131,487.9,0.0,340.7,0.383480221356835,0.27050194871696703,0.041401926624308236,0.27050194871696703,0,0.0,0.0,0,0.0,0.0,0,0.0,0.0,0,0.0,0.0,0,0.0,0.0,0,0.0,0.0,1688,0.0,0.0,0,0.0,0.0,793,0.0012610340479192953,0.001261034047919294,807,0.0012391573729863702,0.0012391573729863695,1591,2.140163419233187,0.5621028663591184,1445537956224,487.9,0.0,100.1586390653823,0.13924013189711704,0.44886247181799516,0.502458217859489,0.029104324656692108,0.02867305983984202,1.604632096741131,1.5133938734345294
1445537966134,490.0,0.0,350.0,0.3746938775510204,0.24536885911743792,0.045102040816326454,0.24536885911743792,0,0.0,0.0,0,0.0,0.0,0,0.0,0.0,0,0.0,0.0,0,0.0,0.0,0,0.0,0.0,1628,0.0,0.0,0,0.0,0.0,817,0.0036719706242350084,0.0036629706962344293,816,0.0012254901960784324,0.0012254901960784318,1639,2.1330079316656514,0.5537266611092113,1445537966225,489.8,0.0,100.15373621886489,0.14033829430156583,0.39363005308288995,0.30489713245991124,0.031237239689669273,0.032718134026440866,1.5730910575745214,1.369477925543865
1445537976141,488.4,0.0,356.0,0.38493038493038445,0.284728829885495,0.04402129402129399,0.284728829885495,0,0.0,0.0,0,0.0,0.0,0,0.0,0.0,0,0.0,0.0,0,0.0,0.0,0,0.0,0.0,1572,0.0,0.0,0,0.0,0.0,806,0.0,0.0,852,0.001173708920187795,0.0011737089201877935,1654,2.151753325272066,0.7591711526658869,1445537976231,488.5,0.0,100.16131013306031,0.14637338557502336,0.44769703172978553,0.49465327428479977,0.029682702149437048,0.02880753648409741,1.686386898669397,2.595320378534296
1445537986157,490.0,0.0,355.0,0.38408163265306156,0.2566153025815342,0.04469387755102046,0.2566153025815342,0,0.0,0.0,0,0.0,0.0,0,0.0,0.0,0,0.0,0.0,0,0.0,0.0,0,0.0,0.0,1648,0.0,0.0,0,0.0,0.0,830,0.0,0.0,798,0.0012531328320802013,0.0012531328320802009,1624,2.1853448275862064,1.2490518834852433,1445537986248,490.0,0.0,100.15102040816298,0.13395486792390113,0.40999999999999936,0.396674831598284,0.031428571428571514,0.0312635231679934,1.5997959183673496,1.437885241052944
1445537996172,490.0,0.0,352.5,0.38285714285714206,0.26163706878954857,0.043877551020408176,0.26163706878954857,0,0.0,0.0,0,0.0,0.0,0,0.0,0.0,0,0.0,0.0,0,0.0,0.0,0,0.0,0.0,1639,0.001220256253813303,0.0012195112866253803,0,0.0,0.0,811,0.0012330456226880406,0.0012330456226880397,817,0.0,0.0,1633,2.156766687078996,0.5722228726150596,1445537996262,490.0,0.0,100.15306122448985,0.1308846870040127,0.3979591836734705,0.28046123532082834,0.028775510204081593,0.02836143152913349,1.5902040816326526,1.377654581734711
1445538006180,489.8,0.0,362.5,0.3985300122498973,0.27405950910520754,0.047570436913025586,0.27405950910520754,0,0.0,0.0,0,0.0,0.0,0,0.0,0.0,0,0.0,0.0,0,0.0,0.0,0,0.0,0.0,1563,0.001279590531030073,0.001278771330946185,0,0.0,0.0,775,0.0025806451612903234,0.00257731099441527,890,0.0,0.0,1670,2.168263473053894,0.581017354147308,1445538006269,489.8,0.0,100.15006124948958,0.13532876896572316,0.4563086974275211,0.5340310519194381,0.026949775418538182,0.026228840033643612,1.723152307064104,1.6758412351192435
1445538016183,487.7,0.0,354.9,0.3988107443100258,0.3202036715170221,0.04757022759893367,0.3202036715170221,0,0.0,0.0,0,0.0,0.0,0,0.0,0.0,0,0.0,0.0,0,0.0,0.0,0,0.0,0.0,1617,6.184291898577629E-4,6.184291898577613E-4,0,0.0,0.0,876,0.0,0.0,756,0.0,0.0,1628,2.1793611793611842,0.7188853937471028,1445538016280,487.4,0.0,100.15285186704968,0.1340294190535617,0.5459581452605679,1.1319937154651374,0.025646286417726705,0.024993682371800576,1.7400492408699184,1.87844087588389
1445538026186,488.5,0.0,359.4,0.4055271238485161,0.34677534145292627,0.042988741044012305,0.34677534145292627,0,0.0,0.0,0,0.0,0.0,0,0.0,0.0,0,0.0,0.0,0,0.0,0.0,0,0.0,0.0,1669,0.0,0.0,0,0.0,0.0,828,0.0,0.0,782,0.0,0.0,1606,2.2378580323785773,0.7060051287422949,1445538026289,489.7,0.0,100.13967735348167,0.12672808215246853,0.4627322850724923,0.5239886932242106,0.026342658770675986,0.02687945200542953,1.706146620379828,1.7443106590536286
1445538036191,489.1,0.0,361.2,0.37967695767736626,0.26133740073479034,0.04518503373543241,0.26133740073479034,0,0.0,0.0,0,0.0,0.0,0,0.0,0.0,0,0.0,0.0,0,0.0,0.0,0,0.0,0.0,1606,0.0012453300124533053,0.0012445541059034838,0,0.0,0.0,789,0.0,0.0,850,0.0011764705882352953,0.0011764705882352949,1646,2.1925880923450753,0.7975377353961159,1445538036290,488.5,0.0,100.1459570112586,0.12672658701317782,0.42538382804503605,0.5720828020725673,0.028454452405322454,0.030516959687891167,1.6667349027635643,1.7410819864248746
1445538046216,490.0,0.0,352.1,0.37918367346938797,0.2550473024482304,0.043265306122449054,0.2550473024482304,0,0.0,0.0,0,0.0,0.0,0,0.0,0.0,0,0.0,0.0,0,0.0,0.0,0,0.0,0.0,1690,0.0,0.0,0,0.0,0.0,811,0.003699136868064118,0.0036900031967849463,795,0.0,0.0,1604,2.1932668329177005,1.0144025463477915,1445538046310,489.7,0.0,100.15356340616712,0.1381781696410099,0.44700837247294195,0.6900528334674687,0.03348989177047173,0.03605140068415899,1.6187461711251816,1.523120731513625
1445538056236,490.0,0.0,361.6,0.3775510204081644,0.24526038216878818,0.04612244897959184,0.24526038216878818,0,0.0,0.0,0,0.0,0.0,0,0.0,0.0,0,0.0,0.0,0,0.0,0.0,0,0.0,0.0,1577,6.341154090044393E-4,6.341154090044388E-4,0,0.0,0.0,836,0.0,0.0,829,0.0,0.0,1658,2.180337756332937,0.5691484676261037,1445538056324,490.0,0.0,100.14918367346912,0.13389400585708847,0.40918367346938933,0.3573355245343687,0.033265306122449004,0.032165289875901455,1.6030612244897948,1.4564103044769667
1445538066257,490.0,0.0,345.6,0.38938775510204,0.27659688982757913,0.04408163265306125,0.27659688982757913,0,0.0,0.0,0,0.0,0.0,0,0.0,0.0,0,0.0,0.0,0,0.0,0.0,0,0.0,0.0,1655,6.042296072507558E-4,6.042296072507553E-4,0,0.0,0.0,788,0.0012690355329949244,0.0012690355329949246,830,0.0,0.0,1627,2.122925629993854,0.47442489175967306,1445538066345,490.0,0.0,100.14224489795926,0.12571041153754814,0.4293877551020417,0.3691708845203738,0.029999999999999995,0.02910593998775262,1.6069387755102056,1.3739465363610233
1445538076266,489.9,0.0,357.3,0.3845682792406609,0.2661235936934653,0.04551949377423951,0.2661235936934653,0,0.0,0.0,0,0.0,0.0,0,0.0,0.0,0,0.0,0.0,0,0.0,0.0,0,0.0,0.0,1626,0.0,0.0,0,0.0,0.0,826,0.0012106537530266366,0.0012106537530266349,813,0.0,0.0,1634,2.1860465116279073,0.7198051809339353,1445538076353,489.9,0.0,100.14717289242702,0.12921362690079985,0.4417228005715451,0.4222359860275989,0.029393753827311783,0.028943915771512296,1.6715656256378866,1.6607899329627067
1445538086275,489.8,0.0,353.2,0.3838301347488773,0.26963433666982123,0.042262147815434865,0.26963433666982123,0,0.0,0.0,0,0.0,0.0,0,0.0,0.0,0,0.0,0.0,0,0.0,0.0,0,0.0,0.0,1584,6.313131313131326E-4,6.313131313131315E-4,0,0.0,0.0,885,0.0011299435028248597,0.0011299435028248597,773,0.0,0.0,1656,2.131642512077297,0.5010887808864952,1445538086363,489.8,0.0,100.14822376480211,0.12913815535098566,0.3940383830134742,0.2731276129842735,0.027970600244997968,0.027602211101988055,1.6129032258064517,1.448655200353078
1445538096294,490.0,0.0,365.9,0.381632653061225,0.2625733698255783,0.04183673469387763,0.2625733698255783,0,0.0,0.0,0,0.0,0.0,0,0.0,0.0,0,0.0,0.0,0,0.0,0.0,0,0.0,0.0,1596,0.0025062656641604082,0.0025015516848547704,0,0.0,0.0,812,0.0012315270935960604,0.0012315270935960591,838,0.0,0.0,1654,2.209189842805317,0.9761768387110438,1445538096384,490.0,0.0,100.1506122448979,0.13734398107068785,0.42183673469387806,0.430508975176109,0.029795918367346963,0.030138762179703536,1.680408163265304,1.8835515786228758
1445538106317,490.0,0.0,363.4,0.3955102040816321,0.27464813727082954,0.04122448979591849,0.27464813727082954,0,0.0,0.0,0,0.0,0.0,0,0.0,0.0,0,0.0,0.0,0,0.0,0.0,0,0.0,0.0,1611,6.207324643078856E-4,6.207324643078837E-4,0,0.0,0.0,795,0.0,0.0,848,0.0,0.0,1646,2.2071688942891865,0.7576628614269848,1445538106404,490.0,0.0,100.14673469387765,0.1346188518273211,0.45428571428571424,0.4769871402327001,0.02959183673469386,0.03035500789415579,1.7055102040816323,1.8318128647662355
1445538116318,489.8,0.0,379.5,0.35871784401796675,0.24438079396782403,0.04246631278072696,0.24438079396782403,0,0.0,0.0,0,0.0,0.0,0,0.0,0.0,0,0.0,0.0,0,0.0,0.0,0,0.0,0.0,1659,0.00120554550934298,0.0012048184010743754,0,0.0,0.0,826,0.0,0.0,795,0.0,0.0,1618,2.3442521631644047,1.1263151175741672,1445538116408,490.2,0.0,100.14667482660124,0.13049189954572588,0.3980008159934719,0.2559682530089233,0.026111791105671068,0.025843234184548924,1.6787025703794414,1.6888301465716407
1445538126335,487.4,0.0,363.7,0.38325810422650824,0.3131692717637761,0.04185473943372995,0.3131692717637761,0,0.0,0.0,0,0.0,0.0,0,0.0,0.0,0,0.0,0.0,0,0.0,0.0,0,0.0,0.0,1569,0.001274697259400895,0.0012738843147201526,0,0.0,0.0,826,0.0024213075060532724,0.0024183725878641105,828,0.0012077294685990348,0.0012077294685990344,1651,2.1998788612961833,0.6933575610740961,1445538126422,487.0,0.0,100.1443531827516,0.13175594835195392,0.4720739219712516,1.134052588496219,0.026899383983572927,0.02741346902816839,1.788501026694043,2.649857477407027
1445538136356,490.0,0.0,348.2,0.3997959183673469,0.26776889077737664,0.042244897959183805,0.26776889077737664,0,0.0,0.0,0,0.0,0.0,0,0.0,0.0,0,0.0,0.0,0,0.0,0.0,0,0.0,0.0,1679,5.95592614651581E-4,5.955926146515788E-4,0,0.0,0.0,842,0.0023752969121140165,0.0023724725400425355,765,0.0,0.0,1614,2.1555142503097877,0.840648433460782,1445538136439,490.0,0.0,100.14999999999995,0.13160849152888154,0.4124489795918372,0.31341919008877295,0.028367346938775524,0.02797651332425196,1.5940816326530631,1.501863312379455
1445538146369,490.0,0.0,358.3,0.3620408163265294,0.2363216149901477,0.047959183673469345,0.2363216149901477,0,0.0,0.0,0,0.0,0.0,0,0.0,0.0,0,0.0,0.0,0,0.0,0.0,0,0.0,0.0,1678,0.0,0.0,0,0.0,0.0,803,0.0,0.0,809,0.0012360939431396796,0.0012360939431396794,1610,2.2248447204968933,0.7300225053947315,1445538146455,490.0,0.0,100.1481632653062,0.13072738709690826,0.4046938775510203,0.33200490729053383,0.025510204081632654,0.024864507958725475,1.6044897959183662,1.563482593282258
1445538156390,490.0,0.0,356.1,0.3663265306122439,0.23993547204552368,0.04204081632653059,0.23993547204552368,0,0.0,0.0,0,0.0,0.0,0,0.0,0.0,0,0.0,0.0,0,0.0,0.0,0,0.0,0.0,1657,0.0030175015087507556,0.006633401263560543,0,0.0,0.0,836,0.0,0.0,787,0.0,0.0,1620,2.1950617283950598,0.7451269263910792,1445538156475,490.0,0.0,100.14244897959205,0.12381518927227926,0.39551020408163234,0.2795470962420492,0.03020408163265313,0.03297199345139158,1.6367346938775502,1.627962391325178
1445538166404,490.0,0.0,370.3,0.3881632653061231,0.26244406396974046,0.040612244897959233,0.26244406396974046,0,0.0,0.0,0,0.0,0.0,0,0.0,0.0,0,0.0,0.0,0,0.0,0.0,0,0.0,0.0,1565,0.0,0.0,0,0.0,0.0,833,0.0012004801920768317,0.0012004801920768309,835,0.0,0.0,1667,2.2207558488302324,0.7039386840519054,1445538166490,490.0,0.0,100.145918367347,0.12750936259378196,0.4138775510204078,0.3001952085181903,0.03040816326530618,0.03112251146631341,1.6597959183673476,1.5782567454415934
1445538176421,490.0,0.0,340.2,0.38693877551020467,0.277273745995642,0.03816326530612243,0.277273745995642,0,0.0,0.0,0,0.0,0.0,0,0.0,0.0,0,0.0,0.0,0,0.0,0.0,0,0.0,0.0,1620,0.0,0.0,0,0.0,0.0,842,0.0,0.0,797,0.001254705144291092,0.0012547051442910917,1641,2.072516758074342,0.3794942108470436,1445538176506,490.0,0.0,100.1524489795917,0.13045940237699497,0.3908163265306137,0.24996667374849488,0.034081632653061245,0.0357845207893323,1.5379591836734663,1.2292181244818783
1445538186441,490.0,0.0,378.8,0.37857142857142917,0.25449071239028315,0.04081632653061226,0.25449071239028315,0,0.0,0.0,0,0.0,0.0,0,0.0,0.0,0,0.0,0.0,0,0.0,0.0,0,0.0,0.0,1673,5.977286312014363E-4,5.977286312014347E-4,0,0.0,0.0,796,0.0012562814070351768,0.0012562814070351761,817,0.002447980416156673,0.0024449804401564775,1614,2.3444857496902083,1.3952051600571844,1445538186525,490.0,0.0,100.14979591836743,0.13105731698680637,0.4571428571428571,0.5682792406613593,0.029795918367346935,0.030547008760638348,1.7165306122448962,2.1345705287626355
1445538196445,489.9,0.0,351.3,0.386405388854868,0.3028857898933724,0.03735456215554192,0.3028857898933724,0,0.0,0.0,0,0.0,0.0,0,0.0,0.0,0,0.0,0.0,0,0.0,0.0,0,0.0,0.0,1649,0.0012128562765312341,0.0012121203200527535,0,0.0,0.0,782,0.0,0.0,843,0.0,0.0,1625,2.160615384615386,0.5967237589996207,1445538196526,489.9,0.0,100.14635639926486,0.1306783302831518,0.48928352725046015,1.2078781921561166,0.0253112880179629,0.025492323455649803,1.6576852418860986,1.6580110556641463
1445538206451,488.7,0.0,358.7,0.382238592183345,0.24682323164173353,0.0452220175977083,0.24682323164173353,0,0.0,0.0,0,0.0,0.0,0,0.0,0.0,0,0.0,0.0,0,0.0,0.0,0,0.0,0.0,1608,6.218905472636832E-4,6.218905472636818E-4,0,0.0,0.0,768,0.0,0.0,871,0.0,0.0,1640,2.1865853658536594,0.7253843063140822,1445538206527,488.3,0.0,100.14417366373132,0.1279192422640626,0.49211550276469496,0.9640406486801393,0.030923612533278827,0.030792817391944845,1.7227114478804004,1.6912231258562176
1445538216454,487.4,0.0,368.4,0.39249076733688937,0.3304258489810231,0.04062371768567915,0.3304258489810231,0,0.0,0.0,0,0.0,0.0,0,0.0,0.0,0,0.0,0.0,0,0.0,0.0,0,0.0,0.0,1583,6.317119393556562E-4,6.31711939355654E-4,0,0.0,0.0,839,0.0,0.0,808,0.0,0.0,1644,2.240267639902676,0.8132040670958272,1445538216533,487.3,0.0,100.14898419864572,0.12968749420839434,0.48265955263697896,0.6844796248353502,0.02749846090703872,0.027979311625299038,1.7211163554278663,1.9170765860070706
1445538226463,489.5,0.0,369.9,0.4016343207354454,0.38626622914469066,0.04208375893769152,0.38626622914469066,0,0.0,0.0,0,0.0,0.0,0,0.0,0.0,0,0.0,0.0,0,0.0,0.0,0,0.0,0.0,1660,6.024096385542192E-4,6.024096385542169E-4,0,0.0,0.0,796,0.0,0.0,821,0.0,0.0,1618,2.285537700865264,1.1416707372914334,1445538226534,489.8,0.0,100.14638628011419,0.1278417474286333,0.5322580645161282,1.551440315663972,0.027153940383830153,0.028055651608934216,1.7343813801551666,2.1436451246848813
1445538236473,488.4,0.0,345.2,0.3867731367731364,0.2683566546458215,0.04565929565929572,0.2683566546458215,0,0.0,0.0,0,0.0,0.0,0,0.0,0.0,0,0.0,0.0,0,0.0,0.0,0,0.0,0.0,1650,0.0012121212121212139,0.001211386147711193,0,0.0,0.0,797,0.0012547051442910937,0.0012547051442910922,819,0.0,0.0,1618,2.131644004944375,0.496573795267067,1445538236558,488.6,0.0,100.14531313958238,0.1266791547382681,0.43225542365943515,0.5885520051650547,0.030085959885386888,0.030415018197921848,1.5937372083503862,1.4044152218168926
1445538246480,489.4,0.0,368.3,0.3743359215365755,0.23752638294400008,0.04127503064977538,0.23752638294400008,0,0.0,0.0,0,0.0,0.0,0,0.0,0.0,0,0.0,0.0,0,0.0,0.0,0,0.0,0.0,1623,6.161429451632806E-4,6.161429451632782E-4,0,0.0,0.0,835,0.001197604790419164,0.0011976047904191623,802,0.0,0.0,1634,2.252753977968177,0.8785135377214577,1445538246561,489.4,0.0,100.14405394360456,0.12496259345164451,0.44115243154883627,0.6990704885113537,0.024111156518185527,0.023534617521122857,1.667756436452801,1.7726899582408076
1445538256483,489.6,0.0,366.3,0.3841911764705877,0.2554313374992494,0.04227941176470603,0.2554313374992494,0,0.0,0.0,0,0.0,0.0,0,0.0,0.0,0,0.0,0.0,0,0.0,0.0,0,0.0,0.0,1587,6.301197227473231E-4,6.301197227473223E-4,0,0.0,0.0,841,0.0,0.0,812,0.0012315270935960615,0.0012315270935960596,1656,2.210748792270533,0.7609961761314714,1445538256564,489.5,0.0,100.14647599591422,0.12668097893942026,0.4275791624106231,0.9897991036114738,0.027579162410623095,0.028458686774533278,1.640245148110321,1.6423113416065092
1445538266499,489.9,0.0,361.7,0.36966727903653784,0.26776899911490976,0.043682384160032714,0.26776899911490976,0,0.0,0.0,0,0.0,0.0,0,0.0,0.0,0,0.0,0.0,0,0.0,0.0,0,0.0,0.0,1633,0.0,0.0,0,0.0,0.0,818,0.0012224938875305634,0.0012224938875305626,815,0.001226993865030676,0.0012269938650306758,1633,2.2137170851194123,0.7968215302042437,1445538266580,490.0,0.0,100.15244897959178,0.1349501147672782,0.4202040816326529,0.45801179749303206,0.026326530612244863,0.026046923362118824,1.6361224489795927,1.662830440198125
1445538276501,489.9,0.0,383.0,0.3819146764645842,0.33124492452731,0.03898754847928142,0.33124492452731,0,0.0,0.0,0,0.0,0.0,0,0.0,0.0,0,0.0,0.0,0,0.0,0.0,0,0.0,0.0,1547,0.0012928248222365886,0.0012919885836711036,0,0.0,0.0,799,0.0012515644555694627,0.0012515644555694627,875,0.0,0.0,1678,2.280691299165676,1.1251010125777985,1445538276582,489.3,0.0,100.14285714285705,0.12574465599813026,0.4849785407725328,1.359800883635891,0.03331289597384016,0.032209729753937835,1.6889433885142013,1.9383834499833652
1445538286507,488.3,0.0,335.1,0.38603317632602746,0.2661465511317978,0.043825517100143395,0.2661465511317978,0,0.0,0.0,0,0.0,0.0,0,0.0,0.0,0,0.0,0.0,0,0.0,0.0,0,0.0,0.0,1706,0.0,0.0,0,0.0,0.0,779,0.0,0.0,811,0.0,0.0,1587,2.1115311909262764,0.5140346653253776,1445538286587,488.9,0.0,100.14583759460027,0.12909529358635644,0.4156269175700558,0.27239077403798173,0.02618122315401918,0.025500982699731053,1.5847821640417235,1.3471988119895049
1445538296513,490.0,0.0,339.9,0.3787755102040817,0.24188459952260102,0.04081632653061228,0.24188459952260102,0,0.0,0.0,0,0.0,0.0,0,0.0,0.0,0,0.0,0.0,0,0.0,0.0,0,0.0,0.0,1649,0.0,0.0,0,0.0,0.0,798,0.0012531328320802009,0.0012531328320802006,829,0.0012062726176115819,0.0012062726176115814,1624,2.0917487684729075,0.5799934895240512,1445538296594,490.0,0.0,100.1489795918366,0.13007652540501824,0.382448979591836,0.2370464609603796,0.02836734693877551,0.027976513324251925,1.5710204081632626,1.408508858534226
1445538306518,487.3,0.0,369.4,0.38744100143648624,0.2780195790820839,0.0422737533347015,0.2780195790820839,0,0.0,0.0,0,0.0,0.0,0,0.0,0.0,0,0.0,0.0,0,0.0,0.0,0,0.0,0.0,1650,0.0,0.0,0,0.0,0.0,811,0.0,0.0,801,0.0,0.0,1611,2.292985723153317,1.2457830674979065,1445538306599,487.3,0.0,100.1323619946644,0.11897095924495373,0.49846090703878626,0.9142525568150213,0.025446336958752258,0.025214419995302686,1.7642109583418824,2.0361408848798885
1445538316529,489.6,0.0,344.2,0.38602941176470645,0.24237066634621157,0.047181372549019655,0.24237066634621157,0,0.0,0.0,0,0.0,0.0,0,0.0,0.0,0,0.0,0.0,0,0.0,0.0,0,0.0,0.0,1603,6.238303181534643E-4,6.238303181534624E-4,0,0.0,0.0,843,0.0011862396204033229,0.0011862396204033224,804,0.0,0.0,1646,2.0899149453219925,0.3615152511199658,1445538316607,489.6,0.0,100.13848039215684,0.12668238899236875,0.41503267973856167,0.307794401383297,0.03104575163398685,0.03253953947939417,1.6082516339869306,1.3002301601607613
1445538326541,490.0,0.0,352.5,0.3765306122448981,0.24990835280836232,0.04285714285714293,0.24990835280836232,0,0.0,0.0,0,0.0,0.0,0,0.0,0.0,0,0.0,0.0,0,0.0,0.0,0,0.0,0.0,1653,6.0496067755596E-4,6.049606775559591E-4,0,0.0,0.0,824,0.0,0.0,800,0.0,0.0,1623,2.1712877387553853,0.6438853320752163,1445538326625,490.0,0.0,100.14857142857151,0.13387221882016684,0.40122448979591735,0.2970387126069047,0.025918367346938788,0.025251759001212293,1.615306122448981,1.463533790736135
1445538336560,489.7,0.0,369.4,0.37614866244639594,0.2718819778949627,0.0418623647130896,0.2718819778949627,0,0.0,0.0,0,0.0,0.0,0,0.0,0.0,0,0.0,0.0,0,0.0,0.0,0,0.0,0.0,1663,0.0012026458208057758,0.00120192220719518,0,0.0,0.0,815,0.0,0.0,801,0.0,0.0,1618,2.281829419035847,1.020090157649757,1445538336645,489.7,0.0,100.1431488666531,0.12635879176393144,0.47682254441494726,0.740118333086418,0.02675107208495,0.026449266657857764,1.794568102920158,2.4908773512127564
1445538346579,490.0,0.0,358.8,0.38530612244897966,0.2532235233346244,0.040000000000000036,0.2532235233346244,0,0.0,0.0,0,0.0,0.0,0,0.0,0.0,0,0.0,0.0,0,0.0,0.0,0,0.0,0.0,1651,6.056935190793477E-4,6.056935190793462E-4,0,0.0,0.0,805,0.0,0.0,818,0.0,0.0,1626,2.206027060270601,0.6264498060365222,1445538346647,488.2,0.0,100.14276935682106,0.12323084578893127,0.5079885292912734,1.0141750557995577,0.02437525604260554,0.02419572721387631,1.7185579680458876,1.6732838861083907
1445538356594,488.3,0.0,365.7,0.37845586729469577,0.24182989701749383,0.04505426991603523,0.24182989701749383,0,0.0,0.0,0,0.0,0.0,0,0.0,0.0,0,0.0,0.0,0,0.0,0.0,0,0.0,0.0,1630,0.0,0.0,0,0.0,0.0,845,0.0011834319526627226,0.0011834319526627217,780,0.0012820512820512836,0.0012820512820512823,1628,2.2450859950859963,0.8083655119610875,1445538356657,489.6,0.0,100.1511437908498,0.1324113574609287,0.44587418300653575,0.5012577443302808,0.02818627450980388,0.02739740431412608,1.6474673202614385,1.5570027772770596
1445538366601,489.4,0.0,353.6,0.40314671025745846,0.2647847007279861,0.04127503064977545,0.2647847007279861,0,0.0,0.0,0,0.0,0.0,0,0.0,0.0,0,0.0,0.0,0,0.0,0.0,0,0.0,0.0,1662,0.0,0.0,0,0.0,0.0,806,0.0012406947890818867,0.0012406947890818867,810,0.0,0.0,1616,2.1874999999999987,1.1320046439628484,1445538366679,489.9,0.0,100.14778526229848,0.13332043080766617,0.4362114717289259,0.3668468936127585,0.028373137374974537,0.028798720682907026,1.692590324556035,1.9160965759047346
1445538376613,490.0,0.0,344.6,0.3769387755102027,0.2565409433828647,0.04367346938775511,0.2565409433828647,0,0.0,0.0,0,0.0,0.0,0,0.0,0.0,0,0.0,0.0,0,0.0,0.0,0,0.0,0.0,1643,0.0024345709068776733,0.00973828362751066,0,0.0,0.0,828,0.0012077294685990353,0.001207729468599034,806,0.0,0.0,1623,2.1201478743068365,0.48185645160922574,1445538376692,490.0,0.0,100.1522448979591,0.1372576660792905,0.4600000000000001,0.9134843845682822,0.02571428571428572,0.026282914880587788,1.6181632653061233,1.3706028718897216
1445538386629,490.0,0.0,359.7,0.38306122448979607,0.26005186397890373,0.03816326530612238,0.26005186397890373,0,0.0,0.0,0,0.0,0.0,0,0.0,0.0,0,0.0,0.0,0,0.0,0.0,0,0.0,0.0,1646,0.0,0.0,0,0.0,0.0,837,0.0,0.0,787,0.0038119440914866614,0.0038022444882004325,1630,2.204907975460124,0.5546720295864449,1445538386706,490.0,0.0,100.14918367346928,0.1314445263714793,0.42061224489795934,0.32376365855589073,0.023265306122448974,0.02395340990039611,1.6467346938775527,1.6239023790777796
1445538396634,490.0,0.0,340.8,0.388367346938776,0.2649391587620955,0.04469387755102054,0.2649391587620955,0,0.0,0.0,0,0.0,0.0,0,0.0,0.0,0,0.0,0.0,0,0.0,0.0,0,0.0,0.0,1668,0.0,0.0,0,0.0,0.0,773,0.0,0.0,843,0.0,0.0,1616,2.108910891089109,0.4450970174416824,1445538396721,490.0,0.0,100.14877551020412,0.13034142744666904,0.41530612244897946,0.5049708187010246,0.029591836734693906,0.029538514732286057,1.5712244897959209,1.3268305068506239
1445538406658,490.0,0.0,359.8,0.3714285714285716,0.24453970197999528,0.04673469387755095,0.24453970197999528,0,0.0,0.0,0,0.0,0.0,0,0.0,0.0,0,0.0,0.0,0,0.0,0.0,0,0.0,0.0,1647,0.0,0.0,0,0.0,0.0,846,0.0,0.0,778,0.0,0.0,1629,2.208717004297112,1.7279092251467967,1445538406737,490.0,0.0,100.14612244897945,0.12602088722813012,0.40959183673469396,0.3243415357569851,0.024489795918367377,0.025527908652744676,1.658367346938774,2.3935715327159626
1445538416665,488.4,0.0,351.7,0.4240376740376745,8.774691373554775,0.04484029484029493,8.774691373554775,0,0.0,0.0,0,0.0,0.0,0,0.0,0.0,0,0.0,0.0,0,0.0,0.0,0,0.0,0.0,1605,6.23052959501559E-4,6.230529595015573E-4,0,0.0,0.0,817,0.0024479804161566727,0.0024449804401564775,824,0.0,0.0,1638,2.145299145299145,0.5249962146724519,1445538416742,488.4,0.0,100.13943488943485,0.12370363307287333,0.44266994266994203,0.8824385795510098,0.028869778869778883,0.02968039344242502,1.6705569205569226,9.992817138065933
1445538426692,489.9,0.0,361.4,0.3837517860787907,0.25531781179499186,0.04388650745050016,0.25531781179499186,0,0.0,0.0,0,0.0,0.0,0,0.0,0.0,0,0.0,0.0,0,0.0,0.0,0,0.0,0.0,1602,0.0,0.0,0,0.0,0.0,821,0.001218026796589526,0.0012180267965895253,830,0.00240963855421687,0.0024067318732105742,1646,2.1938031591737546,0.5563384755158495,1445538426769,489.9,0.0,100.15125535823638,0.12881171489319074,0.44498877321902447,0.7337534655742192,0.03490508266993266,0.034918585313075005,1.6433966115533771,1.5206234953825546
1445538436721,490.0,0.0,374.9,0.3802040816326535,0.25121040945465695,0.0483673469387754,0.25121040945465695,0,0.0,0.0,0,0.0,0.0,0,0.0,0.0,0,0.0,0.0,0,0.0,0.0,0,0.0,0.0,1628,0.0018427518427518448,0.001840486628439917,0,0.0,0.0,844,0.0,0.0,788,0.0,0.0,1640,2.2841463414634116,1.205361686929865,1445538436803,490.0,0.0,100.14591836734706,0.12587637627004208,0.4279591836734698,0.4293875468129687,0.023673469387755084,0.02556723362952037,1.6810204081632656,1.901293100216197
1445538446741,490.0,0.0,344.4,0.38163265306122485,0.24991772581659757,0.042244897959183556,0.24991772581659757,0,0.0,0.0,0,0.0,0.0,0,0.0,0.0,0,0.0,0.0,0,0.0,0.0,0,0.0,0.0,1682,0.0,0.0,0,0.0,0.0,769,0.0013003901170351114,0.001300390117035112,843,0.0011862396204033237,0.0011862396204033218,1606,2.143212951432131,0.44178256770754454,1445538446818,490.0,0.0,100.15428571428548,0.13540722596448504,0.38857142857142773,0.24293937538273178,0.0283673469387756,0.02756826674331703,1.5914285714285659,1.3447724025311314
1445538456755,490.0,0.0,366.8,0.36693877551020393,0.25275445634469323,0.043469387755102146,0.25275445634469323,0,0.0,0.0,0,0.0,0.0,0,0.0,0.0,0,0.0,0.0,0,0.0,0.0,0,0.0,0.0,1663,0.0,0.0,0,0.0,0.0,842,0.0,0.0,774,0.001291989664082688,0.0012919896640826883,1621,2.2621838371375715,1.808377697047246,1445538456831,490.0,0.0,100.14816326530654,0.128686154192233,0.4248979591836734,0.41913909960799833,0.02755102040816326,0.02720567712694382,1.6573469387755109,2.1869127393762198
1445538466766,490.0,0.0,359.4,0.37979591836734583,0.24090626575186025,0.051224489795918544,0.24090626575186025,0,0.0,0.0,0,0.0,0.0,0,0.0,0.0,0,0.0,0.0,0,0.0,0.0,0,0.0,0.0,1607,0.0018668326073428764,0.0018645077846687259,0,0.0,0.0,813,0.0,0.0,836,0.0,0.0,1644,2.184306569343061,0.5837827811862751,1445538466839,490.0,0.0,100.1497959183676,0.13146556356774142,0.41734693877551,0.5412381119012201,0.02612244897959185,0.025445259549012524,1.6397959183673467,1.476064461301977
1445538476775,490.0,0.0,351.7,0.3873469387755103,0.2565453174533735,0.042857142857142864,0.2565453174533735,0,0.0,0.0,0,0.0,0.0,0,0.0,0.0,0,0.0,0.0,0,0.0,0.0,0,0.0,0.0,1612,0.0,0.0,0,0.0,0.0,811,0.0,0.0,833,0.0,0.0,1644,2.1392944038929467,0.632441619907801,1445538476846,490.0,0.0,100.13755102040798,0.12110443197487251,0.4061224489795925,0.2587908402797739,0.03000000000000001,0.0295141865686875,1.6057142857142832,1.4583057766891228
1445538486791,490.0,0.0,351.1,0.39204081632653004,0.2608470283398108,0.050408163265306054,0.2608470283398108,0,0.0,0.0,0,0.0,0.0,0,0.0,0.0,0,0.0,0.0,0,0.0,0.0,0,0.0,0.0,1613,0.0,0.0,0,0.0,0.0,797,0.0,0.0,846,0.0,0.0,1644,2.1356447688564466,0.5871888110438297,1445538486847,489.8,0.0,100.14311964066921,0.12470351886676895,0.5073499387505096,1.7476486424760003,0.03164556962025308,0.03228403853560568,1.6696610861576104,1.5579970670620829
1445538496792,488.6,0.0,383.3,0.3755628325828896,0.26772614170120757,0.043184609087188026,0.26772614170120757,0,0.0,0.0,0,0.0,0.0,0,0.0,0.0,0,0.0,0.0,0,0.0,0.0,0,0.0,0.0,1641,6.09384521633152E-4,6.093845216331503E-4,0,0.0,0.0,815,0.001226993865030676,0.0012269938650306751,807,0.0012391573729863697,0.001239157372986369,1623,2.3598274799753542,1.3020103278017237,1445538496849,486.5,0.0,100.13833504624876,0.12497954643803755,0.44624871531346383,0.6135267350029758,0.02610483042137719,0.026662147725428676,1.7562178828365902,2.309390297912047
1445538506793,487.7,0.0,350.5,0.3639532499487382,0.24548461471308167,0.03854828788189467,0.24548461471308167,0,0.0,0.0,0,0.0,0.0,0,0.0,0.0,0,0.0,0.0,0,0.0,0.0,0,0.0,0.0,1681,5.948839976204656E-4,5.948839976204641E-4,0,0.0,0.0,811,0.0,0.0,788,0.0,0.0,1597,2.194113963681902,0.6314690922673,1445538506865,489.4,0.0,100.14446260727418,0.13751582600799794,0.40089906007355985,0.2594392078756741,0.026971802206783847,0.02624968773936334,1.6510012259910074,1.5004925595734042
1445538516797,489.3,0.0,361.8,0.37870427140813356,0.25495931829123597,0.04516656447986927,0.25495931829123597,0,0.0,0.0,0,0.0,0.0,0,0.0,0.0,0,0.0,0.0,0,0.0,0.0,0,0.0,0.0,1591,0.0,0.0,0,0.0,0.0,857,0.001166861143523922,0.0011668611435239216,791,0.0,0.0,1654,2.1868198307134215,0.5924214593524217,1445538516880,489.9,0.0,100.14696876913648,0.1339694745246384,0.42763829352929084,0.4187623060547438,0.026536027760767533,0.025837140953675005,1.7032047356603408,1.559505856604764
1445538526810,489.9,0.0,385.5,0.39293733414982723,0.2667610518092259,0.042661767707695405,0.2667610518092259,0,0.0,0.0,0,0.0,0.0,0,0.0,0.0,0,0.0,0.0,0,0.0,0.0,0,0.0,0.0,1576,0.0,0.0,0,0.0,0.0,815,0.0012269938650306754,0.0012269938650306754,850,0.0011764705882352953,0.001176470588235294,1658,2.3238841978287117,0.8829657125926269,1445538526894,489.9,0.0,100.14656052255535,0.1295977020835168,0.4525413349663192,0.4376716742302295,0.02898550724637678,0.028967753771134128,1.7572974076342112,1.8249135601627329
1445538536815,488.3,0.0,384.9,0.38009420438255137,0.35816164618311847,0.04157280360434168,0.35816164618311847,0,0.0,0.0,0,0.0,0.0,0,0.0,0.0,0,0.0,0.0,0,0.0,0.0,0,0.0,0.0,1632,0.0,0.0,0,0.0,0.0,831,0.0,0.0,792,0.0,0.0,1628,2.364250614250612,1.5371846255374229,1445538536895,488.8,0.0,100.14198036006525,0.12553010642818874,0.44660392798690657,0.5357199969724942,0.027414075286415773,0.026667999572666377,1.8629296235679222,3.043618344135563
1445538546821,487.8,0.0,367.6,0.3888888888888893,0.2926548652404708,0.04428044280442814,0.2926548652404708,0,0.0,0.0,0,0.0,0.0,0,0.0,0.0,0,0.0,0.0,0,0.0,0.0,0,0.0,0.0,1581,0.0,0.0,0,0.0,0.0,819,0.0,0.0,828,0.0,0.0,1650,2.227878787878792,0.7194163588584451,1445538546900,487.7,0.0,100.15029731392252,0.13224611749278453,0.4389993848677471,0.43993074589789793,0.029936436333811742,0.02904620186531242,1.6920237851137985,1.7410622898361174
1445538556834,489.0,0.0,357.9,0.4030674846625776,0.3609232946880874,0.045807770961145126,0.3609232946880874,0,0.0,0.0,0,0.0,0.0,0,0.0,0.0,0,0.0,0.0,0,0.0,0.0,0,0.0,0.0,1638,6.105006105006129E-4,6.105006105006108E-4,0,0.0,0.0,821,0.0012180267965895258,0.0012180267965895251,806,0.0,0.0,1625,2.201230769230775,0.7445797650625252,1445538556908,488.6,0.0,100.1516577977896,0.1315499635287428,0.46684404420794123,0.6100570593985044,0.029676627097830546,0.030030069410606968,1.7003683995087986,1.6981247363113396
1445538566843,489.8,0.0,372.2,0.39281339322172343,0.38232122349222025,0.036341363821968245,0.38232122349222025,0,0.0,0.0,0,0.0,0.0,0,0.0,0.0,0,0.0,0.0,0,0.0,0.0,0,0.0,0.0,1584,6.313131313131336E-4,6.313131313131317E-4,0,0.0,0.0,852,0.0,0.0,807,0.0012391573729863712,0.0012391573729863697,1655,2.247734138972807,1.141734584656075,1445538566917,489.8,0.0,100.14556962025323,0.1293054647252385,0.4538587178440176,0.858907917139628,0.02613311555737036,0.026680612866787107,1.697631686402616,2.002285588638409
1445538576850,489.3,0.0,344.7,0.3735949315348452,0.2500139953299884,0.039444103821786376,0.2500139953299884,0,0.0,0.0,0,0.0,0.0,0,0.0,0.0,0,0.0,0.0,0,0.0,0.0,0,0.0,0.0,1669,0.0,0.0,0,0.0,0.0,783,0.0,0.0,829,0.0,0.0,1612,2.138337468982631,0.4730917097559726,1445538576923,489.3,0.0,100.14387901083165,0.12688249721472025,0.4520743919885545,0.9407218816274114,0.02554669936644185,0.026125646479802617,1.625587574085426,1.5167776851440118
1445538586853,489.4,0.0,345.1,0.37862689006947226,0.25411902160254757,0.05026563138536968,0.25411902160254757,0,0.0,0.0,0,0.0,0.0,0,0.0,0.0,0,0.0,0.0,0,0.0,0.0,0,0.0,0.0,1558,0.0,0.0,0,0.0,0.0,854,0.0,0.0,813,0.0,0.0,1669,2.0677052127022195,0.38570102575818316,1445538586925,489.5,0.0,100.15648621041875,0.14224183956256736,0.3918283963227791,0.2481555242854335,0.027579162410623023,0.02805002310473354,1.5969356486210433,1.3281066683141225
1445538596857,488.2,0.0,357.8,0.36911102007373986,0.24602785122456797,0.04158131913150362,0.24602785122456797,0,0.0,0.0,0,0.0,0.0,0,0.0,0.0,0,0.0,0.0,0,0.0,0.0,0,0.0,0.0,1584,0.0,0.0,0,0.0,0.0,822,0.0036496350364963476,0.0036407443299519057,829,0.0,0.0,1647,2.1706132361870076,0.6604238642961421,1445538596929,488.1,0.0,100.1503790206925,0.1322995489368276,0.38475722188076217,0.26955449534998616,0.028477770948576127,0.027672456934046748,1.6363450112681819,1.5167033596313582
1445538606878,490.0,0.0,372.9,0.4053061224489804,0.3888675323160488,0.04204081632653077,0.3888675323160488,0,0.0,0.0,0,0.0,0.0,0,0.0,0.0,0,0.0,0.0,0,0.0,0.0,0,0.0,0.0,1638,0.0,0.0,0,0.0,0.0,801,0.0012484394506866426,0.0012484394506866426,830,0.0012048192771084351,0.001204819277108434,1631,2.285101164929491,0.9990355572440417,1445538606952,490.0,0.0,100.14183673469374,0.1270511266355894,0.5459183673469392,1.4094036267293197,0.025102040816326526,0.027334649720267817,1.7946938775510208,2.3019926598930973
1445538616890,490.0,0.0,350.2,0.3730612244897969,0.24414045348696733,0.03693877551020412,0.24414045348696733,0,0.0,0.0,0,0.0,0.0,0,0.0,0.0,0,0.0,0.0,0,0.0,0.0,0,0.0,0.0,1659,6.027727546714896E-4,6.02772754671489E-4,0,0.0,0.0,805,0.0,0.0,815,0.0,0.0,1621,2.1597779148673615,0.6071713086724396,1445538616961,490.0,0.0,100.14673469387729,0.1276786599514277,0.3779591836734701,0.2371952626733482,0.02673469387755106,0.027658247622380228,1.5593877551020394,1.3018408171596885
1445538626904,490.0,0.0,336.5,0.380204081632653,0.24794443680717773,0.045510204081632546,0.24794443680717773,0,0.0,0.0,0,0.0,0.0,0,0.0,0.0,0,0.0,0.0,0,0.0,0.0,0,0.0,0.0,1726,5.793742757821578E-4,5.793742757821557E-4,0,0.0,0.0,804,0.0,0.0,784,0.0012755102040816332,0.0012755102040816336,1586,2.1204287515762945,0.46939943750720986,1445538626971,490.0,0.0,100.15489795918359,0.13542201448858682,0.39795918367346883,0.40620118224877183,0.026122448979591824,0.02666999929181718,1.5679591836734708,1.3093222273600191
1445538636906,489.3,0.0,354.7,0.3936235438381371,0.2505889318413231,0.03903535663192306,0.2505889318413231,0,0.0,0.0,0,0.0,0.0,0,0.0,0.0,0,0.0,0.0,0,0.0,0.0,0,0.0,0.0,1608,0.0,0.0,0,0.0,0.0,792,0.0,0.0,848,0.0,0.0,1645,2.156231003039514,0.8618300682596395,1445538636974,489.0,0.0,100.14314928425384,0.129637042549083,0.4456032719836394,0.6467642606560938,0.031083844580777033,0.03135104430839071,1.6323108384458074,1.5759654095981857
1445538646916,489.4,0.0,346.6,0.3931344503473637,0.2692845529392335,0.041683694319574936,0.2692845529392335,0,0.0,0.0,0,0.0,0.0,0,0.0,0.0,0,0.0,0.0,0,0.0,0.0,0,0.0,0.0,1598,0.0012515644555694625,0.001250780758352449,0,0.0,0.0,828,0.0,0.0,821,0.0,0.0,1647,2.103217972070432,0.44498963836453537,1445538646975,489.6,0.0,100.14950980392155,0.13208556149732523,0.41074346405228823,0.275586290866364,0.02450980392156874,0.02636543892327108,1.5859885620914997,1.3155870920039776
1445538656929,489.6,0.0,353.1,0.38480392156862814,0.3479120350898277,0.04268790849673203,0.3479120350898277,0,0.0,0.0,0,0.0,0.0,0,0.0,0.0,0,0.0,0.0,0,0.0,0.0,0,0.0,0.0,1611,0.0018621973929236514,0.0018598841042367909,0,0.0,0.0,845,0.0,0.0,797,0.0012547051442910928,0.0012547051442910926,1643,2.14668289713938,0.6575209633309428,1445538657000,489.7,0.0,100.14682458648153,0.13019467367642754,0.5031652031856233,1.3427697997039711,0.026751072084949933,0.027266260121910104,1.6508066162956918,1.7313887487470707
1445538666988,490.0,0.0,377.5,0.3681632653061231,0.257977846374312,0.040612244897959164,0.257977846374312,0,0.0,0.0,0,0.0,0.0,0,0.0,0.0,0,0.0,0.0,0,0.0,0.0,0,0.0,0.0,1671,5.984440454817486E-4,5.984440454817478E-4,0,0.0,0.0,802,0.0,0.0,811,0.0012330456226880408,0.0012330456226880406,1616,2.334777227722774,0.9299600741807938,1445538667003,489.7,0.0,100.14335307331037,0.12773001277292478,0.5068409230140906,1.5829290909066658,0.028997345313457237,0.029796237125304267,1.8158055952624024,2.296130851087972
1445538677007,490.0,0.0,357.7,0.3812244897959189,0.24696318698943096,0.043877551020408224,0.24696318698943096,0,0.0,0.0,0,0.0,0.0,0,0.0,0.0,0,0.0,0.0,0,0.0,0.0,0,0.0,0.0,1626,0.0,0.0,0,0.0,0.0,817,0.0,0.0,821,0.001218026796589526,0.0012180267965895258,1636,2.1858190709046417,0.7458782889571789,1445538677011,487.8,0.0,100.12956129561302,0.11484873101755595,0.4624846248462497,1.133203749507252,0.022345223452234487,0.02185039381663043,1.6260762607626071,1.5542265941420963
1445538687019,488.8,0.0,369.1,0.4095744680851064,0.29343808366965773,0.03641571194762688,0.29343808366965773,0,0.0,0.0,0,0.0,0.0,0,0.0,0.0,0,0.0,0.0,0,0.0,0.0,0,0.0,0.0,1654,0.0,0.0,0,0.0,0.0,799,0.0,0.0,819,0.0,0.0,1616,2.2840346534653464,1.2870762192318304,1445538687014,487.7,0.0,100.14435103547235,0.1251798340909088,0.6534754972319047,2.426245609171846,0.027885995489030136,0.027113926294809687,1.7933155628460105,2.372367122097781
1445538697021,489.1,0.0,367.7,0.3776323860151297,0.25020715399387716,0.04641177673277444,0.25020715399387716,0,0.0,0.0,0,0.0,0.0,0,0.0,0.0,0,0.0,0.0,0,0.0,0.0,0,0.0,0.0,1596,0.0012531328320802052,0.001252347168862595,0,0.0,0.0,837,0.0,0.0,812,0.0,0.0,1646,2.232685297691375,1.2971924200511868,1445538697018,489.4,0.0,100.14650592562309,0.12997246092952533,0.4000817327339598,0.24742284228630812,0.02758479771148343,0.026829358738800217,1.6579485083776044,1.7795638264917484
1445538707030,489.3,0.0,356.1,0.3821786225219699,0.2582432493630243,0.04312282853055378,0.2582432493630243,0,0.0,0.0,0,0.0,0.0,0,0.0,0.0,0,0.0,0.0,0,0.0,0.0,0,0.0,0.0,1609,0.0018645121193287778,0.0018621930744042391,0,0.0,0.0,803,0.0,0.0,836,0.0,0.0,1645,2.1629179331307014,0.6802542542098373,1445538707020,489.9,0.0,100.14696876913678,0.1270278657047124,0.404572361706471,0.29035066947688315,0.025719534598897698,0.025879815973976893,1.6140028577260672,1.516349408730095
1445538717031,490.0,0.0,340.6,0.37775510204081575,0.24653506963103602,0.04020408163265311,0.24653506963103602,0,0.0,0.0,0,0.0,0.0,0,0.0,0.0,0,0.0,0.0,0,0.0,0.0,0,0.0,0.0,1666,0.0,0.0,0,0.0,0.0,832,0.0012019230769230787,0.0012019230769230776,788,0.001269035532994924,0.0012690355329949238,1614,2.1090458488228023,0.39355730353824403,1445538717022,489.7,0.0,100.14376148662467,0.12475325028929286,0.3902389217888509,0.24290306790471924,0.026342658770675847,0.026879452005429533,1.550336940984271,1.2593631421665394
1445538727034,489.1,0.0,362.6,0.38846861582498493,0.2915970613358954,0.04191371907585368,0.2915970613358954,0,0.0,0.0,0,0.0,0.0,0,0.0,0.0,0,0.0,0.0,0,0.0,0.0,0,0.0,0.0,1608,6.218905472636836E-4,6.218905472636819E-4,0,0.0,0.0,825,0.0,0.0,813,0.0,0.0,1645,2.203647416413373,0.6902543281639415,1445538727025,488.1,0.0,100.14710100389284,0.12999620475513873,0.4464249129276803,0.7824262530185639,0.031346035648432684,0.03282870011184228,1.6517107150174102,1.5782598802314798
1445538737049,488.9,0.0,357.8,0.3747187563918984,0.2519466526779938,0.04254448762528129,0.2519466526779938,0,0.0,0.0,0,0.0,0.0,0,0.0,0.0,0,0.0,0.0,0,0.0,0.0,0,0.0,0.0,1637,6.108735491753229E-4,6.108735491753212E-4,0,0.0,0.0,773,0.0012936610608020702,0.00129366106080207,855,0.0,0.0,1624,2.201970443349752,0.7170386288239563,1445538737039,489.7,0.0,100.14682458648187,0.13387114426466473,0.4645701449867278,1.1156255964369273,0.024096385542168742,0.02474604299551152,1.669797835409434,1.5255439337943344
1445538747059,490.0,0.0,340.0,0.392040816326531,0.2485996309117635,0.04306122448979585,0.2485996309117635,0,0.0,0.0,0,0.0,0.0,0,0.0,0.0,0,0.0,0.0,0,0.0,0.0,0,0.0,0.0,1638,6.105006105006123E-4,6.105006105006107E-4,0,0.0,0.0,827,0.0,0.0,805,0.0012422360248447223,0.0012422360248447216,1630,2.0846625766871214,0.4335890512075989,1445538747040,489.6,0.0,100.14726307189565,0.13091385600886696,0.409722222222223,0.3583446827828841,0.022671568627450952,0.0225706753590098,1.5757761437908488,1.2747470992142187
1445538757106,490.0,0.0,377.3,0.3675510204081632,0.2631232113175955,0.04102040816326531,0.2631232113175955,0,0.0,0.0,0,0.0,0.0,0,0.0,0.0,0,0.0,0.0,0,0.0,0.0,0,0.0,0.0,1585,0.0,0.0,0,0.0,0.0,834,0.0,0.0,825,0.0,0.0,1656,2.2783816425120755,0.9019130288833436,1445538757074,488.6,0.0,100.13917314776883,0.12392267339140016,0.4271387638149814,0.4146492118563232,0.025173966434711332,0.025773511182913055,1.7640196479738035,2.16886686880528
1445538767122,490.0,0.0,381.0,0.3802040816326535,0.39368846620093245,0.044489795918367325,0.39368846620093245,0,0.0,0.0,0,0.0,0.0,0,0.0,0.0,0,0.0,0.0,0,0.0,0.0,0,0.0,0.0,1625,0.0,0.0,0,0.0,0.0,813,0.0,0.0,821,0.0012180267965895269,0.0012180267965895253,1641,2.321145642900669,1.8535099062142384,1445538767089,490.0,0.0,100.14081632653085,0.12672723712877648,0.474489795918367,1.7170465859338218,0.027346938775510237,0.02823749953134958,1.7255102040816304,2.1959198253704484
1445538777133,490.0,0.0,347.7,0.3787755102040817,0.2480082982366243,0.04489795918367348,0.2480082982366243,0,0.0,0.0,0,0.0,0.0,0,0.0,0.0,0,0.0,0.0,0,0.0,0.0,0,0.0,0.0,1657,0.0,0.0,0,0.0,0.0,823,0.0,0.0,798,0.0,0.0,1622,2.143649815043161,0.4438800697686268,1445538777099,490.0,0.0,100.14326530612256,0.1264396315782889,0.3951020408163278,0.25292558664617143,0.026938775510204082,0.02621842858392596,1.5722448979591839,1.3519953676510434
1445538787138,489.3,0.0,364.3,0.39239730226854747,0.2744475019714617,0.04291845493562243,0.2744475019714617,0,0.0,0.0,0,0.0,0.0,0,0.0,0.0,0,0.0,0.0,0,0.0,0.0,0,0.0,0.0,1673,0.0,0.0,0,0.0,0.0,830,0.0,0.0,783,0.0012771392081736914,0.0012771392081736919,1607,2.2663347853142444,1.6587850011740353,1445538787103,489.3,0.0,100.15082771305953,0.13873449463657173,0.4931534845697917,0.8505765825292468,0.029634171265072576,0.02998835755653405,1.7054976497036585,2.3165621654176154
1445538797143,488.8,0.0,352.6,0.3950490998363346,0.38063437450706783,0.042757774140752915,0.38063437450706783,0,0.0,0.0,0,0.0,0.0,0,0.0,0.0,0,0.0,0.0,0,0.0,0.0,0,0.0,0.0,1600,0.0,0.0,0,0.0,0.0,826,0.0,0.0,816,0.0,0.0,1646,2.1421628189550366,0.7226345898872445,1445538797105,488.7,0.0,100.15490075711074,0.13461729980908665,0.40822590546347287,0.4033134094556616,0.02946593001841629,0.02860354197244126,1.6079394311438504,1.5953360519999242
1445538807147,489.8,0.0,338.6,0.3777051857901182,0.24407706887651173,0.04185381788485097,0.24407706887651173,0,0.0,0.0,0,0.0,0.0,0,0.0,0.0,0,0.0,0.0,0,0.0,0.0,0,0.0,0.0,1661,0.0,0.0,0,0.0,0.0,780,0.0,0.0,835,0.0,0.0,1622,2.087546239210855,0.34643333376437957,1445538807110,489.9,0.0,100.1492141253318,0.12820017851827809,0.4121249234537661,0.529791706726591,0.028577260665441924,0.02899125837215962,1.5439885690957382,1.2517906213474639
1445538817149,488.8,0.0,384.6,0.3850245499181667,0.2736615095260919,0.04480360065466461,0.2736615095260919,0,0.0,0.0,0,0.0,0.0,0,0.0,0.0,0,0.0,0.0,0,0.0,0.0,0,0.0,0.0,1566,6.385696040868478E-4,6.385696040868457E-4,0,0.0,0.0,856,0.0,0.0,808,0.0012376237623762385,0.0012376237623762385,1658,2.3184559710494557,0.9522361178550927,1445538817111,488.9,0.0,100.14011045203542,0.12254998779785164,0.5041930865207586,0.9734378154104584,0.02740846798936389,0.029526854600946215,1.7833912865616681,1.958594797968244
1445538827154,487.8,0.0,367.9,0.4040590405904056,0.3183513698987725,0.04243542435424348,0.3183513698987725,0,0.0,0.0,0,0.0,0.0,0,0.0,0.0,0,0.0,0.0,0,0.0,0.0,0,0.0,0.0,1638,6.10500610500613E-4,6.105006105006108E-4,0,0.0,0.0,832,0.0,0.0,788,0.0025380710659898493,0.0025348460709885886,1620,2.2691358024691324,0.9059028969261619,1445538827117,487.7,0.0,100.14660652040202,0.1284200857080919,0.5056387123231487,0.7832434239973575,0.029526348164855422,0.028660419578396365,1.7641993028501113,2.1502931087525967
1445538837156,489.0,0.0,357.1,0.3887525562372174,0.2888078115346789,0.045398773006135,0.2888078115346789,0,0.0,0.0,0,0.0,0.0,0,0.0,0.0,0,0.0,0.0,0,0.0,0.0,0,0.0,0.0,1586,0.002522068095838593,0.002517294465373282,0,0.0,0.0,788,0.001269035532994924,0.0012690355329949238,865,0.0,0.0,1651,2.1599030890369426,0.579263990602573,1445538837119,489.1,0.0,100.15477407483141,0.133708798640631,0.4557350235125753,1.1765166937812797,0.027397260273972632,0.027879093481244968,1.6123492128399117,1.4390621896819003
1445538847160,488.8,0.0,364.6,0.39341243862520475,0.3487759117093776,0.043166939443535356,0.3487759117093776,0,0.0,0.0,0,0.0,0.0,0,0.0,0.0,0,0.0,0.0,0,0.0,0.0,0,0.0,0.0,1594,0.0,0.0,0,0.0,0.0,843,0.002372479240806646,0.002369661569499272,802,0.0012468827930174572,0.0012468827930174574,1649,2.209217707701637,0.76020624444353,1445538847120,488.2,0.0,100.14092585006162,0.12436857511938411,0.5374846374436713,1.448809733937271,0.026628430970913577,0.025924667890551326,1.7517410897173262,2.1514259784342142
1445538857164,487.9,0.0,357.2,0.3834802213568359,0.2901821455189338,0.04037712646034029,0.2901821455189338,0,0.0,0.0,0,0.0,0.0,0,0.0,0.0,0,0.0,0.0,0,0.0,0.0,0,0.0,0.0,1622,6.16522811344022E-4,6.165228113440205E-4,0,0.0,0.0,833,0.0,0.0,796,0.0012562814070351776,0.0012562814070351763,1628,2.192874692874688,0.9228256585355544,1445538857126,488.4,0.0,100.15090090090096,0.129794396075369,0.41748566748566807,0.4562250100341438,0.02723177723177724,0.02649563252676094,1.6373873873873885,1.6724990913502094
1445538867165,489.8,0.0,375.1,0.36974275214373237,0.243290969137779,0.041037158023683164,0.243290969137779,0,0.0,0.0,0,0.0,0.0,0,0.0,0.0,0,0.0,0.0,0,0.0,0.0,0,0.0,0.0,1665,6.006006006006025E-4,6.006006006006008E-4,0,0.0,0.0,808,0.0,0.0,812,0.0024630541871921204,0.0024600171290081567,1613,2.3236205827650407,1.5428474291542496,1445538867150,489.9,0.0,100.15145948152691,0.13385403526073605,0.4141661563584411,0.32638972412182937,0.02674015105123491,0.027255418581520707,1.7109614206981019,2.067521717376182
1445538877167,489.2,0.0,391.6,0.36345053147996725,0.25920771928616165,0.04026982829108773,0.25920771928616165,0,0.0,0.0,0,0.0,0.0,0,0.0,0.0,0,0.0,0.0,0,0.0,0.0,0,0.0,0.0,1637,6.108735491753231E-4,6.108735491753212E-4,0,0.0,0.0,781,0.0,0.0,845,0.001183431952662724,0.0011834319526627221,1629,2.4027010435850205,1.5981745180640228,1445538877172,489.9,0.0,100.14553990610341,0.12683341097353443,0.44764237599510015,0.4935321089103198,0.02674015105123497,0.027255418581520714,1.8179220249030401,2.7345011119259888
1445538887169,486.1,0.0,373.7,0.38263731742439794,0.28318818715856225,0.04299526846327929,0.28318818715856225,0,0.0,0.0,0,0.0,0.0,0,0.0,0.0,0,0.0,0.0,0,0.0,0.0,0,0.0,0.0,1570,0.0,0.0,0,0.0,0.0,859,0.0,0.0,785,0.0012738853503184715,0.0012738853503184717,1647,2.268366727383122,1.4577046819542285,1445538887176,488.2,0.0,100.14235968865219,0.12375743011406036,0.543629659975419,1.6040169806238922,0.02703809913969689,0.02754168631705798,1.81831216714461,3.79509176239649
1445538897208,489.9,0.0,386.1,0.3770157174933658,0.3047472376050954,0.04286589099816286,0.3047472376050954,0,0.0,0.0,0,0.0,0.0,0,0.0,0.0,0,0.0,0.0,0,0.0,0.0,0,0.0,0.0,1663,0.0012026458208057773,0.00120192220719518,0,0.0,0.0,803,0.0,0.0,818,0.001222493887530563,0.0012224938875305626,1615,2.3888544891640873,2.3009909422583346,1445538897177,487.8,0.0,100.14842148421516,0.13380005032365186,0.5012300123001219,1.1825902439873266,0.02747027470274701,0.029181665612022158,1.7726527265272662,2.8474209296122077
1445538907225,490.0,0.0,383.8,0.3951020408163257,0.2627235045886082,0.04102040816326534,0.2627235045886082,0,0.0,0.0,0,0.0,0.0,0,0.0,0.0,0,0.0,0.0,0,0.0,0.0,0,0.0,0.0,1609,6.215040397762609E-4,6.215040397762594E-4,0,0.0,0.0,817,0.002447980416156673,0.0024449804401564783,827,0.0,0.0,1647,2.3284760170006087,1.2304340673163257,1445538907182,489.2,0.0,100.13879803761203,0.12119323910471709,0.43663123466884723,0.34949001896285875,0.02473426001635321,0.024536322743410607,1.728536385936224,1.93815095492195
1445538917233,490.1,0.0,351.4,0.39787798408488084,0.2596199859254046,0.04468475821260977,0.2596199859254046,0,0.0,0.0,0,0.0,0.0,0,0.0,0.0,0,0.0,0.0,0,0.0,0.0,0,0.0,0.0,1557,0.0019267822736030837,0.0019243056897038525,0,0.0,0.0,838,0.0011933174224343693,0.0011933174224343676,828,0.0012077294685990353,0.0012077294685990346,1678,2.0911799761621,0.6553664064682161,1445538917193,490.1,0.0,100.14262395429533,0.12393997060158693,0.46255866149765423,0.5315060233438416,0.02632115894715365,0.026041749080778952,1.6288512548459473,1.4232409046050558
1445538927235,489.2,0.0,340.9,0.3875715453802119,0.26112540379454463,0.04190515126737523,0.26112540379454463,0,0.0,0.0,0,0.0,0.0,0,0.0,0.0,0,0.0,0.0,0,0.0,0.0,0,0.0,0.0,1648,6.067961165048567E-4,6.067961165048547E-4,0,0.0,0.0,823,0.0012150668286755786,0.0012150668286755773,801,0.0,0.0,1620,2.10308641975308,0.423585279741343,1445538927194,489.0,0.0,100.15541922290375,0.13170001852997537,0.41206543967280224,0.324951552272305,0.028425357873210745,0.0276230057794281,1.568916155419222,1.3481847526332005
1445538937236,489.6,0.0,342.5,0.37826797385620925,0.2483039249067006,0.04595588235294123,0.2483039249067006,0,0.0,0.0,0,0.0,0.0,0,0.0,0.0,0,0.0,0.0,0,0.0,0.0,0,0.0,0.0,1655,0.0,0.0,0,0.0,0.0,826,0.0012106537530266357,0.0012106537530266349,798,0.0,0.0,1617,2.1175015460729716,0.4564818726770635,1445538937200,489.9,0.0,100.15064298836508,0.13165077063835381,0.4098795672586243,0.4326177682614708,0.025515411308430363,0.02486945152846998,1.5686874872422962,1.3539478686286188
1445538947239,488.4,0.0,370.7,0.37653562653562556,0.2765822205203727,0.04156429156429156,0.2765822205203727,0,0.0,0.0,0,0.0,0.0,0,0.0,0.0,0,0.0,0.0,0,0.0,0.0,0,0.0,0.0,1594,0.0,0.0,0,0.0,0.0,839,0.0011918951132300372,0.0011918951132300366,806,0.0012406947890818867,0.001240694789081887,1645,2.2522796352583625,1.4186763694451232,1445538947203,488.6,0.0,100.14121981170696,0.12416751891959601,0.4136307818256238,0.3736033142129805,0.027015963978714717,0.028747982140186208,1.6760130986492088,2.0708554217321726
1445538957251,490.3,0.0,342.2,0.3748725270242702,0.24989479708881834,0.047317968590658704,0.24989479708881834,0,0.0,0.0,0,0.0,0.0,0,0.0,0.0,0,0.0,0.0,0,0.0,0.0,0,0.0,0.0,1666,6.00240096038418E-4,6.00240096038416E-4,0,0.0,0.0,801,0.0,0.0,816,0.0,0.0,1620,2.1117283950617347,1.5397017668275674,1445538957205,490.0,0.0,100.1485714285713,0.13060624617268785,0.40612244897959193,0.5519118853910197,0.026734693877551008,0.026025261298640766,1.5487755102040803,1.8198290779875945
1445538967253,488.1,0.0,342.3,0.4007375537799633,0.28568798049311395,0.04322884654783856,0.28568798049311395,0,0.0,0.0,0,0.0,0.0,0,0.0,0.0,0,0.0,0.0,0,0.0,0.0,0,0.0,0.0,1679,5.955926146515799E-4,5.955926146515782E-4,0,0.0,0.0,775,0.0,0.0,825,0.0,0.0,1602,2.1360799001248427,0.5798467094146056,1445538967207,488.0,0.0,100.14016393442651,0.12300222768035479,0.4905737704918022,1.0833298613327764,0.025819672131147595,0.027617692418830744,1.6795081967213135,1.7000924000147841
1445538977266,489.6,0.0,359.2,0.38459967320261346,0.2477627814830389,0.04656862745098051,0.2477627814830389,0,0.0,0.0,0,0.0,0.0,0,0.0,0.0,0,0.0,0.0,0,0.0,0.0,0,0.0,0.0,1660,0.0,0.0,0,0.0,0.0,829,0.0,0.0,792,0.0,0.0,1615,2.224148606811144,0.6510893459320727,1445538977223,489.7,0.0,100.15029609965282,0.13386071704564978,0.41025117418827894,0.3118475063430845,0.028588931999183154,0.029002767467343694,1.6138452113538924,1.4703393167218548
1445538987285,490.0,0.0,362.3,0.36387755102040653,0.24335707828753003,0.0408163265306123,0.24335707828753003,0,0.0,0.0,0,0.0,0.0,0,0.0,0.0,0,0.0,0.0,0,0.0,0.0,0,0.0,0.0,1575,6.349206349206362E-4,6.349206349206346E-4,0,0.0,0.0,869,0.0,0.0,794,0.0012594458438287155,0.0012594458438287162,1662,2.1787003610108253,0.5995942160022786,1445538987246,490.0,0.0,100.13877551020424,0.12158249705270949,0.4167346938775512,0.3443616564813307,0.02714285714285716,0.026411512553582348,1.6424489795918342,1.5116494411604193
1445538997317,490.0,0.0,375.4,0.3842857142857153,0.26482751581955427,0.040408163265306135,0.26482751581955427,0,0.0,0.0,0,0.0,0.0,0,0.0,0.0,0,0.0,0.0,0,0.0,0.0,0,0.0,0.0,1658,0.0,0.0,0,0.0,0.0,798,0.0,0.0,819,0.0,0.0,1625,2.3101538461538498,0.9739424024251625,1445538997272,490.0,0.0,100.14204081632685,0.12801379706812144,0.44755102040816264,0.4967382347917731,0.027551020408163294,0.028022170288813607,1.7304081632653086,1.865456048922938
1445539007327,490.0,0.0,362.6,0.3840816326530612,0.26641322052397165,0.044693877551020465,0.26641322052397165,0,0.0,0.0,0,0.0,0.0,0,0.0,0.0,0,0.0,0.0,0,0.0,0.0,0,0.0,0.0,1637,6.108735491753229E-4,6.10873549175321E-4,0,0.0,0.0,803,0.0,0.0,831,0.0012033694344163672,0.0012033694344163663,1629,2.2246777163904263,0.68536115221198,1445539007285,490.0,0.0,100.14489795918361,0.1312762704591945,0.41020408163265365,0.3028148185177316,0.02857142857142856,0.027760767503572193,1.6399999999999977,1.5151990202082133
1445539017330,489.8,0.0,352.4,0.3889342588811761,0.2515989864879225,0.041241322988975114,0.2515989864879225,0,0.0,0.0,0,0.0,0.0,0,0.0,0.0,0,0.0,0.0,0,0.0,0.0,0,0.0,0.0,1618,6.180469715698404E-4,6.180469715698395E-4,0,0.0,0.0,788,0.0,0.0,851,0.0,0.0,1641,2.146861669713595,0.6290282546335513,1445539017287,489.8,0.0,100.15149040424663,0.1314262038082494,0.4097590853409552,0.4350854636962837,0.02919559003674982,0.028348995430823854,1.5843201306655743,1.4412243794231416
1445539027331,489.5,0.0,359.7,0.3944841675178749,0.2810075750966465,0.0433094994892748,0.2810075750966465,0,0.0,0.0,0,0.0,0.0,0,0.0,0.0,0,0.0,0.0,0,0.0,0.0,0,0.0,0.0,1596,6.265664160401016E-4,6.265664160401003E-4,0,0.0,0.0,835,0.0,0.0,817,0.0,0.0,1647,2.183363691560411,0.7075480954731195,1445539027294,489.6,0.0,100.14419934640524,0.13078554881264676,0.45281862745098045,0.4925640659736832,0.026143790849673228,0.025465494335289413,1.637050653594775,1.601642290385681
1445539037333,489.3,0.0,354.0,0.3889229511547116,0.2585608389109947,0.04577968526466381,0.2585608389109947,0,0.0,0.0,0,0.0,0.0,0,0.0,0.0,0,0.0,0.0,0,0.0,0.0,0,0.0,0.0,1596,6.26566416040103E-4,6.265664160401006E-4,0,0.0,0.0,806,0.0,0.0,842,0.0,0.0,1649,2.1461491813220155,0.48166143646929305,1445539037315,490.0,0.0,100.14346938775505,0.12454399273487736,0.42877551020408033,0.33642430150259806,0.02857142857142861,0.028169014084507105,1.6342857142857177,1.3812288222086155
1445539047338,489.0,0.0,365.4,0.37239263803681083,0.2558545727418639,0.0486707566462167,0.2558545727418639,0,0.0,0.0,0,0.0,0.0,0,0.0,0.0,0,0.0,0.0,0,0.0,0.0,0,0.0,0.0,1522,6.570302233902776E-4,6.570302233902766E-4,0,0.0,0.0,842,0.0011876484560570072,0.001187648456057007,839,0.0,0.0,1687,2.164789567279192,0.6110252077677245,1445539047319,489.2,0.0,100.15269828291085,0.13922191426407166,0.4366312346688467,0.5363638688913002,0.029640228945216732,0.02999430930340294,1.6610793131643522,1.559204559645567
1445539057339,488.8,0.0,343.1,0.38952536824877265,0.25257697950774255,0.048486088379705354,0.25257697950774255,0,0.0,0.0,0,0.0,0.0,0,0.0,0.0,0,0.0,0.0,0,0.0,0.0,0,0.0,0.0,1609,0.0,0.0,0,0.0,0.0,845,0.0011834319526627234,0.0011834319526627221,798,0.0,0.0,1636,2.0965770171149156,0.4041228325968454,1445539057329,489.4,0.0,100.13138536984034,0.11578156697169076,0.4168369431957503,0.2831908105212889,0.02595014303228439,0.026508140575291217,1.6070698814875308,1.4881249503577605
1445539067342,488.8,0.0,352.0,0.37397708674304386,0.2464436025033176,0.040507364975450294,0.2464436025033176,0,0.0,0.0,0,0.0,0.0,0,0.0,0.0,0,0.0,0.0,0,0.0,0.0,0,0.0,0.0,1590,6.289308176100644E-4,6.289308176100629E-4,0,0.0,0.0,842,0.0,0.0,808,0.0,0.0,1648,2.1353155339805854,0.47166037396619936,1445539067352,490.0,0.0,100.13469387755086,0.12024944699251432,0.43040816326530784,0.49627866578352026,0.028571428571428588,0.027760767503572127,1.6144897959183688,1.4175895538864653
1445539077351,490.0,0.0,351.3,0.3716326530612255,0.24091792993988698,0.04795918367346922,0.24091792993988698,0,0.0,0.0,0,0.0,0.0,0,0.0,0.0,0,0.0,0.0,0,0.0,0.0,0,0.0,0.0,1647,6.071645415907727E-4,6.071645415907709E-4,0,0.0,0.0,843,0.0,0.0,782,0.0012787723785166246,0.001278772378516625,1628,2.1566339066339064,0.48743598881890216,1445539077363,490.0,0.0,100.14693877551022,0.1314970568754146,0.39081632653061177,0.24425122161540674,0.028571428571428612,0.03021024698918146,1.6120408163265272,1.4218186552024357
1445539087383,490.0,0.0,373.7,0.39612244897959153,0.3298890235824877,0.041836734693877574,0.3298890235824877,0,0.0,0.0,0,0.0,0.0,0,0.0,0.0,0,0.0,0.0,0,0.0,0.0,0,0.0,0.0,1588,0.0018891687657430736,0.0018867879607452885,0,0.0,0.0,848,0.002358490566037739,0.0023557060435276567,806,0.0,0.0,1658,2.250904704463208,0.8832973101649386,1445539087364,488.9,0.0,100.15401922683594,0.1331881182881914,0.483739005931682,1.0132891266308435,0.029044794436490117,0.03066195564443917,1.698097770505215,1.9395237948579573
1445539097384,489.5,0.0,377.3,0.39080694586312464,0.4216155113534621,0.040858018386108294,0.4216155113534621,0,0.0,0.0,0,0.0,0.0,0,0.0,0.0,0,0.0,0.0,0,0.0,0.0,0,0.0,0.0,1642,0.001218026796589529,0.0012172845499127494,0,0.0,0.0,810,0.0,0.0,818,0.0012224938875305632,0.0012224938875305623,1625,2.3200000000000056,1.4960591133004946,1445539097389,488.6,0.0,100.15063446582064,0.12878874783131122,0.5429799426934075,1.6541400638760226,0.025583299222267663,0.024933897153984988,1.7347523536635208,2.4004583521694784
1445539107391,487.8,0.0,339.4,0.38089380893808994,0.25841691675067235,0.041820418204182044,0.25841691675067235,0,0.0,0.0,0,0.0,0.0,0,0.0,0.0,0,0.0,0.0,0,0.0,0.0,0,0.0,0.0,1651,6.056935190793463E-4,6.056935190793458E-4,0,0.0,0.0,818,0.0,0.0,794,0.0,0.0,1615,2.1009287925696576,0.35349975638856557,1445539107398,490.0,0.0,100.1422448979593,0.1248939183756798,0.4222448979591836,0.41587575140282645,0.026734693877551043,0.02725000104144543,1.6232653061224476,1.391007910818952
1445539117418,489.9,0.0,354.6,0.3831394162073882,0.28620810857058665,0.0475607266789141,0.28620810857058665,0,0.0,0.0,0,0.0,0.0,0,0.0,0.0,0,0.0,0.0,0,0.0,0.0,0,0.0,0.0,1666,0.0012004801920768348,0.0011997591829524606,0,0.0,0.0,820,0.0,0.0,798,0.0,0.0,1615,2.1944272445820436,0.765148602974746,1445539117402,489.6,0.0,100.14665032679746,0.1317068570703725,0.4562908496732033,0.5084057695260608,0.027573529411764892,0.026818707564741934,1.6787173202614378,1.6554897537837043
1445539127422,488.8,0.0,375.3,0.38911620294599125,0.2913650464490953,0.04398527004909982,0.2913650464490953,0,0.0,0.0,0,0.0,0.0,0,0.0,0.0,0,0.0,0.0,0,0.0,0.0,0,0.0,0.0,1569,0.0,0.0,0,0.0,0.0,844,0.002369668246445501,0.0023668572520843508,818,0.0,0.0,1657,2.2637296318648175,0.8657911539100709,1445539127404,488.2,0.0,100.14215485456788,0.13016687787952244,0.5159770585825492,1.236888709164224,0.028881605899221615,0.02805320499246262,1.7173289635395355,1.760687148060756
1445539137438,489.8,0.0,353.7,0.40138832176398537,0.29341853367612897,0.041853817884850986,0.29341853367612897,0,0.0,0.0,0,0.0,0.0,0,0.0,0.0,0,0.0,0.0,0,0.0,0.0,0,0.0,0.0,1639,0.0,0.0,0,0.0,0.0,808,0.0012376237623762394,0.0012376237623762379,819,0.0024420024420024433,0.0024390171089437593,1632,2.165441176470583,0.6016743607314172,1445539137415,488.1,0.0,100.1454619954929,0.12719712770495184,0.43679573857816006,0.3813015338834754,0.027658266748617134,0.028128306145273996,1.7023150993648855,1.664849147413357
1445539147442,487.1,0.0,386.4,0.3687127899815228,0.24923856862282995,0.04372818723054808,0.24923856862282995,0,0.0,0.0,0,0.0,0.0,0,0.0,0.0,0,0.0,0.0,0,0.0,0.0,0,0.0,0.0,1604,0.0,0.0,0,0.0,0.0,802,0.0,0.0,830,0.0,0.0,1635,2.363302752293582,1.1335362087745509,1445539147417,489.4,0.0,100.15284021250511,0.13768148805358432,0.5306497752349826,1.5530150283496287,0.023702492848385773,0.02314541402607544,1.9115243154883514,2.6001818983458964
1445539157453,489.0,0.0,339.9,0.4002044989775055,0.27649821957476434,0.04089979550102257,0.27649821957476434,0,0.0,0.0,0,0.0,0.0,0,0.0,0.0,0,0.0,0.0,0,0.0,0.0,0,0.0,0.0,1652,6.053268765133186E-4,6.053268765133173E-4,0,0.0,0.0,848,0.0011792452830188692,0.001179245283018869,771,0.0,0.0,1619,2.098208770846201,0.41247515787110917,1445539157418,487.8,0.0,100.15047150471503,0.13564771694467126,0.45325953259532403,0.45619093160379864,0.027880278802788077,0.02915896700488442,1.616441164411647,1.3789955748645084
1445539167466,489.4,0.0,385.3,0.38230486309766926,0.30159566751364314,0.04393134450347358,0.30159566751364314,0,0.0,0.0,0,0.0,0.0,0,0.0,0.0,0,0.0,0.0,0,0.0,0.0,0,0.0,0.0,1593,0.0,0.0,0,0.0,0.0,836,0.0,0.0,814,0.0,0.0,1651,2.3337371290127154,1.8334005102509048,1445539167419,488.1,0.0,100.1419791026428,0.1271738692353401,0.4513419381274329,0.4489126455543571,0.031755787748412236,0.0311634944465155,1.9143618111042802,3.5111072207052416
1445539177472,487.3,0.0,368.5,0.36630412476913643,0.25762461766976535,0.04371024009850198,0.25762461766976535,0,0.0,0.0,0,0.0,0.0,0,0.0,0.0,0,0.0,0.0,0,0.0,0.0,0,0.0,0.0,1658,6.031363088057901E-4,6.031363088057901E-4,0,0.0,0.0,807,0.0,0.0,803,0.001245330012453301,0.0012453300124533008,1605,2.2947040498442344,1.4685816611120186,1445539177423,487.1,0.0,100.15171422705815,0.13036615733142864,0.5645657975774995,2.3341774243658855,0.030794498049681877,0.0298523255220836,1.8168753849312254,4.460092986315942
1445539187500,489.1,0.0,361.6,0.39439787364547135,0.44585000035539485,0.04559394806787968,0.44585000035539485,0,0.0,0.0,0,0.0,0.0,0,0.0,0.0,0,0.0,0.0,0,0.0,0.0,0,0.0,0.0,1621,0.0,0.0,0,0.0,0.0,838,0.0,0.0,798,0.0,0.0,1634,2.212974296205634,0.7494702663321737,1445539187451,489.1,0.0,100.14925373134342,0.1343649848914933,0.45716622367613935,0.9860483279877613,0.027397260273972605,0.029106087346275608,1.693109793498259,2.5154105930554
1445539197511,490.0,0.0,374.6,0.3900000000000007,0.2922453561951416,0.044897959183673314,0.2922453561951416,0,0.0,0.0,0,0.0,0.0,0,0.0,0.0,0,0.0,0.0,0,0.0,0.0,0,0.0,0.0,1676,0.0,0.0,0,0.0,0.0,807,0.0,0.0,804,0.0,0.0,1613,2.322380657160573,1.2657332867720232,1445539197462,490.0,0.0,100.14571428571429,0.12858950806287103,0.472448979591836,1.1715208434874267,0.030000000000000044,0.030738926311492224,1.7459183673469363,2.0846434715956144
1445539207521,488.3,0.0,374.9,0.4114274011877939,0.3020160489581573,0.044235101372107295,0.3020160489581573,0,0.0,0.0,0,0.0,0.0,0,0.0,0.0,0,0.0,0.0,0,0.0,0.0,0,0.0,0.0,1628,6.142506142506155E-4,6.14250614250614E-4,0,0.0,0.0,806,0.0,0.0,821,0.0,0.0,1628,2.302211302211304,1.0825519602409592,1445539207471,488.3,0.0,100.14785992217898,0.13052952400384493,0.47450337907024354,0.45997043643880514,0.027237354085603037,0.02650090780553356,1.780462830227319,1.9079590647283264
1445539217536,490.0,0.0,349.3,0.3973469387755103,0.25624933868219657,0.046734693877550956,0.25624933868219657,0,0.0,0.0,0,0.0,0.0,0,0.0,0.0,0,0.0,0.0,0,0.0,0.0,0,0.0,0.0,1683,0.0017825311942959005,0.0017804116566094614,0,0.0,0.0,829,0.0012062726176115817,0.0012062726176115817,779,0.0012836970474967909,0.0012836970474967922,1609,2.167806090739592,0.7641121613807917,1445539217486,490.0,0.0,100.15081632653056,0.1313628770552923,0.4685714285714278,0.7120146968769122,0.02408163265306124,0.023506504867715626,1.6877551020408186,1.6689661780205058
1445539227538,488.4,0.0,359.3,0.3851351351351354,0.3212289188635694,0.04258804258804275,0.3212289188635694,0,0.0,0.0,0,0.0,0.0,0,0.0,0.0,0,0.0,0.0,0,0.0,0.0,0,0.0,0.0,1636,0.0012224938875305673,0.0012217461848470562,0,0.0,0.0,811,0.0,0.0,814,0.0,0.0,1623,2.2125693160813267,0.8777210764191996,1445539227487,488.4,0.0,100.14086814086785,0.12801202520637095,0.44963144963145035,0.6378474987936378,0.027641277641277627,0.026882741658494313,1.6797706797706775,1.9965515754989418
1445539237540,488.9,0.0,363.1,0.3896502352219277,0.2521923694562668,0.04377173246062577,0.2521923694562668,0,0.0,0.0,0,0.0,0.0,0,0.0,0.0,0,0.0,0.0,0,0.0,0.0,0,0.0,0.0,1644,0.0,0.0,0,0.0,0.0,830,0.0,0.0,794,0.0,0.0,1621,2.239975323874149,0.939289875933925,1445539237488,488.5,0.0,100.13920163766618,0.12148707747479401,0.43909928352098243,0.6157109002554236,0.03070624360286589,0.029769464262811265,1.651995905834191,1.7068781818014174
1445539247560,487.8,0.0,376.9,0.4141041410414112,0.28245020198818,0.04346043460434619,0.28245020198818,0,0.0,0.0,0,0.0,0.0,0,0.0,0.0,0,0.0,0.0,0,0.0,0.0,0,0.0,0.0,1614,6.195786864931869E-4,6.195786864931851E-4,0,0.0,0.0,796,0.001256281407035176,0.0012562814070351763,837,0.0,0.0,1631,2.309625996321272,0.9991649520599717,1445539247509,488.2,0.0,100.15137238836569,0.13094361913500357,0.5159770585825482,1.5093738556505962,0.027447767308480114,0.027929112718841086,1.8140106513723844,1.9322109550186748
1445539257561,489.7,0.0,380.5,0.39411884827445437,0.3560765161009601,0.0430876046559118,0.3560765161009601,0,0.0,0.0,0,0.0,0.0,0,0.0,0.0,0,0.0,0.0,0,0.0,0.0,0,0.0,0.0,1620,0.0012345679012345711,0.001233805351573521,0,0.0,0.0,790,0.0,0.0,848,0.0,0.0,1639,2.320317266625992,1.0493488614293975,1445539257544,490.0,0.0,100.15183673469383,0.14391375166110645,0.4991836734693881,1.010205497998342,0.026734693877551015,0.027250001041445402,1.8014285714285685,2.1828516023678217
1445539267563,487.8,0.0,361.6,0.40057400574005614,0.27297075923394,0.04305043050430493,0.27297075923394,0,0.0,0.0,0,0.0,0.0,0,0.0,0.0,0,0.0,0.0,0,0.0,0.0,0,0.0,0.0,1653,0.0,0.0,0,0.0,0.0,792,0.001262626262626263,0.001262626262626263,819,0.001221001221001222,0.0012210012210012223,1614,2.2391573729863676,0.6916833564955135,1445539267559,490.0,0.0,100.14020408163259,0.12261273646016885,0.4704081632653055,0.9868767470245909,0.031224489795918367,0.03148043540747593,1.7193877551020458,1.8977665162819581
1445539277574,488.6,0.0,362.5,0.40851412198117043,0.29285687052724396,0.041956610724519075,0.29285687052724396,0,0.0,0.0,0,0.0,0.0,0,0.0,0.0,0,0.0,0.0,0,0.0,0.0,0,0.0,0.0,1559,0.0,0.0,0,0.0,0.0,808,0.0,0.0,854,0.0,0.0,1665,2.1771771771771804,0.6506807288057287,1445539277567,489.9,0.0,100.1434986731986,0.12374855711338686,0.44192692386201243,0.6848158860430272,0.032047356603388456,0.033068306454321926,1.6617677076954473,1.5166494674665891
1445539287588,489.6,0.0,375.3,0.38868464052287655,0.27851545027272084,0.044117647058823616,0.27851545027272084,0,0.0,0.0,0,0.0,0.0,0,0.0,0.0,0,0.0,0.0,0,0.0,0.0,0,0.0,0.0,1621,0.0012338062924120952,0.0012330446835896154,0,0.0,0.0,797,0.0,0.0,838,0.0,0.0,1640,2.287195121951219,0.9491953005253065,1445539287572,487.7,0.0,100.14742669673991,0.13269077215834374,0.4648349395119953,0.7278956505591272,0.028706171826942784,0.02911836258085074,1.6996104162394952,1.7717246225986196
1445539297597,489.9,0.0,348.1,0.3890589916309447,0.2557071380055984,0.04980608287405596,0.2557071380055984,0,0.0,0.0,0,0.0,0.0,0,0.0,0.0,0,0.0,0.0,0,0.0,0.0,0,0.0,0.0,1597,6.261740763932397E-4,6.261740763932377E-4,0,0.0,0.0,803,0.0,0.0,848,0.0,0.0,1651,2.1078134463961233,0.5362480039645386,1445539297577,489.7,0.0,100.14784561976695,0.12764701210958757,0.39636512150296116,0.33489691567866653,0.03103941188482751,0.03212459342187637,1.588115172554625,1.4232492449025116
1445539307603,489.6,0.0,345.7,0.39481209150326835,0.2590047450713335,0.04268790849673203,0.2590047450713335,0,0.0,0.0,0,0.0,0.0,0,0.0,0.0,0,0.0,0.0,0,0.0,0.0,0,0.0,0.0,1661,0.0012040939193257135,0.0012033685615429797,0,0.0,0.0,818,0.0,0.0,800,0.0037500000000000007,0.0037406132665832263,1617,2.1348175633889896,0.6154763435527227,1445539307586,489.8,0.0,100.14842792976728,0.12887337044296696,0.4081257656186193,0.2742815181801879,0.033074724377296784,0.0332125576170876,1.6067782768476906,1.4177363612841873
1445539317610,489.4,0.0,358.3,0.3808745402533705,0.25384219435269145,0.04679199019207189,0.25384219435269145,0,0.0,0.0,0,0.0,0.0,0,0.0,0.0,0,0.0,0.0,0,0.0,0.0,0,0.0,0.0,1699,0.0,0.0,0,0.0,0.0,815,0.001226993865030676,0.0012269938650306754,788,0.0012690355329949246,0.001269035532994925,1592,2.2493718592964864,1.042111484512444,1445539317588,489.6,0.0,100.14828431372553,0.1332677401910712,0.42606209150326796,0.4970856950202618,0.030637254901960783,0.03297332211740664,1.7105800653594765,2.015299683884447
1445539327615,489.4,0.0,361.6,0.39987740089905977,0.2878479310117602,0.04045770331017584,0.2878479310117602,0,0.0,0.0,0,0.0,0.0,0,0.0,0.0,0,0.0,0.0,0,0.0,0.0,0,0.0,0.0,1639,0.0,0.0,0,0.0,0.0,809,0.0,0.0,814,0.0,0.0,1632,2.215686274509803,0.6658972601916301,1445539327590,487.9,0.0,100.14613650338215,0.13136627164590842,0.48718999795039875,0.9050736725854638,0.025005124000819823,0.025614877997519544,1.700348432055746,1.6002274308457356
1445539337620,489.2,0.0,361.2,0.3896156991005723,0.25462941678885803,0.04701553556827481,0.25462941678885803,0,0.0,0.0,0,0.0,0.0,0,0.0,0.0,0,0.0,0.0,0,0.0,0.0,0,0.0,0.0,1638,6.10500610500613E-4,6.105006105006109E-4,0,0.0,0.0,824,0.0,0.0,805,0.0,0.0,1625,2.2221538461538435,0.7849768851837811,1445539337620,489.9,0.0,100.15166360481712,0.13726295255629833,0.43682384160032683,0.49146528766339115,0.026944274341702393,0.026223633276213867,1.6936109410083675,1.5722968604437702
1445539347622,486.7,0.0,356.9,0.3844257242654605,0.2609411158855994,0.042325868091226675,0.2609411158855994,0,0.0,0.0,0,0.0,0.0,0,0.0,0.0,0,0.0,0.0,0,0.0,0.0,0,0.0,0.0,1684,0.0,0.0,0,0.0,0.0,810,0.0,0.0,779,0.001283697047496791,0.0012836970474967909,1594,2.238393977415306,0.7604584360214587,1445539347621,489.6,0.0,100.13950163398697,0.12619415403205797,0.44955065359477137,0.4133889706716877,0.02348856209150321,0.02294153531347849,1.7375408496732037,1.7274239002717184
1445539357624,488.8,0.0,374.4,0.41816693944353495,0.32274744746826545,0.050122749590834806,0.32274744746826545,0,0.0,0.0,0,0.0,0.0,0,0.0,0.0,0,0.0,0.0,0,0.0,0.0,0,0.0,0.0,1613,6.199628022318683E-4,6.199628022318668E-4,0,0.0,0.0,784,0.0012755102040816332,0.0012755102040816334,856,0.0011682242990654218,0.0011682242990654213,1635,2.288073394495411,1.8930951231289246,1445539357633,487.6,0.0,100.14253486464354,0.12470528596369532,0.5231747333880256,0.7126935907953148,0.02604593929450365,0.02660352117119964,1.8732567678424923,2.943522601543922
1445539367663,488.3,0.0,369.1,0.37825107515871387,0.2552991118766596,0.04321114069219737,0.2552991118766596,0,0.0,0.0,0,0.0,0.0,0,0.0,0.0,0,0.0,0.0,0,0.0,0.0,0,0.0,0.0,1636,0.0,0.0,0,0.0,0.0,835,0.0,0.0,788,0.0012690355329949246,0.0012690355329949242,1624,2.2721674876847313,1.0090585153686689,1445539367635,489.2,0.0,100.15188062142259,0.1451958082770212,0.46913327882256733,0.9802369914336956,0.027800490596892914,0.027442063643185938,1.7706459525756315,2.0933683824963945
1445539377696,490.0,0.0,369.7,0.3759183673469383,0.25547221215491805,0.04448979591836738,0.25547221215491805,0,0.0,0.0,0,0.0,0.0,0,0.0,0.0,0,0.0,0.0,0,0.0,0.0,0,0.0,0.0,1726,0.0,0.0,0,0.0,0.0,778,0.0,0.0,812,0.0,0.0,1584,2.333964646464645,1.5756997485914122,1445539377642,486.1,0.0,100.1390660357952,0.12427805757253471,0.4293355276692027,0.370982871142874,0.02921209627648633,0.029187630108794046,1.7642460399094855,2.564573243155612
1445539387725,489.7,0.0,398.2,0.37859914233203973,0.2504242626871731,0.04370022462732286,0.2504242626871731,0,0.0,0.0,0,0.0,0.0,0,0.0,0.0,0,0.0,0.0,0,0.0,0.0,0,0.0,0.0,1586,0.0,0.0,0,0.0,0.0,816,0.0,0.0,837,0.0011947431302270035,0.0011947431302270018,1658,2.4010856453558556,1.225273413300155,1445539387674,489.7,0.0,100.15050030630994,0.13441202496927038,0.49458852358586963,1.1274727524254544,0.029405758627731263,0.029772379648203902,1.8488870737186056,2.2500360364689085
1445539397758,490.0,0.0,406.1,0.39224489795918405,0.25272612903091435,0.04244897959183679,0.25272612903091435,0,0.0,0.0,0,0.0,0.0,0,0.0,0.0,0,0.0,0.0,0,0.0,0.0,0,0.0,0.0,1580,0.0,0.0,0,0.0,0.0,833,0.0012004801920768315,0.0012004801920768309,823,0.0,0.0,1664,2.4399038461538445,1.2892305379527267,1445539397709,490.0,0.0,100.14061224489804,0.12453932705966689,0.45632653061224493,0.4955406976017584,0.02755102040816321,0.029246910031618268,1.8379591836734714,2.239097691740504
1445539407799,490.0,0.0,354.5,0.37755102040816285,0.25056758772094256,0.04857142857142845,0.25056758772094256,0,0.0,0.0,0,0.0,0.0,0,0.0,0.0,0,0.0,0.0,0,0.0,0.0,0,0.0,0.0,1693,0.0,0.0,0,0.0,0.0,794,0.0012594458438287162,0.0012594458438287155,811,0.0,0.0,1602,2.21223470661673,2.021136914272523,1445539407743,490.0,0.0,100.14469387755128,0.13235599935013614,0.40918367346938744,0.31855209934555506,0.025102040816326537,0.024885170234658468,1.7030612244897925,2.392927961141592
1445539417825,490.0,0.0,360.1,0.4118367346938787,0.2867755601934585,0.04204081632653057,0.2867755601934585,0,0.0,0.0,0,0.0,0.0,0,0.0,0.0,0,0.0,0.0,0,0.0,0.0,0,0.0,0.0,1620,0.0,0.0,0,0.0,0.0,873,0.0,0.0,766,0.0,0.0,1641,2.194393662400981,0.710358793715907,1445539417768,490.0,0.0,100.15367346938788,0.1398823999900028,0.4928571428571431,0.6076240048989567,0.029183673469387817,0.02956250963336964,1.7695918367346932,1.878111692931922
1445539427828,489.2,0.0,378.8,0.41802943581357466,0.28585765768988747,0.04865085854456252,0.28585765768988747,0,0.0,0.0,0,0.0,0.0,0,0.0,0.0,0,0.0,0.0,0,0.0,0.0,0,0.0,0.0,1562,0.0,0.0,0,0.0,0.0,828,0.0,0.0,837,0.0,0.0,1665,2.2750750750750734,0.9964036151536131,1445539427771,489.2,0.0,100.14431725265754,0.1243328602788568,0.4848732624693385,0.4514170152162622,0.027800490596892886,0.02744206364318609,1.7477514309076068,1.7830147752484162
1445539437830,489.2,0.0,362.4,0.39206868356500374,0.2555739654308583,0.045584627964022816,0.2555739654308583,0,0.0,0.0,0,0.0,0.0,0,0.0,0.0,0,0.0,0.0,0,0.0,0.0,0,0.0,0.0,1609,0.0,0.0,0,0.0,0.0,848,0.0,0.0,795,0.0,0.0,1640,2.209756097560974,0.66982544383101,1445539437772,488.9,0.0,100.14501943137667,0.12892414548977477,0.41501329515238183,0.2747418216317141,0.033953773777868804,0.0328076255222736,1.6645530783391298,1.562575091750441
1445539447837,487.5,0.0,371.7,0.41210256410256446,0.30633687909682966,0.0533333333333334,0.30633687909682966,0,0.0,0.0,0,0.0,0.0,0,0.0,0.0,0,0.0,0.0,0,0.0,0.0,0,0.0,0.0,1591,6.285355122564445E-4,6.285355122564427E-4,0,0.0,0.0,806,0.0,0.0,837,0.0,0.0,1641,2.26447288238879,0.8897675420995546,1445539447778,487.7,0.0,100.15501332786553,0.13757381544989467,0.5054336682386715,0.9235246119343066,0.02809103957350838,0.028538049134214434,1.7365183514455582,1.968914290731649
1445539457839,489.6,0.0,360.6,0.4048202614379077,0.35743539158939014,0.041258169934640515,0.35743539158939014,0,0.0,0.0,0,0.0,0.0,0,0.0,0.0,0,0.0,0.0,0,0.0,0.0,0,0.0,0.0,1645,6.079027355623126E-4,6.079027355623104E-4,0,0.0,0.0,789,0.0,0.0,834,0.0,0.0,1628,2.214373464373463,0.7524177387422631,1445539457780,489.7,0.0,100.1525423728815,0.13746953583693292,0.44394527261588695,0.5038527322984188,0.025934245456401835,0.025266820021862126,1.6861343679803975,1.639417590601687
1445539467840,489.1,0.0,366.4,0.4217951339194445,8.391582134708418,0.04866080556123491,8.391582134708418,0,0.0,0.0,0,0.0,0.0,0,0.0,0.0,0,0.0,0.0,0,0.0,0.0,0,0.0,0.0,1623,0.0,0.0,0,0.0,0.0,861,0.0,0.0,775,0.001290322580645162,0.0012903225806451624,1632,2.244485294117654,0.9217966693115007,1445539467781,488.9,0.0,100.14972386991202,0.1355159834747096,0.45346696665984815,0.76343366098918,0.02843117201881781,0.02762849163039775,1.7357332787891102,9.972292838828873
1445539477841,487.6,0.0,350.7,0.3820754716981122,0.2468089017900346,0.044708777686628495,0.2468089017900346,0,0.0,0.0,0,0.0,0.0,0,0.0,0.0,0,0.0,0.0,0,0.0,0.0,0,0.0,0.0,1629,0.0,0.0,0,0.0,0.0,801,0.0,0.0,823,0.002430133657351157,0.002427177290371406,1623,2.1595810227972887,0.4572555580120238,1445539477782,487.4,0.0,100.15264669675844,0.13552859790925778,0.4218301189987686,0.3198681049330038,0.029749692244562972,0.03010184580844214,1.6483381206401262,1.5598710319674094
1445539487848,488.7,0.0,364.9,0.40638428483732436,0.26134277738703926,0.03990178023327188,0.26134277738703926,0,0.0,0.0,0,0.0,0.0,0,0.0,0.0,0,0.0,0.0,0,0.0,0.0,0,0.0,0.0,1578,6.337135614702174E-4,6.337135614702162E-4,0,0.0,0.0,795,0.0012578616352201275,0.0012578616352201262,858,0.0023310023310023345,0.0023282823749568205,1656,2.2010869565217397,0.742016944699855,1445539487788,489.1,0.0,100.14312001635672,0.12470674612482638,0.45961970967082294,0.537581777640078,0.02392148844817017,0.02376302369152635,1.7057861378041275,1.7136250004703812
1445539497871,490.0,0.0,354.6,0.39734693877551014,0.2619647908152858,0.05081632653061225,0.2619647908152858,0,0.0,0.0,0,0.0,0.0,0,0.0,0.0,0,0.0,0.0,0,0.0,0.0,0,0.0,0.0,1634,0.0012239902080783403,0.0012232406733520156,0,0.0,0.0,832,0.0012019230769230779,0.0012019230769230772,806,0.0,0.0,1628,2.176289926289929,0.5263704924122872,1445539497809,490.0,0.0,100.14510204081603,0.12570574586233813,0.44204081632653036,0.3961093267680611,0.031020408163265432,0.031697264331329564,1.6540816326530596,1.4534942574702892
1445539507879,488.5,0.0,367.8,0.4262026612077788,0.40553768619275266,0.045445240532241644,0.40553768619275266,0,0.0,0.0,0,0.0,0.0,0,0.0,0.0,0,0.0,0.0,0,0.0,0.0,0,0.0,0.0,1663,6.013229104028887E-4,6.013229104028866E-4,0,0.0,0.0,780,0.0012820512820512827,0.001282051282051282,828,0.0,0.0,1614,2.2775712515489484,1.187630551336685,1445539507813,488.1,0.0,100.13890596189327,0.1266028192287931,0.6562179881171883,3.7403962672255417,0.023970497848801474,0.024630215522887335,1.8510551116574447,2.6108026774948634
1445539517885,486.9,0.0,362.1,0.3889915793797496,0.34454600424296483,0.044362292051755924,0.34454600424296483,0,0.0,0.0,0,0.0,0.0,0,0.0,0.0,0,0.0,0.0,0,0.0,0.0,0,0.0,0.0,1616,6.188118811881198E-4,6.188118811881193E-4,0,0.0,0.0,819,0.006105006105006105,0.020745079424786032,810,0.0,0.0,1624,2.2259852216748746,0.60509145018196,1445539517816,485.8,0.0,100.13976945244961,0.12437647555831483,0.6247426924660361,4.033952219140527,0.02614244545080278,0.02628781334728192,1.8182379580074104,2.37564424890272
1445539527893,488.5,0.0,348.6,0.3909928352098254,0.29631525076765586,0.051381780962128934,0.29631525076765586,0,0.0,0.0,0,0.0,0.0,0,0.0,0.0,0,0.0,0.0,0,0.0,0.0,0,0.0,0.0,1606,0.0012453300124533014,0.001244554105903485,0,0.0,0.0,792,0.0,0.0,847,0.0011806375442739092,0.001180637544273908,1640,2.1237804878048796,0.47338167234631573,1445539527834,490.0,0.0,100.1393877551022,0.12447400760671785,0.45551020408163373,0.6432539751969376,0.025510204081632668,0.024864507958725406,1.686938775510204,1.6786617843708185
1445539537901,489.9,0.0,354.7,0.3827311696264559,0.24936281277060005,0.04837721984078393,0.24936281277060005,0,0.0,0.0,0,0.0,0.0,0,0.0,0.0,0,0.0,0.0,0,0.0,0.0,0,0.0,0.0,1641,6.09384521633153E-4,6.093845216331508E-4,0,0.0,0.0,856,0.002336448598130843,0.004672897196261681,769,0.0,0.0,1633,2.170238824249845,0.6658539257711658,1445539537843,489.9,0.0,100.14635639926533,0.1310866602137369,0.44662175954276434,0.4758659840997193,0.025515411308430234,0.024869451528470064,1.6809552969993877,1.4965972089036452
1445539547924,490.0,0.0,372.9,0.36999999999999933,0.2490691977954687,0.04224489795918367,0.2490691977954687,0,0.0,0.0,0,0.0,0.0,0,0.0,0.0,0,0.0,0.0,0,0.0,0.0,0,0.0,0.0,1563,6.397952655150372E-4,6.397952655150357E-4,0,0.0,0.0,823,0.0,0.0,843,0.0011862396204033226,0.0011862396204033218,1671,2.230400957510474,1.05646444991525,1445539547850,489.1,0.0,100.1494581885093,0.13369040167679835,0.4166837047638528,0.2651939897119168,0.02146800245348603,0.021011423260201202,1.7620118585156415,2.296724295155876
1445539557933,485.9,0.0,373.1,0.38567606503395846,0.5021084919980154,0.04568841325375603,0.5021084919980154,0,0.0,0.0,0,0.0,0.0,0,0.0,0.0,0,0.0,0.0,0,0.0,0.0,0,0.0,0.0,1633,0.0,0.0,0,0.0,0.0,791,0.0012642225031605568,0.0012642225031605568,825,0.0,0.0,1610,2.3167701863354,2.6329690521870424,1445539557871,486.8,0.0,100.14667214461798,0.127650727089132,0.5427280197206256,1.5089608736178552,0.028142974527526763,0.027767497943235887,1.9266639276910411,5.725666534248145
1445539567954,489.0,0.0,369.2,0.39386503067484613,0.2653745041767731,0.0439672801635992,0.2653745041767731,0,0.0,0.0,0,0.0,0.0,0,0.0,0.0,0,0.0,0.0,0,0.0,0.0,0,0.0,0.0,1629,0.0,0.0,0,0.0,0.0,799,0.0,0.0,835,0.0,0.0,1627,2.2692071296865395,0.9139528150044879,1445539567891,489.0,0.0,100.14498977505104,0.1276748311492631,0.6715746421267904,203.5317138218974,0.03047034764826175,0.02995702969940878,1.7617586912065493,1.8616176877184807
1445539577978,490.0,0.0,345.9,0.3846938775510204,0.2739032538918807,0.039591836734694096,0.2739032538918807,0,0.0,0.0,0,0.0,0.0,0,0.0,0.0,0,0.0,0.0,0,0.0,0.0,0,0.0,0.0,1701,0.0,0.0,0,0.0,0.0,777,0.0,0.0,820,0.0,0.0,1602,2.159176029962545,0.47870712826955064,1445539577921,490.0,0.0,100.14489795918374,0.12882679097358543,0.4155102040816328,0.34252321381706513,0.029591836734693882,0.029946761313220924,1.6281632653061244,1.5440933801567158
1445539588005,490.0,0.0,354.8,0.3799999999999998,0.36261277811798365,0.040816326530612394,0.36261277811798365,0,0.0,0.0,0,0.0,0.0,0,0.0,0.0,0,0.0,0.0,0,0.0,0.0,0,0.0,0.0,1670,0.0,0.0,0,0.0,0.0,795,0.0,0.0,821,0.0,0.0,1614,2.19826517967782,0.5211129215766263,1445539587924,489.9,0.0,100.1502347417843,0.1329986178127698,0.612778117983263,4.820833011395333,0.028373137374974475,0.031248700266410478,1.7615839967340334,2.2248938563057097
1445539598007,488.0,0.0,368.4,0.39405737704918187,0.3277777544444411,0.046721311475409796,0.3277777544444411,0,0.0,0.0,0,0.0,0.0,0,0.0,0.0,0,0.0,0.0,0,0.0,0.0,0,0.0,0.0,1585,0.0,0.0,0,0.0,0.0,824,0.0,0.0,824,0.0,0.0,1647,2.236794171220398,0.9305287200632106,1445539597927,485.8,0.0,100.13894606834091,0.12501778955526227,0.5286125977768634,1.0036077514739565,0.02511321531494444,0.02448758240304238,1.8023878139151925,2.1380054151448573
1445539608018,487.7,0.0,372.1,0.38609801107238134,0.2649666622540422,0.04182899323354524,0.2649666622540422,0,0.0,0.0,0,0.0,0.0,0,0.0,0.0,0,0.0,0.0,0,0.0,0.0,0,0.0,0.0,1699,0.0,0.0,0,0.0,0.0,821,0.0012180267965895269,0.0012180267965895256,767,0.0,0.0,1590,2.3396226415094348,1.090373677523541,1445539607957,490.0,0.0,100.14285714285678,0.13472137170850967,0.4526530612244893,0.3555859379881778,0.025714285714285683,0.026691161461522693,1.8008163265306116,2.0040001499681357
1445539618035,490.0,0.0,333.3,0.37510204081632625,0.25200294937325823,0.0465306122448979,0.25200294937325823,0,0.0,0.0,0,0.0,0.0,0,0.0,0.0,0,0.0,0.0,0,0.0,0.0,0,0.0,0.0,1703,0.0,0.0,0,0.0,0.0,800,0.0,0.0,795,0.001257861635220126,0.0012578616352201257,1602,2.0799001248439426,0.38086994629604964,1445539617972,490.0,0.0,100.1506122448979,0.12917904945199124,0.393469387755101,0.24972260061403548,0.028163265306122447,0.027375682667433232,1.5606122448979576,1.2380073817647086
1445539628077,490.0,0.0,375.4,0.36938775510204075,0.2509508396132492,0.04408163265306112,0.2509508396132492,0,0.0,0.0,0,0.0,0.0,0,0.0,0.0,0,0.0,0.0,0,0.0,0.0,0,0.0,0.0,1614,0.0,0.0,0,0.0,0.0,825,0.0,0.0,821,0.0,0.0,1640,2.2890243902439007,0.7242235747555775,1445539628015,490.0,0.0,100.13775510204087,0.12288534519747887,0.566122448979591,2.258741850690063,0.027551020408163294,0.02843041686974851,1.907959183673465,2.5885873835143367
1445539638098,489.9,0.0,365.3,0.3935497040212292,0.2758750858813946,0.04694835680751179,0.2758750858813946,0,0.0,0.0,0,0.0,0.0,0,0.0,0.0,0,0.0,0.0,0,0.0,0.0,0,0.0,0.0,1602,0.0012484394506866452,0.0012476596633970187,0,0.0,0.0,805,0.0,0.0,845,0.0,0.0,1647,2.216757741347903,0.5113107450417971,1445539638036,489.9,0.0,100.14227393345556,0.1322652242509793,0.4388650745050006,0.4141364005337376,0.023678301694223327,0.023530689465796246,1.7099408042457667,1.4856729038042562
1445539648124,490.0,0.0,336.6,0.38224489795918337,0.24802108718563906,0.044693877551020465,0.24802108718563906,0,0.0,0.0,0,0.0,0.0,0,0.0,0.0,0,0.0,0.0,0,0.0,0.0,0,0.0,0.0,1710,0.0,0.0,0,0.0,0.0,828,0.0012077294685990348,0.001207729468599034,768,0.0,0.0,1594,2.1110414052697597,0.44152270638245544,1445539648059,490.0,0.0,100.14428571428587,0.12839150847111358,0.4191836734693878,0.2965904745241634,0.022857142857142895,0.022339252908756945,1.5895918367346926,1.2944823808274069
1445539658157,490.0,0.0,360.3,0.38489795918367453,0.25476269626037784,0.04387755102040821,0.25476269626037784,0,0.0,0.0,0,0.0,0.0,0,0.0,0.0,0,0.0,0.0,0,0.0,0.0,0,0.0,0.0,1647,0.0,0.0,0,0.0,0.0,814,0.0012285012285012298,0.0012285012285012298,811,0.0,0.0,1628,2.2125307125307088,0.6530205122706656,1445539658094,490.0,0.0,100.14795918367338,0.13874864091380568,0.41204081632653133,0.262316716031177,0.025102040816326485,0.026926403139332884,1.6738775510204098,1.5662086806553641
1445539668185,490.0,0.0,374.2,0.3912244897959173,0.2896555731906965,0.04224489795918366,0.2896555731906965,0,0.0,0.0,0,0.0,0.0,0,0.0,0.0,0,0.0,0.0,0,0.0,0.0,0,0.0,0.0,1642,0.0,0.0,0,0.0,0.0,830,0.0,0.0,798,0.0,0.0,1630,2.2957055214723923,0.8259483969615142,1445539668121,490.0,0.0,100.13836734693903,0.12659459864778433,0.42469387755102034,0.3011251359086196,0.023877551020408255,0.02331217116362779,1.7053061224489787,1.7016660626283595
1445539678204,490.0,0.0,370.4,0.38653061224489815,0.2494204981441447,0.0424489795918368,0.2494204981441447,0,0.0,0.0,0,0.0,0.0,0,0.0,0.0,0,0.0,0.0,0,0.0,0.0,0,0.0,0.0,1628,0.0012285012285012293,0.0012277461570639199,0,0.0,0.0,860,0.0,0.0,777,0.0,0.0,1635,2.2642201834862425,1.0133763039987416,1445539678136,490.0,0.0,100.14326530612236,0.1280726179020289,0.39653061224489816,0.2470996163315289,0.02346938775510213,0.02292325380856571,1.6865306122448984,1.9233539539514464
1445539688207,489.6,0.0,358.0,0.4338235294117645,0.5913296881571852,0.04105392156862747,0.5913296881571852,0,0.0,0.0,0,0.0,0.0,0,0.0,0.0,0,0.0,0.0,0,0.0,0.0,0,0.0,0.0,1646,6.075334143377912E-4,6.075334143377892E-4,0,0.0,0.0,810,0.001234567901234569,0.0012345679012345685,813,0.0,0.0,1627,2.1991395205900353,1.080860267729904,1445539688138,489.0,0.0,100.1390593047032,0.12506436342843733,0.5756646216768915,2.8919010206544207,0.02576687116564426,0.025517155703237652,1.723108384458077,2.3393513504921706
1445539698216,488.6,0.0,349.9,0.4040114613180512,0.27276998472019803,0.04564060581252553,0.27276998472019803,0,0.0,0.0,0,0.0,0.0,0,0.0,0.0,0,0.0,0.0,0,0.0,0.0,0,0.0,0.0,1637,0.0,0.0,0,0.0,0.0,780,0.0,0.0,847,0.0,0.0,1622,2.1572133168927254,0.5335660729132362,1445539698141,489.1,0.0,100.1463913310159,0.12662245541767464,0.41913719075853595,0.2729588464100215,0.03025966060110407,0.029350014362175124,1.6317726436311546,1.4007817037177344
1445539708220,489.8,0.0,356.3,0.38730093915884073,0.24592405930481567,0.04144548795426702,0.24592405930481567,0,0.0,0.0,0,0.0,0.0,0,0.0,0.0,0,0.0,0.0,0,0.0,0.0,0,0.0,0.0,1651,0.0,0.0,0,0.0,0.0,820,0.0,0.0,804,0.0,0.0,1623,2.1953173136167585,0.9550458764386497,1445539708142,489.3,0.0,100.14040465971786,0.12398650833478377,0.41508277130594695,0.4648337881188919,0.03086041283466175,0.02991416141904454,1.612712037604744,1.5296584855398603
1445539718224,489.2,0.0,362.4,0.4076042518397384,0.2590957108631282,0.049877350776778365,0.2590957108631282,0,0.0,0.0,0,0.0,0.0,0,0.0,0.0,0,0.0,0.0,0,0.0,0.0,0,0.0,0.0,1668,5.995203836930479E-4,5.995203836930457E-4,0,0.0,0.0,820,0.0,0.0,789,0.0012674271229404324,0.001267427122940431,1615,2.2427244582043335,0.8753729940420703,1445539718145,489.2,0.0,100.1465658217497,0.13083465667662986,0.49959116925592745,0.738703574389392,0.025551921504497064,0.026130854592504082,1.728536385936218,1.7099767574163354
1445539728226,488.4,0.0,379.0,0.4058149058149053,0.29770117892173964,0.04361179361179363,0.29770117892173964,0,0.0,0.0,0,0.0,0.0,0,0.0,0.0,0,0.0,0.0,0,0.0,0.0,0,0.0,0.0,1663,6.013229104028881E-4,6.01322910402886E-4,0,0.0,0.0,810,0.0,0.0,802,0.0,0.0,1609,2.3548788067122435,1.156942911298077,1445539728147,487.3,0.0,100.14262261440587,0.12559057532592152,0.48532731376975025,0.5162563429668607,0.024830699774266333,0.02462961521496583,1.7763184896367759,2.000038414142876
1445539738231,487.8,0.0,380.7,0.4108241082410824,0.3077113978029259,0.05104551045510442,0.3077113978029259,0,0.0,0.0,0,0.0,0.0,0,0.0,0.0,0,0.0,0.0,0,0.0,0.0,0,0.0,0.0,1603,6.238303181534646E-4,6.238303181534626E-4,0,0.0,0.0,802,0.0012468827930174572,0.0012468827930174574,833,0.0012004801920768317,0.0012004801920768309,1640,2.3195121951219484,1.5842438131519836,1445539738149,489.4,0.0,100.14936657131197,0.13280462627653078,0.4728238659583165,0.5681352082919361,0.027993461381283308,0.028441630041030966,1.7257866775643633,2.0874730679115907
1445539748244,488.9,0.0,360.4,0.4262630394763751,0.43978474339837115,0.04336265084884444,0.43978474339837115,0,0.0,0.0,0,0.0,0.0,0,0.0,0.0,0,0.0,0.0,0,0.0,0.0,0,0.0,0.0,1602,6.242197253433229E-4,6.242197253433212E-4,0,0.0,0.0,779,0.0,0.0,865,0.0,0.0,1643,2.1929397443700562,1.07054695556315,1445539748153,488.8,0.0,100.14668576104734,0.12887790246142053,0.4750409165302783,0.6942817662812943,0.02761865793780686,0.028089110124492733,1.7096972176759366,1.9547903318768534
1445539758257,490.0,0.0,341.3,0.398367346938775,0.25768257578597914,0.04142857142857148,0.25768257578597914,0,0.0,0.0,0,0.0,0.0,0,0.0,0.0,0,0.0,0.0,0,0.0,0.0,0,0.0,0.0,1698,5.889281507656092E-4,5.889281507656069E-4,0,0.0,0.0,821,0.0012180267965895256,0.0012180267965895256,780,0.0,0.0,1601,2.1305434103685186,0.36357276702061275,1445539758154,489.2,0.0,100.14860997547004,0.12982223427380604,0.41291905151267433,0.2657745892341842,0.028618152085036794,0.027804837192413553,1.607522485690925,1.2779478986969102
1445539768264,489.7,0.0,357.2,0.3792117623034508,0.2558831203844958,0.048601184398611344,0.2558831203844958,0,0.0,0.0,0,0.0,0.0,0,0.0,0.0,0,0.0,0.0,0,0.0,0.0,0,0.0,0.0,1610,0.0018633540372670829,0.0018610378731436928,0,0.0,0.0,828,0.0012077294685990366,0.0012077294685990344,816,0.0,0.0,1643,2.171637248934874,0.5247249060903563,1445539768155,487.4,0.0,100.15839146491572,0.13702478741739058,0.41362330734509734,0.3534035321962422,0.02831350020517041,0.03039046521068878,1.6770619614279831,1.5123528683126675
1445539778273,489.4,0.0,346.2,0.4072333469554557,0.36815531157117964,0.042705353494074505,0.36815531157117964,0,0.0,0.0,0,0.0,0.0,0,0.0,0.0,0,0.0,0.0,0,0.0,0.0,0,0.0,0.0,1709,0.0,0.0,0,0.0,0.0,824,0.0,0.0,772,0.0,0.0,1589,2.178728760226558,0.5637537985489033,1445539778178,490.0,0.0,100.14999999999958,0.13446621759542385,0.43551020408163177,0.6010657735231226,0.026326530612244898,0.029312896009597973,1.6812244897959143,1.7713967448583854
1445539788276,479.6,0.0,358.8,0.418265221017514,8.672984351749509,0.042952460383653086,8.672984351749509,0,0.0,0.0,0,0.0,0.0,0,0.0,0.0,0,0.0,0.0,0,0.0,0.0,0,0.0,0.0,1567,0.0,0.0,0,0.0,0.0,774,0.0,0.0,839,0.0,0.0,1616,2.2202970297029703,0.5359592925236801,1445539788197,480.6,0.0,101.63254265501484,243.64517592690095,0.46691635455680514,8.59110087416745,0.02767374115688717,0.02816220445913297,1.9821057012068233,35.04775464938676
1445539798278,488.3,0.0,372.4,0.3790702437026432,0.2694266650771017,0.042801556420233366,0.2694266650771017,0,0.0,0.0,0,0.0,0.0,0,0.0,0.0,0,0.0,0.0,0,0.0,0.0,0,0.0,0.0,1693,0.0011813349084465474,0.001180636719966376,0,0.0,0.0,797,0.0,0.0,796,0.0037688442211055275,0.0037593628519958272,1597,2.328741390106451,1.5917360715502027,1445539798211,490.0,0.0,100.15673469387768,0.1440350592165817,0.44183673469387763,0.6594046681746801,0.028775510204081596,0.029177924691003145,1.7753061224489783,2.994001233071302
1445539808334,490.0,0.0,359.4,0.3944897959183675,0.2679018625208808,0.04877551020408151,0.2679018625208808,0,0.0,0.0,0,0.0,0.0,0,0.0,0.0,0,0.0,0.0,0,0.0,0.0,0,0.0,0.0,1673,5.977286312014371E-4,5.97728631201435E-4,0,0.0,0.0,809,0.0,0.0,804,0.0,0.0,1614,2.226146220570008,0.6388447795982307,1445539808263,490.0,0.0,100.14979591836727,0.13718101570083022,0.5146938775510206,1.522339669486903,0.025306122448979604,0.02507900404497378,1.7157142857142806,1.650743008777299
1445539818366,490.0,0.0,352.5,0.36999999999999994,0.2466197183098583,0.04224489795918381,0.2466197183098583,0,0.0,0.0,0,0.0,0.0,0,0.0,0.0,0,0.0,0.0,0,0.0,0.0,0,0.0,0.0,1669,0.0,0.0,0,0.0,0.0,825,0.0012121212121212134,0.0012121212121212123,792,0.0,0.0,1614,2.183395291201983,0.5528301263510313,1445539818298,490.0,0.0,100.14306122449015,0.13200940633448577,0.44285714285714217,0.352112676056338,0.027142857142857135,0.02681975913451724,1.7185714285714295,1.5596876913655813
1445539828423,490.0,0.0,384.1,0.3589795918367347,0.27914980566629605,0.04224489795918374,0.27914980566629605,0,0.0,0.0,0,0.0,0.0,0,0.0,0.0,0,0.0,0.0,0,0.0,0.0,0,0.0,0.0,1652,0.0,0.0,0,0.0,0.0,806,0.0,0.0,820,0.0012195121951219519,0.0012195121951219525,1622,2.367447595561035,1.3072185274803352,1445539828355,490.0,0.0,100.15510204081647,0.15025973647266577,0.5304081632653076,2.128693444309752,0.027346938775510175,0.027829252950414794,1.9940816326530544,3.5204793564700885
1445539838451,490.0,0.0,354.7,0.396734693877551,0.2593892131255434,0.04122448979591843,0.2593892131255434,0,0.0,0.0,0,0.0,0.0,0,0.0,0.0,0,0.0,0.0,0,0.0,0.0,0,0.0,0.0,1711,0.0017533606078316787,0.0017513098936704715,0,0.0,0.0,812,0.0,0.0,779,0.0,0.0,1598,2.2177722152690897,0.6325706130784966,1445539838382,490.0,0.0,100.14020408163266,0.12628695568858392,0.418979591836735,0.3145202894384938,0.024897959183673463,0.025507746270584254,1.677142857142855,1.644670340885895
