timeStamp,totalRequests,failedRequests,totalHandleTime,upstreamTime,upstreamTimeVar,downstreamTime,downstreamTimeVar,CREATE_CLIENT_N,CREATE_CLIENT_time,CREATE_CLIENT_timeVar,CLIENT_LIST_N,CLIENT_LIST_time,CLIENT_LIST_timeVar,QUEUE_LIST_N,QUEUE_LIST_time,QUEUE_LIST_timeVar,MESSAGE_COUNT_N,MESSAGE_COUNT_time,MESSAGE_COUNT_timeVar,CREATE_QUEUE_N,CREATE_QUEUE_time,CREATE_QUEUE_timeVar,DELETE_QUEUE_N,DELETE_QUEUE_time,DELETE_QUEUE_timeVar,SEND_MESSAGE_N,SEND_MESSAGE_time,SEND_MESSAGE_timeVar,RECEIVE_MESSAGE_N,RECEIVE_MESSAGE_time,RECEIVE_MESSAGE_timeVar,POP_QUEUE_N,POP_QUEUE_time,POP_QUEUE_timeVar,TOP_QUEUE_N,TOP_QUEUE_time,TOP_QUEUE_timeVar,INBOX_QUEUES_N,INBOX_QUEUES_time,INBOX_QUEUES_timeVar,timeStamp,totalRequests,failedRequests,clientThinkTime,clientThinkTimeVar,waitingForConnectionTime,waitingForConnectionTimeVar,upstreamTime,upstreamTimeVar,waitingForResponseTime,waitingForResponseTimeVar
1445529875178,700.0,0.0,1030.0,0.3857142857142855,0.7408542816268135,0.06857142857142864,0.7408542816268135,0,0.0,0.0,70,1.0571428571428572,0.7503105590062112,0,0.0,0.0,70,0.6285714285714287,0.23685300207039342,0,0.0,0.0,0,0.0,0.0,560,1.6285714285714292,0.809915665729619,0,0.0,0.0,0,0.0,0.0,0,0.0,0.0,0,0.0,0.0,1445529875637,700.0,0.0,100.17571428571434,0.14790721438790017,0.44285714285714267,0.2756999795626402,0.024285714285714296,0.02372981810750053,2.578571428571429,0.713417126507254
1445529876213,700.0,0.0,945.0,0.37714285714285717,0.33252401389740427,0.04857142857142859,0.33252401389740427,0,0.0,0.0,70,0.6285714285714284,0.3238095238095238,0,0.0,0.0,70,0.7000000000000001,0.21304347826086958,0,0.0,0.0,0,0.0,0.0,560,1.5214285714285716,0.3179657551750578,0,0.0,0.0,0,0.0,0.0,0,0.0,0.0,0,0.0,0.0,1445529876670,700.0,0.0,100.20000000000005,0.2889842632331946,0.40857142857142836,0.2620151236460248,0.03857142857142855,0.037136725935009204,2.571428571428573,1.1379521765787868
1445529877244,700.0,0.0,980.0,0.31714285714285706,0.23976292662987927,0.061428571428571416,0.23976292662987927,0,0.0,0.0,1,1.0,0.0,0,0.0,0.0,70,0.8000000000000002,0.1623188405797102,0,0.0,0.0,0,0.0,0.0,629,1.467408585055644,0.30984375158223043,0,0.0,0.0,0,0.0,0.0,0,0.0,0.0,0,0.0,0.0,1445529877671,699.0,0.0,100.13733905579397,0.11864677742661352,0.43347639484978506,0.25452242458526503,0.030042918454935605,0.05783538497485153,2.87839771101574,2.628458173977567
1445529878246,699.0,0.0,1053.0,0.34334763948497876,0.4435480895753662,0.05436337625178829,0.4435480895753662,0,0.0,0.0,69,1.0289855072463765,1.6756180733162824,0,0.0,0.0,70,1.428571428571429,1.1759834368530016,0,0.0,0.0,0,0.0,0.0,560,1.5750000000000008,0.7349731663685148,0,0.0,0.0,0,0.0,0.0,0,0.0,0.0,0,0.0,0.0,1445529878675,670.0,0.0,100.17462686567166,0.20114896370167046,0.5462686567164179,0.565120585413739,0.03432835820895519,0.036189010106418534,3.0716417910447746,2.565861276576758
1445529879249,670.0,0.0,1006.0,0.3597014925373138,0.2695245744372303,0.05373134328358209,0.2695245744372303,0,0.0,0.0,70,0.685714285714286,0.3055900621118012,0,0.0,0.0,70,1.0857142857142854,0.16645962732919262,0,0.0,0.0,0,0.0,0.0,530,1.6641509433962265,0.8094874629953275,0,0.0,0.0,0,0.0,0.0,0,0.0,0.0,0,0.0,0.0,1445529879676,683.0,0.0,100.17130307467063,0.1685594432016761,0.440702781844802,0.2556429071330125,0.024890190336749624,0.024306256252603034,2.4714494875549042,1.0589344061690922
1445529880251,686.0,0.0,968.0,0.3542274052478133,0.23200400076610384,0.05830903790087461,0.23200400076610384,0,0.0,0.0,70,0.8428571428571427,1.2068322981366453,0,0.0,0.0,26,1.2692307692307694,0.20461538461538467,0,0.0,0.0,0,0.0,0.0,590,1.4847457627118643,0.487882363097465,0,0.0,0.0,0,0.0,0.0,0,0.0,0.0,0,0.0,0.0,1445529880692,678.0,0.0,100.146017699115,0.12488072051345969,0.42625368731563407,0.2744648218106083,0.03392330383480822,0.03282092173087064,2.4070796460176984,0.8798316361877629
1445529881266,675.0,0.0,947.0,0.3451851851851849,0.31835586328167925,0.05925925925925931,0.31835586328167925,0,0.0,0.0,70,0.6285714285714287,0.26583850931677006,0,0.0,0.0,44,1.1590909090909094,0.1834038054968288,0,0.0,0.0,0,0.0,0.0,561,1.5187165775401066,0.4750954927425518,0,0.0,0.0,0,0.0,0.0,0,0.0,0.0,0,0.0,0.0,1445529881722,700.0,0.0,100.15285714285716,0.12967708972000927,0.4471428571428572,0.4220948293480482,0.025714285714285735,0.025088902513795263,2.592857142857145,1.7209789495197212
1445529882296,700.0,0.0,949.0,0.3771428571428566,0.2552707950132845,0.04428571428571424,0.2552707950132845,0,0.0,0.0,70,0.6142857142857142,0.2693581780538301,0,0.0,0.0,70,1.3,0.24202898550724636,0,0.0,0.0,0,0.0,0.0,560,1.4553571428571421,0.4953200868898547,0,0.0,0.0,0,0.0,0.0,0,0.0,0.0,0,0.0,0.0,1445529882754,700.0,0.0,100.18,0.1506723891273234,0.4357142857142855,0.2748313917841817,0.031428571428571486,0.0333455957490292,2.620000000000001,1.1686981402002863
1445529883298,698.0,0.0,1078.0,0.3137535816618913,0.24144614866003689,0.05300859598853865,0.24144614866003689,0,0.0,0.0,0,0.0,0.0,0,0.0,0.0,70,1.7,0.5608695652173916,0,0.0,0.0,0,0.0,0.0,628,1.5270700636942656,0.5463154847164227,0,0.0,0.0,0,0.0,0.0,0,0.0,0.0,0,0.0,0.0,1445529883781,700.0,0.0,100.16714285714288,0.23382587369712118,0.4214285714285713,0.2899550378091152,0.02571428571428572,0.025088902513795214,2.2985714285714276,1.4915573267933777
1445529884300,681.0,0.0,702.0,0.38032305433186486,0.27425930724712827,0.05580029368575624,0.27425930724712827,0,0.0,0.0,70,0.6285714285714288,0.29482401656314705,0,0.0,0.0,70,1.8285714285714285,0.6658385093167701,0,0.0,0.0,0,0.0,0.0,299,0.7023411371237464,0.7869408094094421,0,0.0,0.0,48,0.0,0.0,64,0.015625,0.015625000000000003,130,2.4538461538461545,0.7304114490160998,1445529884805,700.0,0.0,100.16571428571432,0.1556182301246676,0.4042857142857143,0.2411833231146534,0.014285714285714282,0.014101778050275886,1.7271428571428553,1.6836685060290193
1445529885302,673.0,0.0,503.0,0.3982169390787517,0.24297300643883116,0.057949479940564645,0.24297300643883116,0,0.0,0.0,0,0.0,0.0,0,0.0,0.0,0,0.0,0.0,0,0.0,0.0,0,0.0,0.0,229,0.0,0.0,0,0.0,0.0,114,0.0,0.0,106,0.009433962264150947,0.009433962264150941,224,2.241071428571427,0.5783952594490711,1445529885826,700.0,0.0,100.1328571428572,0.11537093807480066,0.41285714285714253,0.2484753729818107,0.03142857142857146,0.03906805640711218,1.6542857142857157,1.3080645820559993
1445529886303,683.0,0.0,495.0,0.3997071742313323,0.2520233745378974,0.04831625183016108,0.2520233745378974,0,0.0,0.0,0,0.0,0.0,0,0.0,0.0,0,0.0,0.0,0,0.0,0.0,0,0.0,0.0,232,0.0,0.0,0,0.0,0.0,110,0.0,0.0,116,0.0,0.0,225,2.2,0.40178571428571447,1445529886846,700.0,0.0,100.14142857142862,0.12160024524831477,0.40142857142857113,0.24634988759452275,0.029999999999999978,0.02914163090128756,1.7828571428571416,1.7467729409360304
1445529887316,695.0,0.0,536.0,0.3798561151079134,0.2503141003047706,0.056115107913669096,0.2503141003047706,0,0.0,0.0,0,0.0,0.0,0,0.0,0.0,0,0.0,0.0,0,0.0,0.0,0,0.0,0.0,237,0.004219409282700422,0.00421940928270042,0,0.0,0.0,111,0.0,0.0,119,0.0,0.0,228,2.3464912280701755,0.7120140660020097,1445529887868,700.0,0.0,100.18285714285715,0.15821786225219636,0.3842857142857143,0.24553239321479664,0.03714285714285717,0.035814428775802154,1.9171428571428561,2.5596484774167174
1445529888339,700.0,0.0,664.0,0.39,0.2811587982832618,0.04714285714285718,0.2811587982832618,0,0.0,0.0,0,0.0,0.0,0,0.0,0.0,0,0.0,0.0,0,0.0,0.0,0,0.0,0.0,199,0.0,0.0,0,0.0,0.0,105,0.0,0.0,139,0.007194244604316547,0.007194244604316547,257,2.5797665369649807,1.8070890077821011,1445529888869,697.0,0.0,100.16642754662841,0.1935264433780226,0.42754662840746055,0.27383779415887455,0.01865136298421807,0.01832978776035224,1.8335724533715934,2.2739862134929676
1445529889340,698.0,0.0,534.0,0.4154727793696275,0.36085063699111625,0.04297994269340976,0.36085063699111625,0,0.0,0.0,0,0.0,0.0,0,0.0,0.0,0,0.0,0.0,0,0.0,0.0,0,0.0,0.0,229,0.0,0.0,0,0.0,0.0,123,0.0,0.0,115,0.008695652173913047,0.008695652173913042,231,2.3073593073593064,0.6920760399021265,1445529889870,675.0,0.0,100.14222222222219,0.12217606330365859,0.45037037037037064,0.4645213759753811,0.029629629629629648,0.028794373008022865,1.7600000000000007,1.8889020771513352
1445529890342,675.0,0.0,559.0,0.41185185185185214,0.39985932520057177,0.03999999999999997,0.39985932520057177,0,0.0,0.0,0,0.0,0.0,0,0.0,0.0,0,0.0,0.0,0,0.0,0.0,0,0.0,0.0,204,0.0,0.0,0,0.0,0.0,115,0.0,0.0,120,0.0,0.0,236,2.3686440677966116,0.8975658131987019,1445529890873,686.0,0.0,100.13265306122452,0.11522419186652709,0.3921282798833817,0.24163137622097833,0.03790087463556852,0.03651763103573027,1.6836734693877535,1.5917622523461934
1445529891343,685.0,0.0,533.0,0.4116788321167882,0.24255346395185037,0.024817518248175203,0.24255346395185037,0,0.0,0.0,0,0.0,0.0,0,0.0,0.0,0,0.0,0.0,0,0.0,0.0,0,0.0,0.0,224,0.0,0.0,0,0.0,0.0,123,0.0,0.0,110,0.0,0.0,228,2.337719298245614,0.7885269340752763,1445529891874,690.0,0.0,100.16666666666673,0.13909046927914748,0.38550724637681155,0.23723522853957632,0.031884057971014526,0.030912265202667148,1.5275362318840573,1.2510548789465945
1445529892346,690.0,0.0,461.0,0.3884057971014493,0.2407942617950824,0.04057971014492758,0.2407942617950824,0,0.0,0.0,0,0.0,0.0,0,0.0,0.0,0,0.0,0.0,0,0.0,0.0,0,0.0,0.0,262,0.0038167938931297713,0.0038167938931297717,0,0.0,0.0,104,0.0,0.0,108,0.0,0.0,216,2.129629629629628,0.23428079242032723,1445529892877,682.0,0.0,100.15395894428156,0.1363205739360339,0.41202346041055743,0.26611073072633423,0.03225806451612904,0.031263322438539146,1.6495601173020524,1.7081422438108547
1445529893351,684.0,0.0,489.0,0.3786549707602342,0.2531894034745234,0.04824561403508776,0.2531894034745234,0,0.0,0.0,0,0.0,0.0,0,0.0,0.0,0,0.0,0.0,0,0.0,0.0,0,0.0,0.0,243,0.0,0.0,0,0.0,0.0,113,0.0,0.0,109,0.0,0.0,219,2.232876712328767,1.0143270076662056,1445529893895,694.0,0.0,100.15129682997114,0.12859138939830467,0.45533141210374656,0.2974246374822742,0.033141210374639775,0.03208910845798449,1.706051873198847,1.9134698154871048
1445529894366,692.0,0.0,510.0,0.44653179190751496,0.30249157207030064,0.040462427745664754,0.30249157207030064,0,0.0,0.0,0,0.0,0.0,0,0.0,0.0,0,0.0,0.0,0,0.0,0.0,0,0.0,0.0,239,0.0,0.0,0,0.0,0.0,100,0.0,0.0,126,0.0,0.0,227,2.246696035242291,0.5317921328603171,1445529894896,697.0,0.0,100.13773314203736,0.11893335971899256,0.48637015781922555,1.6955754547403523,0.028694404591104703,0.027911080327841814,1.5408895265423226,1.3119032305941716
1445529895369,698.0,0.0,450.0,0.3911174785100283,0.23848626738416354,0.04727793696275072,0.23848626738416354,0,0.0,0.0,0,0.0,0.0,0,0.0,0.0,0,0.0,0.0,0,0.0,0.0,0,0.0,0.0,274,0.0,0.0,0,0.0,0.0,115,0.0,0.0,98,0.0,0.0,211,2.1327014218009475,0.35373504852177845,1445529895899,680.0,0.0,100.15147058823527,0.13755306246209845,0.40882352941176475,0.25971584510092705,0.02647058823529411,0.025807848912760986,1.560294117647059,1.324783418522046
1445529896374,680.0,0.0,486.0,0.39411764705882324,0.2509226370960755,0.04852941176470587,0.2509226370960755,0,0.0,0.0,0,0.0,0.0,0,0.0,0.0,0,0.0,0.0,0,0.0,0.0,0,0.0,0.0,244,0.0,0.0,0,0.0,0.0,107,0.009345794392523366,0.009345794392523366,109,0.0,0.0,220,2.2045454545454533,0.5104815276048154,1445529896902,686.0,0.0,100.17346938775519,0.16110531803962228,0.39212827988338234,0.23871166819178125,0.023323615160349847,0.022812879061948038,1.7419825072886301,1.97566555297823
1445529897377,688.0,0.0,602.0,0.3735465116279069,0.2343501404827188,0.03924418604651163,0.2343501404827188,0,0.0,0.0,0,0.0,0.0,0,0.0,0.0,0,0.0,0.0,0,0.0,0.0,0,0.0,0.0,201,0.0,0.0,0,0.0,0.0,125,0.0,0.0,119,0.0,0.0,243,2.4773662551440334,1.3744855967078182,1445529897905,688.0,0.0,100.13808139534885,0.12209937036660917,0.40116279069767435,0.24058088757997353,0.029069767441860454,0.028265800074472772,1.5886627906976747,1.3429280491520275
1445529898378,690.0,0.0,488.0,0.38550724637681133,0.24013798615931525,0.047826086956521754,0.24013798615931525,0,0.0,0.0,0,0.0,0.0,0,0.0,0.0,0,0.0,0.0,0,0.0,0.0,0,0.0,0.0,249,0.004016064257028112,0.004016064257028112,0,0.0,0.0,114,0.008771929824561403,0.008771929824561403,108,0.0,0.0,219,2.21917808219178,0.5021993213522687,1445529898907,685.0,0.0,100.14744525547434,0.12588893157467657,0.3737226277372264,0.23439620950185677,0.03357664233576642,0.03249669185128273,1.5693430656934297,1.2280061467537446
1445529899381,681.0,0.0,464.0,0.38179148311306926,0.25696207998617937,0.05580029368575625,0.25696207998617937,0,0.0,0.0,0,0.0,0.0,0,0.0,0.0,0,0.0,0.0,0,0.0,0.0,0,0.0,0.0,248,0.0,0.0,0,0.0,0.0,103,0.0,0.0,112,0.0,0.0,218,2.1284403669724767,0.3336574641694502,1445529899908,692.0,0.0,100.13872832369938,0.11965568874798783,0.4075144508670525,0.24179583915411212,0.04190751445086707,0.04020938072492742,1.6184971098265908,1.486661703320145
1445529900387,693.0,0.0,594.0,0.39538239538239556,0.25096130587460064,0.04617604617604621,0.25096130587460064,0,0.0,0.0,0,0.0,0.0,0,0.0,0.0,0,0.0,0.0,0,0.0,0.0,0,0.0,0.0,231,0.00432900432900433,0.004329004329004328,0,0.0,0.0,106,0.0,0.0,122,0.0,0.0,234,2.534188034188034,3.3743626426029856,1445529900935,673.0,0.0,100.13521545319462,0.13496338357036675,0.8841010401188703,2.843690299299511,0.025260029717682025,0.024658600438689587,2.447251114413075,5.381514009764381
1445529901406,671.0,0.0,586.0,0.38897168405365107,0.3066841648686521,0.04769001490312964,0.3066841648686521,0,0.0,0.0,0,0.0,0.0,0,0.0,0.0,0,0.0,0.0,0,0.0,0.0,0,0.0,0.0,226,0.0,0.0,0,0.0,0.0,123,0.0,0.0,103,0.0,0.0,219,2.675799086757991,1.577897867705584,1445529901957,700.0,0.0,100.14000000000007,0.12057224606580885,0.5771428571428577,0.33881872062129564,0.03285714285714284,0.03182301246678927,2.2000000000000024,2.826895565092993
1445529902428,700.0,0.0,639.0,0.48571428571428565,0.4103821786225222,0.038571428571428534,0.4103821786225222,0,0.0,0.0,0,0.0,0.0,0,0.0,0.0,0,0.0,0.0,0,0.0,0.0,0,0.0,0.0,237,0.0,0.0,0,0.0,0.0,128,0.0,0.0,103,0.0,0.0,232,2.7543103448275867,1.727254067771308,1445529902980,700.0,0.0,100.16714285714289,0.14798896382587404,0.5028571428571433,0.6938401798487636,0.01857142857142856,0.018252605763335365,1.9671428571428546,2.956000408747193
1445529903451,700.0,0.0,605.0,0.41000000000000036,0.3166380543633764,0.04142857142857142,0.3166380543633764,0,0.0,0.0,0,0.0,0.0,0,0.0,0.0,0,0.0,0.0,0,0.0,0.0,0,0.0,0.0,231,0.0,0.0,0,0.0,0.0,122,0.0,0.0,112,0.008928571428571428,0.008928571428571428,235,2.570212765957447,1.835861065648298,1445529904003,700.0,0.0,100.14285714285721,0.12262415695892095,0.4985714285714282,0.39627835683629703,0.024285714285714296,0.02372981810750052,1.8257142857142852,2.0439730226854698
1445529904474,700.0,0.0,582.0,0.3971428571428576,0.29412630288166763,0.03714285714285719,0.29412630288166763,0,0.0,0.0,0,0.0,0.0,0,0.0,0.0,0,0.0,0.0,0,0.0,0.0,0,0.0,0.0,222,0.0,0.0,0,0.0,0.0,125,0.0,0.0,115,0.0,0.0,238,2.4453781512605035,1.1847675779172426,1445529905026,700.0,0.0,100.14,0.12057224606580746,0.6400000000000005,1.8330185979971378,0.027142857142857187,0.026443899448191293,1.8499999999999999,1.8129470672389123
1445529905497,700.0,0.0,545.0,0.3814285714285713,0.23627835683629667,0.047142857142857146,0.23627835683629667,0,0.0,0.0,0,0.0,0.0,0,0.0,0.0,0,0.0,0.0,0,0.0,0.0,0,0.0,0.0,240,0.0041666666666666675,0.0041666666666666675,0,0.0,0.0,122,0.0,0.0,109,0.0,0.0,229,2.3755458515283845,0.8320309507392938,1445529906046,700.0,0.0,100.12857142857139,0.11506233394645449,0.43,0.24831187410586528,0.021428571428571432,0.0209993868792152,1.8771428571428581,2.2853137134682173
1445529906516,700.0,0.0,557.0,0.3785714285714284,0.2670651951767831,0.05000000000000001,0.2670651951767831,0,0.0,0.0,0,0.0,0.0,0,0.0,0.0,0,0.0,0.0,0,0.0,0.0,0,0.0,0.0,239,0.0,0.0,0,0.0,0.0,110,0.0,0.0,117,0.0,0.0,234,2.3803418803418803,0.7774659770367919,1445529907047,688.0,0.0,100.13953488372098,0.12023966690362767,0.6293604651162783,1.1739256457127374,0.03633720930232559,0.035067787143292374,2.1031976744186056,4.351780153007684
1445529907518,686.0,0.0,547.0,0.46938775510204084,0.5910323253388949,0.03644314868804669,0.5910323253388949,0,0.0,0.0,0,0.0,0.0,0,0.0,0.0,0,0.0,0.0,0,0.0,0.0,0,0.0,0.0,245,0.0,0.0,0,0.0,0.0,110,0.0,0.0,113,0.0,0.0,218,2.5091743119266083,1.55060668836934,1445529908054,674.0,0.0,100.1543026706232,0.15446140008201004,0.596439169139466,0.7254553551351189,0.028189910979228492,0.02743594604962053,1.8768545994065262,1.8495972239981324
1445529908525,676.0,0.0,521.0,0.42307692307692324,0.3007407407407405,0.05769230769230774,0.3007407407407405,0,0.0,0.0,0,0.0,0.0,0,0.0,0.0,0,0.0,0.0,0,0.0,0.0,0,0.0,0.0,224,0.0,0.0,0,0.0,0.0,106,0.0,0.0,117,0.0,0.0,229,2.2751091703056785,0.7090707117137821,1445529909064,693.0,0.0,100.14141414141416,0.13315233257429873,0.6002886002885996,0.7345085871097438,0.01587301587301587,0.015643637030920265,1.9220779220779214,2.216462728023421
1445529909535,693.0,0.0,585.0,0.4271284271284269,0.3404190542918868,0.03463203463203462,0.3404190542918868,0,0.0,0.0,0,0.0,0.0,0,0.0,0.0,0,0.0,0.0,0,0.0,0.0,0,0.0,0.0,216,0.0,0.0,0,0.0,0.0,114,0.0,0.0,129,0.007751937984496126,0.007751937984496124,234,2.495726495726494,1.6759473240159937,1445529910065,687.0,0.0,100.16157205240165,0.1648185163023421,0.7671033478893736,2.380082413501895,0.030567685589519687,0.029676499420729,2.203784570596802,4.311180991423396
1445529910537,687.0,0.0,608.0,0.41339155749636114,0.25742973421433446,0.043668122270742384,0.25742973421433446,0,0.0,0.0,0,0.0,0.0,0,0.0,0.0,0,0.0,0.0,0,0.0,0.0,0,0.0,0.0,235,0.0,0.0,0,0.0,0.0,109,0.009174311926605502,0.009174311926605503,113,0.0,0.0,230,2.6391304347826083,1.576628061515094,1445529911067,680.0,0.0,100.14705882352933,0.12561725721216038,0.5455882352941184,0.6989495798319326,0.013235294117647059,0.013079355453521615,1.8499999999999994,2.1659793814433006
1445529911538,680.0,0.0,545.0,0.4294117647058822,0.3072338213635968,0.04852941176470588,0.3072338213635968,0,0.0,0.0,0,0.0,0.0,0,0.0,0.0,0,0.0,0.0,0,0.0,0.0,0,0.0,0.0,226,0.0,0.0,0,0.0,0.0,119,0.0,0.0,110,0.0,0.0,225,2.4222222222222207,1.0664682539682535,1445529912069,675.0,0.0,100.12592592592597,0.11023189361468282,0.6755555555555565,0.6972502472799206,0.029629629629629665,0.02879437300802285,2.1837037037037033,2.696173205846794
1445529912539,673.0,0.0,564.0,0.5037147102526001,0.3694058232505486,0.03863298662704309,0.3694058232505486,0,0.0,0.0,0,0.0,0.0,0,0.0,0.0,0,0.0,0.0,0,0.0,0.0,0,0.0,0.0,233,0.0,0.0,0,0.0,0.0,110,0.0,0.0,111,0.0,0.0,219,2.5753424657534243,1.2270956390599468,1445529913072,694.0,0.0,100.16570605187317,0.14999105921296138,0.6123919308357347,0.8553151939319086,0.02305475504322766,0.022555734371296335,2.0417867435158494,2.360444710588804
1445529913540,689.0,0.0,616.0,0.42670537010159665,0.4426578796368175,0.040638606676342545,0.4426578796368175,0,0.0,0.0,0,0.0,0.0,0,0.0,0.0,0,0.0,0.0,0,0.0,0.0,0,0.0,0.0,219,0.0,0.0,0,0.0,0.0,123,0.0,0.0,113,0.0,0.0,234,2.632478632478633,2.087524302116577,1445529914073,672.0,0.0,100.13988095238098,0.12645482932368254,0.6205357142857139,1.118087342984884,0.022321428571428565,0.02185570576964018,1.9553571428571423,3.0203587396210327
1445529914544,679.0,0.0,526.0,0.46097201767304863,0.26064271160521485,0.03534609720176735,0.26064271160521485,0,0.0,0.0,0,0.0,0.0,0,0.0,0.0,0,0.0,0.0,0,0.0,0.0,0,0.0,0.0,240,0.0,0.0,0,0.0,0.0,100,0.0,0.0,122,0.0,0.0,217,2.4239631336405525,1.3472008875234691,1445529915075,691.0,0.0,100.136034732272,0.11769961618322355,0.5571635311143265,0.8499884645231669,0.02315484804630972,0.02265148178443341,1.8639652677279301,2.11190251473395
1445529915546,689.0,0.0,585.0,0.43105950653120456,0.2775804165119654,0.04644412191582003,0.2775804165119654,0,0.0,0.0,0,0.0,0.0,0,0.0,0.0,0,0.0,0.0,0,0.0,0.0,0,0.0,0.0,225,0.0,0.0,0,0.0,0.0,124,0.0,0.0,101,0.0,0.0,239,2.4476987447698764,1.1558665307127038,1445529916078,677.0,0.0,100.15361890694234,0.1420467953816428,0.617429837518463,1.091589242481186,0.025110782865583457,0.024516444809593335,2.0487444608567227,3.1825317053132096
1445529916551,679.0,0.0,573.0,0.42120765832106,0.3001985394102905,0.051546391752577345,0.3001985394102905,0,0.0,0.0,0,0.0,0.0,0,0.0,0.0,0,0.0,0.0,0,0.0,0.0,0,0.0,0.0,217,0.0,0.0,0,0.0,0.0,115,0.0,0.0,119,0.0,0.0,228,2.513157894736843,2.7883723626246213,1445529917084,692.0,0.0,100.13583815028905,0.11755602586517008,0.4378612716763002,0.2464949850681343,0.02023121387283238,0.019850597692880365,1.8236994219653184,2.1772667575684057
1445529917556,692.0,0.0,568.0,0.4017341040462431,0.2406916339727128,0.0491329479768786,0.2406916339727128,0,0.0,0.0,0,0.0,0.0,0,0.0,0.0,0,0.0,0.0,0,0.0,0.0,0,0.0,0.0,228,0.0,0.0,0,0.0,0.0,109,0.0,0.0,122,0.0,0.0,233,2.4377682403433503,1.7816708598490454,1445529918086,690.0,0.0,100.11014492753628,0.1010580341179158,0.49565217391304356,0.6189941313813339,0.028985507246376815,0.0281861971771734,1.7507246376811594,1.470427630887025
1445529918572,683.0,0.0,507.0,0.3748169838945825,0.24347045765833836,0.04099560761346991,0.24347045765833836,0,0.0,0.0,0,0.0,0.0,0,0.0,0.0,0,0.0,0.0,0,0.0,0.0,0,0.0,0.0,228,0.0,0.0,0,0.0,0.0,131,0.0,0.0,99,0.0,0.0,225,2.2533333333333325,0.5739285714285716,1445529919088,676.0,0.0,100.1227810650888,0.10786543940390145,0.7810650887573962,4.1594039009423645,0.03550295857988166,0.03429322813938203,2.158284023668638,3.3749090510628976
1445529919595,700.0,0.0,606.0,0.42857142857142855,0.39403229102799897,0.037142857142857144,0.39403229102799897,0,0.0,0.0,0,0.0,0.0,0,0.0,0.0,0,0.0,0.0,0,0.0,0.0,0,0.0,0.0,232,0.0,0.0,0,0.0,0.0,121,0.0,0.0,111,0.0,0.0,236,2.5677966101694922,1.2081500180310132,1445529920094,677.0,0.0,100.18759231905457,0.21179848443795743,0.42983751846381096,0.27502556527667293,0.022156573116691315,0.02169770917640477,1.759231905465288,1.6268562138917795
1445529920596,695.0,0.0,531.0,0.3827338129496403,0.2884622561316941,0.050359712230215826,0.2884622561316941,0,0.0,0.0,0,0.0,0.0,0,0.0,0.0,0,0.0,0.0,0,0.0,0.0,0,0.0,0.0,237,0.0,0.0,0,0.0,0.0,112,0.0,0.0,116,0.0,0.0,230,2.308695652173912,0.668483007404594,1445529921095,695.0,0.0,100.14532374100719,0.12438372068915367,0.5769784172661871,1.8006219808015265,0.025899280575539547,0.025264860157983127,1.8633093525179845,2.596562519436899
1445529921598,670.0,0.0,512.0,0.38059701492537296,0.2659906744305377,0.049253731343283605,0.2659906744305377,0,0.0,0.0,0,0.0,0.0,0,0.0,0.0,0,0.0,0.0,0,0.0,0.0,0,0.0,0.0,239,0.0,0.0,0,0.0,0.0,110,0.0,0.0,111,0.0,0.0,210,2.438095238095239,1.0607427660059245,1445529922098,683.0,0.0,100.1390922401172,0.12578627153793664,0.42752562225475826,0.26270163973843186,0.02049780380673502,0.02010708320631336,1.7423133235724746,1.8660515321829263
1445529922610,695.0,0.0,569.0,0.3784172661870506,0.25284763543632,0.05035971223021578,0.25284763543632,0,0.0,0.0,0,0.0,0.0,0,0.0,0.0,0,0.0,0.0,0,0.0,0.0,0,0.0,0.0,229,0.0043668122270742364,0.004366812227074236,0,0.0,0.0,113,0.0,0.0,117,0.0,0.0,236,2.4067796610169485,1.0508474576271185,1445529923106,692.0,0.0,100.14595375722546,0.1277260065415805,0.38728323699422,0.23763833934232864,0.028901734104046246,0.028107040981069576,1.667630057803467,1.521787139355715
1445529923611,690.0,0.0,528.0,0.38260869565217387,0.23656212532340484,0.03768115942028986,0.23656212532340484,0,0.0,0.0,0,0.0,0.0,0,0.0,0.0,0,0.0,0.0,0,0.0,0.0,0,0.0,0.0,229,0.0,0.0,0,0.0,0.0,119,0.0,0.0,114,0.0,0.0,228,2.3157894736842097,0.6575469510781357,1445529924109,688.0,0.0,100.13808139534879,0.11918816221522797,0.4113372093023254,0.24249136792931852,0.018895348837209294,0.018565299075860676,1.6816860465116277,1.445835872177651
1445529924619,689.0,0.0,556.0,0.3846153846153847,0.25447227191413235,0.03628447024673441,0.25447227191413235,0,0.0,0.0,0,0.0,0.0,0,0.0,0.0,0,0.0,0.0,0,0.0,0.0,0,0.0,0.0,222,0.0,0.0,0,0.0,0.0,102,0.0,0.0,124,0.0,0.0,241,2.3070539419087144,0.6553250345781473,1445529925110,676.0,0.0,100.16420118343194,0.14336839798378198,0.38609467455621294,0.2462656147271531,0.03106508875739647,0.030144641683103227,1.715976331360947,1.5873591935130393
1445529925622,691.0,0.0,520.0,0.39652677279305354,0.25703139747058457,0.028943560057887112,0.25703139747058457,0,0.0,0.0,0,0.0,0.0,0,0.0,0.0,0,0.0,0.0,0,0.0,0.0,0,0.0,0.0,230,0.0,0.0,0,0.0,0.0,133,0.007518796992481206,0.007518796992481202,104,0.0,0.0,224,2.316964285714285,0.7017737027546442,1445529926111,694.0,0.0,100.16858789625363,0.14036827725588608,0.38616714697406357,0.2373841336377362,0.030259365994236277,0.029386079818356472,1.649855907780981,1.5150288392363316
1445529926623,682.0,0.0,512.0,0.3944281524926684,0.2715107591475361,0.05425219941348979,0.2715107591475361,0,0.0,0.0,0,0.0,0.0,0,0.0,0.0,0,0.0,0.0,0,0.0,0.0,0,0.0,0.0,224,0.004464285714285717,0.004464285714285714,0,0.0,0.0,108,0.00925925925925926,0.009259259259259257,119,0.0,0.0,231,2.207792207792206,0.45228684359119137,1445529927119,684.0,0.0,100.12719298245614,0.11117746782769496,0.4663742690058484,0.45713998270444256,0.014619883040935666,0.014427234508917489,1.83187134502924,2.8282067418424046
1445529927624,679.0,0.0,554.0,0.41826215022091273,0.4383680668691159,0.036818851251840964,0.4383680668691159,0,0.0,0.0,0,0.0,0.0,0,0.0,0.0,0,0.0,0.0,0,0.0,0.0,0,0.0,0.0,215,0.0,0.0,0,0.0,0.0,110,0.0,0.0,123,0.0,0.0,231,2.398268398268399,0.9537361189535097,1445529928123,691.0,0.0,100.14182344428366,0.1218859455944953,0.43560057887120107,0.2867887329851716,0.02170767004341534,0.021267224564273567,1.691751085383502,1.7091927263575166
1445529928625,689.0,0.0,550.0,0.4034833091436869,0.2555692442704292,0.04644412191582008,0.2555692442704292,0,0.0,0.0,0,0.0,0.0,0,0.0,0.0,0,0.0,0.0,0,0.0,0.0,0,0.0,0.0,227,0.0,0.0,0,0.0,0.0,103,0.0,0.0,125,0.0,0.0,234,2.3504273504273514,0.6062873702358681,1445529929124,689.0,0.0,100.13933236574756,0.12300013501198154,0.3976777939042086,0.2398783204509403,0.03773584905660374,0.036364633611233,1.6632801161103046,1.5812223647348704
1445529929635,692.0,0.0,536.0,0.38294797687861276,0.2684787064068993,0.04479768786127163,0.2684787064068993,0,0.0,0.0,0,0.0,0.0,0,0.0,0.0,0,0.0,0.0,0,0.0,0.0,0,0.0,0.0,232,0.0,0.0,0,0.0,0.0,117,0.0,0.0,115,0.0,0.0,228,2.350877192982457,0.7397789628255661,1445529930128,678.0,0.0,100.15486725663729,0.13107671795139944,0.41592920353982266,0.2639704056156127,0.02064896755162241,0.020252458573526297,1.7861356932153383,1.7075179845143633
1445529930642,690.0,0.0,623.0,0.41159420289855075,0.2686607349445742,0.05217391304347824,0.2686607349445742,0,0.0,0.0,0,0.0,0.0,0,0.0,0.0,0,0.0,0.0,0,0.0,0.0,0,0.0,0.0,209,0.0,0.0,0,0.0,0.0,116,0.0,0.0,125,0.008000000000000004,0.007999999999999998,240,2.5916666666666655,3.5731520223152033,1445529931131,681.0,0.0,100.1556534508077,0.1786775503152798,0.6314243759177679,1.5301287034637656,0.030837004405286347,0.029930033687483797,2.1820851688693064,5.255031528029721
1445529931644,672.0,0.0,586.0,0.4419642857142859,0.3304569406003828,0.044642857142857116,0.3304569406003828,0,0.0,0.0,0,0.0,0.0,0,0.0,0.0,0,0.0,0.0,0,0.0,0.0,0,0.0,0.0,196,0.00510204081632653,0.005102040816326528,0,0.0,0.0,114,0.0,0.0,119,0.0,0.0,243,2.407407407407409,1.2011019283746562,1445529932135,691.0,0.0,100.13892908827798,0.16038088047148027,0.507959479015919,0.3343568447324817,0.027496382054992743,0.026779085131819046,1.9594790159189586,2.250529583254683
