timeStamp,totalRequests,failedRequests,totalHandleTime,upstreamTime,upstreamTimeVar,downstreamTime,downstreamTimeVar,CREATE_CLIENT_N,CREATE_CLIENT_time,CREATE_CLIENT_timeVar,CLIENT_LIST_N,CLIENT_LIST_time,CLIENT_LIST_timeVar,QUEUE_LIST_N,QUEUE_LIST_time,QUEUE_LIST_timeVar,MESSAGE_COUNT_N,MESSAGE_COUNT_time,MESSAGE_COUNT_timeVar,CREATE_QUEUE_N,CREATE_QUEUE_time,CREATE_QUEUE_timeVar,DELETE_QUEUE_N,DELETE_QUEUE_time,DELETE_QUEUE_timeVar,SEND_MESSAGE_N,SEND_MESSAGE_time,SEND_MESSAGE_timeVar,RECEIVE_MESSAGE_N,RECEIVE_MESSAGE_time,RECEIVE_MESSAGE_timeVar,POP_QUEUE_N,POP_QUEUE_time,POP_QUEUE_timeVar,TOP_QUEUE_N,TOP_QUEUE_time,TOP_QUEUE_timeVar,INBOX_QUEUES_N,INBOX_QUEUES_time,INBOX_QUEUES_timeVar,timeStamp,totalRequests,failedRequests,clientThinkTime,clientThinkTimeVar,waitingForConnectionTime,waitingForConnectionTimeVar,upstreamTime,upstreamTimeVar,waitingForResponseTime,waitingForResponseTimeVar
1445530194689,1041.0,0.0,1443.0,0.4236311239193083,1.2001718022611394,0.051873198847262186,1.2001718022611394,0,0.0,0.0,110,1.0090909090909093,1.2567973311092575,0,0.0,0.0,110,0.5818181818181817,0.2638865721434529,0,0.0,0.0,0,0.0,0.0,821,1.5444579780755165,0.6093015656100528,0,0.0,0.0,0,0.0,0.0,0,0.0,0.0,0,0.0,0.0,1445530195127,1080.0,0.0,100.3148148148149,1.3224865273058055,0.42962962962962936,0.40468197576631293,0.03796296296296297,0.03655562420622662,3.343518518518522,5.119142381491771
1445530195700,1094.0,0.0,1511.0,0.3199268738574039,0.27083768906670475,0.06764168190127967,0.27083768906670475,0,0.0,0.0,110,0.6818181818181815,0.2189324437030859,0,0.0,0.0,110,0.8454545454545451,0.15020850708924105,0,0.0,0.0,0,0.0,0.0,874,1.5366132723112123,0.3978560999840108,0,0.0,0.0,0,0.0,0.0,0,0.0,0.0,0,0.0,0.0,1445530196128,1067.0,0.0,100.18369259606396,0.28892706488885156,0.41611996251171507,0.2825916854078789,0.024367385192127472,0.02379591743433834,3.073102155576383,6.510598528954079
1445530196702,1037.0,0.0,1587.0,0.31533269045323076,0.40336506778165404,0.07135969141755068,0.40336506778165404,0,0.0,0.0,0,0.0,0.0,0,0.0,0.0,110,1.009090909090909,0.3026688907422853,0,0.0,0.0,0,0.0,0.0,927,1.5922330097087358,0.6348424164901757,0,0.0,0.0,0,0.0,0.0,0,0.0,0.0,0,0.0,0.0,1445530197133,1048.0,0.0,100.17938931297701,0.20656619786085054,0.420801526717557,0.29171588034150636,0.02480916030534351,0.024216773478568373,3.297709923664126,6.228380614915749
1445530197703,1078.0,0.0,1552.0,0.2634508348794061,0.25922002125742694,0.058441558441558406,0.25922002125742694,0,0.0,0.0,110,0.7181818181818184,0.22260216847372818,0,0.0,0.0,110,1.3090909090909097,0.380650542118432,0,0.0,0.0,0,0.0,0.0,858,1.5489510489510485,0.4625951644621419,0,0.0,0.0,0,0.0,0.0,0,0.0,0.0,0,0.0,0.0,1445530198137,1082.0,0.0,100.12384473197775,0.10860759104067551,0.4121996303142325,0.2425152311562,0.020332717190388164,0.019937724534515686,2.515711645101668,1.138050788189891
1445530198705,1074.0,0.0,1538.0,0.30446927374301685,0.24178802188819534,0.045623836126629416,0.24178802188819534,0,0.0,0.0,110,0.863636363636363,1.2014178482068387,0,0.0,0.0,11,1.1818181818181819,0.16363636363636364,0,0.0,0.0,0,0.0,0.0,953,1.5005246589716683,0.3342959429312122,0,0.0,0.0,0,0.0,0.0,0,0.0,0.0,0,0.0,0.0,1445530199139,1067.0,0.0,100.16682286785388,0.277960159026292,0.4001874414245547,0.24213880160573642,0.0215557638238051,0.022987070761775294,2.8912839737581963,1.4947363423601778
1445530199706,1054.0,0.0,1561.0,0.27229601518026575,0.23252710697366005,0.05692599620493356,0.23252710697366005,0,0.0,0.0,110,0.8727272727272724,0.6075062552126773,0,0.0,0.0,99,1.6565656565656572,0.5951350237064522,0,0.0,0.0,0,0.0,0.0,845,1.539644970414201,0.4193387363638916,0,0.0,0.0,0,0.0,0.0,0,0.0,0.0,0,0.0,0.0,1445530200140,1057.0,0.0,100.24597918637664,0.8182248215360655,0.4011352885525071,0.24613507353573574,0.029328287606433294,0.02849509761761421,2.4437086092715234,2.44971653622316
1445530200710,1067.0,0.0,1216.0,0.3439550140581069,0.35156520622952575,0.045923149015932536,0.35156520622952575,0,0.0,0.0,0,0.0,0.0,0,0.0,0.0,110,1.7909090909090903,0.6256046705587991,0,0.0,0.0,0,0.0,0.0,442,0.497737556561086,0.6496547336883468,0,0.0,0.0,128,0.0,0.0,111,0.0,0.0,276,2.8949275362318847,2.4725559947299063,1445530201144,1085.0,0.0,100.13087557603696,0.11385209243797274,0.725345622119816,1.1440525787746363,0.021198156682027652,0.020767935789956997,2.989861751152073,7.952849150611313
1445530201714,1070.0,0.0,1177.0,0.37383177570093457,0.2810732364075086,0.03831775700934576,0.2810732364075086,0,0.0,0.0,0,0.0,0.0,0,0.0,0.0,0,0.0,0.0,0,0.0,0.0,0,0.0,0.0,349,0.0,0.0,0,0.0,0.0,179,0.0,0.0,182,0.005494505494505494,0.005494505494505493,360,3.2666666666666644,3.956545961002789,1445530202145,1040.0,0.0,100.21538461538458,0.36164951506624954,0.5519230769230759,0.3996113126526984,0.023076923076923064,0.02256607684904125,2.463461538461534,4.533793588509664
1445530202715,1060.0,0.0,1037.0,0.4132075471698111,0.3748962175067254,0.038679245283018866,0.3748962175067254,0,0.0,0.0,0,0.0,0.0,0,0.0,0.0,0,0.0,0.0,0,0.0,0.0,0,0.0,0.0,344,0.0,0.0,0,0.0,0.0,193,0.005181347150259067,0.0051813471502590676,167,0.005988023952095809,0.005988023952095807,356,2.9073033707865163,2.997016933059029,1445530203147,1086.0,0.0,100.16114180478823,0.13529970890512769,0.4309392265193378,0.2454566285612444,0.027624309392265203,0.026885963795605615,2.0174953959484316,2.6439332603474455
1445530203716,1084.0,0.0,1015.0,0.3819188191881921,0.35446501279417253,0.050738007380073794,0.35446501279417253,0,0.0,0.0,0,0.0,0.0,0,0.0,0.0,0,0.0,0.0,0,0.0,0.0,0,0.0,0.0,329,0.0,0.0,0,0.0,0.0,183,0.0,0.0,190,0.0,0.0,382,2.657068062827226,1.9687031922056852,1445530204150,1083.0,0.0,100.14866112650051,0.22464469374623705,0.45337026777469935,0.3718994441059356,0.024007386888273315,0.02345268756091024,1.9381348107109875,2.62186232192018
1445530204717,1075.0,0.0,896.0,0.36837209302325585,0.2496505131869562,0.03813953488372095,0.2496505131869562,0,0.0,0.0,0,0.0,0.0,0,0.0,0.0,0,0.0,0.0,0,0.0,0.0,0,0.0,0.0,342,0.002923976608187132,0.0029239766081871356,0,0.0,0.0,185,0.0,0.0,185,0.0,0.0,363,2.465564738292011,0.8903855227310774,1445530205153,1072.0,0.0,100.13152985074632,0.12740830162911077,0.5970149253731334,1.2734924815697424,0.02332089552238809,0.022798298423847143,1.9897388059701495,2.47701879259166
1445530205721,1059.0,0.0,899.0,0.3966005665722385,0.3151491134590359,0.04249291784702552,0.3151491134590359,0,0.0,0.0,0,0.0,0.0,0,0.0,0.0,0,0.0,0.0,0,0.0,0.0,0,0.0,0.0,346,0.0,0.0,0,0.0,0.0,179,0.0,0.0,177,0.0,0.0,357,2.518207282913165,0.9020552041041141,1445530206154,1067.0,0.0,100.11340206185581,0.1006363513278257,0.4789128397375825,0.3623597925835801,0.027179006560449873,0.026465111453796396,1.9250234301780693,2.3320843099570814
1445530206722,1085.0,0.0,968.0,0.41658986175115204,0.2654071794174164,0.040552995391705045,0.2654071794174164,0,0.0,0.0,0,0.0,0.0,0,0.0,0.0,0,0.0,0.0,0,0.0,0.0,0,0.0,0.0,353,0.0,0.0,0,0.0,0.0,178,0.0,0.0,185,0.0,0.0,369,2.6233062330623302,1.4636944739012603,1445530207156,1078.0,0.0,100.15027829313543,0.15752545637145787,0.5269016697588126,0.570770521427107,0.025974025974026003,0.025322866548493292,2.002782931354363,2.883000604648035
1445530207724,1077.0,0.0,951.0,0.3881151346332406,0.3194868714900606,0.038068709377901626,0.3194868714900606,0,0.0,0.0,0,0.0,0.0,0,0.0,0.0,0,0.0,0.0,0,0.0,0.0,0,0.0,0.0,336,0.0,0.0,0,0.0,0.0,191,0.0,0.0,181,0.0,0.0,369,2.577235772357722,1.3751325556733835,1445530208157,1068.0,0.0,100.12734082397002,0.11685252852865516,0.6282771535580529,2.4568191471064167,0.022471910112359553,0.021987510925307784,2.074906367041197,2.867860815966919
1445530208732,1075.0,0.0,1024.0,0.36093023255813944,0.23832315620804648,0.04930232558139533,0.23832315620804648,0,0.0,0.0,0,0.0,0.0,0,0.0,0.0,0,0.0,0.0,0,0.0,0.0,0,0.0,0.0,321,0.0,0.0,0,0.0,0.0,207,0.0,0.0,169,0.0,0.0,378,2.7089947089947075,1.9097862546138433,1445530209158,1075.0,0.0,100.12279069767435,0.10781343380537847,0.4902325581395342,0.568573037114027,0.02418604651162793,0.023623056602139363,2.301395348837208,4.646506431077049
1445530209733,1061.0,0.0,1037.0,0.3656927426955701,0.4019917130510557,0.03770028275212058,0.4019917130510557,0,0.0,0.0,0,0.0,0.0,0,0.0,0.0,0,0.0,0.0,0,0.0,0.0,0,0.0,0.0,338,0.0,0.0,0,0.0,0.0,181,0.0,0.0,179,0.0,0.0,363,2.8567493112947666,3.1064943762080888,1445530210159,1052.0,0.0,100.17015209125475,0.2802500244199795,0.4610266159695815,0.25062044838701514,0.023764258555133092,0.023221592327423102,2.269961977186314,3.8680597511694454
1445530210737,1070.0,0.0,961.0,0.33644859813084105,0.23655613159298164,0.045794392523364494,0.23655613159298164,0,0.0,0.0,0,0.0,0.0,0,0.0,0.0,0,0.0,0.0,0,0.0,0.0,0,0.0,0.0,345,0.0,0.0,0,0.0,0.0,197,0.005076142131979695,0.005076142131979693,170,0.0,0.0,358,2.681564245810059,1.5341689748525105,1445530211160,1089.0,0.0,100.15886134067964,0.22933546696915055,0.4444444444444444,0.2930964052287581,0.03581267217630856,0.03456186193485661,1.9954086317722644,2.9347215470210153
1445530211743,1093.0,0.0,888.0,0.4226898444647754,0.33399019400849234,0.045745654162854525,0.33399019400849234,0,0.0,0.0,0,0.0,0.0,0,0.0,0.0,0,0.0,0.0,0,0.0,0.0,0,0.0,0.0,370,0.0,0.0,0,0.0,0.0,179,0.0,0.0,181,0.0,0.0,363,2.4462809917355375,1.0268024291128262,1445530212163,1081.0,0.0,100.13506012950974,0.11692705656628,0.44310823311748365,0.24699181142289356,0.02405180388529141,0.023495049165724462,1.8982423681776153,2.0729691300921647
1445530212745,1071.0,0.0,914.0,0.40242763772175527,0.26500344686161087,0.04481792717086839,0.26500344686161087,0,0.0,0.0,0,0.0,0.0,0,0.0,0.0,0,0.0,0.0,0,0.0,0.0,0,0.0,0.0,351,0.0,0.0,0,0.0,0.0,178,0.0,0.0,182,0.005494505494505496,0.005494505494505493,360,2.5361111111111105,1.246603218817704,1445530213165,1067.0,0.0,100.14995313964387,0.22890009161068375,0.6804123711340202,2.911839229415285,0.045923149015932606,0.05511235056118134,2.1377694470478,3.475373256363954
1445530213746,1076.0,0.0,954.0,0.36895910780669167,0.2572309155355755,0.043680297397769484,0.2572309155355755,0,0.0,0.0,0,0.0,0.0,0,0.0,0.0,0,0.0,0.0,0,0.0,0.0,0,0.0,0.0,374,0.0,0.0,0,0.0,0.0,177,0.0,0.0,171,0.0,0.0,354,2.694915254237287,2.43357180582897,1445530214166,1073.0,0.0,100.15377446411928,0.15450299759357963,0.40820130475302835,0.24552969078187803,0.025163094128611365,0.03574682505459652,1.9002795899347629,2.2633674590699826
1445530214748,1072.0,0.0,869.0,0.3768656716417908,0.2537313432835824,0.04570895522388061,0.2537313432835824,0,0.0,0.0,0,0.0,0.0,0,0.0,0.0,0,0.0,0.0,0,0.0,0.0,0,0.0,0.0,327,0.0,0.0,0,0.0,0.0,193,0.0,0.0,185,0.0,0.0,367,2.36784741144414,0.724974315450931,1445530215168,1078.0,0.0,100.14564007421141,0.1282585964241367,0.3905380333951761,0.2493811401491464,0.030612244897959207,0.029702688874992885,1.7300556586270877,1.844425437939167
1445530215751,1080.0,0.0,858.0,0.3657407407407407,0.24331085023856128,0.038888888888888896,0.24331085023856128,0,0.0,0.0,0,0.0,0.0,0,0.0,0.0,0,0.0,0.0,0,0.0,0.0,0,0.0,0.0,378,0.0,0.0,0,0.0,0.0,171,0.0,0.0,177,0.0,0.0,354,2.423728813559325,0.8454410140682771,1445530216169,1075.0,0.0,100.14697674418592,0.12549131696331778,0.39162790697674416,0.23847732882941408,0.021395348837209303,0.020957082846130546,1.6911627906976743,1.7034134511281445
1445530216766,1072.0,0.0,870.0,0.375932835820896,0.2572353568292989,0.05317164179104474,0.2572353568292989,0,0.0,0.0,0,0.0,0.0,0,0.0,0.0,0,0.0,0.0,0,0.0,0.0,0,0.0,0.0,363,0.0,0.0,0,0.0,0.0,174,0.0,0.0,185,0.0,0.0,350,2.485714285714286,1.872288170282439,1445530217171,1067.0,0.0,100.14339268978448,0.1698507677889143,0.5463917525773205,1.6195624842846348,0.0365510777881912,0.035248131300432015,1.9765698219306445,3.1992628945105626
1445530217770,1090.0,0.0,945.0,0.40275229357798187,0.5639960910186103,0.034862385321100905,0.5639960910186103,0,0.0,0.0,0,0.0,0.0,0,0.0,0.0,0,0.0,0.0,0,0.0,0.0,0,0.0,0.0,375,0.002666666666666664,0.0026666666666666687,0,0.0,0.0,173,0.0,0.0,181,0.0,0.0,361,2.6149584487534625,1.5152200677131427,1445530218172,1089.0,0.0,100.15059687786965,0.17215267649759713,0.4132231404958681,0.37320734078755463,0.024793388429752074,0.024200899368011657,1.8420569329660235,2.430913412196835
1445530218774,1078.0,0.0,945.0,0.3525046382189239,0.2674542594956443,0.04174397031539889,0.2674542594956443,0,0.0,0.0,0,0.0,0.0,0,0.0,0.0,0,0.0,0.0,0,0.0,0.0,0,0.0,0.0,358,0.0,0.0,0,0.0,0.0,194,0.0,0.0,162,0.0,0.0,364,2.5961538461538463,1.5912799321890227,1445530219173,1068.0,0.0,100.16011235955052,0.20208133694175523,0.3923220973782773,0.2405033188364592,0.02808988764044945,0.02732643239998735,1.7696629213483144,2.0368669903014878
1445530219775,1077.0,0.0,892.0,0.3574744661095634,0.23547614363180108,0.04271123491179197,0.23547614363180108,0,0.0,0.0,0,0.0,0.0,0,0.0,0.0,0,0.0,0.0,0,0.0,0.0,0,0.0,0.0,357,0.0,0.0,0,0.0,0.0,188,0.0,0.0,179,0.0,0.0,353,2.5269121813031155,1.2045293587432389,1445530220177,1072.0,0.0,100.14272388059692,0.1224680170575737,0.5970149253731335,2.167983611354991,0.018656716417910443,0.018325738255501215,2.1893656716417933,5.120969905375092
1445530220777,1077.0,0.0,929.0,0.3955431754874651,0.4530656201136987,0.03992571959145774,0.4530656201136987,0,0.0,0.0,0,0.0,0.0,0,0.0,0.0,0,0.0,0.0,0,0.0,0.0,0,0.0,0.0,366,0.0,0.0,0,0.0,0.0,182,0.0,0.0,174,0.0,0.0,355,2.6169014084507025,1.598583591947163,1445530221178,1078.0,0.0,100.1428571428571,0.12256267409470833,0.41558441558441594,0.24867054950620385,0.021335807050092782,0.026471008763089946,1.8756957328385897,2.13866595004677
1445530221778,1076.0,0.0,955.0,0.36059479553903334,0.26054811100544584,0.04275092936802973,0.26054811100544584,0,0.0,0.0,0,0.0,0.0,0,0.0,0.0,0,0.0,0.0,0,0.0,0.0,0,0.0,0.0,358,0.0,0.0,0,0.0,0.0,173,0.0,0.0,180,0.0,0.0,365,2.616438356164383,1.3854433237994874,1445530222179,1054.0,0.0,100.13851992409865,0.14793550909932845,0.4013282732447817,0.28037810106121297,0.024667931688804535,0.024082273291634426,1.9886148007590136,2.953336540939323
1445530222779,1060.0,0.0,932.0,0.3650943396226418,0.2811222762663248,0.02924528301886792,0.2811222762663248,0,0.0,0.0,0,0.0,0.0,0,0.0,0.0,0,0.0,0.0,0,0.0,0.0,0,0.0,0.0,357,0.0,0.0,0,0.0,0.0,187,0.0,0.0,168,0.0,0.0,348,2.678160919540229,1.8500115936268182,1445530223196,1098.0,0.0,100.14754098360662,0.14411883377915943,0.40528233151184,0.24671774154715712,0.030054644808743182,0.029177936847139013,1.7959927140255016,2.1917068076041155
1445530223780,1071.0,0.0,937.0,0.3688141923436041,0.2442227981535298,0.03921568627450981,0.2442227981535298,0,0.0,0.0,0,0.0,0.0,0,0.0,0.0,0,0.0,0.0,0,0.0,0.0,0,0.0,0.0,346,0.0,0.0,0,0.0,0.0,182,0.0,0.0,179,0.0,0.0,364,2.5741758241758226,1.2754745254745248,1445530224197,1093.0,0.0,100.13266239707214,0.12432596375871532,0.3943275388838064,0.2427150464661901,0.03842634949679776,0.036983601942430874,1.7959743824336705,2.0563207758999167
1445530224782,1096.0,0.0,905.0,0.35857664233576597,0.23751541512515412,0.041970802919707985,0.23751541512515412,0,0.0,0.0,0,0.0,0.0,0,0.0,0.0,0,0.0,0.0,0,0.0,0.0,0,0.0,0.0,361,0.0,0.0,0,0.0,0.0,194,0.0,0.0,177,0.0,0.0,364,2.4862637362637368,1.1265325583507395,1445530225202,1072.0,0.0,100.12873134328366,0.11973396323703493,0.4067164179104477,0.25272795685438315,0.025186567164179077,0.024575128558886244,2.1576492537313414,4.947112302632502
1445530225784,1069.0,0.0,1083.0,0.34892422825070163,0.27982327983379074,0.04396632366697846,0.27982327983379074,0,0.0,0.0,0,0.0,0.0,0,0.0,0.0,0,0.0,0.0,0,0.0,0.0,0,0.0,0.0,371,0.0,0.0,0,0.0,0.0,179,0.0,0.0,170,0.005882352941176471,0.00588235294117647,349,3.1002865329512903,5.3376148601916835,1445530226203,1077.0,0.0,100.14391829155059,0.14748388922830513,0.38811513463324027,0.23770248487296058,0.02321262766945216,0.022694873892438367,1.6388115134633254,1.580388177265088
1445530226786,1072.0,0.0,871.0,0.384328358208955,0.24991290048357637,0.040111940298507495,0.24991290048357637,0,0.0,0.0,0,0.0,0.0,0,0.0,0.0,0,0.0,0.0,0,0.0,0.0,0,0.0,0.0,361,0.0,0.0,0,0.0,0.0,184,0.005434782608695653,0.005434782608695651,167,0.0,0.0,360,2.416666666666668,0.9735376044568245,1445530227204,1067.0,0.0,100.13589503280224,0.1175377300597304,0.5595126522961573,0.4830871919129394,0.029053420805998088,0.028235782321776794,2.4011246485473303,4.347390854054165
1445530227793,1079.0,0.0,1079.0,0.39110287303058416,0.30515267864665424,0.04263206672845227,0.30515267864665424,0,0.0,0.0,0,0.0,0.0,0,0.0,0.0,0,0.0,0.0,0,0.0,0.0,0,0.0,0.0,348,0.0,0.0,0,0.0,0.0,178,0.0,0.0,189,0.0,0.0,364,2.964285714285714,2.293486816214089,1445530228208,1081.0,0.0,100.15448658649412,0.1307414259773186,0.450508788159112,0.2996316853393631,0.03422756706753005,0.03308664816527905,1.9259944495837167,2.803777366635835
1445530228794,1076.0,0.0,933.0,0.37546468401487043,0.2551742024725506,0.03252788104089219,0.2551742024725506,0,0.0,0.0,0,0.0,0.0,0,0.0,0.0,0,0.0,0.0,0,0.0,0.0,0,0.0,0.0,344,0.0,0.0,0,0.0,0.0,191,0.0,0.0,173,0.0,0.0,368,2.5353260869565206,2.1240892666745657,1445530229210,1072.0,0.0,100.15485074626876,0.13659642961662516,0.3684701492537314,0.23478458547598144,0.0279850746268657,0.027227308833981365,1.7826492537313414,2.187074954359854
1445530229796,1072.0,0.0,873.0,0.3647388059701494,0.24125782153657493,0.04011194029850741,0.24125782153657493,0,0.0,0.0,0,0.0,0.0,0,0.0,0.0,0,0.0,0.0,0,0.0,0.0,0,0.0,0.0,366,0.0,0.0,0,0.0,0.0,164,0.0,0.0,190,0.0,0.0,352,2.4801136363636367,1.0651304713804717,1445530230213,1073.0,0.0,100.15191053122085,0.1401479322863781,0.37837837837837834,0.23542759177087552,0.026095060577819226,0.031034830507295736,1.771668219944082,2.2752413375805016
1445530230798,1071.0,0.0,928.0,0.3893557422969185,0.26227911725437825,0.04014939309056948,0.26227911725437825,0,0.0,0.0,0,0.0,0.0,0,0.0,0.0,0,0.0,0.0,0,0.0,0.0,0,0.0,0.0,354,0.0,0.0,0,0.0,0.0,188,0.0,0.0,176,0.0,0.0,353,2.6288951841359767,1.836321787277877,1445530231215,1077.0,0.0,100.1559888579387,0.13177869132555428,0.46146703806870953,0.3974450576950289,0.029712163416898783,0.028856143838902622,1.8115134633240466,2.195852447076936
1445530231799,1077.0,0.0,947.0,0.39461467038068726,0.2967367705280743,0.04178272980501393,0.2967367705280743,0,0.0,0.0,0,0.0,0.0,0,0.0,0.0,0,0.0,0.0,0,0.0,0.0,0,0.0,0.0,362,0.0,0.0,0,0.0,0.0,178,0.005617977528089887,0.005617977528089887,177,0.0,0.0,360,2.627777777777778,1.5658000619003394,1445530232218,1087.0,0.0,100.13891444342215,0.12341060685381097,0.6881324747010122,2.5702365643864087,0.025758969641214373,0.025118553268918948,2.1324747010119633,3.450205932830829
1445530232800,1075.0,0.0,962.0,0.3413953488372097,0.25112468061149346,0.04186046511627907,0.25112468061149346,0,0.0,0.0,0,0.0,0.0,0,0.0,0.0,0,0.0,0.0,0,0.0,0.0,0,0.0,0.0,388,0.0,0.0,0,0.0,0.0,175,0.0,0.0,170,0.0,0.0,342,2.8128654970760225,2.2933237296564966,1445530233219,1046.0,0.0,100.15678776290638,0.1916620161563415,0.4082217973231358,0.2609466914287282,0.02198852772466539,0.021525611351514547,2.1873804971319304,3.56676882541832
1445530233802,1057.0,0.0,912.0,0.3547776726584674,0.2651120954101087,0.047303689687795726,0.2651120954101087,0,0.0,0.0,0,0.0,0.0,0,0.0,0.0,0,0.0,0.0,0,0.0,0.0,0,0.0,0.0,370,0.0,0.0,0,0.0,0.0,175,0.0,0.0,165,0.0,0.0,347,2.628242074927953,1.4307607736003054,1445530234229,1089.0,0.0,100.14508723599629,0.1517244638902394,0.40128558310376483,0.24599099281585873,0.026629935720844843,0.025944606492734824,1.8246097337006435,2.5749085102360554
1445530234812,1090.0,0.0,958.0,0.35596330275229365,0.2294639472287513,0.04495412844036697,0.2294639472287513,0,0.0,0.0,0,0.0,0.0,0,0.0,0.0,0,0.0,0.0,0,0.0,0.0,0,0.0,0.0,373,0.0,0.0,0,0.0,0.0,181,0.0,0.0,180,0.0,0.0,356,2.691011235955056,2.3774964393100158,1445530235230,1097.0,0.0,100.15679124886057,0.15787582590875163,0.39380127620784017,0.23893964295457423,0.021877848678213286,0.02141873324062305,1.9234275296262544,2.886467073438508
1445530235815,1096.0,0.0,958.0,0.35948905109489065,0.2359464053594639,0.03467153284671543,0.2359464053594639,0,0.0,0.0,0,0.0,0.0,0,0.0,0.0,0,0.0,0.0,0,0.0,0.0,0,0.0,0.0,375,0.0,0.0,0,0.0,0.0,171,0.0,0.0,187,0.005347593582887701,0.005347593582887698,363,2.6363636363636362,1.5138121546961325,1445530236234,1067.0,0.0,100.13214620431121,0.12792437635284135,0.39925023430178086,0.24195065683624892,0.027179006560449845,0.02646511145379641,1.8228678537956884,2.365405276142011
1445530236816,1066.0,0.0,939.0,0.3639774859287054,0.237349047379965,0.03939962476547847,0.237349047379965,0,0.0,0.0,0,0.0,0.0,0,0.0,0.0,0,0.0,0.0,0,0.0,0.0,0,0.0,0.0,354,0.0,0.0,0,0.0,0.0,198,0.0,0.0,163,0.0,0.0,351,2.6752136752136764,1.7913553113553133,1445530237238,1068.0,0.0,100.17415730337075,0.202068173920369,0.3923220973782768,0.23862890459091066,0.030898876404494402,0.029972199698830092,1.8473782771535572,2.5455695025079947
1445530237819,1069.0,0.0,930.0,0.37043966323666966,0.3027208739309725,0.041159962581852165,0.3027208739309725,0,0.0,0.0,0,0.0,0.0,0,0.0,0.0,0,0.0,0.0,0,0.0,0.0,0,0.0,0.0,368,0.0,0.0,0,0.0,0.0,165,0.0,0.0,180,0.0,0.0,356,2.612359550561799,1.5169172337395165,1445530238240,1047.0,0.0,100.14422158548238,0.14648426442846077,0.4355300859598858,0.3091761766752317,0.028653295128939816,0.03933116744372062,5.078319006685769,52.838984552057134
1445530238820,1042.0,0.0,1634.0,0.3061420345489444,0.25681142265022755,0.03838771593090204,0.25681142265022755,0,0.0,0.0,0,0.0,0.0,0,0.0,0.0,0,0.0,0.0,0,0.0,0.0,0,0.0,0.0,363,0.0,0.0,0,0.0,0.0,175,0.0,0.0,160,0.0,0.0,344,4.749999999999997,19.010204081632658,1445530239246,1090.0,0.0,100.15688073394477,0.15810229062939693,0.4486238532110098,0.366963210082476,0.024770642201834846,0.02417924027598757,1.890825688073394,2.477509877760089
1445530239821,1081.0,0.0,895.0,0.3709528214616098,0.2668962209202723,0.031452358926919485,0.2668962209202723,0,0.0,0.0,0,0.0,0.0,0,0.0,0.0,0,0.0,0.0,0,0.0,0.0,0,0.0,0.0,387,0.0,0.0,0,0.0,0.0,159,0.0,0.0,192,0.0,0.0,343,2.609329446064141,1.1510238180485224,1445530240248,1071.0,0.0,100.15686274509817,0.13798790544255057,0.4164332399626513,0.24885119156696983,0.01960784313725491,0.019241341396371656,1.859010270774976,2.2688883653149703
1445530240822,1077.0,0.0,961.0,0.3481894150417832,0.23831688602168366,0.04642525533890439,0.23831688602168366,0,0.0,0.0,0,0.0,0.0,0,0.0,0.0,0,0.0,0.0,0,0.0,0.0,0,0.0,0.0,341,0.0,0.0,0,0.0,0.0,181,0.0,0.0,188,0.0,0.0,367,2.6185286103542236,1.487961763523473,1445530241250,1072.0,0.0,100.14272388059702,0.1392747397466461,0.44869402985074663,0.38952210237328794,0.02798507462686568,0.027227308833981355,1.7966417910447792,2.4235928202126624
1445530241824,1068.0,0.0,910.0,0.39138576779026185,0.26654240774477084,0.044943820224719086,0.26654240774477084,0,0.0,0.0,0,0.0,0.0,0,0.0,0.0,0,0.0,0.0,0,0.0,0.0,0,0.0,0.0,369,0.002710027100271002,0.0027100271002710044,0,0.0,0.0,174,0.0,0.0,176,0.0,0.0,349,2.60458452722063,1.6305536343576057,1445530242253,1076.0,0.0,100.15613382899623,0.14304141091034991,0.40520446096654283,0.24123800466845344,0.018587360594795543,0.01825883980288755,1.7890334572490703,2.2224284602749194
1445530242825,1075.0,0.0,921.0,0.36186046511627873,0.2367190680351654,0.044651162790697606,0.2367190680351654,0,0.0,0.0,0,0.0,0.0,0,0.0,0.0,0,0.0,0.0,0,0.0,0.0,0,0.0,0.0,363,0.0,0.0,0,0.0,0.0,185,0.0,0.0,171,0.0,0.0,356,2.5870786516853923,1.8374663712612767,1445530243255,1081.0,0.0,100.12488436632741,0.11124130606091794,0.4014801110083254,0.2516274368725804,0.024051803885291385,0.02349504916572448,1.6919518963922293,1.7818703532394542
1445530243829,1083.0,0.0,869.0,0.37765466297322253,0.2352488381182549,0.03231763619575255,0.2352488381182549,0,0.0,0.0,0,0.0,0.0,0,0.0,0.0,0,0.0,0.0,0,0.0,0.0,0,0.0,0.0,370,0.0,0.0,0,0.0,0.0,177,0.0,0.0,179,0.0,0.0,357,2.4341736694677865,0.9710760708777895,1445530244260,1084.0,0.0,100.14391143911448,0.1362417502291351,0.39206642066420616,0.24041714793879257,0.03136531365313645,0.030409583874232097,1.7186346863468631,1.749938669746808
1445530244830,1082.0,0.0,902.0,0.36968576709796674,0.23508389746606212,0.035120147874306853,0.23508389746606212,0,0.0,0.0,0,0.0,0.0,0,0.0,0.0,0,0.0,0.0,0,0.0,0.0,0,0.0,0.0,338,0.0,0.0,0,0.0,0.0,191,0.0,0.0,181,0.0,0.0,372,2.424731182795699,0.9404109787554705,1445530245261,1076.0,0.0,100.15241635687734,0.18884066741592562,0.4275092936802975,0.34543788363447725,0.02695167286245353,0.02624967580185007,1.7202602230483266,1.9114403043139971
1445530245832,1073.0,0.0,811.0,0.3942218080149117,0.2464964320985937,0.03261882572227397,0.2464964320985937,0,0.0,0.0,0,0.0,0.0,0,0.0,0.0,0,0.0,0.0,0,0.0,0.0,0,0.0,0.0,396,0.0,0.0,0,0.0,0.0,157,0.0,0.0,179,0.0,0.0,341,2.3782991202346007,0.7005865102639299,1445530246262,1066.0,0.0,100.15196998123822,0.14589752398065653,0.50562851782364,0.768512890979397,0.021575984990619114,0.021130283892221394,1.895872420262663,2.514029895445215
1445530246833,1059.0,0.0,873.0,0.4400377714825304,0.4054275978158227,0.03493862134088761,0.4054275978158227,0,0.0,0.0,0,0.0,0.0,0,0.0,0.0,0,0.0,0.0,0,0.0,0.0,0,0.0,0.0,340,0.0,0.0,0,0.0,0.0,177,0.005649717514124295,0.005649717514124291,188,0.0,0.0,354,2.4632768361581916,1.0878827163457692,1445530247267,1073.0,0.0,100.14818266542419,0.1692527576469903,0.540540540540541,0.5545582896329152,0.01863932898415657,0.018308967742832912,2.059645852749299,3.1046480087910853
1445530247846,1094.0,0.0,949.0,0.4451553930530167,0.331390049023953,0.044789762340036544,0.331390049023953,0,0.0,0.0,0,0.0,0.0,0,0.0,0.0,0,0.0,0.0,0,0.0,0.0,0,0.0,0.0,367,0.0,0.0,0,0.0,0.0,181,0.0,0.0,180,0.0,0.0,366,2.5928961748633865,1.3105247398757385,1445530248268,1090.0,0.0,100.143119266055,0.1282583971491383,0.4623853211009173,0.2616692361479688,0.027522935779816515,0.026790001769151056,1.9366972477064226,2.21545648309618
1445530248850,1091.0,0.0,953.0,0.4317140238313476,0.29326852731691333,0.03941338221814846,0.29326852731691333,0,0.0,0.0,0,0.0,0.0,0,0.0,0.0,0,0.0,0.0,0,0.0,0.0,0,0.0,0.0,368,0.0,0.0,0,0.0,0.0,164,0.0,0.0,196,0.0,0.0,363,2.6253443526170797,1.4780299225301745,1445530249270,1061.0,0.0,100.14326107445798,0.12285312894563633,0.653157398680491,1.602228228975867,0.023562676720075407,0.02302918215282842,2.291234684260132,4.465102342041151
1445530249851,1062.0,0.0,1050.0,0.36252354048964197,0.24639814977520044,0.04143126177024476,0.24639814977520044,0,0.0,0.0,0,0.0,0.0,0,0.0,0.0,0,0.0,0.0,0,0.0,0.0,0,0.0,0.0,336,0.005952380952380947,0.00593461265103056,0,0.0,0.0,170,0.0,0.0,189,0.0,0.0,367,2.855585831062669,2.5883771831866706,1445530250272,1080.0,0.0,100.14259259259252,0.12978752617306755,0.4499999999999999,0.2866543095458763,0.0212962962962963,0.020862080801839808,1.7944444444444445,2.0652147049737413
1445530250852,1067.0,0.0,857.0,0.4264292408622306,0.26170234090777195,0.04686035613870666,0.26170234090777195,0,0.0,0.0,0,0.0,0.0,0,0.0,0.0,0,0.0,0.0,0,0.0,0.0,0,0.0,0.0,371,0.005390835579514823,0.005376265753624244,0,0.0,0.0,184,0.0,0.0,171,0.0,0.0,341,2.5073313782991193,1.5153872692772121,1445530251273,1064.0,0.0,100.16071428571429,0.17828584867625277,0.5939849624060146,0.8434633149194721,0.02631578947368419,0.025647373372283004,2.074248120300754,2.90981599105949
