timeStamp,totalRequests,failedRequests,totalHandleTime,upstreamTime,upstreamTimeVar,downstreamTime,downstreamTimeVar,CREATE_CLIENT_N,CREATE_CLIENT_time,CREATE_CLIENT_timeVar,CLIENT_LIST_N,CLIENT_LIST_time,CLIENT_LIST_timeVar,QUEUE_LIST_N,QUEUE_LIST_time,QUEUE_LIST_timeVar,MESSAGE_COUNT_N,MESSAGE_COUNT_time,MESSAGE_COUNT_timeVar,CREATE_QUEUE_N,CREATE_QUEUE_time,CREATE_QUEUE_timeVar,DELETE_QUEUE_N,DELETE_QUEUE_time,DELETE_QUEUE_timeVar,SEND_MESSAGE_N,SEND_MESSAGE_time,SEND_MESSAGE_timeVar,RECEIVE_MESSAGE_N,RECEIVE_MESSAGE_time,RECEIVE_MESSAGE_timeVar,POP_QUEUE_N,POP_QUEUE_time,POP_QUEUE_timeVar,TOP_QUEUE_N,TOP_QUEUE_time,TOP_QUEUE_timeVar,INBOX_QUEUES_N,INBOX_QUEUES_time,INBOX_QUEUES_timeVar,timeStamp,totalRequests,failedRequests,clientThinkTime,clientThinkTimeVar,waitingForConnectionTime,waitingForConnectionTimeVar,upstreamTime,upstreamTimeVar,waitingForResponseTime,waitingForResponseTimeVar
1445530773630,1530.0,0.0,2262.0,0.29673202614379085,0.4808918640488669,0.06209150326797378,0.4808918640488669,0,0.0,0.0,160,1.2499999999999996,4.301886792452828,0,0.0,0.0,160,0.7374999999999997,0.2325471698113209,0,0.0,0.0,0,0.0,0.0,1210,1.6066115702479344,0.5630662592539429,0,0.0,0.0,0,0.0,0.0,0,0.0,0.0,0,0.0,0.0,1445530774079,1523.0,0.0,100.2639527248852,1.120821947829298,0.42875902823374895,0.3883182355869653,0.03808273145108339,0.1562360062916142,3.7137229152987588,7.802354264829341
1445530774631,1556.0,0.0,2323.0,0.2763496143958872,0.5332280809066039,0.06940874035989723,0.5332280809066039,0,0.0,0.0,50,0.9799999999999999,0.46897959183673477,0,0.0,0.0,160,0.9499999999999996,0.13584905660377367,0,0.0,0.0,0,0.0,0.0,1346,1.5765230312035643,0.4837309500267887,0,0.0,0.0,0,0.0,0.0,0,0.0,0.0,0,0.0,0.0,1445530775080,1546.0,0.0,100.14359637774892,0.12305605445936349,0.39974126778783925,0.24528148641237246,0.03557567917205695,0.03433225737575197,3.432082794307888,6.970465173723188
1445530775632,1516.0,0.0,2502.0,0.25989445910290276,0.27300434528941037,0.04947229551451191,0.27300434528941037,0,0.0,0.0,110,0.9090909090909091,0.21184320266889087,0,0.0,0.0,160,1.5062500000000003,0.3647405660377358,0,0.0,0.0,0,0.0,0.0,1246,1.734349919743177,1.1028673280602348,0,0.0,0.0,0,0.0,0.0,0,0.0,0.0,0,0.0,0.0,1445530776081,1526.0,0.0,100.2208387942332,0.784640869733365,0.6356487549148101,1.2599480050705807,0.030144167758846638,0.02925466772661838,3.8296199213630397,7.47127946200289
1445530776633,1526.0,0.0,2432.0,0.24967234600262087,0.4143441548675424,0.050458715596330264,0.4143441548675424,0,0.0,0.0,160,0.775,0.1880503144654089,0,0.0,0.0,52,2.096153846153847,1.029788838612368,0,0.0,0.0,0,0.0,0.0,1314,1.6735159817351593,0.8141190831411919,0,0.0,0.0,0,0.0,0.0,0,0.0,0.0,0,0.0,0.0,1445530777083,1557.0,0.0,100.12395632626826,0.1086609441068007,0.4200385356454719,0.3106007697222757,0.025690430314707777,0.025046518500907243,3.2318561335902367,14.315745460008955
1445530777635,1538.0,0.0,1675.0,0.3420026007802344,0.2902450435846434,0.026657997399219736,0.2902450435846434,0,0.0,0.0,0,0.0,0.0,0,0.0,0.0,108,2.5370370370370376,2.3444098303911383,0,0.0,0.0,0,0.0,0.0,514,0.005836575875486387,0.01750972762645916,0,0.0,0.0,233,0.008583690987124465,0.008546692319076512,198,0.0,0.0,485,2.8783505154639175,2.9872369430007657,1445530778085,1470.0,0.0,100.28231292517013,1.6227638775047108,0.41904761904761895,0.4137962332652593,0.035374149659863956,0.17982337931769046,5.319047619047631,41.851168595416375
1445530778637,1453.0,0.0,2583.0,0.27116311080523026,0.5586513321919683,0.04473503097040611,0.5586513321919683,0,0.0,0.0,0,0.0,0.0,0,0.0,0.0,0,0.0,0.0,0,0.0,0.0,0,0.0,0.0,452,0.0022123893805309734,0.0022123893805309747,0,0.0,0.0,254,0.0,0.0,246,0.0,0.0,501,5.1536926147704625,18.15433133732534,1445530779086,1499.0,0.0,100.13008672448316,0.11323971210001192,0.4202801867911938,0.24514251156311553,0.02068045363575719,0.02026629234799168,9.363575717144762,220.98454688528386
1445530779638,1536.0,0.0,2070.0,0.2838541666666663,0.21253393051031463,0.058593749999999965,0.21253393051031463,0,0.0,0.0,0,0.0,0.0,0,0.0,0.0,0,0.0,0.0,0,0.0,0.0,0,0.0,0.0,547,0.0,0.0,0,0.0,0.0,240,0.0,0.0,259,0.0,0.0,490,4.224489795918363,10.21943992320855,1445530780087,1526.0,0.0,100.12516382699869,0.10956964527426218,0.5471821756225429,1.4912150054788045,0.03407601572739189,0.10506757192273812,2.95937090432503,9.708512128569295
1445530780639,1535.0,0.0,2088.0,0.3055374592833879,0.5004582344172696,0.048859934853420134,0.5004582344172696,0,0.0,0.0,0,0.0,0.0,0,0.0,0.0,0,0.0,0.0,0,0.0,0.0,0,0.0,0.0,470,0.0,0.0,0,0.0,0.0,252,0.0,0.0,277,0.0,0.0,536,3.895522388059702,8.441400474264187,1445530781088,1533.0,0.0,100.18134377038481,0.38484754036096785,0.4455316373124596,0.4521552817986887,0.02087410306588389,0.020451715862853596,3.8219178082191756,13.925837833971187
1445530781640,1535.0,0.0,2008.0,0.27035830618892476,0.2273802496294631,0.05016286644951138,0.2273802496294631,0,0.0,0.0,0,0.0,0.0,0,0.0,0.0,0,0.0,0.0,0,0.0,0.0,0,0.0,0.0,488,0.0,0.0,0,0.0,0.0,257,0.0,0.0,271,0.0,0.0,519,3.868978805394992,6.504035827735243,1445530782090,1532.0,0.0,100.14556135770238,0.12445448545550393,0.4445169712793734,0.24838925052824734,0.024151436031331602,0.023583538123344735,3.9895561357702354,18.005116197369258
1445530782643,1540.0,0.0,2018.0,0.2948051948051952,0.27040834409255504,0.051948051948051924,0.27040834409255504,0,0.0,0.0,0,0.0,0.0,0,0.0,0.0,0,0.0,0.0,0,0.0,0.0,0,0.0,0.0,492,0.002032520325203253,0.002032520325203253,0,0.0,0.0,257,0.0038910505836575867,0.003891050583657588,264,0.0,0.0,527,3.8254269449715377,7.452356043607187,1445530783091,1553.0,0.0,100.16677398583376,0.42770975365271674,0.4352865421764322,0.2459705525056263,0.023180940115904693,0.022658174069476438,3.245975531229879,12.192034373112216
1445530783644,1543.0,0.0,1793.0,0.3130265716137393,0.26965510110931534,0.037589112119248196,0.26965510110931534,0,0.0,0.0,0,0.0,0.0,0,0.0,0.0,0,0.0,0.0,0,0.0,0.0,0,0.0,0.0,529,0.0,0.0,0,0.0,0.0,264,0.0,0.0,240,0.0,0.0,510,3.515686274509802,4.4820717284949305,1445530784092,1563.0,0.0,100.12667946257206,0.11070260333594653,0.4101087651951376,0.24207444398842293,0.019833653230966128,0.019452725191959053,2.3320537428023007,5.216814409401799
1445530784646,1560.0,0.0,1848.0,0.34423076923076895,0.27206419302314094,0.043589743589743664,0.27206419302314094,0,0.0,0.0,0,0.0,0.0,0,0.0,0.0,0,0.0,0.0,0,0.0,0.0,0,0.0,0.0,535,0.0,0.0,0,0.0,0.0,245,0.0,0.0,266,0.0,0.0,514,3.595330739299612,5.586410904043509,1445530785093,1555.0,0.0,100.16655948553043,0.31908693259175824,0.40000000000000036,0.24015444015444093,0.021864951768488763,0.02140063812089536,2.686816720257235,7.772509486978965
1445530785647,1546.0,0.0,1828.0,0.3124191461837004,0.21754145785972345,0.04527813712807244,0.21754145785972345,0,0.0,0.0,0,0.0,0.0,0,0.0,0.0,0,0.0,0.0,0,0.0,0.0,0,0.0,0.0,533,0.0,0.0,0,0.0,0.0,260,0.0,0.0,247,0.0,0.0,506,3.612648221343876,6.122928814620594,1445530786094,1539.0,0.0,100.13190383365834,0.11457966304771365,0.42040285899934987,0.2477238948162678,0.024691358024691346,0.024097352662588903,2.6822612085769997,6.985452360854462
1445530786648,1561.0,0.0,1946.0,0.30685458039718116,0.27180554871137785,0.03843689942344656,0.27180554871137785,0,0.0,0.0,0,0.0,0.0,0,0.0,0.0,0,0.0,0.0,0,0.0,0.0,0,0.0,0.0,498,0.002008032128514058,0.0020080321285140565,0,0.0,0.0,270,0.0,0.0,267,0.0,0.0,526,3.697718631178708,6.081785261633174,1445530787096,1532.0,0.0,100.18342036553531,0.6162370197809247,0.44125326370757206,0.24670985874179086,0.020887728459530026,0.02046478947700527,3.7878590078328997,17.772732970310717
1445530787649,1520.0,0.0,2062.0,0.26776315789473704,0.1975117806035825,0.038815789473684234,0.1975117806035825,0,0.0,0.0,0,0.0,0.0,0,0.0,0.0,0,0.0,0.0,0,0.0,0.0,0,0.0,0.0,509,0.0,0.0,0,0.0,0.0,248,0.0,0.0,252,0.003968253968253967,0.003968253968253969,511,4.033268101761253,8.004773416215803,1445530788098,1557.0,0.0,100.1297366730893,0.11297762984316577,0.4200385356454722,0.2450480704934841,0.023121387283237007,0.02260130466439812,2.7899807321772623,8.333112917366313
1445530788652,1557.0,0.0,1865.0,0.2973667308927428,0.25791722596186417,0.043031470777135476,0.25791722596186417,0,0.0,0.0,0,0.0,0.0,0,0.0,0.0,0,0.0,0.0,0,0.0,0.0,0,0.0,0.0,510,0.0,0.0,0,0.0,0.0,269,0.0,0.0,259,0.0,0.0,519,3.5934489402697496,5.164512985322234,1445530789099,1546.0,0.0,100.17529107373869,0.28058001230861934,0.42949547218628714,0.3189741142189682,0.021345407503234177,0.020903301975659084,2.7697283311772267,7.755354877604591
1445530789653,1558.0,0.0,2067.0,0.30295250320924294,0.30122441778114173,0.03786906290115532,0.30122441778114173,0,0.0,0.0,0,0.0,0.0,0,0.0,0.0,0,0.0,0.0,0,0.0,0.0,0,0.0,0.0,523,0.0,0.0,0,0.0,0.0,265,0.0,0.0,250,0.0,0.0,520,3.974999999999996,6.382803468208084,1445530790100,1542.0,0.0,100.1355382619975,0.11724367504383015,0.408560311284047,0.2417955898060035,0.018806744487678356,0.018465025574209832,3.255512321660181,11.703652268180319
1445530790654,1542.0,0.0,1958.0,0.30025940337224394,0.21932504622884552,0.04734111543450066,0.21932504622884552,0,0.0,0.0,0,0.0,0.0,0,0.0,0.0,0,0.0,0.0,0,0.0,0.0,0,0.0,0.0,507,0.0,0.0,0,0.0,0.0,249,0.0,0.0,266,0.0,0.0,520,3.765384615384613,6.542152067585593,1445530791103,1539.0,0.0,100.17868745938931,0.22097590940700176,0.6198830409356728,2.9067825610841163,0.02274204028589993,0.04174514212613356,3.082521117608837,9.702548646335295
1445530791656,1522.0,0.0,2023.0,0.29829172141918564,0.5276630890701439,0.0545335085413929,0.5276630890701439,0,0.0,0.0,0,0.0,0.0,0,0.0,0.0,0,0.0,0.0,0,0.0,0.0,0,0.0,0.0,486,0.004115226337448562,0.004106741334690931,0,0.0,0.0,287,0.0,0.0,231,0.0,0.0,518,3.9015444015444016,7.102473432260669,1445530792104,1553.0,0.0,100.14101738570518,0.12120953126970675,0.4127495170637477,0.2476981698209653,0.020605280103026414,0.02019370556488605,3.3110109465550503,13.774988217019281
1445530792657,1556.0,0.0,1792.0,0.3007712082262211,0.2117293083923659,0.05655526992287924,0.2117293083923659,0,0.0,0.0,0,0.0,0.0,0,0.0,0.0,0,0.0,0.0,0,0.0,0.0,0,0.0,0.0,548,0.0018248175182481762,0.001824817518248176,0,0.0,0.0,246,0.0,0.0,262,0.0,0.0,500,3.5820000000000007,7.490256513026049,1445530793106,1545.0,0.0,100.14886731391591,0.2394822006472514,0.42394822006472455,0.3000737797005212,0.023300970873786426,0.022772775290507554,2.7870550161812324,7.368485168603395
1445530793658,1545.0,0.0,1868.0,0.31067961165048585,0.355488203631973,0.04530744336569578,0.355488203631973,0,0.0,0.0,0,0.0,0.0,0,0.0,0.0,0,0.0,0.0,0,0.0,0.0,0,0.0,0.0,515,0.0,0.0,0,0.0,0.0,241,0.0,0.0,273,0.0,0.0,516,3.6201550387596866,5.913690073003684,1445530794107,1567.0,0.0,100.12507977026156,0.10950470308347277,0.42310146777281415,0.24551962124305468,0.021697511167836664,0.02124028392100484,2.3994894703254697,5.162145333062749
1445530794659,1523.0,0.0,1697.0,0.36506894287590314,1.7562560234960565,0.029546946815495755,1.7562560234960565,0,0.0,0.0,0,0.0,0.0,0,0.0,0.0,0,0.0,0.0,0,0.0,0.0,0,0.0,0.0,538,0.0,0.0,0,0.0,0.0,245,0.0,0.0,247,0.004048582995951417,0.004048582995951416,493,3.440162271805274,4.405456884183446,1445530795108,1525.0,0.0,100.16262295081981,0.2884970526225313,0.9960655737704921,9.187648552127712,0.028196721311475412,0.027419646314702423,3.9272131147540863,21.780131663869913
1445530795660,1551.0,0.0,1850.0,0.2811089619600263,0.25641064037769595,0.04255319148936171,0.25641064037769595,0,0.0,0.0,0,0.0,0.0,0,0.0,0.0,0,0.0,0.0,0,0.0,0.0,0,0.0,0.0,503,0.0,0.0,0,0.0,0.0,279,0.0,0.0,244,0.004098360655737705,0.004098360655737704,525,3.5219047619047608,4.562973464194844,1445530796109,1522.0,0.0,100.14914586070962,0.1269848057981081,0.39881734559789783,0.24517940251287096,0.016425755584756913,0.01616657206468186,3.1596583442838373,12.168443801669305
1445530796661,1556.0,0.0,2044.0,0.2937017994858616,0.28088635217682417,0.05462724935732647,0.28088635217682417,0,0.0,0.0,0,0.0,0.0,0,0.0,0.0,0,0.0,0.0,0,0.0,0.0,0,0.0,0.0,485,0.0,0.0,0,0.0,0.0,265,0.0,0.0,270,0.0,0.0,536,3.8134328358208984,6.350174361835678,1445530797110,1551.0,0.0,100.19922630560947,0.693831659075329,0.43133462282398427,0.25963686279403514,0.018697614442295292,0.018359851084628034,3.3823339780786617,13.293081258709266
1445530797662,1545.0,0.0,1962.0,0.28349514563106787,0.21102922682227476,0.04207119741100322,0.21102922682227476,0,0.0,0.0,0,0.0,0.0,0,0.0,0.0,0,0.0,0.0,0,0.0,0.0,0,0.0,0.0,540,0.0,0.0,0,0.0,0.0,263,0.0,0.0,242,0.0,0.0,500,3.924000000000002,9.625474949899797,1445530798114,1553.0,0.0,100.15582743077917,0.1883310320563476,0.44236960721184754,0.25070365969423974,0.02446877012234385,0.02388542959751992,2.7025112685125587,7.022268174003091
1445530798664,1544.0,0.0,1881.0,0.3018134715025905,0.22770895805560087,0.04209844559585488,0.22770895805560087,0,0.0,0.0,0,0.0,0.0,0,0.0,0.0,0,0.0,0.0,0,0.0,0.0,0,0.0,0.0,525,0.0,0.0,0,0.0,0.0,244,0.0,0.0,266,0.0,0.0,509,3.6954813359528482,6.456298439119467,1445530799115,1555.0,0.0,100.12540192926039,0.10974686215843574,0.4135048231511249,0.26712766970001717,0.0302250803858521,0.029330386886656984,2.5549839228295834,7.216247667051533
1445530799665,1548.0,0.0,1859.0,0.33914728682170564,0.287619699042408,0.04457364341085274,0.287619699042408,0,0.0,0.0,0,0.0,0.0,0,0.0,0.0,0,0.0,0.0,0,0.0,0.0,0,0.0,0.0,530,0.0,0.0,0,0.0,0.0,237,0.0,0.0,267,0.0,0.0,514,3.6167315175097263,5.184202941421861,1445530800117,1533.0,0.0,100.14285714285714,0.17866467735919392,0.6712328767123281,1.5471941056547096,0.021526418786692782,0.021076780796370216,3.1787345075016282,10.223907796961193
1445530800666,1521.0,0.0,2094.0,0.31295200525969746,0.3362071351949897,0.03484549638395799,0.3362071351949897,0,0.0,0.0,0,0.0,0.0,0,0.0,0.0,0,0.0,0.0,0,0.0,0.0,0,0.0,0.0,486,0.0,0.0,0,0.0,0.0,246,0.0,0.0,273,0.0,0.0,516,4.058139534883723,7.783020997967929,1445530801118,1546.0,0.0,100.14036222509706,0.17640219880514277,0.5329883570504524,0.5597524878902445,0.03234152652005179,0.050733283931389934,3.473479948253561,16.01903733196013
1445530801668,1560.0,0.0,1833.0,0.32756410256410234,0.25889335701715493,0.042307692307692366,0.25889335701715493,0,0.0,0.0,0,0.0,0.0,0,0.0,0.0,0,0.0,0.0,0,0.0,0.0,0,0.0,0.0,511,0.0,0.0,0,0.0,0.0,277,0.0,0.0,252,0.003968253968253967,0.003968253968253968,520,3.5230769230769226,5.263435601007861,1445530802120,1532.0,0.0,100.14164490861614,0.1216610416918929,0.8080939947780679,0.941593490832626,0.019582245430809445,0.019211321121538703,3.725195822454308,10.599155742164115
1445530802670,1531.0,0.0,2208.0,0.3435662965382104,0.3498589072032035,0.04441541476159373,0.3498589072032035,0,0.0,0.0,0,0.0,0.0,0,0.0,0.0,0,0.0,0.0,0,0.0,0.0,0,0.0,0.0,499,0.0,0.0,0,0.0,0.0,278,0.0,0.0,233,0.0,0.0,521,4.238003838771594,8.520168315369855,1445530803123,1544.0,0.0,100.15997409326422,0.2264979902551777,0.5110103626943014,0.2824451223812035,0.018782383419689103,0.01844154950150942,3.517487046632122,10.650374497563787
1445530803672,1539.0,0.0,2142.0,0.30994152046783596,0.22311956744918207,0.03898635477582843,0.22311956744918207,0,0.0,0.0,0,0.0,0.0,0,0.0,0.0,0,0.0,0.0,0,0.0,0.0,0,0.0,0.0,486,0.0,0.0,0,0.0,0.0,278,0.0,0.0,250,0.003999999999999999,0.003999999999999999,525,4.078095238095239,9.110301708469645,1445530804125,1539.0,0.0,100.15009746588717,0.2095757382185496,0.5315139701104609,0.7589216986018483,0.020142949967511377,0.01975004457152611,3.984405458089668,25.98415197073743
1445530804673,1528.0,0.0,1992.0,0.32264397905759123,0.2344050545675226,0.047120418848167596,0.2344050545675226,0,0.0,0.0,0,0.0,0.0,0,0.0,0.0,0,0.0,0.0,0,0.0,0.0,0,0.0,0.0,518,0.0,0.0,0,0.0,0.0,248,0.0,0.0,259,0.0,0.0,503,3.96023856858847,8.002399942971655,1445530805127,1530.0,0.0,100.13856209150326,0.17045443858816914,0.6143790849673205,0.4672882015243421,0.02549019607843139,0.02485669218635784,3.2810457516339837,9.65150446487729
1445530805675,1544.0,0.0,1811.0,0.3743523316062176,0.3004694441552859,0.04404145077720212,0.3004694441552859,0,0.0,0.0,0,0.0,0.0,0,0.0,0.0,0,0.0,0.0,0,0.0,0.0,0,0.0,0.0,547,0.0,0.0,0,0.0,0.0,237,0.004219409282700422,0.004219409282700422,261,0.0,0.0,499,3.6272545090180377,5.776444455175411,1445530806128,1558.0,0.0,100.2310654685494,0.7699527497252502,0.44929396662387716,0.2797008499443073,0.023748395378690657,0.02319929953178448,2.62195121951219,6.3341870701944005
1445530806677,1544.0,0.0,1746.0,0.3529792746113993,0.2868608524541718,0.036917098445595854,0.2868608524541718,0,0.0,0.0,0,0.0,0.0,0,0.0,0.0,0,0.0,0.0,0,0.0,0.0,0,0.0,0.0,561,0.0,0.0,0,0.0,0.0,253,0.0,0.0,236,0.0,0.0,494,3.5344129554655854,5.149928965024513,1445530807130,1529.0,0.0,100.18378024852842,0.3817786323059588,0.5434924787442779,0.7495796794263779,0.022236756049705705,0.021756511972715938,3.2485284499673037,9.524580621081423
1445530807678,1550.0,0.0,1974.0,0.3303225806451616,0.37887336262729304,0.04838709677419357,0.37887336262729304,0,0.0,0.0,0,0.0,0.0,0,0.0,0.0,0,0.0,0.0,0,0.0,0.0,0,0.0,0.0,506,0.0019762845849802388,0.0019762845849802383,0,0.0,0.0,254,0.0,0.0,271,0.0,0.0,519,3.8015414258188818,6.294514993936958,1445530808131,1544.0,0.0,100.12888601036268,0.11234717040688451,0.4300518134715027,0.26859727534343636,0.031088082901554397,0.030141135463853132,3.0420984455958577,10.199781983821303
1445530808679,1540.0,0.0,1783.0,0.30909090909090886,0.23318565774706132,0.04870129870129871,0.23318565774706132,0,0.0,0.0,0,0.0,0.0,0,0.0,0.0,0,0.0,0.0,0,0.0,0.0,0,0.0,0.0,516,0.0,0.0,0,0.0,0.0,253,0.0,0.0,260,0.0,0.0,511,3.489236790606652,4.29743294578105,1445530809134,1557.0,0.0,100.21965317919071,0.7422099053449509,0.5003211303789348,0.5920628788141458,0.021194605009633934,0.02075872624336897,3.3442517662170843,11.116633067678437
1445530809682,1544.0,0.0,1980.0,0.3044041450777201,0.4309332805012774,0.036269430051813455,0.4309332805012774,0,0.0,0.0,0,0.0,0.0,0,0.0,0.0,0,0.0,0.0,0,0.0,0.0,0,0.0,0.0,514,0.0019455252918287958,0.001945525291828795,0,0.0,0.0,278,0.007194244604316548,0.007168272602134901,241,0.0,0.0,511,3.8688845401174174,7.25140247879974,1445530810136,1539.0,0.0,100.14359974009096,0.22058807375806147,0.42690058479532184,0.2565190609814522,0.020792722547108546,0.02037362345805761,2.3014944769330707,4.515023772888849
1445530810683,1559.0,0.0,1757.0,0.34894162924951927,0.2619870049346991,0.048749198203976864,0.2619870049346991,0,0.0,0.0,0,0.0,0.0,0,0.0,0.0,0,0.0,0.0,0,0.0,0.0,0,0.0,0.0,534,0.0,0.0,0,0.0,0.0,253,0.0,0.0,255,0.0,0.0,517,3.3984526112185685,5.251780546684064,1445530811137,1569.0,0.0,100.15423836838747,0.2032361701850905,0.49521988527724636,0.4503916767471809,0.024219247928616967,0.023647747818056442,2.5780752071383044,6.139467976483142
1445530811684,1542.0,0.0,1780.0,0.34111543450064835,0.3728574182041908,0.04085603112840462,0.3728574182041908,0,0.0,0.0,0,0.0,0.0,0,0.0,0.0,0,0.0,0.0,0,0.0,0.0,0,0.0,0.0,524,0.0,0.0,0,0.0,0.0,263,0.0,0.0,248,0.0,0.0,507,3.510848126232743,4.5863445361773145,1445530812138,1544.0,0.0,100.1522020725389,0.15763610690432103,0.623056994818653,2.1027992034896035,0.029145077720207264,0.028313980234990738,2.6619170984455964,6.901828078670519
1445530812685,1557.0,0.0,1811.0,0.35067437379576105,0.2921155474984024,0.04367373153500325,0.2921155474984024,0,0.0,0.0,0,0.0,0.0,0,0.0,0.0,0,0.0,0.0,0,0.0,0.0,0,0.0,0.0,550,0.0,0.0,0,0.0,0.0,243,0.0,0.0,259,0.0,0.0,505,3.586138613861383,6.707347163287761,1445530813139,1518.0,0.0,100.14756258234519,0.17728805639728218,0.5718050065876165,0.8778333910889582,0.021739130434782632,0.034464475079533395,4.0263504611330685,18.489746856660922
1445530813686,1522.0,0.0,2035.0,0.2746386333771358,0.2348461875400112,0.04139290407358745,0.2348461875400112,0,0.0,0.0,0,0.0,0.0,0,0.0,0.0,0,0.0,0.0,0,0.0,0.0,0,0.0,0.0,497,0.0,0.0,0,0.0,0.0,248,0.0,0.0,262,0.0,0.0,515,3.951456310679613,8.139662271920214,1445530814140,1549.0,0.0,100.19948353776627,0.5977775108722351,0.48353776630083967,0.49536835467743556,0.03938024531956103,0.07402958981621906,3.120077469335058,8.203918340247865
1445530814688,1545.0,0.0,1861.0,0.3501618122977347,0.45178915773764594,0.04466019417475729,0.45178915773764594,0,0.0,0.0,0,0.0,0.0,0,0.0,0.0,0,0.0,0.0,0,0.0,0.0,0,0.0,0.0,502,0.0,0.0,0,0.0,0.0,263,0.0,0.0,262,0.0,0.0,518,3.5926640926640907,4.613253623891922,1445530815141,1551.0,0.0,100.18504190844598,0.4463825627586781,0.5467440361057383,0.9563619725047316,0.021921341070277284,0.0214546286474907,2.636363636363639,6.267683284457474
1445530815690,1560.0,0.0,1786.0,0.34038461538461523,0.23364706172595825,0.04230769230769233,0.23364706172595825,0,0.0,0.0,0,0.0,0.0,0,0.0,0.0,0,0.0,0.0,0,0.0,0.0,0,0.0,0.0,536,0.0,0.0,0,0.0,0.0,249,0.004016064257028112,0.004016064257028112,262,0.0,0.0,513,3.4795321637426904,5.253974780701757,1445530816143,1545.0,0.0,100.14174757281555,0.21240756577292044,0.44595469255663417,0.33143602126196947,0.027831715210356035,0.027074634874322993,3.0569579288025857,9.964370273487935
1445530816695,1528.0,0.0,1938.0,0.31217277486910916,0.3052348306401014,0.03599476439790575,0.3052348306401014,0,0.0,0.0,0,0.0,0.0,0,0.0,0.0,0,0.0,0.0,0,0.0,0.0,0,0.0,0.0,520,0.0019230769230769245,0.0019230769230769227,0,0.0,0.0,250,0.0,0.0,248,0.0,0.0,510,3.7980392156862743,7.112373357987603,1445530817146,1520.0,0.0,100.14013157894748,0.12057404455839876,0.5328947368421055,0.8020771976023009,0.03289473684210534,0.03183361629881151,3.6302631578947384,14.699281036693073
1445530817697,1544.0,0.0,1989.0,0.32448186528497375,0.2996983703773348,0.033031088082901505,0.2996983703773348,0,0.0,0.0,0,0.0,0.0,0,0.0,0.0,0,0.0,0.0,0,0.0,0.0,0,0.0,0.0,483,0.0,0.0,0,0.0,0.0,284,0.0,0.0,255,0.0,0.0,522,3.810344827586206,8.967800648620026,1445530818148,1506.0,0.0,100.19787516600263,0.3262679073297012,0.9229747675962832,2.695724301024032,0.027224435590969417,0.02650086255200676,6.0205843293492824,33.11519062178747
1445530818699,1492.0,0.0,2283.0,0.27882037533512066,0.28035595161675997,0.02882037533512068,0.28035595161675997,0,0.0,0.0,0,0.0,0.0,0,0.0,0.0,0,0.0,0.0,0,0.0,0.0,0,0.0,0.0,481,0.0,0.0,0,0.0,0.0,247,0.0,0.0,255,0.0,0.0,509,4.485265225933205,10.269959624398618,1445530819149,1528.0,0.0,100.18848167539264,0.35999821708375923,0.7153141361256551,1.1415596916926398,0.0215968586387435,0.021144272210164666,4.403141361256546,21.313467532066788
1445530819700,1526.0,0.0,2087.0,0.28178243774574047,0.3126777388651357,0.04325032765399741,0.3126777388651357,0,0.0,0.0,0,0.0,0.0,0,0.0,0.0,0,0.0,0.0,0,0.0,0.0,0,0.0,0.0,521,0.0,0.0,0,0.0,0.0,253,0.0,0.0,253,0.0,0.0,499,4.182364729458918,7.177519698030598,1445530820150,1528.0,0.0,100.15510471204186,0.19007215667719515,0.6001308900523564,0.8963195637341125,0.0229057591623037,0.0223957422588863,3.604712041884814,11.681235149507803
1445530820701,1544.0,0.0,1993.0,0.31930051813471555,0.34062530431599863,0.044689119170984476,0.34062530431599863,0,0.0,0.0,0,0.0,0.0,0,0.0,0.0,0,0.0,0.0,0,0.0,0.0,0,0.0,0.0,498,0.0,0.0,0,0.0,0.0,271,0.0,0.0,246,0.0040650406504065045,0.004065040650406503,529,3.765595463137996,5.9563140860399795,1445530821151,1556.0,0.0,100.19537275064266,0.32321973235024115,0.4267352185089981,0.31552914142123845,0.03727506426735223,0.03590871142925634,2.593830334190233,5.900514965407225
1445530821702,1546.0,0.0,1775.0,0.336351875808538,0.2350142553913013,0.03816300129366111,0.2350142553913013,0,0.0,0.0,0,0.0,0.0,0,0.0,0.0,0,0.0,0.0,0,0.0,0.0,0,0.0,0.0,517,0.0,0.0,0,0.0,0.0,238,0.0,0.0,279,0.0,0.0,512,3.4667968749999996,4.535098917563599,1445530822152,1546.0,0.0,100.1351875808538,0.1415830392243049,0.43596377749029763,0.27194848800746857,0.025226390685640344,0.024605935769100338,3.335058214747737,13.665009608259346
1445530822703,1536.0,0.0,1991.0,0.30403645833333337,0.2560358136536373,0.04947916666666664,0.2560358136536373,0,0.0,0.0,0,0.0,0.0,0,0.0,0.0,0,0.0,0.0,0,0.0,0.0,0,0.0,0.0,515,0.0,0.0,0,0.0,0.0,266,0.0,0.0,243,0.0,0.0,512,3.8886718749999982,8.357444807974552,1445530823153,1549.0,0.0,100.15816655907034,0.18362350970785496,0.48030987734021857,0.6154066222602558,0.02194964493221435,0.02148172614489971,3.2834086507424156,15.614072094524587
1445530823705,1549.0,0.0,2024.0,0.2840542285345384,0.20479078775504062,0.04648160103292455,0.20479078775504062,0,0.0,0.0,0,0.0,0.0,0,0.0,0.0,0,0.0,0.0,0,0.0,0.0,0,0.0,0.0,535,0.0,0.0,0,0.0,0.0,247,0.0,0.0,263,0.0,0.0,504,4.015873015873013,8.957998043485125,1445530824155,1530.0,0.0,100.17647058823522,0.23044665871580716,0.541830065359477,1.3733308540333502,0.030065359477124142,0.029180505862689568,2.701307189542484,7.996401167835779
1445530824706,1554.0,0.0,1891.0,0.31274131274131284,0.2627222936302139,0.04054054054054057,0.2627222936302139,0,0.0,0.0,0,0.0,0.0,0,0.0,0.0,0,0.0,0.0,0,0.0,0.0,0,0.0,0.0,519,0.0,0.0,0,0.0,0.0,244,0.0,0.0,272,0.0,0.0,519,3.64354527938343,7.608215978158169,1445530825157,1532.0,0.0,100.15208877284596,0.152556052205677,0.7023498694516974,3.1510591381253916,0.025456919060052197,0.024825068684949693,4.563315926892953,29.923486841993057
1445530825709,1515.0,0.0,2027.0,0.2917491749174916,0.3018803597664913,0.03894389438943897,0.3018803597664913,0,0.0,0.0,0,0.0,0.0,0,0.0,0.0,0,0.0,0.0,0,0.0,0.0,0,0.0,0.0,520,0.0,0.0,0,0.0,0.0,234,0.0,0.0,261,0.0,0.0,500,4.0539999999999985,8.668420841683357,1445530826158,1512.0,0.0,100.15079365079364,0.15196495540638522,0.6620370370370371,2.7731971713606387,0.02579365079365076,0.02514496864265232,4.290343915343916,28.870641311160867
1445530826710,1520.0,0.0,1958.0,0.2809210526315795,0.23242048092581674,0.04144736842105265,0.23242048092581674,0,0.0,0.0,0,0.0,0.0,0,0.0,0.0,0,0.0,0.0,0,0.0,0.0,0,0.0,0.0,548,0.0,0.0,0,0.0,0.0,260,0.003846153846153849,0.0038461538461538446,231,0.0,0.0,481,4.068607068607066,9.568199930699937,1445530827160,1552.0,0.0,100.16494845360839,0.2306725956649244,0.4323453608247427,0.2739498793595084,0.021262886597938162,0.02082419390217151,2.8601804123711325,7.576182559306585
1445530827711,1555.0,0.0,1821.0,0.31446945337620613,0.2414571668590962,0.04437299035369776,0.2414571668590962,0,0.0,0.0,0,0.0,0.0,0,0.0,0.0,0,0.0,0.0,0,0.0,0.0,0,0.0,0.0,546,0.0036630036630036643,0.0036562825553651235,0,0.0,0.0,240,0.0,0.0,266,0.0037593984962406013,0.0037593984962406017,503,3.6143141153081513,5.862902267668883,1445530828162,1536.0,0.0,100.16276041666671,0.16502273344191287,0.5091145833333339,0.37125237513572235,0.02213541666666665,0.021659541259500568,3.2246093749999973,9.676553593241044
1445530828717,1554.0,0.0,1982.0,0.3243243243243247,0.2617775534710495,0.04118404118404122,0.2617775534710495,0,0.0,0.0,0,0.0,0.0,0,0.0,0.0,0,0.0,0.0,0,0.0,0.0,0,0.0,0.0,515,0.0,0.0,0,0.0,0.0,272,0.0,0.0,246,0.0,0.0,521,3.8042226487523987,7.7923667503321985,1445530829164,1550.0,0.0,100.152258064516,0.1678935421395693,0.4470967741935481,0.2796397259418142,0.026451612903225827,0.025768549948978557,3.4509677419354885,11.709343801411936
1445530829718,1532.0,0.0,2074.0,0.2774151436031333,0.23324530631526366,0.0326370757180156,0.23324530631526366,0,0.0,0.0,0,0.0,0.0,0,0.0,0.0,0,0.0,0.0,0,0.0,0.0,0,0.0,0.0,488,0.0,0.0,0,0.0,0.0,291,0.0,0.0,228,0.0,0.0,525,3.9504761904761887,6.936474009451116,1445530830166,1524.0,0.0,100.15748031496084,0.1682237192445537,0.8779527559055119,8.621995543400157,0.024278215223097165,0.023704337515919507,4.154855643044615,24.106010550388355
1445530830719,1530.0,0.0,2025.0,0.2718954248366011,0.2085621342498194,0.03529411764705886,0.2085621342498194,0,0.0,0.0,0,0.0,0.0,0,0.0,0.0,0,0.0,0.0,0,0.0,0.0,0,0.0,0.0,508,0.0,0.0,0,0.0,0.0,260,0.0,0.0,252,0.0,0.0,510,3.970588235294117,8.700508494163872,1445530831173,1526.0,0.0,100.16251638269992,0.2607842210429134,0.7011795543905632,3.1565494274112114,0.02490170380078638,0.02429753131512793,4.659239842726079,26.167085061126297
