timeStamp,totalRequests,failedRequests,totalHandleTime,upstreamTime,upstreamTimeVar,downstreamTime,downstreamTimeVar,CREATE_CLIENT_N,CREATE_CLIENT_time,CREATE_CLIENT_timeVar,CLIENT_LIST_N,CLIENT_LIST_time,CLIENT_LIST_timeVar,QUEUE_LIST_N,QUEUE_LIST_time,QUEUE_LIST_timeVar,MESSAGE_COUNT_N,MESSAGE_COUNT_time,MESSAGE_COUNT_timeVar,CREATE_QUEUE_N,CREATE_QUEUE_time,CREATE_QUEUE_timeVar,DELETE_QUEUE_N,DELETE_QUEUE_time,DELETE_QUEUE_timeVar,SEND_MESSAGE_N,SEND_MESSAGE_time,SEND_MESSAGE_timeVar,RECEIVE_MESSAGE_N,RECEIVE_MESSAGE_time,RECEIVE_MESSAGE_timeVar,POP_QUEUE_N,POP_QUEUE_time,POP_QUEUE_timeVar,TOP_QUEUE_N,TOP_QUEUE_time,TOP_QUEUE_timeVar,INBOX_QUEUES_N,INBOX_QUEUES_time,INBOX_QUEUES_timeVar,timeStamp,totalRequests,failedRequests,clientThinkTime,clientThinkTimeVar,waitingForConnectionTime,waitingForConnectionTimeVar,upstreamTime,upstreamTimeVar,waitingForResponseTime,waitingForResponseTimeVar
1445530939938,1699.0,0.0,2508.0,0.2695703354914654,0.45850222988510536,0.0618010594467333,0.45850222988510536,0,0.0,0.0,180,0.9277777777777775,0.6148665425201737,0,0.0,0.0,180,0.8111111111111109,0.9473618870266909,0,0.0,0.0,0,0.0,0.0,1339,1.6392830470500366,0.7658996350711258,0,0.0,0.0,0,0.0,0.0,0,0.0,0.0,0,0.0,0.0,1445530940393,1736.0,0.0,100.25691244239638,1.121277839015152,0.4343317972350237,0.36110306909786344,0.02995391705069122,0.029073427269950474,3.990783410138249,9.052364573234714
1445530940939,1742.0,0.0,2792.0,0.22215843857634876,0.18439097315965153,0.04879448909299659,0.18439097315965153,0,0.0,0.0,25,0.84,0.22333333333333336,0,0.0,0.0,180,1.0555555555555551,0.298572315332092,0,0.0,0.0,0,0.0,0.0,1537,1.679245283018868,0.8234817216981135,0,0.0,0.0,0,0.0,0.0,0,0.0,0.0,0,0.0,0.0,1445530941394,1729.0,0.0,100.2596876807403,1.278009393140972,0.45980335454019666,0.46843537797485124,0.042799305957200794,0.16251901120322143,4.160786581839209,9.270429010560594
1445530941940,1699.0,0.0,2912.0,0.20423778693349026,0.6113836795842631,0.04826368452030608,0.6113836795842631,0,0.0,0.0,155,1.1677419354838714,2.7249266862170085,0,0.0,0.0,180,1.9888888888888876,1.8434512725015517,0,0.0,0.0,0,0.0,0.0,1364,1.7397360703812317,1.5323597248608467,0,0.0,0.0,0,0.0,0.0,0,0.0,0.0,0,0.0,0.0,1445530942395,1703.0,0.0,100.15208455666487,0.13255587533715782,0.4274809160305338,0.36004341546990093,0.03053435114503819,0.029619397027296115,4.88667058132707,16.958359237483037
1445530942942,1712.0,0.0,2730.0,0.23656542056074717,0.18421449717878302,0.05490654205607476,0.18421449717878302,0,0.0,0.0,180,0.9444444444444442,0.17566728739913093,0,0.0,0.0,16,1.7499999999999998,0.33333333333333326,0,0.0,0.0,0,0.0,0.0,1516,1.6701846965699196,0.9314140912772024,0,0.0,0.0,0,0.0,0.0,0,0.0,0.0,0,0.0,0.0,1445530943400,1532.0,0.0,100.34007832898166,2.0129452583935774,0.7506527415143596,2.7228931072883666,0.04046997389033938,0.08980461242246834,15.586814621409946,274.49343805052473
1445530943944,1549.0,0.0,3134.0,0.1530019367333765,0.14388794637867564,0.0426081342801808,0.14388794637867564,0,0.0,0.0,0,0.0,0.0,0,0.0,0.0,164,3.3536585365853657,5.59194972317821,0,0.0,0.0,0,0.0,0.0,408,0.004901960784313726,0.004889916654622533,0,0.0,0.0,215,0.004651162790697674,0.004651162790697673,238,0.004201680672268908,0.004201680672268908,524,4.923664122137403,14.774276414695017,1445530944404,1683.0,0.0,100.15151515151523,0.12863474219003418,0.8419489007724302,5.614719624022274,0.022578728461081422,0.02208205012989238,6.614973262032087,45.01694570380306
1445530944945,1692.0,0.0,2501.0,0.24231678486997657,0.419071625194151,0.041371158392434965,0.419071625194151,0,0.0,0.0,0,0.0,0.0,0,0.0,0.0,0,0.0,0.0,0,0.0,0.0,0,0.0,0.0,562,0.0017793594306049821,0.0017793594306049832,0,0.0,0.0,286,0.0,0.0,285,0.0,0.0,559,4.472271914132377,9.891254864998306,1445530945406,1659.0,0.0,100.14526823387565,0.1242402627478431,0.7112718505123578,3.27907069746407,0.02471368294153106,0.024117454161276957,6.663652802893299,46.745668434266896
1445530945946,1652.0,0.0,2789.0,0.24031476997578663,1.111808017153007,0.04539951573849881,1.111808017153007,0,0.0,0.0,0,0.0,0.0,0,0.0,0.0,0,0.0,0.0,0,0.0,0.0,0,0.0,0.0,541,0.0018484288354898336,0.001848428835489834,0,0.0,0.0,265,0.0,0.0,290,0.0,0.0,556,5.014388489208636,14.828621427182583,1445530946409,1728.0,0.0,100.14467592592588,0.12381645542473538,0.42476851851851827,0.2456397842544338,0.023726851851851877,0.023177301143065425,6.173032407407402,52.71526537937765
1445530946947,1697.0,0.0,2395.0,0.24337065409546227,0.19250466972793254,0.037124337065409595,0.19250466972793254,0,0.0,0.0,0,0.0,0.0,0,0.0,0.0,0,0.0,0.0,0,0.0,0.0,0,0.0,0.0,587,0.0,0.0,0,0.0,0.0,281,0.0,0.0,274,0.0,0.0,555,4.315315315315307,8.750577292093526,1445530947411,1722.0,0.0,100.144018583043,0.1233488619438371,0.4314750290360048,0.24893320942838343,0.029036004645760706,0.02820929678542238,3.8739837398373975,18.053256520363004
1445530947950,1713.0,0.0,2121.0,0.2697022767075311,0.19824623140252387,0.045534150612959796,0.19824623140252387,0,0.0,0.0,0,0.0,0.0,0,0.0,0.0,0,0.0,0.0,0,0.0,0.0,0,0.0,0.0,565,0.001769911504424778,0.0017699115044247805,0,0.0,0.0,302,0.0,0.0,270,0.0,0.0,576,3.680555555555557,6.680386473429954,1445530948412,1712.0,0.0,100.30665887850479,2.400937515362415,0.4240654205607476,0.2537279396101094,0.02978971962616825,0.02891918427765364,3.9702102803738297,16.518691247398632
1445530948951,1736.0,0.0,2429.0,0.2413594470046083,0.19127976467150967,0.035138248847926254,0.19127976467150967,0,0.0,0.0,0,0.0,0.0,0,0.0,0.0,0,0.0,0.0,0,0.0,0.0,0,0.0,0.0,568,0.0,0.0,0,0.0,0.0,282,0.0035460992907801413,0.003546099290780141,302,0.0,0.0,584,4.157534246575339,8.256443995394635,1445530949416,1681.0,0.0,100.12908982748361,0.11249256395003002,0.48661511005353963,0.5380647857001208,0.02439024390243901,0.023809523809523756,4.550267697798926,23.184525225914314
1445530949952,1674.0,0.0,2431.0,0.24313022700119466,0.6527471593607374,0.04062126642771808,0.6527471593607374,0,0.0,0.0,0,0.0,0.0,0,0.0,0.0,0,0.0,0.0,0,0.0,0.0,0,0.0,0.0,562,0.0,0.0,0,0.0,0.0,283,0.0,0.0,278,0.0,0.0,551,4.41197822141561,10.911783534070286,1445530950417,1710.0,0.0,100.13859649122801,0.11945736195374411,0.8228070175438593,3.208490653198223,0.023391812865497068,0.022858003209701647,7.107602339181286,69.4161504795732
1445530950954,1679.0,0.0,2419.0,0.22632519356759986,0.18116592755918462,0.04050029779630733,0.18116592755918462,0,0.0,0.0,0,0.0,0.0,0,0.0,0.0,0,0.0,0.0,0,0.0,0.0,0,0.0,0.0,588,0.0,0.0,0,0.0,0.0,281,0.0,0.0,258,0.0,0.0,552,4.382246376811593,12.835473710513153,1445530951418,1700.0,0.0,100.13294117647062,0.11533566457777895,0.694705882352941,2.1768995602949803,0.017647058823529443,0.017345843575805833,5.221764705882356,38.62707163383304
1445530951955,1722.0,0.0,2385.0,0.23344947735191618,0.27667246374464244,0.04239256678281073,0.27667246374464244,0,0.0,0.0,0,0.0,0.0,0,0.0,0.0,0,0.0,0.0,0,0.0,0.0,0,0.0,0.0,555,0.0,0.0,0,0.0,0.0,297,0.0,0.0,289,0.0,0.0,581,4.10499139414802,7.042406077512025,1445530952420,1697.0,0.0,100.3836181496758,4.141075816368497,0.48320565704183915,0.6130727365717521,0.021213906894519737,0.02077611990082389,4.733647613435478,21.6365617460335
1445530952956,1715.0,0.0,2309.0,0.25889212827988317,0.5852111406322845,0.03848396501457723,0.5852111406322845,0,0.0,0.0,0,0.0,0.0,0,0.0,0.0,0,0.0,0.0,0,0.0,0.0,0,0.0,0.0,561,0.0,0.0,0,0.0,0.0,306,0.003267973856209149,0.0032679738562091513,277,0.0,0.0,571,4.042031523642733,7.170160076197506,1445530953424,1732.0,0.0,100.14549653579678,0.12439911783894433,0.40704387990762086,0.24149859310521482,0.023094688221708994,0.022574357291237253,3.863741339491916,15.5192622507915
1445530953958,1725.0,0.0,2413.0,0.2336231884057971,0.1791472477218468,0.039999999999999994,0.1791472477218468,0,0.0,0.0,0,0.0,0.0,0,0.0,0.0,0,0.0,0.0,0,0.0,0.0,0,0.0,0.0,576,0.0,0.0,0,0.0,0.0,286,0.0,0.0,284,0.0,0.0,579,4.167530224525047,8.267732816991472,1445530954426,1707.0,0.0,100.13298183948439,0.11536525348008565,0.43409490333919193,0.2493175126762364,0.02929115407147039,0.02844984894280566,5.617457527826596,32.80961299277304
1445530954962,1704.0,0.0,2576.0,0.2212441314553991,0.29923133437540483,0.043427230046948324,0.29923133437540483,0,0.0,0.0,0,0.0,0.0,0,0.0,0.0,0,0.0,0.0,0,0.0,0.0,0,0.0,0.0,566,0.0,0.0,0,0.0,0.0,279,0.0,0.0,288,0.0,0.0,571,4.511383537653242,9.927501766675881,1445530955427,1743.0,0.0,100.13425129087788,0.11973891959505976,0.41537578886976434,0.2452743564054478,0.02868617326448654,0.02787927172030748,3.028686173264486,10.096765609263352
1445530955963,1744.0,0.0,2036.0,0.28325688073394484,0.20313889897729814,0.03669724770642201,0.20313889897729814,0,0.0,0.0,0,0.0,0.0,0,0.0,0.0,0,0.0,0.0,0,0.0,0.0,0,0.0,0.0,620,0.0,0.0,0,0.0,0.0,311,0.0,0.0,253,0.003952569169960474,0.003952569169960475,560,3.6339285714285694,5.681494377715307,1445530956429,1696.0,0.0,100.28773584905663,1.6186341626315048,0.491155660377359,0.6724881031891783,0.022405660377358506,0.021916569265876328,4.572523584905654,20.425415692658827
1445530956964,1708.0,0.0,2510.0,0.2295081967213116,0.1827960087201207,0.02927400468384082,0.1827960087201207,0,0.0,0.0,0,0.0,0.0,0,0.0,0.0,0,0.0,0.0,0,0.0,0.0,0,0.0,0.0,552,0.0,0.0,0,0.0,0.0,297,0.0,0.0,288,0.0,0.0,571,4.395796847635721,7.923771776200575,1445530957430,1687.0,0.0,100.14285714285717,0.12252160650737215,0.44457617071724936,0.2518196156358614,0.02193242442205101,0.0214641164272741,5.899229401304096,32.29944780440196
1445530957965,1699.0,0.0,2599.0,0.20600353148911144,0.17072954297927584,0.04061212477928198,0.17072954297927584,0,0.0,0.0,0,0.0,0.0,0,0.0,0.0,0,0.0,0.0,0,0.0,0.0,0,0.0,0.0,547,0.0,0.0,0,0.0,0.0,294,0.0,0.0,277,0.0,0.0,581,4.47332185886403,7.72902842898688,1445530958439,1692.0,0.0,100.14125295508273,0.12137229079551713,0.417848699763594,0.24694321068429353,0.025413711583924324,0.02478250171607998,6.894799054373523,65.39519469643908
1445530958966,1650.0,0.0,2595.0,0.24484848484848495,0.47973390668357285,0.033939393939393915,0.47973390668357285,0,0.0,0.0,0,0.0,0.0,0,0.0,0.0,0,0.0,0.0,0,0.0,0.0,0,0.0,0.0,578,0.0017301038062283735,0.0017301038062283746,0,0.0,0.0,269,0.0,0.0,263,0.0,0.0,540,4.803703703703707,10.440060468631888,1445530959442,1671.0,0.0,100.11430281268709,0.10129830106394015,0.5583482944344715,0.8599167911931965,0.019150209455415935,0.018794726525405196,8.129263913824047,69.58687364946955
1445530959967,1663.0,0.0,3006.0,0.1791942273000602,0.16281595683789557,0.03547805171377026,0.16281595683789557,0,0.0,0.0,0,0.0,0.0,0,0.0,0.0,0,0.0,0.0,0,0.0,0.0,0,0.0,0.0,531,0.0,0.0,0,0.0,0.0,299,0.0,0.0,267,0.0,0.0,566,5.3109540636042425,14.710216079302047,1445530960444,1620.0,0.0,100.29382716049392,2.265681452504603,0.4666666666666666,0.3478690549722049,0.02283950617283947,0.022331648098582447,10.101234567901235,82.88535980905755
1445530960970,1623.0,0.0,2879.0,0.16142945163277897,0.14655085306548216,0.05175600739371529,0.14655085306548216,0,0.0,0.0,0,0.0,0.0,0,0.0,0.0,0,0.0,0.0,0,0.0,0.0,0,0.0,0.0,498,0.0,0.0,0,0.0,0.0,274,0.0,0.0,291,0.0,0.0,560,5.141071428571433,11.892406721185786,1445530961446,1733.0,0.0,100.13387189844178,0.11601715910014884,0.43912290825158684,0.30070869908807296,0.02308136180034628,0.02256163136719752,4.00173110213503,14.425516632040182
1445530961971,1728.0,0.0,2602.0,0.22048611111111108,0.17428766164833062,0.04571759259259258,0.17428766164833062,0,0.0,0.0,0,0.0,0.0,0,0.0,0.0,0,0.0,0.0,0,0.0,0.0,0,0.0,0.0,549,0.0,0.0,0,0.0,0.0,292,0.0,0.0,297,0.0,0.0,590,4.410169491525425,9.13198469108802,1445530962447,1681.0,0.0,100.13265913146941,0.11512917481091149,0.674598453301606,1.1208365202118933,0.02974419988102321,0.028876660717826692,5.821534800713858,31.585988357270388
1445530962975,1682.0,0.0,2633.0,0.20273483947681328,0.17481702542439426,0.05469678953626631,0.17481702542439426,0,0.0,0.0,0,0.0,0.0,0,0.0,0.0,0,0.0,0.0,0,0.0,0.0,0,0.0,0.0,588,0.001700680272108844,0.0017006802721088446,0,0.0,0.0,282,0.0,0.0,266,0.0,0.0,546,4.820512820512819,12.349376617266527,1445530963451,1674.0,0.0,100.25448028673843,1.1724993412130709,0.5686977299880527,0.5670052367312448,0.02270011947431306,0.03415265717870656,6.464157706093179,36.61108754474936
1445530963976,1705.0,0.0,2630.0,0.22052785923753643,0.19312296063772658,0.04281524926686215,0.19312296063772658,0,0.0,0.0,0,0.0,0.0,0,0.0,0.0,0,0.0,0.0,0,0.0,0.0,0,0.0,0.0,546,0.0,0.0,0,0.0,0.0,284,0.0,0.0,297,0.0,0.0,578,4.5501730103806235,9.925554562736503,1445530964452,1734.0,0.0,100.13667820069192,0.11806535858972105,0.4048442906574395,0.24800883321320094,0.02133794694348326,0.020894688957352067,4.141291810841987,16.977716968461483
1445530964977,1720.0,0.0,2451.0,0.24651162790697703,0.18585169852672587,0.033720930232558136,0.18585169852672587,0,0.0,0.0,0,0.0,0.0,0,0.0,0.0,0,0.0,0.0,0,0.0,0.0,0,0.0,0.0,571,0.0017513134851138352,0.001751313485113836,0,0.0,0.0,280,0.0,0.0,295,0.0,0.0,574,4.268292682926828,7.655642106159285,1445530965453,1687.0,0.0,100.12981624184935,0.11303098637898741,0.41197391819798435,0.24358133265266965,0.015411973918198,0.015183445242068097,6.614700652045051,106.50032943287627
1445530965978,1664.0,0.0,2430.0,0.23497596153846148,0.18107300002312787,0.04146634615384615,0.18107300002312787,0,0.0,0.0,0,0.0,0.0,0,0.0,0.0,0,0.0,0.0,0,0.0,0.0,0,0.0,0.0,552,0.0,0.0,0,0.0,0.0,268,0.0,0.0,287,0.0,0.0,557,4.36265709156194,10.458171344432536,1445530966461,1670.0,0.0,100.14011976047891,0.12055840386333042,0.41077844311377204,0.24218453446611884,0.029341317365269494,0.02849746881312271,5.754491017964075,29.48432673299296
1445530966979,1675.0,0.0,2771.0,0.18388059701492507,0.3771593644679832,0.04477611940298507,0.3771593644679832,0,0.0,0.0,0,0.0,0.0,0,0.0,0.0,0,0.0,0.0,0,0.0,0.0,0,0.0,0.0,556,0.0,0.0,0,0.0,0.0,280,0.0,0.0,271,0.0,0.0,568,4.878521126760563,8.68539322353876,1445530967464,1717.0,0.0,100.19918462434471,0.6934025981783694,0.452533488642982,0.2478913049676009,0.025043680838672075,0.02443072361534795,5.66511357018055,25.910512997001014
1445530967981,1718.0,0.0,2580.0,0.21012805587892913,0.1672357436387339,0.04889406286379511,0.1672357436387339,0,0.0,0.0,0,0.0,0.0,0,0.0,0.0,0,0.0,0.0,0,0.0,0.0,0,0.0,0.0,551,0.0036297640653357535,0.003623164494307866,0,0.0,0.0,302,0.0,0.0,283,0.0035335689045936382,0.003533568904593641,582,4.4278350515463885,8.685833170679784,1445530968466,1727.0,0.0,100.1279675738274,0.11165652733727381,0.4267515923566876,0.24477640581293245,0.020845396641575004,0.02042269161118388,4.565720903300524,19.644432605721565
1445530968982,1714.0,0.0,2615.0,0.21528588098016344,0.1690364914876353,0.04667444574095686,0.1690364914876353,0,0.0,0.0,0,0.0,0.0,0,0.0,0.0,0,0.0,0.0,0,0.0,0.0,0,0.0,0.0,541,0.0,0.0,0,0.0,0.0,298,0.0,0.0,290,0.0,0.0,585,4.470085470085473,8.978983725559072,1445530969467,1721.0,0.0,100.13131900058103,0.11414064294690718,0.4549680418361421,0.25393024607110515,0.02905287623474723,0.02822520708619925,4.402672864613586,23.42438820047835
1445530969983,1731.0,0.0,2239.0,0.2657423454650493,0.1952361393561139,0.03408434430964756,0.1952361393561139,0,0.0,0.0,0,0.0,0.0,0,0.0,0.0,0,0.0,0.0,0,0.0,0.0,0,0.0,0.0,585,0.0,0.0,0,0.0,0.0,290,0.0,0.0,283,0.003533568904593639,0.0035335689045936404,573,3.9057591623036654,8.15893530553216,1445530970470,1720.0,0.0,100.20872093023257,0.8191211088112373,0.48837209302325585,0.37799153104157335,0.019186046511627943,0.018828889159462688,3.883720930232563,15.091765087868843
1445530970985,1722.0,0.0,2308.0,0.2578397212543554,0.30419474942653485,0.03832752613240416,0.30419474942653485,0,0.0,0.0,0,0.0,0.0,0,0.0,0.0,0,0.0,0.0,0,0.0,0.0,0,0.0,0.0,600,0.003333333333333335,0.003327768503060657,0,0.0,0.0,284,0.0,0.0,281,0.0,0.0,557,4.140035906642729,9.088268344032127,1445530971472,1732.0,0.0,100.12471131639725,0.10922146485164602,0.4578521939953816,0.311914043998649,0.019053117782909943,0.01870089376843674,3.2534642032332597,9.164488281213528
1445530971986,1729.0,0.0,2388.0,0.2625795257374208,0.19605838849259913,0.0433776749566224,0.19605838849259913,0,0.0,0.0,0,0.0,0.0,0,0.0,0.0,0,0.0,0.0,0,0.0,0.0,0,0.0,0.0,564,0.0,0.0,0,0.0,0.0,281,0.003558718861209963,0.0035587188612099647,302,0.0033112582781456936,0.003311258278145695,582,4.099656357388317,9.614836370518894,1445530972473,1717.0,0.0,100.13686662783937,0.1182029967702631,0.41176470588235276,0.24468668586315634,0.016889924286546308,0.016614331116369556,5.036109493302275,25.34601469196688
1445530972987,1708.0,0.0,2753.0,0.18149882903981285,0.1486440322188974,0.04449648711943797,0.1486440322188974,0,0.0,0.0,0,0.0,0.0,0,0.0,0.0,0,0.0,0.0,0,0.0,0.0,0,0.0,0.0,532,0.0037593984962406017,0.0037523186497316753,0,0.0,0.0,293,0.0,0.0,291,0.0,0.0,592,4.646959459459465,9.731327456898525,1445530973474,1733.0,0.0,100.15637622619735,0.30289956276011504,0.4339296018465089,0.3958919973507079,0.02423542989036356,0.023661727450695585,2.9809578765147147,9.512916633905883
1445530973988,1739.0,0.0,2082.0,0.3237492811960901,0.4779799509128895,0.03507763082231164,0.4779799509128895,0,0.0,0.0,0,0.0,0.0,0,0.0,0.0,0,0.0,0.0,0,0.0,0.0,0,0.0,0.0,603,0.001658374792703151,0.0016583747927031518,0,0.0,0.0,271,0.0,0.0,298,0.0,0.0,567,3.670194003527334,5.31329731211945,1445530974475,1691.0,0.0,100.19692489651119,0.8422627274922514,0.6842105263157897,2.7274369355340973,0.02128917800118273,0.020848277865063554,6.0124186871673535,44.967301306254114
1445530974989,1681.0,0.0,2270.0,0.24806662700773327,0.4330691765105806,0.03688280785246879,0.4330691765105806,0,0.0,0.0,0,0.0,0.0,0,0.0,0.0,0,0.0,0.0,0,0.0,0.0,0,0.0,0.0,573,0.0,0.0,0,0.0,0.0,285,0.003508771929824561,0.003508771929824562,269,0.0,0.0,554,4.095667870036099,8.79191609925512,1445530975477,1717.0,0.0,100.14210832847994,0.12198459664970966,0.5160163075131049,0.7801920463539562,0.023296447291787988,0.02276698258061108,3.4676761793826456,11.189659689950913
1445530975996,1726.0,0.0,2341.0,0.23754345307068325,0.1846998169513156,0.04924681344148327,0.1846998169513156,0,0.0,0.0,0,0.0,0.0,0,0.0,0.0,0,0.0,0.0,0,0.0,0.0,0,0.0,0.0,572,0.0,0.0,0,0.0,0.0,275,0.0,0.0,303,0.0033003300330032978,0.0033003300330033017,576,4.0625,6.963043478260878,1445530976478,1719.0,0.0,100.1279813845259,0.11166711024697547,0.5020360674810945,0.3723765272199163,0.02559627690517738,0.024955625038516973,5.071553228621294,27.52165247548293
1445530976997,1724.0,0.0,2441.0,0.22331786542923432,0.18167302484605038,0.04060324825986085,0.18167302484605038,0,0.0,0.0,0,0.0,0.0,0,0.0,0.0,0,0.0,0.0,0,0.0,0.0,0,0.0,0.0,580,0.0,0.0,0,0.0,0.0,269,0.0,0.0,305,0.0,0.0,570,4.282456140350876,9.454348965559763,1445530977479,1708.0,0.0,100.25526932084296,0.9717062543130595,0.468384074941452,0.28546733453241846,0.027517564402810304,0.026776024881703466,4.008782201405148,15.242453583467455
1445530977998,1709.0,0.0,2343.0,0.23873610298420173,0.18301854214428862,0.03744880046811002,0.18301854214428862,0,0.0,0.0,0,0.0,0.0,0,0.0,0.0,0,0.0,0.0,0,0.0,0.0,0,0.0,0.0,560,0.0,0.0,0,0.0,0.0,291,0.0,0.0,283,0.0,0.0,575,4.074782608695655,8.187777609453105,1445530978480,1742.0,0.0,100.14006888633736,0.18370085682575463,0.4494833524684274,0.2590778489472844,0.01951779563719871,0.019147843163891558,3.4810562571756583,11.913196356396767
1445530979001,1745.0,0.0,2460.0,0.2189111747851002,0.17223390552298837,0.0424068767908309,0.17223390552298837,0,0.0,0.0,0,0.0,0.0,0,0.0,0.0,0,0.0,0.0,0,0.0,0.0,0,0.0,0.0,545,0.0018348623853211006,0.001834862385321101,0,0.0,0.0,291,0.0,0.0,305,0.0,0.0,604,4.071192052980124,8.454293104016347,1445530979481,1710.0,0.0,100.13859649122816,0.11945736195374566,0.41286549707602327,0.24254942016637057,0.022807017543859675,0.02229989837085402,4.3725146198830345,19.88163147286979
1445530980008,1707.0,0.0,2538.0,0.22026947861745777,0.17185150998818097,0.038664323374340996,0.17185150998818097,0,0.0,0.0,0,0.0,0.0,0,0.0,0.0,0,0.0,0.0,0,0.0,0.0,0,0.0,0.0,564,0.0,0.0,0,0.0,0.0,297,0.0,0.0,276,0.0,0.0,570,4.452631578947366,9.495994820090656,1445530980485,1699.0,0.0,100.24131842260154,1.0983860110326076,0.5073572689817535,0.40792581515767257,0.024131842260153007,0.0235633654106795,5.422601530311948,27.844859894720862
1445530981015,1715.0,0.0,2599.0,0.2262390670553939,0.30467867093495177,0.04023323615160349,0.30467867093495177,0,0.0,0.0,0,0.0,0.0,0,0.0,0.0,0,0.0,0.0,0,0.0,0.0,0,0.0,0.0,596,0.0,0.0,0,0.0,0.0,273,0.0,0.0,287,0.0,0.0,559,4.6493738819320205,7.5470919011804325,1445530981487,1718.0,0.0,100.127473806752,0.1112890135825883,0.5331781140861459,0.512294028827658,0.03084982537834693,0.02991552664819306,4.422002328288694,17.983138213157044
1445530982016,1690.0,0.0,2557.0,0.25384615384615405,0.20609828300769686,0.036094674556213034,0.20609828300769686,0,0.0,0.0,0,0.0,0.0,0,0.0,0.0,0,0.0,0.0,0,0.0,0.0,0,0.0,0.0,566,0.0,0.0,0,0.0,0.0,287,0.0,0.0,270,0.0,0.0,567,4.509700176366839,10.034799733268525,1445530982488,1664.0,0.0,100.17307692307698,0.43063971506544774,0.8034855769230759,2.2253396173504805,0.03185096153846153,0.07415027001711462,7.060697115384601,39.16588670555998
1445530983020,1696.0,0.0,2705.0,0.22464622641509427,0.30997627595035393,0.03773584905660382,0.30997627595035393,0,0.0,0.0,0,0.0,0.0,0,0.0,0.0,0,0.0,0.0,0,0.0,0.0,0,0.0,0.0,542,0.0,0.0,0,0.0,0.0,302,0.0,0.0,283,0.0,0.0,569,4.753954305799649,11.661185920443575,1445530983490,1658.0,0.0,100.13389626055488,0.11603803871865817,0.9445114595898683,5.0578726941956855,0.02231604342581424,0.02183120482392567,8.190591073582633,59.17306772525514
1445530984021,1655.0,0.0,2841.0,0.1885196374622354,0.15670004420301262,0.04592145015105743,0.15670004420301262,0,0.0,0.0,0,0.0,0.0,0,0.0,0.0,0,0.0,0.0,0,0.0,0.0,0,0.0,0.0,513,0.0,0.0,0,0.0,0.0,292,0.0,0.0,283,0.0,0.0,567,5.010582010582012,16.448651074092783,1445530984491,1701.0,0.0,100.13286302175183,0.11527821004945144,0.4285714285714289,0.2509243697478987,0.019988242210464434,0.019600235155790735,5.578483245149906,43.53339558045436
1445530985041,1742.0,0.0,2508.0,0.23536165327210068,0.18006991508238862,0.04649827784156138,0.18006991508238862,0,0.0,0.0,0,0.0,0.0,0,0.0,0.0,0,0.0,0.0,0,0.0,0.0,0,0.0,0.0,587,0.0,0.0,0,0.0,0.0,298,0.0,0.0,276,0.003623188405797102,0.003623188405797102,581,4.314974182444065,8.450620214849554,1445530985492,1720.0,0.0,100.23604651162793,0.9843892473990983,0.4843023255813954,0.39416879743496086,0.02790697674418608,0.02714395876456027,3.2511627906976757,14.588422149167275
1445530986043,1715.0,0.0,2158.0,0.2845481049562681,0.21070042285959206,0.04198250728862976,0.21070042285959206,0,0.0,0.0,0,0.0,0.0,0,0.0,0.0,0,0.0,0.0,0,0.0,0.0,0,0.0,0.0,589,0.0,0.0,0,0.0,0.0,280,0.0,0.0,286,0.0,0.0,560,3.8535714285714286,6.686928188090977,1445530986493,1730.0,0.0,100.1236994219654,0.10846056894125022,0.47225433526011545,0.26441191908183126,0.029479768786127174,0.028627259567326507,4.178034682080927,19.553016378206525
1445530987045,1723.0,0.0,2368.0,0.2663958212420199,0.19902689782224908,0.033081834010446905,0.19902689782224908,0,0.0,0.0,0,0.0,0.0,0,0.0,0.0,0,0.0,0.0,0,0.0,0.0,0,0.0,0.0,572,0.0,0.0,0,0.0,0.0,294,0.0,0.0,279,0.0,0.0,578,4.096885813148784,8.358014548463895,1445530987494,1724.0,0.0,100.12412993039453,0.10878479100150336,0.42111368909512803,0.24391843396223928,0.026102088167053346,0.02543552294398294,3.892111368909512,15.741110107148685
1445530988047,1741.0,0.0,2359.0,0.26019529006318215,0.2822595020697581,0.03273980470993686,0.2822595020697581,0,0.0,0.0,0,0.0,0.0,0,0.0,0.0,0,0.0,0.0,0,0.0,0.0,0,0.0,0.0,622,0.0,0.0,0,0.0,0.0,292,0.0,0.0,268,0.0,0.0,559,4.220035778175312,7.257949102660282,1445530988495,1690.0,0.0,100.17869822485204,0.5316951664266886,0.45088757396449697,0.29154746515041613,0.024260355029585835,0.023685805472934866,5.14260355029586,32.155495881810964
1445530989048,1702.0,0.0,2441.0,0.24676850763807326,0.20597132674427324,0.03819036427732092,0.20597132674427324,0,0.0,0.0,0,0.0,0.0,0,0.0,0.0,0,0.0,0.0,0,0.0,0.0,0,0.0,0.0,561,0.0017825311942959,0.0017825311942959014,0,0.0,0.0,277,0.0,0.0,289,0.0,0.0,575,4.243478260869569,8.407514013028337,1445530989497,1731.0,0.0,100.13229347198168,0.1148582629573609,0.4269208549971111,0.24480086020643635,0.01733102253032932,0.01704050249947407,4.227036395147316,25.937442021217997
1445530990050,1697.0,0.0,2376.0,0.258102533883324,0.24466455787683056,0.04007071302298174,0.24466455787683056,0,0.0,0.0,0,0.0,0.0,0,0.0,0.0,0,0.0,0.0,0,0.0,0.0,0,0.0,0.0,566,0.0,0.0,0,0.0,0.0,289,0.0,0.0,274,0.0,0.0,568,4.183098591549295,9.500807313013892,1445530990498,1722.0,0.0,100.22590011614422,1.0581783003021132,0.4831591173054585,0.4706633436384994,0.02497096399535419,0.024361562201162017,3.617305458768875,12.279374954868485
1445530991051,1750.0,0.0,2394.0,0.24285714285714213,0.1908437474475211,0.04057142857142867,0.1908437474475211,0,0.0,0.0,0,0.0,0.0,0,0.0,0.0,0,0.0,0.0,0,0.0,0.0,0,0.0,0.0,624,0.0,0.0,0,0.0,0.0,274,0.0,0.0,291,0.0034364261168384875,0.0034364261168384888,561,4.2655971479500865,7.391832187420424,1445530991501,1666.0,0.0,100.14585834333727,0.12465851205347117,0.43997599039615876,0.25855711654030944,0.022208883553421384,0.02172869147659062,7.569627851140455,52.568422323884555
1445530992052,1651.0,0.0,2587.0,0.21320411871592956,0.1678497880072682,0.0381586917019988,0.1678497880072682,0,0.0,0.0,0,0.0,0.0,0,0.0,0.0,0,0.0,0.0,0,0.0,0.0,0,0.0,0.0,491,0.0,0.0,0,0.0,0.0,303,0.0,0.0,278,0.0,0.0,579,4.4680483592400755,11.543527499387455,1445530992502,1706.0,0.0,100.1336459554514,0.1158526229660373,0.7684642438452516,3.6771515403629813,0.025205158264947243,0.02458426873584003,5.415005861664711,53.469897859203165
1445530993053,1709.0,0.0,2365.0,0.25102399063780045,0.30404608197680505,0.043885313048566396,0.30404608197680505,0,0.0,0.0,0,0.0,0.0,0,0.0,0.0,0,0.0,0.0,0,0.0,0.0,0,0.0,0.0,569,0.0,0.0,0,0.0,0.0,272,0.0,0.0,298,0.0,0.0,570,4.1491228070175445,9.03396232232603,1445530993503,1713.0,0.0,100.18563922942202,0.4491628066844605,0.44366608289550546,0.3778117856305001,0.023350846468184507,0.022818905456350833,4.876824284880332,23.164141310811768
1445530994054,1699.0,0.0,2433.0,0.24602707474985286,0.19502984850091964,0.035314891112419075,0.19502984850091964,0,0.0,0.0,0,0.0,0.0,0,0.0,0.0,0,0.0,0.0,0,0.0,0.0,0,0.0,0.0,552,0.0,0.0,0,0.0,0.0,302,0.0,0.0,269,0.0,0.0,576,4.223958333333337,8.34801630434783,1445530994504,1706.0,0.0,100.12426729191093,0.10888875901166503,0.4390386869871048,0.24994722782795242,0.02461899179366934,0.024026980847311356,4.23505275498242,21.14999639017717
1445530995056,1724.0,0.0,2362.0,0.25522041763341036,0.19019327698276206,0.03654292343387479,0.19019327698276206,0,0.0,0.0,0,0.0,0.0,0,0.0,0.0,0,0.0,0.0,0,0.0,0.0,0,0.0,0.0,578,0.0,0.0,0,0.0,0.0,287,0.0,0.0,291,0.0,0.0,568,4.158450704225353,7.773790893509201,1445530995506,1665.0,0.0,100.28288288288283,1.5779820686070918,0.9777777777777762,7.8414529914530045,0.0252252252252252,0.07869022869022876,7.399999999999988,57.77139423076905
1445530996057,1661.0,0.0,2512.0,0.22877784467188417,0.5849785656775196,0.041541240216736934,0.5849785656775196,0,0.0,0.0,0,0.0,0.0,0,0.0,0.0,0,0.0,0.0,0,0.0,0.0,0,0.0,0.0,584,0.0,0.0,0,0.0,0.0,253,0.0,0.0,285,0.003508771929824561,0.003508771929824561,539,4.658627087198519,10.927857591160821,1445530996507,1715.0,0.0,100.13469387755099,0.11661943657276198,0.4209912536443149,0.2462335559327914,0.03090379008746363,0.029966218859605865,3.890962099125362,15.709807416882402
1445530997058,1731.0,0.0,2413.0,0.24263431542460998,0.1838691257350657,0.039861351819757376,0.1838691257350657,0,0.0,0.0,0,0.0,0.0,0,0.0,0.0,0,0.0,0.0,0,0.0,0.0,0,0.0,0.0,571,0.0017513134851138352,0.0017513134851138367,0,0.0,0.0,290,0.0,0.0,289,0.0,0.0,581,4.151462994836487,8.314950442162738,1445530997508,1741.0,0.0,100.17805858701897,0.26597806782995503,0.4106835152211372,0.2858398198947626,0.02297530155083287,0.022460337895383174,3.7633543940264236,16.37615058065453
