timeStamp,totalRequests,failedRequests,totalHandleTime,upstreamTime,upstreamTimeVar,downstreamTime,downstreamTimeVar,CREATE_CLIENT_N,CREATE_CLIENT_time,CREATE_CLIENT_timeVar,CLIENT_LIST_N,CLIENT_LIST_time,CLIENT_LIST_timeVar,QUEUE_LIST_N,QUEUE_LIST_time,QUEUE_LIST_timeVar,MESSAGE_COUNT_N,MESSAGE_COUNT_time,MESSAGE_COUNT_timeVar,CREATE_QUEUE_N,CREATE_QUEUE_time,CREATE_QUEUE_timeVar,DELETE_QUEUE_N,DELETE_QUEUE_time,DELETE_QUEUE_timeVar,SEND_MESSAGE_N,SEND_MESSAGE_time,SEND_MESSAGE_timeVar,RECEIVE_MESSAGE_N,RECEIVE_MESSAGE_time,RECEIVE_MESSAGE_timeVar,POP_QUEUE_N,POP_QUEUE_time,POP_QUEUE_timeVar,TOP_QUEUE_N,TOP_QUEUE_time,TOP_QUEUE_timeVar,INBOX_QUEUES_N,INBOX_QUEUES_time,INBOX_QUEUES_timeVar,timeStamp,totalRequests,failedRequests,clientThinkTime,clientThinkTimeVar,waitingForConnectionTime,waitingForConnectionTimeVar,upstreamTime,upstreamTimeVar,waitingForResponseTime,waitingForResponseTimeVar
1445529717926,500.0,0.0,764.0,0.32199999999999995,0.3269699398797595,0.10600000000000004,0.3269699398797595,0,0.0,0.0,50,0.9600000000000001,0.5289795918367349,0,0.0,0.0,50,0.9999999999999994,0.9387755102040813,0,0.0,0.0,0,0.0,0.0,400,1.6649999999999991,0.7797243107769417,0,0.0,0.0,0,0.0,0.0,0,0.0,0.0,0,0.0,0.0,1445529718389,500.0,0.0,100.18600000000004,0.2118276553106191,0.41000000000000025,0.3626252505010019,0.036,0.11894188376753505,2.875999999999998,2.75814028056112
1445529718959,500.0,0.0,683.0,0.3620000000000003,0.4799158316633268,0.05999999999999995,0.4799158316633268,0,0.0,0.0,50,0.8400000000000001,0.3004081632653061,0,0.0,0.0,50,1.0800000000000005,2.5648979591836736,0,0.0,0.0,0,0.0,0.0,400,1.4675,0.2946804511278197,0,0.0,0.0,0,0.0,0.0,0,0.0,0.0,0,0.0,0.0,1445529719423,500.0,0.0,100.13,0.11332665330661151,0.44400000000000023,0.24735871743486998,0.05199999999999999,0.0493947895791583,2.6899999999999995,1.019939879759519
1445529719993,500.0,0.0,766.0,0.32000000000000006,0.2300601202404808,0.07199999999999994,0.2300601202404808,0,0.0,0.0,1,1.0,0.0,0,0.0,0.0,50,0.8,0.20408163265306128,0,0.0,0.0,0,0.0,0.0,449,1.6146993318485519,0.5766584473433032,0,0.0,0.0,0,0.0,0.0,0,0.0,0.0,0,0.0,0.0,1445529720457,500.0,0.0,100.21000000000002,0.3506012024048081,0.4199999999999999,0.4004008016032063,0.03800000000000004,0.036629258517034066,2.9220000000000037,2.023963927855713
1445529721026,500.0,0.0,755.0,0.3399999999999997,0.3811623246492988,0.05600000000000002,0.3811623246492988,0,0.0,0.0,49,1.0204081632653061,1.7287414965986396,0,0.0,0.0,50,1.0399999999999996,0.7330612244897959,0,0.0,0.0,0,0.0,0.0,401,1.6284289276807973,0.5190897755610969,0,0.0,0.0,0,0.0,0.0,0,0.0,0.0,0,0.0,0.0,1445529721492,500.0,0.0,100.172,0.17476553106212253,0.444,0.28343086172344706,0.023999999999999973,0.023470941883767533,2.5420000000000007,1.2226813627254507
1445529722063,500.0,0.0,698.0,0.45000000000000023,0.49248496993988006,0.0680000000000001,0.49248496993988006,0,0.0,0.0,50,0.66,0.22897959183673472,0,0.0,0.0,50,0.8999999999999998,0.17346938775510204,0,0.0,0.0,0,0.0,0.0,400,1.5499999999999996,0.7694235588972426,0,0.0,0.0,0,0.0,0.0,0,0.0,0.0,0,0.0,0.0,1445529722527,500.0,0.0,100.14400000000003,0.12351102204408848,0.44200000000000034,0.25113827655310633,0.026,0.025374749498997998,2.5300000000000002,0.5902805611222445
1445529723096,500.0,0.0,690.0,0.30200000000000027,0.2112184368737474,0.044000000000000025,0.2112184368737474,0,0.0,0.0,50,0.6599999999999998,0.22897959183673466,0,0.0,0.0,50,1.0,0.16326530612244897,0,0.0,0.0,0,0.0,0.0,400,1.5174999999999998,0.2954323308270673,0,0.0,0.0,0,0.0,0.0,0,0.0,0.0,0,0.0,0.0,1445529723556,500.0,0.0,100.11799999999998,0.10428456913827575,0.4059999999999999,0.24966332665330665,0.02799999999999999,0.02727054108216433,3.3539999999999983,7.179042084168333
1445529724126,500.0,0.0,788.0,0.2539999999999999,0.21391182364729458,0.06599999999999999,0.21391182364729458,0,0.0,0.0,50,0.6599999999999999,0.22897959183673466,0,0.0,0.0,1,2.0,0.0,0,0.0,0.0,0,0.0,0.0,449,1.6770601336302888,1.3575306236080171,0,0.0,0.0,0,0.0,0.0,0,0.0,0.0,0,0.0,0.0,1445529724587,500.0,0.0,100.14599999999993,0.12493386773546988,0.43399999999999983,0.3222885771543081,0.018000000000000002,0.01771142284569139,2.751999999999999,0.9564088176352696
1445529725156,500.0,0.0,735.0,0.37199999999999983,0.49460521042084166,0.06800000000000009,0.49460521042084166,0,0.0,0.0,50,0.8199999999999998,1.6608163265306128,0,0.0,0.0,49,1.1020408163265305,0.09353741496598644,0,0.0,0.0,0,0.0,0.0,401,1.5960099750623435,0.571384039900249,0,0.0,0.0,0,0.0,0.0,0,0.0,0.0,0,0.0,0.0,1445529725616,500.0,0.0,100.202,0.24568737474950011,0.44200000000000056,0.2511382765531064,0.026000000000000006,0.04942284569138272,2.6219999999999994,2.4359879759519036
1445529726185,500.0,0.0,731.0,0.33400000000000024,0.2629699398797597,0.046000000000000006,0.2629699398797597,0,0.0,0.0,1,1.0,0.0,0,0.0,0.0,50,1.24,0.18612244897959185,0,0.0,0.0,0,0.0,0.0,449,1.4877505567928726,0.5405862233534839,0,0.0,0.0,0,0.0,0.0,0,0.0,0.0,0,0.0,0.0,1445529726646,500.0,0.0,100.19200000000002,0.22759118236472883,0.40800000000000014,0.24202004008016034,0.03199999999999998,0.03504609218436873,2.3280000000000007,1.1627414829659313
1445529727216,500.0,0.0,660.0,0.38800000000000007,0.42630861723446845,0.03199999999999997,0.42630861723446845,0,0.0,0.0,49,0.6734693877551019,0.2244897959183673,0,0.0,0.0,50,1.3400000000000003,0.2697959183673469,0,0.0,0.0,0,0.0,0.0,401,1.3965087281795512,0.454887780548629,0,0.0,0.0,0,0.0,0.0,0,0.0,0.0,0,0.0,0.0,1445529727675,500.0,0.0,100.12600000000008,0.11034468937875794,0.4159999999999999,0.24343086172344672,0.030000000000000027,0.02915831663326653,2.246,0.3541923847695389
1445529728245,500.0,0.0,660.0,0.3619999999999998,0.23141883767535062,0.06399999999999993,0.23141883767535062,0,0.0,0.0,0,0.0,0.0,0,0.0,0.0,50,1.2000000000000002,0.16326530612244897,0,0.0,0.0,0,0.0,0.0,450,1.3333333333333335,0.29398663697104677,0,0.0,0.0,0,0.0,0.0,0,0.0,0.0,0,0.0,0.0,1445529728706,500.0,0.0,100.16599999999998,0.138721442885772,0.35399999999999987,0.22914228456913827,0.032000000000000015,0.031038076152304604,2.8380000000000005,2.0518597194388812
1445529729275,500.0,0.0,763.0,0.29200000000000015,0.36747094188376733,0.03600000000000002,0.36747094188376733,0,0.0,0.0,50,1.0599999999999998,1.7310204081632654,0,0.0,0.0,50,1.7399999999999998,0.2779591836734694,0,0.0,0.0,0,0.0,0.0,400,1.5575000000000008,0.4628508771929833,0,0.0,0.0,0,0.0,0.0,0,0.0,0.0,0,0.0,0.0,1445529729736,500.0,0.0,100.1700000000001,0.1814629258516987,0.4340000000000005,0.274192384769539,0.029999999999999985,0.029158316633266543,2.082,0.8249258517034063
1445529730304,500.0,0.0,526.0,0.3980000000000001,0.5126212424849701,0.046000000000000034,0.5126212424849701,0,0.0,0.0,0,0.0,0.0,0,0.0,0.0,50,1.6199999999999999,0.44448979591836724,0,0.0,0.0,0,0.0,0.0,252,0.7936507936507938,0.5628280528678936,0,0.0,0.0,49,0.0,0.0,43,0.0,0.0,106,2.311320754716981,0.8069182389937106,1445529730759,500.0,0.0,100.14800000000011,0.13035671342685493,0.4620000000000004,0.7781122244488978,0.04599999999999995,0.06000400801603207,1.834,3.0164769539078136
1445529731328,500.0,0.0,392.0,0.4219999999999999,0.6452064128256513,0.058,0.6452064128256513,0,0.0,0.0,0,0.0,0.0,0,0.0,0.0,0,0.0,0.0,0,0.0,0.0,0,0.0,0.0,155,0.006451612903225807,0.0064516129032258064,0,0.0,0.0,81,0.01234567901234568,0.012345679012345678,89,0.0,0.0,175,2.228571428571429,1.1888341543513965,1445529731780,500.0,0.0,100.13799999999995,0.11919438877755432,0.3959999999999997,0.23966332665330686,0.028000000000000014,0.027270541082164344,1.6400000000000008,1.2328657314629263
1445529732347,500.0,0.0,356.0,0.37000000000000033,0.2455911823647294,0.05200000000000003,0.2455911823647294,0,0.0,0.0,0,0.0,0.0,0,0.0,0.0,0,0.0,0.0,0,0.0,0.0,0,0.0,0.0,164,0.0,0.0,0,0.0,0.0,75,0.013333333333333343,0.01333333333333333,96,0.0,0.0,165,2.15151515151515,0.21470805617147085,1445529732799,500.0,0.0,100.14799999999993,0.13035671342685504,0.42200000000000015,0.24440480961923844,0.01999999999999998,0.019639278557114247,1.616,1.1829098196392787
1445529733368,500.0,0.0,349.0,0.39800000000000013,0.24007615230460932,0.040000000000000015,0.24007615230460932,0,0.0,0.0,0,0.0,0.0,0,0.0,0.0,0,0.0,0.0,0,0.0,0.0,0,0.0,0.0,163,0.0,0.0,0,0.0,0.0,85,0.035294117647058816,0.034453781512605045,82,0.0,0.0,170,2.035294117647059,0.28277062304211625,1445529733825,500.0,0.0,100.148,0.13436472945891595,0.39000000000000024,0.27044088176352715,0.030000000000000013,0.04118236472945893,1.731999999999999,1.5272304609218443
1445529734394,500.0,0.0,364.0,0.3799999999999999,0.28817635270541075,0.04599999999999999,0.28817635270541075,0,0.0,0.0,0,0.0,0.0,0,0.0,0.0,0,0.0,0.0,0,0.0,0.0,0,0.0,0.0,168,0.005952380952380953,0.005952380952380951,0,0.0,0.0,97,0.0,0.0,70,0.0,0.0,165,2.1999999999999997,0.4780487804878051,1445529734851,500.0,0.0,100.15800000000004,0.1333026052104222,0.6179999999999998,3.1744248496994,0.03800000000000001,0.036629258517034066,1.7500000000000007,2.5966933867735476
1445529735433,500.0,0.0,398.0,0.4099999999999999,0.27044088176352665,0.051999999999999984,0.27044088176352665,0,0.0,0.0,0,0.0,0.0,0,0.0,0.0,0,0.0,0.0,0,0.0,0.0,0,0.0,0.0,168,0.0,0.0,0,0.0,0.0,77,0.0,0.0,88,0.0,0.0,167,2.3832335329341316,3.514897915013347,1445529735887,500.0,0.0,100.17199999999997,0.19881362725450946,0.5039999999999996,1.0520881763527057,0.02199999999999998,0.02155911823647297,1.808000000000001,1.6263887775551114
1445529736454,500.0,0.0,394.0,0.40400000000000036,0.3574989979959922,0.03399999999999999,0.3574989979959922,0,0.0,0.0,0,0.0,0.0,0,0.0,0.0,0,0.0,0.0,0,0.0,0.0,0,0.0,0.0,166,0.006024096385542169,0.006024096385542167,0,0.0,0.0,82,0.0,0.0,83,0.0,0.0,169,2.325443786982249,0.6732178078331923,1445529736909,500.0,0.0,100.16399999999997,0.1373787575150315,0.4580000000000002,0.4331022044088178,0.02199999999999999,0.02155911823647297,1.6959999999999993,1.5346533066132264
1445529737477,500.0,0.0,369.0,0.3579999999999995,0.2302965931863726,0.044,0.2302965931863726,0,0.0,0.0,0,0.0,0.0,0,0.0,0.0,0,0.0,0.0,0,0.0,0.0,0,0.0,0.0,159,0.012578616352201262,0.012499004856301248,0,0.0,0.0,77,0.0,0.0,97,0.0,0.0,167,2.1976047904191613,0.37637977057932354,1445529737930,500.0,0.0,100.14399999999993,0.12351102204408788,0.4219999999999999,0.3045250501002004,0.026000000000000006,0.02537474949899798,1.7499999999999998,1.5145290581162338
1445529738500,500.0,0.0,364.0,0.40600000000000025,0.2897434869739477,0.044000000000000025,0.2897434869739477,0,0.0,0.0,0,0.0,0.0,0,0.0,0.0,0,0.0,0.0,0,0.0,0.0,0,0.0,0.0,172,0.0,0.0,0,0.0,0.0,87,0.0,0.0,76,0.0,0.0,165,2.2060606060606047,0.432889874353289,1445529738952,500.0,0.0,100.14799999999997,0.1263486973947873,0.3879999999999998,0.23793186372745467,0.016000000000000025,0.01577555110220439,1.5699999999999994,1.1514028056112224
1445529739519,500.0,0.0,361.0,0.38200000000000006,0.23654909819639258,0.03399999999999998,0.23654909819639258,0,0.0,0.0,0,0.0,0.0,0,0.0,0.0,0,0.0,0.0,0,0.0,0.0,0,0.0,0.0,164,0.0,0.0,0,0.0,0.0,89,0.0,0.0,80,0.0,0.0,167,2.161676646706588,0.5821369309573623,1445529739976,500.0,0.0,100.18000000000002,0.17995991983968154,0.40599999999999997,0.24966332665330673,0.025999999999999985,0.025374749498997998,1.7159999999999997,1.4823086172344686
1445529740545,500.0,0.0,405.0,0.394,0.24725851703406795,0.038,0.24725851703406795,0,0.0,0.0,0,0.0,0.0,0,0.0,0.0,0,0.0,0.0,0,0.0,0.0,0,0.0,0.0,134,0.0,0.0,0,0.0,0.0,101,0.0,0.0,77,0.0,0.0,188,2.154255319148935,0.5161850039822508,1445529740999,500.0,0.0,100.156,0.1319278557114221,0.5120000000000001,0.7553667334669336,0.02,0.01963927855711422,1.8180000000000003,1.772420841683366
1445529741568,500.0,0.0,378.0,0.42999999999999994,0.33376753507014023,0.06000000000000002,0.33376753507014023,0,0.0,0.0,0,0.0,0.0,0,0.0,0.0,0,0.0,0.0,0,0.0,0.0,0,0.0,0.0,151,0.0,0.0,0,0.0,0.0,82,0.0,0.0,96,0.0,0.0,171,2.2105263157894735,0.5789473684210524,1445529742025,500.0,0.0,100.16800000000006,0.1641042084168343,0.4919999999999999,0.3466292585170346,0.032000000000000015,0.031038076152304608,1.8080000000000012,1.8307975951903814
1445529742592,500.0,0.0,374.0,0.43800000000000017,0.44304208416833707,0.04400000000000002,0.44304208416833707,0,0.0,0.0,0,0.0,0.0,0,0.0,0.0,0,0.0,0.0,0,0.0,0.0,0,0.0,0.0,158,0.0,0.0,0,0.0,0.0,95,0.0,0.0,77,0.0,0.0,170,2.2000000000000006,0.433136094674556,1445529743047,500.0,0.0,100.16600000000003,0.13872144288577287,0.43000000000000027,0.3618236472945888,0.027999999999999997,0.02727054108216435,1.6839999999999984,1.2546533066132273
1445529743617,500.0,0.0,370.0,0.43800000000000006,0.2787134268537073,0.027999999999999973,0.2787134268537073,0,0.0,0.0,0,0.0,0.0,0,0.0,0.0,0,0.0,0.0,0,0.0,0.0,0,0.0,0.0,151,0.0,0.0,0,0.0,0.0,95,0.0,0.0,76,0.0,0.0,178,2.078651685393257,0.3101631435282167,1445529744070,500.0,0.0,100.17199999999991,0.1707575150300569,0.41799999999999954,0.2437635270541082,0.034000000000000016,0.03290981963927855,1.5840000000000016,1.0089619238476955
1445529744640,500.0,0.0,325.0,0.4440000000000002,0.25136673346693406,0.03200000000000001,0.25136673346693406,0,0.0,0.0,0,0.0,0.0,0,0.0,0.0,0,0.0,0.0,0,0.0,0.0,0,0.0,0.0,173,0.0,0.0,0,0.0,0.0,75,0.0,0.0,90,0.0,0.0,162,2.0061728395061733,0.25462004447511694,1445529745095,500.0,0.0,100.136,0.12976352705410793,0.4879999999999997,0.4227014028056113,0.017999999999999978,0.017711422845691372,2.0820000000000025,2.78885370741483
1445529745664,500.0,0.0,446.0,0.3899999999999998,0.2984969939879759,0.038000000000000006,0.2984969939879759,0,0.0,0.0,0,0.0,0.0,0,0.0,0.0,0,0.0,0.0,0,0.0,0.0,0,0.0,0.0,162,0.0,0.0,0,0.0,0.0,89,0.0,0.0,82,0.0,0.0,167,2.6706586826347314,1.8969049852103013,1445529746119,500.0,0.0,100.12200000000007,0.1073306613226461,0.43600000000000005,0.26242885771543095,0.019999999999999987,0.019639278557114236,1.7459999999999993,1.4523887775551092
1445529746687,500.0,0.0,353.0,0.4240000000000002,0.2527294589178358,0.05000000000000003,0.2527294589178358,0,0.0,0.0,0,0.0,0.0,0,0.0,0.0,0,0.0,0.0,0,0.0,0.0,0,0.0,0.0,173,0.0,0.0,0,0.0,0.0,76,0.013157894736842106,0.013157894736842103,87,0.0,0.0,164,2.1463414634146334,0.40790064342361193,1445529747141,500.0,0.0,100.16599999999998,0.15074549098196333,0.4240000000000002,0.2727695390781562,0.03800000000000002,0.03662925851703405,1.71,1.440781563126253
1445529747712,500.0,0.0,391.0,0.45200000000000007,0.28827254509018047,0.04200000000000003,0.28827254509018047,0,0.0,0.0,0,0.0,0.0,0,0.0,0.0,0,0.0,0.0,0,0.0,0.0,0,0.0,0.0,146,0.0,0.0,0,0.0,0.0,96,0.0,0.0,80,0.0,0.0,178,2.1966292134831478,0.6447343363168918,1445529748165,500.0,0.0,100.13399999999997,0.11627655310621203,0.47600000000000015,0.37417234468937915,0.022,0.02155911823647298,1.7439999999999998,1.6818276553106226
1445529748733,500.0,0.0,365.0,0.4579999999999998,0.45314228456913813,0.03400000000000001,0.45314228456913813,0,0.0,0.0,0,0.0,0.0,0,0.0,0.0,0,0.0,0.0,0,0.0,0.0,0,0.0,0.0,171,0.0,0.0,0,0.0,0.0,96,0.0,0.0,69,0.0,0.0,164,2.225609756097561,0.6911192578183452,1445529749187,500.0,0.0,100.14000000000004,0.12464929859719516,0.4380000000000001,0.3308176352705412,0.024000000000000018,0.023470941883767533,1.688,1.4375310621242485
1445529749755,500.0,0.0,362.0,0.41600000000000004,0.2594629258517035,0.03599999999999996,0.2594629258517035,0,0.0,0.0,0,0.0,0.0,0,0.0,0.0,0,0.0,0.0,0,0.0,0.0,0,0.0,0.0,166,0.0,0.0,0,0.0,0.0,93,0.0,0.0,75,0.0,0.0,166,2.180722891566265,0.6095655348667398,1445529750210,500.0,0.0,100.16599999999998,0.13872144288576915,0.7859999999999999,7.390985971943888,0.026000000000000013,0.025374749498997987,1.7679999999999985,3.785747494989981
1445529750780,500.0,0.0,403.0,0.4759999999999996,2.298020040080162,0.04600000000000001,2.298020040080162,0,0.0,0.0,0,0.0,0.0,0,0.0,0.0,0,0.0,0.0,0,0.0,0.0,0,0.0,0.0,166,0.0,0.0,0,0.0,0.0,83,0.0,0.0,79,0.0,0.0,172,2.343023255813954,0.788079695362437,1445529751235,500.0,0.0,100.13999999999999,0.12064128256512913,0.5000000000000002,0.2945891783567135,0.011999999999999993,0.011879759519038075,1.8479999999999996,1.9087134268537091
1445529751802,500.0,0.0,396.0,0.4119999999999998,0.27079759519038066,0.04599999999999997,0.27079759519038066,0,0.0,0.0,0,0.0,0.0,0,0.0,0.0,0,0.0,0.0,0,0.0,0.0,0,0.0,0.0,150,0.0,0.0,0,0.0,0.0,100,0.0,0.0,79,0.0,0.0,171,2.3157894736842124,0.6408668730650156,1445529752256,500.0,0.0,100.18400000000008,0.15044488977955794,0.4279999999999999,0.2533226452905812,0.02999999999999999,0.029158316633266537,1.7860000000000016,1.4390821643286587
1445529752824,500.0,0.0,359.0,0.4299999999999999,0.26963927855711417,0.04800000000000001,0.26963927855711417,0,0.0,0.0,0,0.0,0.0,0,0.0,0.0,0,0.0,0.0,0,0.0,0.0,0,0.0,0.0,158,0.0,0.0,0,0.0,0.0,85,0.0,0.0,88,0.0,0.0,169,2.1242603550295858,0.41899126514511115,1445529753257,499.0,0.0,100.15030060120239,0.12796677692734768,0.4328657314629258,0.2580341405702975,0.02605210420841681,0.02542434266122608,1.7715430861723453,1.570192594023389
1445529753848,500.0,0.0,390.0,0.43,0.269639278557114,0.03800000000000006,0.269639278557114,0,0.0,0.0,0,0.0,0.0,0,0.0,0.0,0,0.0,0.0,0,0.0,0.0,0,0.0,0.0,142,0.0,0.0,0,0.0,0.0,79,0.0,0.0,99,0.0,0.0,180,2.1666666666666665,0.38547486033519546,1445529754272,488.0,0.0,100.15368852459018,0.13444221900562253,0.43852459016393447,0.2590466893324808,0.02663934426229505,0.025982933315380218,1.6700819672131144,1.408384387518095
1445529754873,500.0,0.0,347.0,0.4339999999999998,0.29824048096192374,0.05200000000000001,0.29824048096192374,0,0.0,0.0,0,0.0,0.0,0,0.0,0.0,0,0.0,0.0,0,0.0,0.0,0,0.0,0.0,185,0.0,0.0,0,0.0,0.0,87,0.0,0.0,70,0.0,0.0,158,2.19620253164557,0.5536160606304928,1445529755291,500.0,0.0,100.16199999999996,0.13602805611222255,0.41800000000000015,0.4521803607214428,0.023999999999999997,0.023470941883767523,1.7359999999999978,1.5373787575150295
1445529755898,500.0,0.0,361.0,0.4259999999999999,0.24501402805611186,0.04199999999999998,0.24501402805611186,0,0.0,0.0,0,0.0,0.0,0,0.0,0.0,0,0.0,0.0,0,0.0,0.0,0,0.0,0.0,164,0.0,0.0,0,0.0,0.0,81,0.0,0.0,87,0.0,0.0,168,2.148809523809525,0.3190404904476761,1445529756293,498.0,0.0,100.13855421686743,0.11959710067634728,0.4317269076305221,0.24583242426446214,0.024096385542168672,0.023563065137814837,1.6887550200803205,1.3657083060612671
1445529756921,500.0,0.0,365.0,0.41000000000000036,0.2704408817635269,0.04000000000000002,0.2704408817635269,0,0.0,0.0,0,0.0,0.0,0,0.0,0.0,0,0.0,0.0,0,0.0,0.0,0,0.0,0.0,168,0.0,0.0,0,0.0,0.0,79,0.0,0.0,85,0.0,0.0,168,2.1726190476190483,0.5867907043056744,1445529757294,492.0,0.0,100.15650406504068,0.13227940324209828,0.4024390243902441,0.2409716357856041,0.032520325203252,0.03152683257993472,1.5873983739837403,1.2163785538059053
1445529757939,500.0,0.0,349.0,0.40199999999999997,0.27694989979959905,0.043999999999999984,0.27694989979959905,0,0.0,0.0,0,0.0,0.0,0,0.0,0.0,0,0.0,0.0,0,0.0,0.0,0,0.0,0.0,173,0.0,0.0,0,0.0,0.0,86,0.0,0.0,79,0.0,0.0,162,2.154320987654321,0.553676865271068,1445529758296,477.0,0.0,100.17400419287212,0.15663372267145684,0.39412997903563934,0.23929320155735245,0.023060796645702285,0.022576326127935465,1.8113207547169825,2.455921991438083
1445529758957,500.0,0.0,410.0,0.36600000000000016,0.26056513026052064,0.041999999999999996,0.26056513026052064,0,0.0,0.0,0,0.0,0.0,0,0.0,0.0,0,0.0,0.0,0,0.0,0.0,0,0.0,0.0,189,0.0,0.0,0,0.0,0.0,75,0.0,0.0,78,0.0,0.0,158,2.594936708860759,1.6055792953317745,1445529759308,496.0,0.0,100.14112903225806,0.12145650048875857,0.44959677419354843,0.27624226132290663,0.02016129032258067,0.019794721407624626,1.6310483870967736,1.356528999674161
1445529759958,491.0,0.0,381.0,0.39918533604888,0.2688972941518767,0.04684317718940936,0.2688972941518767,0,0.0,0.0,0,0.0,0.0,0,0.0,0.0,0,0.0,0.0,0,0.0,0.0,0,0.0,0.0,148,0.0,0.0,0,0.0,0.0,91,0.0,0.0,83,0.0,0.0,169,2.254437869822485,0.5836855452240071,1445529760309,492.0,0.0,100.14634146341446,0.12518007053797744,0.3658536585365855,0.23247727385624178,0.03658536585365859,0.035318662758929,1.7032520325203244,1.532942559568161
1445529760976,496.0,0.0,341.0,0.39516129032258046,0.2394916911045943,0.0463709677419355,0.2394916911045943,0,0.0,0.0,0,0.0,0.0,0,0.0,0.0,0,0.0,0.0,0,0.0,0.0,0,0.0,0.0,168,0.0,0.0,0,0.0,0.0,96,0.0,0.0,68,0.0,0.0,164,2.0792682926829267,0.45380068831363185,1445529761327,495.0,0.0,100.1353535353535,0.1172698646382863,0.4565656565656563,0.4429476955792741,0.03232323232323237,0.031341757657547126,1.6101010101010105,1.177630556577925
1445529761977,497.0,0.0,379.0,0.3903420523138831,0.302971052119167,0.0563380281690141,0.302971052119167,0,0.0,0.0,0,0.0,0.0,0,0.0,0.0,0,0.0,0.0,0,0.0,0.0,0,0.0,0.0,141,0.0,0.0,0,0.0,0.0,96,0.0,0.0,80,0.0,0.0,180,2.105555555555557,0.3742706393544382,1445529762328,499.0,0.0,100.18036072144288,0.15214364471915706,0.36072144288577146,0.23106453871598623,0.03006012024048095,0.02921505661926263,1.577154308617236,1.2606015243338087
1445529762983,475.0,0.0,408.0,0.34736842105263177,0.22718187874750168,0.0505263157894737,0.22718187874750168,0,0.0,0.0,0,0.0,0.0,0,0.0,0.0,0,0.0,0.0,0,0.0,0.0,0,0.0,0.0,171,0.005847953216374269,0.0058479532163742695,0,0.0,0.0,80,0.0,0.0,74,0.0,0.0,150,2.7133333333333325,11.239418344519017,1445529763335,473.0,0.0,100.14164904862568,0.1218421901315093,0.43974630021141653,0.24689146092378264,0.03171247357293866,0.03077184935679221,2.4439746300211467,11.353316372236359
1445529763985,498.0,0.0,384.0,0.35742971887550207,0.23415997996008184,0.03815261044176708,0.23415997996008184,0,0.0,0.0,0,0.0,0.0,0,0.0,0.0,0,0.0,0.0,0,0.0,0.0,0,0.0,0.0,161,0.0,0.0,0,0.0,0.0,84,0.0,0.0,85,0.0,0.0,168,2.2857142857142856,0.5286569717707446,1445529764339,499.0,0.0,100.1162324649299,0.10292874906439459,0.4028056112224448,0.24103628944636266,0.030060120240480957,0.029215056619262603,1.629258517034068,1.398419328617073
1445529764990,493.0,0.0,359.0,0.3813387423935094,0.2363990171341875,0.050709939148073015,0.2363990171341875,0,0.0,0.0,0,0.0,0.0,0,0.0,0.0,0,0.0,0.0,0,0.0,0.0,0,0.0,0.0,164,0.0,0.0,0,0.0,0.0,84,0.0,0.0,78,0.012820512820512822,0.012820512820512822,167,2.1437125748502988,0.5213909530336919,1445529765342,492.0,0.0,100.13821138211381,0.11935158048118029,0.4268292682926831,0.24514430480353677,0.022357723577235773,0.025975692547149484,1.6991869918699178,1.3757223519282042
1445529765995,499.0,0.0,360.0,0.3747494989979958,0.24683101142043098,0.040080160320641316,0.24683101142043098,0,0.0,0.0,0,0.0,0.0,0,0.0,0.0,0,0.0,0.0,0,0.0,0.0,0,0.0,0.0,165,0.0,0.0,0,0.0,0.0,93,0.0,0.0,77,0.0,0.0,164,2.195121951219513,0.3788717641777647,1445529766347,499.0,0.0,100.13827655310621,0.1193954173407048,0.40280561122244496,0.2410362894463627,0.036072144288577156,0.03484076586908756,1.6573146292585188,1.5309253044241093
1445529767004,488.0,0.0,373.0,0.38524590163934447,0.24142458006530435,0.05942622950819674,0.24142458006530435,0,0.0,0.0,0,0.0,0.0,0,0.0,0.0,0,0.0,0.0,0,0.0,0.0,0,0.0,0.0,157,0.0,0.0,0,0.0,0.0,81,0.0,0.0,85,0.0,0.0,165,2.260606060606061,0.7548410938654841,1445529767356,488.0,0.0,100.13934426229498,0.13660080115797435,0.42827868852459017,0.2576791665264078,0.032786885245901655,0.056417679334836913,1.6516393442622954,1.5087858080587064
1445529768006,491.0,0.0,380.0,0.3706720977596743,0.2582401596076313,0.03869653767820771,0.2582401596076313,0,0.0,0.0,0,0.0,0.0,0,0.0,0.0,0,0.0,0.0,0,0.0,0.0,0,0.0,0.0,163,0.0,0.0,0,0.0,0.0,87,0.0,0.0,76,0.0,0.0,165,2.3030303030303028,0.858832224685883,1445529768357,489.0,0.0,100.13701431492836,0.11848369036843238,0.3967280163599181,0.23982533775855702,0.030674846625766847,0.02979483053404409,1.6543967280163598,1.4233464078581253
1445529769014,481.0,0.0,380.0,0.37837837837837834,0.2606981981981983,0.039501039501039496,0.2606981981981983,0,0.0,0.0,0,0.0,0.0,0,0.0,0.0,0,0.0,0.0,0,0.0,0.0,0,0.0,0.0,140,0.0,0.0,0,0.0,0.0,79,0.0,0.0,90,0.0,0.0,172,2.209302325581395,0.5758193934448523,1445529769365,483.0,0.0,100.17391304347831,0.1439653617174806,0.4057971014492754,0.2748210956762285,0.0186335403726708,0.018324269993041407,1.6625258799171843,1.373426801714731
1445529770038,500.0,0.0,374.0,0.3819999999999998,0.24857314629258523,0.03800000000000005,0.24857314629258523,0,0.0,0.0,0,0.0,0.0,0,0.0,0.0,0,0.0,0.0,0,0.0,0.0,0,0.0,0.0,151,0.0,0.0,0,0.0,0.0,90,0.0,0.0,84,0.0,0.0,175,2.137142857142856,0.3603940886699506,1445529770389,500.0,0.0,100.132,0.11480561122244481,0.4319999999999998,0.25388376753507,0.02799999999999999,0.02727054108216434,1.709999999999999,1.540981963927857
1445529771063,500.0,0.0,366.0,0.3900000000000001,0.2784569138276551,0.04400000000000002,0.2784569138276551,0,0.0,0.0,0,0.0,0.0,0,0.0,0.0,0,0.0,0.0,0,0.0,0.0,0,0.0,0.0,170,0.0,0.0,0,0.0,0.0,72,0.0,0.0,96,0.0,0.0,162,2.259259259259259,0.47895100069013125,1445529771411,500.0,0.0,100.19200000000002,0.19953507014028232,0.4539999999999999,0.38465330661322594,0.03600000000000005,0.0347735470941884,1.588,1.926108216432865
1445529772082,500.0,0.0,367.0,0.3819999999999999,0.998072144288577,0.04200000000000002,0.998072144288577,0,0.0,0.0,0,0.0,0.0,0,0.0,0.0,0,0.0,0.0,0,0.0,0.0,0,0.0,0.0,167,0.0,0.0,0,0.0,0.0,93,0.0,0.0,72,0.0,0.0,168,2.1845238095238106,0.45077701739378384,1445529772432,500.0,0.0,100.13599999999985,0.11773947895791219,0.39400000000000013,0.23924248496993994,0.029999999999999992,0.029158316633266523,1.6659999999999993,1.2810060120240485
1445529773104,500.0,0.0,388.0,0.38399999999999973,0.2370180360721441,0.044000000000000025,0.2370180360721441,0,0.0,0.0,0,0.0,0.0,0,0.0,0.0,0,0.0,0.0,0,0.0,0.0,0,0.0,0.0,147,0.006802721088435377,0.00680272108843537,0,0.0,0.0,92,0.0,0.0,82,0.0,0.0,179,2.162011173184356,0.30506559538007677,1445529773454,500.0,0.0,100.1600000000001,0.13466933867735373,0.40799999999999986,0.24202004008016048,0.038000000000000006,0.036629258517034066,1.546,1.3545931863727467
1445529774127,500.0,0.0,324.0,0.386,0.24148697394789562,0.04799999999999997,0.24148697394789562,0,0.0,0.0,0,0.0,0.0,0,0.0,0.0,0,0.0,0.0,0,0.0,0.0,0,0.0,0.0,187,0.0,0.0,0,0.0,0.0,77,0.0,0.0,82,0.0,0.0,154,2.1038961038961044,0.263644851880146,1445529774489,500.0,0.0,100.15200000000002,0.12915430861723462,0.7259999999999999,3.0129498997996,0.03199999999999999,0.03103807615230461,1.9639999999999997,2.3794629258517053
