timeStamp,totalRequests,failedRequests,totalHandleTime,upstreamTime,upstreamTimeVar,downstreamTime,downstreamTimeVar,CREATE_CLIENT_N,CREATE_CLIENT_time,CREATE_CLIENT_timeVar,CLIENT_LIST_N,CLIENT_LIST_time,CLIENT_LIST_timeVar,QUEUE_LIST_N,QUEUE_LIST_time,QUEUE_LIST_timeVar,MESSAGE_COUNT_N,MESSAGE_COUNT_time,MESSAGE_COUNT_timeVar,CREATE_QUEUE_N,CREATE_QUEUE_time,CREATE_QUEUE_timeVar,DELETE_QUEUE_N,DELETE_QUEUE_time,DELETE_QUEUE_timeVar,SEND_MESSAGE_N,SEND_MESSAGE_time,SEND_MESSAGE_timeVar,RECEIVE_MESSAGE_N,RECEIVE_MESSAGE_time,RECEIVE_MESSAGE_timeVar,POP_QUEUE_N,POP_QUEUE_time,POP_QUEUE_timeVar,TOP_QUEUE_N,TOP_QUEUE_time,TOP_QUEUE_timeVar,INBOX_QUEUES_N,INBOX_QUEUES_time,INBOX_QUEUES_timeVar,timeStamp,totalRequests,failedRequests,clientThinkTime,clientThinkTimeVar,waitingForConnectionTime,waitingForConnectionTimeVar,upstreamTime,upstreamTimeVar,waitingForResponseTime,waitingForResponseTimeVar
1445531532681,2178.0,0.0,3501.0,0.1533516988062442,0.32098324878213796,0.05325987144168964,0.32098324878213796,0,0.0,0.0,126,1.158730158730159,1.0946031746031752,0,0.0,0.0,250,0.8120000000000002,0.28178313253012033,0,0.0,0.0,0,0.0,0.0,1802,1.7491675915649276,0.9398244038797033,0,0.0,0.0,0,0.0,0.0,0,0.0,0.0,0,0.0,0.0,1445531533115,2072.0,0.0,100.55067567567563,7.953973468881769,0.550675675675676,1.1630512091038403,0.026544401544401547,0.02585227325690866,18.325772200772203,68.01598443480383
1445531533683,2059.0,0.0,3596.0,0.1379310344827587,0.32790456083911446,0.043710539096648855,0.32790456083911446,0,0.0,0.0,124,1.096774193548388,0.12063991607658016,0,0.0,0.0,42,1.2857142857142858,0.25783972125435545,0,0.0,0.0,0,0.0,0.0,1893,1.7992604331748523,0.8243757741048859,0,0.0,0.0,0,0.0,0.0,0,0.0,0.0,0,0.0,0.0,1445531534118,2053.0,0.0,100.13930832927406,0.11995995020836683,0.9074525085241103,3.5898713336352706,0.021919142717973707,0.021449141607062017,21.215294690696524,205.1193176153569
1445531534684,1985.0,0.0,3700.0,0.09773299748110831,0.08923376939952862,0.052896725440806064,0.08923376939952862,0,0.0,0.0,250,1.6360000000000003,7.9031164658634525,0,0.0,0.0,208,1.471153846153846,0.5498885172798218,0,0.0,0.0,0,0.0,0.0,1527,1.9548133595284887,2.7456632515120973,0,0.0,0.0,0,0.0,0.0,0,0.0,0.0,0,0.0,0.0,1445531535120,1599.0,0.0,100.5121951219512,6.978418144632091,1.2238899312070046,7.855974596137607,0.02814258911819884,0.027367699305182087,51.98686679174483,942.8377498139106
1445531535686,1657.0,0.0,3799.0,0.07543753771876892,0.07461975107799149,0.038624019312009636,0.07461975107799149,0,0.0,0.0,0,0.0,0.0,0,0.0,0.0,250,3.363999999999998,4.698297188755023,0,0.0,0.0,0,0.0,0.0,1028,1.6410505836575886,2.5730746498243957,0,0.0,0.0,79,0.0,0.0,70,0.0,0.0,230,5.52608695652174,11.866128726030002,1445531536122,1849.0,0.0,100.12114656571114,0.1065276890047036,0.7295835586803685,1.099995551591007,0.017847485127095764,0.017538437765587576,35.86046511627901,136.40367965367955
1445531536688,1827.0,0.0,3766.0,0.08100711548987423,0.07558102240279209,0.04378762999452656,0.07558102240279209,0,0.0,0.0,0,0.0,0.0,0,0.0,0.0,0,0.0,0.0,0,0.0,0.0,0,0.0,0.0,588,0.0,0.0,0,0.0,0.0,302,0.0033112582781456928,0.0033112582781456975,316,0.0031645569620253147,0.003164556962025318,621,6.061191626409013,13.947862448703976,1445531537124,1933.0,0.0,100.12726332126226,0.11112485660945969,0.6239006725297465,0.7834243213918866,0.020175892395240595,0.019779058072766892,29.20538023797206,104.34237269437129
1445531537690,1951.0,0.0,3772.0,0.07534597642234757,0.07073032895687949,0.03536647872885709,0.07073032895687949,0,0.0,0.0,0,0.0,0.0,0,0.0,0.0,0,0.0,0.0,0,0.0,0.0,0,0.0,0.0,625,0.0,0.0,0,0.0,0.0,326,0.0,0.0,341,0.0029325513196480917,0.0029325513196480947,659,5.722306525037939,6.1522524226169315,1445531538125,1978.0,0.0,100.1294236602629,0.1127301684232173,0.46157735085945384,0.2506726750962662,0.02932254802831145,0.028477133138269106,26.718402426693658,243.54989891333753
1445531538691,1970.0,0.0,3762.0,0.0776649746192894,0.07370099486198514,0.04111675126903555,0.07370099486198514,0,0.0,0.0,0,0.0,0.0,0,0.0,0.0,0,0.0,0.0,0,0.0,0.0,0,0.0,0.0,642,0.0,0.0,0,0.0,0.0,328,0.0030487804878048756,0.0030487804878048795,326,0.0030674846625766855,0.0030674846625766885,674,5.578635014836794,8.499750882932616,1445531539126,2064.0,0.0,100.72480620155046,13.184532197033725,0.6308139534883718,2.525778105941897,0.020833333333333353,0.020409193730812732,20.627422480620126,126.33954817624671
1445531539693,2057.0,0.0,3607.0,0.10841030627126876,0.1375605553022896,0.049586776859504106,0.1375605553022896,0,0.0,0.0,0,0.0,0.0,0,0.0,0.0,0,0.0,0.0,0,0.0,0.0,0,0.0,0.0,656,0.0015243902439024402,0.001524390243902439,0,0.0,0.0,346,0.0,0.0,356,0.002808988764044943,0.002808988764044946,699,5.157367668097276,6.85485609815086,1445531540145,1955.0,0.0,100.13452685421984,0.11648896486190075,0.4762148337595909,0.25365608483614166,0.01790281329923275,0.017591300682971753,26.27928388746804,133.4296371532459
1445531540695,1929.0,0.0,3759.0,0.07672369103162248,0.07087390753491687,0.03628823224468631,0.07087390753491687,0,0.0,0.0,0,0.0,0.0,0,0.0,0.0,0,0.0,0.0,0,0.0,0.0,0,0.0,0.0,622,0.0,0.0,0,0.0,0.0,342,0.0,0.0,312,0.0,0.0,653,5.756508422664624,11.463627053993365,1445531541147,1896.0,0.0,100.13713080168768,0.11838838604811705,1.3628691983122354,10.867728755441268,0.024789029535864957,0.024187290560324134,32.68934599156119,167.03748009975152
1445531541697,1907.0,0.0,3753.0,0.07551127425275302,0.08558571695047407,0.041950707918196196,0.08558571695047407,0,0.0,0.0,0,0.0,0.0,0,0.0,0.0,0,0.0,0.0,0,0.0,0.0,0,0.0,0.0,616,0.0,0.0,0,0.0,0.0,301,0.0,0.0,352,0.0,0.0,638,5.8824451410658325,13.256174859623147,1445531542148,2033.0,0.0,100.13674372848007,0.11810297415479423,0.5095917363502213,0.28152704780569454,0.019675356615838687,0.019297729200475587,21.69503197245453,148.81738180261894
1445531542706,1984.0,0.0,3674.0,0.08568548387096778,0.0783829892798464,0.03679435483870971,0.0783829892798464,0,0.0,0.0,0,0.0,0.0,0,0.0,0.0,0,0.0,0.0,0,0.0,0.0,0,0.0,0.0,678,0.0,0.0,0,0.0,0.0,318,0.0,0.0,328,0.0030487804878048756,0.00304878048780488,660,5.565151515151514,10.334140341196479,1445531543150,1959.0,0.0,100.22409392547192,0.9666101975064684,1.1898928024502295,6.457282879207635,0.022460438999489525,0.021967181146078922,28.133741704951472,249.0127475348833
1445531543707,2073.0,0.0,3611.0,0.10660877954655082,0.09818506743253494,0.03617945007235889,0.09818506743253494,0,0.0,0.0,0,0.0,0.0,0,0.0,0.0,0,0.0,0.0,0,0.0,0.0,0,0.0,0.0,695,0.0,0.0,0,0.0,0.0,352,0.002840909090909089,0.0028409090909090927,348,0.0,0.0,678,5.3244837758112125,10.969887103872285,1445531544151,1938.0,0.0,100.14293085655335,0.1225648697649871,0.5082559339525287,0.2552234925435,0.018059855521155875,0.017742852378296092,25.234778121774976,356.3026205237958
1445531544710,1782.0,0.0,3725.0,0.08754208754208748,0.2730732365768862,0.04433221099887775,0.2730732365768862,0,0.0,0.0,0,0.0,0.0,0,0.0,0.0,0,0.0,0.0,0,0.0,0.0,0,0.0,0.0,626,0.001597444089456869,0.0015974440894568687,0,0.0,0.0,291,0.0,0.0,268,0.0,0.0,597,6.237855946398662,11.443329623509038,1445531545152,1936.0,0.0,100.1332644628099,0.11556473829201107,0.4757231404958676,0.28261446387767736,0.02892561983471075,0.028103444593930892,32.76652892561979,560.2038610203516
1445531545711,2036.0,0.0,3581.0,0.10658153241650288,0.09526870145730636,0.04076620825147353,0.09526870145730636,0,0.0,0.0,0,0.0,0.0,0,0.0,0.0,0,0.0,0.0,0,0.0,0.0,0,0.0,0.0,689,0.0,0.0,0,0.0,0.0,358,0.0,0.0,325,0.0,0.0,664,5.393072289156631,7.7321389630921935,1445531546154,2000.0,0.0,100.14049999999986,0.12082016008004007,0.466,0.27398099049524777,0.01900000000000001,0.018648324162081054,22.322499999999973,162.38368559279652
1445531546714,2001.0,0.0,3719.0,0.08345827086456777,0.07653123438280858,0.03648175912043978,0.07653123438280858,0,0.0,0.0,0,0.0,0.0,0,0.0,0.0,0,0.0,0.0,0,0.0,0.0,0,0.0,0.0,685,0.0,0.0,0,0.0,0.0,327,0.0,0.0,333,0.0,0.0,656,5.6692073170731705,7.589645782908206,1445531547156,2137.0,0.0,100.13851193261583,0.11938224154762213,0.45343940102947977,0.2507571256565695,0.019185774450163808,0.018826490284430387,18.549368273280308,128.0885026438057
1445531547715,2176.0,0.0,3572.0,0.09696691176470583,0.0876045892494927,0.04457720588235289,0.0876045892494927,0,0.0,0.0,0,0.0,0.0,0,0.0,0.0,0,0.0,0.0,0,0.0,0.0,0,0.0,0.0,790,0.0012658227848101273,0.0012658227848101268,0,0.0,0.0,332,0.0,0.0,360,0.002777777777777776,0.002777777777777779,694,5.144092219020182,7.912829405624797,1445531548159,2014.0,0.0,100.13753723932476,0.13159572017240617,0.457795431976167,0.250329166278179,0.020854021847070532,0.02042927525207306,23.53277060575965,225.5694670342871
1445531548718,1942.0,0.0,3753.0,0.07775489186405782,0.21187996462057077,0.04737384140061788,0.21187996462057077,0,0.0,0.0,0,0.0,0.0,0,0.0,0.0,0,0.0,0.0,0,0.0,0.0,0,0.0,0.0,643,0.0,0.0,0,0.0,0.0,315,0.0,0.0,336,0.0,0.0,648,5.791666666666672,8.792697063369383,1445531549160,1897.0,0.0,100.13336847654172,0.11564228662178089,0.47021613073273577,0.2608476853303797,0.02635740643120715,0.02567622873335423,30.669478123352647,295.06527572961045
1445531549720,1913.0,0.0,3769.0,0.0789336121275484,0.07274112163637036,0.03606900156821752,0.07274112163637036,0,0.0,0.0,0,0.0,0.0,0,0.0,0.0,0,0.0,0.0,0,0.0,0.0,0,0.0,0.0,607,0.0,0.0,0,0.0,0.0,307,0.0,0.0,343,0.0,0.0,656,5.7454268292683,5.2587576801340505,1445531550161,1878.0,0.0,100.66932907348244,11.683352879399406,0.6666666666666667,1.5393358195702385,0.02183173588924393,0.02136648845420407,31.664536741214093,189.66790524611847
1445531550722,1860.0,0.0,3789.0,0.07473118279569897,0.0928522676661635,0.03602150537634409,0.0928522676661635,0,0.0,0.0,0,0.0,0.0,0,0.0,0.0,0,0.0,0.0,0,0.0,0.0,0,0.0,0.0,641,0.0,0.0,0,0.0,0.0,319,0.0,0.0,296,0.0,0.0,604,6.273178807947018,9.873839961341199,1445531551162,1804.0,0.0,100.12971175166292,0.11294922357785171,0.5454545454545472,0.731709776634901,0.02383592017738365,0.023280674116679126,38.008314855875774,321.14857197845873
1445531551724,1821.0,0.0,3784.0,0.07742998352553564,0.07147383094664808,0.0411861614497529,0.07147383094664808,0,0.0,0.0,0,0.0,0.0,0,0.0,0.0,0,0.0,0.0,0,0.0,0.0,0,0.0,0.0,595,0.0,0.0,0,0.0,0.0,304,0.0,0.0,302,0.0033112582781456936,0.0033112582781456967,620,6.101612903225806,11.102743759445517,1445531552163,1948.0,0.0,100.15195071868594,0.14125453891576462,0.45533880903490737,0.25840496989524253,0.021560574948665333,0.02110655154193941,25.911704312114967,170.25414131570776
1445531552725,2017.0,0.0,3731.0,0.0827962320277642,0.07597868514452553,0.03867129400099161,0.07597868514452553,0,0.0,0.0,0,0.0,0.0,0,0.0,0.0,0,0.0,0.0,0,0.0,0.0,0,0.0,0.0,675,0.0,0.0,0,0.0,0.0,335,0.0,0.0,344,0.002906976744186045,0.0029069767441860478,663,5.625942684766216,6.089477017858035,1445531553166,1828.0,0.0,100.13512035010933,0.11692680543129147,0.45295404814004436,0.25449044780516944,0.01969365426695841,0.01931638119671022,35.99398249452951,168.36613782563742
1445531553726,1777.0,0.0,3802.0,0.07090602138435566,0.06591545118556935,0.037703995498030364,0.06591545118556935,0,0.0,0.0,0,0.0,0.0,0,0.0,0.0,0,0.0,0.0,0,0.0,0.0,0,0.0,0.0,525,0.0,0.0,0,0.0,0.0,319,0.0031347962382445122,0.003134796238244515,305,0.0,0.0,628,6.052547770700643,6.2954799418929435,1445531554167,1819.0,0.0,100.13304013194058,0.11540389882858633,0.4447498625618483,0.247083256978804,0.02089059923034638,0.020465433019387743,38.33919736118734,157.77322069755098
1445531554727,1817.0,0.0,3791.0,0.07705008255365998,0.07115252667537858,0.03742432581177765,0.07115252667537858,0,0.0,0.0,0,0.0,0.0,0,0.0,0.0,0,0.0,0.0,0,0.0,0.0,0,0.0,0.0,573,0.0017452006980802784,0.0017452006980802795,0,0.0,0.0,306,0.0,0.0,314,0.0,0.0,624,6.073717948717943,9.037895624974261,1445531555168,1952.0,0.0,100.14600409836076,0.12475081084941823,0.517930327868853,0.2949115522934859,0.025614754098360646,0.02497143121224083,30.201331967213118,273.5878403571931
1445531555728,1917.0,0.0,3698.0,0.09024517475221687,0.08214383338615146,0.03495044340114767,0.08214383338615146,0,0.0,0.0,0,0.0,0.0,0,0.0,0.0,0,0.0,0.0,0,0.0,0.0,0,0.0,0.0,620,0.0,0.0,0,0.0,0.0,321,0.0,0.0,322,0.0,0.0,654,5.654434250764523,8.829865452791402,1445531556171,2022.0,0.0,100.14836795252221,0.12641742416789925,0.45400593471810075,0.25097602767381666,0.021760633036597466,0.02129764084432941,21.347675568743796,171.93101636574613
1445531556731,2043.0,0.0,3639.0,0.10964268232990705,0.2318511455230661,0.03915810083210974,0.2318511455230661,0,0.0,0.0,0,0.0,0.0,0,0.0,0.0,0,0.0,0.0,0,0.0,0.0,0,0.0,0.0,688,0.0,0.0,0,0.0,0.0,337,0.0,0.0,342,0.0,0.0,676,5.383136094674558,6.642618891080429,1445531557180,2105.0,0.0,100.16579572446562,0.2286774202288639,3.4494061757719736,2832.365428592076,0.01710213776722091,0.016817644030598853,17.18194774346795,142.81811502578498
1445531557733,2130.0,0.0,3592.0,0.10938967136150243,0.4384744981553639,0.039906103286384983,0.4384744981553639,0,0.0,0.0,0,0.0,0.0,0,0.0,0.0,0,0.0,0.0,0,0.0,0.0,0,0.0,0.0,759,0.0,0.0,0,0.0,0.0,331,0.0,0.0,363,0.0,0.0,677,5.305760709010337,8.727378007743868,1445531558182,1992.0,0.0,100.51907630522102,8.184467654646669,0.5401606425702798,1.2660909837239438,0.017570281124498006,0.01727023614296461,25.760040160642582,137.8359111987882
1445531558734,1938.0,0.0,3746.0,0.0758513931888546,0.0701341482711608,0.03869969040247682,0.0701341482711608,0,0.0,0.0,0,0.0,0.0,0,0.0,0.0,0,0.0,0.0,0,0.0,0.0,0,0.0,0.0,596,0.0,0.0,0,0.0,0.0,327,0.0,0.0,337,0.0,0.0,678,5.525073746312683,6.884894750831142,1445531559183,1548.0,0.0,100.14470284237719,0.12384393232546448,0.4282945736434109,0.24501661129568075,0.020671834625323012,0.020257596180988782,57.515503875969046,720.2512139023776
1445531559737,1496.0,0.0,3848.0,0.07486631016042779,0.06930767442276399,0.03743315508021391,0.06930767442276399,0,0.0,0.0,0,0.0,0.0,0,0.0,0.0,0,0.0,0.0,0,0.0,0.0,0,0.0,0.0,503,0.0,0.0,0,0.0,0.0,240,0.008333333333333333,0.008298465829846582,253,0.0,0.0,500,7.692000000000002,9.80073747494989,1445531560187,1749.0,0.0,100.13493424814178,0.11679377427833892,0.920526014865639,7.424458304385781,0.0200114351057748,0.019622196665502228,42.72327044025155,492.7334455910071
1445531560740,1795.0,0.0,3779.0,0.08579387186629522,0.19553385938271406,0.03955431754874658,0.19553385938271406,0,0.0,0.0,0,0.0,0.0,0,0.0,0.0,0,0.0,0.0,0,0.0,0.0,0,0.0,0.0,575,0.0,0.0,0,0.0,0.0,297,0.0,0.0,319,0.0,0.0,604,6.256622516556284,14.698546450968108,1445531561188,1893.0,0.0,100.13787638668786,0.11892931452139675,0.45589012150026464,0.2619274974340761,0.026941362916006368,0.02622938186642902,31.862651875330176,190.86907478202244
1445531561741,1909.0,0.0,3778.0,0.07909900471451038,0.07288052950110532,0.038239916186485104,0.07288052950110532,0,0.0,0.0,0,0.0,0.0,0,0.0,0.0,0,0.0,0.0,0,0.0,0.0,0,0.0,0.0,619,0.0,0.0,0,0.0,0.0,320,0.0,0.0,326,0.0,0.0,644,5.866459627329198,8.747302531804529,1445531562189,1882.0,0.0,100.13549415515392,0.12676714005088124,0.4739638682252923,0.2632771023620622,0.027098831030818286,0.026378500594060706,32.37247608926674,175.3290240624265
1445531562743,1941.0,0.0,3767.0,0.07985574446161772,0.0735166802105409,0.04070066975785684,0.0735166802105409,0,0.0,0.0,0,0.0,0.0,0,0.0,0.0,0,0.0,0.0,0,0.0,0.0,0,0.0,0.0,678,0.0,0.0,0,0.0,0.0,326,0.0,0.0,303,0.0,0.0,634,5.941640378548899,6.355198568730349,1445531563192,2020.0,0.0,100.13069306930691,0.113668662557192,0.4534653465346534,0.24894786655485784,0.02079207920792081,0.02036985273564504,23.806930693069326,280.8314526846444
1445531563744,1989.0,0.0,3674.0,0.09753645047762712,0.2792142498024854,0.042232277526395204,0.2792142498024854,0,0.0,0.0,0,0.0,0.0,0,0.0,0.0,0,0.0,0.0,0,0.0,0.0,0,0.0,0.0,620,0.0,0.0,0,0.0,0.0,347,0.0,0.0,337,0.0,0.0,685,5.36350364963503,6.3896017415802255,1445531564193,2175.0,0.0,100.13839080459763,0.1192936374499041,0.4652873563218393,0.2516693631105331,0.021149425287356315,0.020711649694931743,16.22712643678161,84.47184891454928
1445531564745,2202.0,0.0,3685.0,0.09355131698455946,0.0848379957751843,0.0331516802906449,0.0848379957751843,0,0.0,0.0,0,0.0,0.0,0,0.0,0.0,0,0.0,0.0,0,0.0,0.0,0,0.0,0.0,710,0.0,0.0,0,0.0,0.0,365,0.0,0.0,384,0.002604166666666665,0.002604166666666668,743,4.958277254374161,4.6222460847514855,1445531565197,2113.0,0.0,100.54519640321823,8.116445901274957,0.6180785612872687,0.5183661926888383,0.02508282063416945,0.02446525118673724,15.651680075721739,137.85872942032705
1445531565746,2081.0,0.0,3552.0,0.09610764055742432,0.1301819576387091,0.03844305622296975,0.1301819576387091,0,0.0,0.0,0,0.0,0.0,0,0.0,0.0,0,0.0,0.0,0,0.0,0.0,0,0.0,0.0,718,0.0,0.0,0,0.0,0.0,335,0.0,0.0,348,0.0028735632183908024,0.002873563218390805,680,5.222058823529403,7.810705622455181,1445531566199,2065.0,0.0,100.13365617433429,0.1158483022692716,0.4658595641646482,0.2508929744542672,0.022276029055690073,0.021790359817557305,21.68910411622279,75.96337443925161
1445531566749,2017.0,0.0,3771.0,0.06941001487357468,0.06462430452266853,0.04214179474467034,0.06462430452266853,0,0.0,0.0,0,0.0,0.0,0,0.0,0.0,0,0.0,0.0,0,0.0,0.0,0,0.0,0.0,689,0.0029027576197387522,0.0028985384952914567,0,0.0,0.0,308,0.0,0.0,351,0.0,0.0,669,5.633781763826606,5.858198401403473,1445531567200,2012.0,0.0,100.15357852882698,0.1708325383353784,0.44781312127236544,0.2752463340296359,0.019880715705765453,0.01949516229327171,23.397117296222717,177.63585444073516
1445531567750,2083.0,0.0,3674.0,0.08017282765242435,0.0939534763602522,0.035525684109457514,0.0939534763602522,0,0.0,0.0,0,0.0,0.0,0,0.0,0.0,0,0.0,0.0,0,0.0,0.0,0,0.0,0.0,705,0.0,0.0,0,0.0,0.0,363,0.0,0.0,329,0.0,0.0,686,5.355685131195336,7.330237705092466,1445531568201,2139.0,0.0,100.14726507713881,0.12563681043089786,0.45535296867695135,0.24905809565418602,0.017297802711547492,0.017006539429220206,17.621785881252933,76.80403404019323
1445531568751,2088.0,0.0,3687.0,0.07614942528735627,0.07038439931926682,0.032088122605364006,0.07038439931926682,0,0.0,0.0,0,0.0,0.0,0,0.0,0.0,0,0.0,0.0,0,0.0,0.0,0,0.0,0.0,729,0.0013717421124828546,0.0013717421124828544,0,0.0,0.0,343,0.0,0.0,335,0.0,0.0,681,5.412628487518361,6.8309579338343225,1445531569203,1974.0,0.0,100.13221884498465,0.11479517560008468,0.45997973657548036,0.24852427733880575,0.015704154002026353,0.015465368082076617,25.164133738601784,165.0120733242238
1445531569754,1950.0,0.0,3688.0,0.09846153846153859,0.22939732407151575,0.03487179487179495,0.22939732407151575,0,0.0,0.0,0,0.0,0.0,0,0.0,0.0,0,0.0,0.0,0,0.0,0.0,0,0.0,0.0,635,0.0,0.0,0,0.0,0.0,311,0.0,0.0,341,0.0,0.0,663,5.562594268476619,8.041015616100022,1445531570204,1928.0,0.0,100.13278008298767,0.11520928840435186,0.47821576763485524,0.2548443498913668,0.018672199170124467,0.018333056995264958,26.64004149377595,118.12360601799705
1445531570760,1937.0,0.0,3788.0,0.07176045431078999,0.06664529796012406,0.03717088280846678,0.06664529796012406,0,0.0,0.0,0,0.0,0.0,0,0.0,0.0,0,0.0,0.0,0,0.0,0.0,0,0.0,0.0,631,0.0,0.0,0,0.0,0.0,335,0.0,0.0,322,0.0,0.0,649,5.8366718027734965,6.130690140577146,1445531571205,1881.0,0.0,100.64912280701746,11.066181410974298,0.5353535353535366,0.30952073930797375,0.015417331206804878,0.01518771138032059,32.915470494417896,263.5274254301137
1445531571763,1884.0,0.0,3769.0,0.07218683651804676,0.06701146587017821,0.03450106157112538,0.06701146587017821,0,0.0,0.0,0,0.0,0.0,0,0.0,0.0,0,0.0,0.0,0,0.0,0.0,0,0.0,0.0,608,0.0,0.0,0,0.0,0.0,303,0.0,0.0,335,0.0,0.0,638,5.907523510971789,9.324244720796434,1445531572206,1826.0,0.0,100.1363636363636,0.11783312577833094,0.4485213581599128,0.24858137406412678,0.019167579408543314,0.018810484778466297,37.20427163198255,140.99331872946323
1445531572764,1845.0,0.0,3771.0,0.0791327913279133,0.15750900892956834,0.04281842818428194,0.15750900892956834,0,0.0,0.0,0,0.0,0.0,0,0.0,0.0,0,0.0,0.0,0,0.0,0.0,0,0.0,0.0,639,0.0,0.0,0,0.0,0.0,302,0.003311258278145694,0.0033112582781456962,302,0.0,0.0,602,6.262458471760794,9.25546016882162,1445531573207,1761.0,0.0,100.15445769449171,0.13067471994218133,0.43838727995457155,0.2463437612926536,0.01873935264054514,0.018398637137989813,41.01817149346961,114.77353324557339
1445531573765,1806.0,0.0,3816.0,0.06644518272425237,0.06206458619007737,0.0359911406423034,0.06206458619007737,0,0.0,0.0,0,0.0,0.0,0,0.0,0.0,0,0.0,0.0,0,0.0,0.0,0,0.0,0.0,585,0.0,0.0,0,0.0,0.0,322,0.0,0.0,291,0.0,0.0,608,6.2763157894736885,8.467181132402676,1445531574208,1975.0,0.0,100.14886075949372,0.1267654187988162,0.4511392405063293,0.27914637117976693,0.01924050632911401,0.018879868672489208,25.75898734177219,108.38261295576675
1445531574767,1960.0,0.0,3798.0,0.07193877551020439,0.06679766853142473,0.03673469387755093,0.06679766853142473,0,0.0,0.0,0,0.0,0.0,0,0.0,0.0,0,0.0,0.0,0,0.0,0.0,0,0.0,0.0,655,0.0,0.0,0,0.0,0.0,299,0.0,0.0,355,0.0,0.0,651,5.8341013824884875,6.5262814604750075,1445531575210,2026.0,0.0,100.13919052319844,0.11987569010273869,0.4768015794669291,0.27526403665923177,0.023692003948667373,0.02314211546195751,21.65498519249753,246.34559735780556
1445531575768,2001.0,0.0,3632.0,0.09095452273863072,0.14872313843078455,0.03498250874562719,0.14872313843078455,0,0.0,0.0,0,0.0,0.0,0,0.0,0.0,0,0.0,0.0,0,0.0,0.0,0,0.0,0.0,696,0.001436781609195402,0.0014367816091954023,0,0.0,0.0,322,0.0,0.0,331,0.0,0.0,652,5.569018404907976,6.368501031918802,1445531576211,1718.0,0.0,100.1420256111757,0.12192530627437866,0.43131548311990653,0.24542529237515945,0.02444703143189757,0.023863264228223855,48.32421420256114,104.89598875315896
1445531576770,1765.0,0.0,3809.0,0.07138810198300297,0.06632942128692838,0.039093484419263504,0.06632942128692838,0,0.0,0.0,0,0.0,0.0,0,0.0,0.0,0,0.0,0.0,0,0.0,0.0,0,0.0,0.0,591,0.0,0.0,0,0.0,0.0,311,0.0,0.0,276,0.0,0.0,587,6.488926746166952,11.574535876877277,1445531577212,2088.0,0.0,100.14511494252874,0.12411603853080665,0.46503831417624536,0.24985519738134435,0.014367816091954025,0.014168167473522448,18.987547892720322,127.00128234078127
1445531577771,2061.0,0.0,3661.0,0.0921882581271227,0.09829331599798372,0.03881610868510444,0.09829331599798372,0,0.0,0.0,0,0.0,0.0,0,0.0,0.0,0,0.0,0.0,0,0.0,0.0,0,0.0,0.0,706,0.0,0.0,0,0.0,0.0,342,0.0,0.0,336,0.002976190476190475,0.002976190476190478,677,5.406203840472672,6.099547254245586,1445531578213,1937.0,0.0,100.6458440887972,11.875541862042773,0.5183273102736191,0.34896662215149055,0.021683014971605602,0.021223818890078815,26.12441920495614,160.94370608037465
1445531578773,1927.0,0.0,3713.0,0.0819927348209653,0.07530900721614095,0.04359107420861453,0.07530900721614095,0,0.0,0.0,0,0.0,0.0,0,0.0,0.0,0,0.0,0.0,0,0.0,0.0,0,0.0,0.0,647,0.0,0.0,0,0.0,0.0,330,0.0030303030303030286,0.0030303030303030307,315,0.0,0.0,635,5.845669291338587,9.79002459077473,1445531579214,1791.0,0.0,100.13679508654377,0.11814815854567667,0.4930206588498044,0.3864037755506275,0.02233389168062538,0.021847287336745777,40.49525404801786,224.6333573516248
1445531579774,1818.0,0.0,3829.0,0.0704070407040703,0.06548591017604789,0.031903190319031875,0.06548591017604789,0,0.0,0.0,0,0.0,0.0,0,0.0,0.0,0,0.0,0.0,0,0.0,0.0,0,0.0,0.0,618,0.0,0.0,0,0.0,0.0,296,0.0,0.0,303,0.0,0.0,601,6.3710482529118115,9.463760399334443,1445531580221,1919.0,0.0,100.14799374674308,0.12615733885555702,0.46482542991141207,0.27704677607873857,0.019801980198019837,0.019419981622771226,27.924960917144368,166.8494235516518
1445531580777,1904.0,0.0,3720.0,0.07930672268907589,0.07305553592955828,0.03676470588235288,0.07305553592955828,0,0.0,0.0,0,0.0,0.0,0,0.0,0.0,0,0.0,0.0,0,0.0,0.0,0,0.0,0.0,661,0.0,0.0,0,0.0,0.0,322,0.0,0.0,294,0.0,0.0,627,5.933014354066989,7.426815659538035,1445531581224,1902.0,0.0,100.15352260778123,0.13002177723717284,1.0362776025236569,1.7593355315233414,0.01997896950578343,0.01959011002566033,31.8401682439537,154.575176825966
1445531581779,1906.0,0.0,3781.0,0.07712486883525722,0.14050532508200425,0.03672612801678912,0.14050532508200425,0,0.0,0.0,0,0.0,0.0,0,0.0,0.0,0,0.0,0.0,0,0.0,0.0,0,0.0,0.0,614,0.0,0.0,0,0.0,0.0,322,0.0,0.0,325,0.0,0.0,645,5.862015503875971,9.31478164572199,1445531582225,1951.0,0.0,100.14351614556637,0.12298229704687959,0.5433111225012824,0.34363600520443116,0.01845207585853409,0.0181208847533809,28.92772936955403,124.76041530313186
1445531582780,1922.0,0.0,3799.0,0.06503642039542146,0.06083833807942346,0.03902185223725289,0.06083833807942346,0,0.0,0.0,0,0.0,0.0,0,0.0,0.0,0,0.0,0.0,0,0.0,0.0,0,0.0,0.0,622,0.0,0.0,0,0.0,0.0,320,0.0,0.0,323,0.0,0.0,657,5.782343987823448,9.234565838809067,1445531583227,1963.0,0.0,100.15078960774316,0.12811736804689092,0.5537442689760556,0.3206319977691266,0.01986754966887423,0.0194827551289062,26.813041263372362,255.91456989992764
1445531583781,1921.0,0.0,3685.0,0.09318063508589278,0.1543336803748045,0.03383654346694433,0.1543336803748045,0,0.0,0.0,0,0.0,0.0,0,0.0,0.0,0,0.0,0.0,0,0.0,0.0,0,0.0,0.0,661,0.0,0.0,0,0.0,0.0,319,0.0,0.0,314,0.0,0.0,627,5.877192982456135,11.274031724679103,1445531584228,1861.0,0.0,100.3143471252014,2.723175769761895,0.5771090811391724,0.32052948755727295,0.033315421816227764,0.28060991604698515,34.06716818914558,260.35301289051455
1445531584783,1947.0,0.0,3788.0,0.06882383153569582,0.06412004448829225,0.04108885464817668,0.06412004448829225,0,0.0,0.0,0,0.0,0.0,0,0.0,0.0,0,0.0,0.0,0,0.0,0.0,0,0.0,0.0,664,0.0,0.0,0,0.0,0.0,325,0.003076923076923075,0.0030769230769230774,320,0.0,0.0,638,5.935736677115993,6.079066253943106,1445531585229,1939.0,0.0,100.14285714285707,0.12251216275984113,0.44146467251160415,0.246700846403543,0.01959773078906652,0.019223573906096705,28.702939659618384,222.0603164313416
1445531585785,1919.0,0.0,3734.0,0.09119332985930163,0.082920316618677,0.03491401771756123,0.082920316618677,0,0.0,0.0,0,0.0,0.0,0,0.0,0.0,0,0.0,0.0,0,0.0,0.0,0,0.0,0.0,615,0.0,0.0,0,0.0,0.0,321,0.0,0.0,334,0.0,0.0,649,5.753466872110946,7.297152314101467,1445531586231,1941.0,0.0,100.1349819680576,0.11682202287055668,0.48943843379701113,0.2500172618004319,0.019062339000515228,0.018708604874732446,28.565172591447684,198.22216786968096
1445531586787,1949.0,0.0,3767.0,0.06618778860954337,0.06183869367010726,0.04822986146741914,0.06183869367010726,0,0.0,0.0,0,0.0,0.0,0,0.0,0.0,0,0.0,0.0,0,0.0,0.0,0,0.0,0.0,656,0.001524390243902439,0.0015243902439024395,0,0.0,0.0,318,0.0,0.0,323,0.0,0.0,652,5.776073619631905,6.05116244004033,1445531587232,2008.0,0.0,100.14392430278907,0.12327148803887829,0.4870517928286853,0.2898173127122792,0.015936254980079684,0.015690104554378408,22.85557768924307,183.9432573641654
1445531587789,1991.0,0.0,3617.0,0.09693621295831246,0.08858859844173149,0.041185334003013545,0.08858859844173149,0,0.0,0.0,0,0.0,0.0,0,0.0,0.0,0,0.0,0.0,0,0.0,0.0,0,0.0,0.0,663,0.0,0.0,0,0.0,0.0,339,0.0,0.0,326,0.0030674846625766863,0.003067484662576688,663,5.453996983408746,9.468801975821698,1445531588234,1841.0,0.0,100.13688212927742,0.11820962142502817,0.5833785985877231,1.2333974919112927,0.02335687126561653,0.022823725291075243,34.87235198261813,133.62554495430186
1445531588791,1808.0,0.0,3792.0,0.07245575221238948,0.06724310816833261,0.03816371681415932,0.06724310816833261,0,0.0,0.0,0,0.0,0.0,0,0.0,0.0,0,0.0,0.0,0,0.0,0.0,0,0.0,0.0,604,0.0016556291390728468,0.001655629139072848,0,0.0,0.0,301,0.0,0.0,303,0.0,0.0,600,6.318333333333334,12.06043127434613,1445531589235,1848.0,0.0,100.27435064935045,1.7758008775199248,0.48701298701298695,0.31710249685344427,0.020021645021645034,0.019631401805197176,35.10443722943729,299.2792872846349
1445531589794,1844.0,0.0,3705.0,0.09652928416485919,0.8978935363096346,0.03308026030368765,0.8978935363096346,0,0.0,0.0,0,0.0,0.0,0,0.0,0.0,0,0.0,0.0,0,0.0,0.0,0,0.0,0.0,606,0.0,0.0,0,0.0,0.0,299,0.00334448160535117,0.003344481605351172,310,0.0,0.0,629,5.8887122416534226,7.357022065152462,1445531590236,1807.0,0.0,100.65855008301058,16.569393909865635,0.5705589374654123,1.4123774836507008,0.020475926950747108,0.020067768938439836,39.06806862202543,279.8619200218663
