timeStamp,totalRequests,failedRequests,totalHandleTime,upstreamTime,upstreamTimeVar,downstreamTime,downstreamTimeVar,CREATE_CLIENT_N,CREATE_CLIENT_time,CREATE_CLIENT_timeVar,CLIENT_LIST_N,CLIENT_LIST_time,CLIENT_LIST_timeVar,QUEUE_LIST_N,QUEUE_LIST_time,QUEUE_LIST_timeVar,MESSAGE_COUNT_N,MESSAGE_COUNT_time,MESSAGE_COUNT_timeVar,CREATE_QUEUE_N,CREATE_QUEUE_time,CREATE_QUEUE_timeVar,DELETE_QUEUE_N,DELETE_QUEUE_time,DELETE_QUEUE_timeVar,SEND_MESSAGE_N,SEND_MESSAGE_time,SEND_MESSAGE_timeVar,RECEIVE_MESSAGE_N,RECEIVE_MESSAGE_time,RECEIVE_MESSAGE_timeVar,POP_QUEUE_N,POP_QUEUE_time,POP_QUEUE_timeVar,TOP_QUEUE_N,TOP_QUEUE_time,TOP_QUEUE_timeVar,INBOX_QUEUES_N,INBOX_QUEUES_time,INBOX_QUEUES_timeVar,timeStamp,totalRequests,failedRequests,clientThinkTime,clientThinkTimeVar,waitingForConnectionTime,waitingForConnectionTimeVar,upstreamTime,upstreamTimeVar,waitingForResponseTime,waitingForResponseTimeVar
1445813080359,838.0,0.0,1660.0,0.1646778042959428,0.18312361171703703,0.03460620525059668,0.18312361171703703,0,0.0,0.0,98,0.8673469387755104,0.36366505365032625,0,0.0,0.0,100,0.7699999999999998,0.1990909090909091,0,0.0,0.0,0,0.0,0.0,640,2.340625,2.916656885759001,0,0.0,0.0,0,0.0,0.0,0,0.0,0.0,0,0.0,0.0,1445813081130,863.0,0.0,100.16570104287376,0.13840458337478215,0.4044032444959445,0.2550617954418971,0.03707995365005794,0.035746451836656805,17.11587485515643,54.50395883350845
1445813081360,860.0,0.0,1828.0,0.11046511627906982,0.09837696618566745,0.04186046511627911,0.09837696618566745,0,0.0,0.0,2,1.0,0.0,0,0.0,0.0,58,0.6724137931034483,0.22413793103448273,0,0.0,0.0,0,0.0,0.0,800,2.2337500000000015,1.168071026282853,0,0.0,0.0,0,0.0,0.0,0,0.0,0.0,0,0.0,0.0,1445813082131,887.0,0.0,100.19052987598639,0.21309305977233342,0.4802705749718152,0.28600985898646364,0.03945885005636975,0.037944627819443626,11.677564825253665,41.18485726864847
1445813082362,866.0,0.0,1704.0,0.11893764434180146,0.11878545969109201,0.05658198614318714,0.11878545969109201,0,0.0,0.0,100,0.6499999999999999,0.22979797979797986,0,0.0,0.0,42,0.8571428571428572,0.1254355400696864,0,0.0,0.0,0,0.0,0.0,724,2.214088397790055,0.7438676325622984,0,0.0,0.0,0,0.0,0.0,0,0.0,0.0,0,0.0,0.0,1445813083133,844.0,0.0,100.16587677725121,0.33069662062257715,1.0817535545023693,10.483225391149873,0.04620853080568723,0.04412558398407856,16.6919431279621,83.46370725180326
1445813083365,824.0,0.0,1626.0,0.13592233009708737,0.22451603770246195,0.07888349514563095,0.22451603770246195,0,0.0,0.0,100,0.6899999999999996,0.2160606060606061,0,0.0,0.0,100,0.94,0.056969696969696955,0,0.0,0.0,0,0.0,0.0,624,2.3445512820512806,3.7446572622134453,0,0.0,0.0,0,0.0,0.0,0,0.0,0.0,0,0.0,0.0,1445813084134,800.0,0.0,100.17874999999997,0.25211357947433877,0.8625000000000008,4.013610763454316,0.036250000000000004,0.03497966207759697,24.852499999999974,206.77921777221508
1445813084372,793.0,0.0,1791.0,0.12484237074401001,0.10939470365699881,0.07187894073139985,0.10939470365699881,0,0.0,0.0,0,0.0,0.0,0,0.0,0.0,100,1.1299999999999997,0.13444444444444448,0,0.0,0.0,0,0.0,0.0,693,2.421356421356422,3.1314507586183904,0,0.0,0.0,0,0.0,0.0,0,0.0,0.0,0,0.0,0.0,1445813085136,797.0,0.0,100.20326223337501,0.2425521585342052,0.8105395232120449,3.8145621457349477,0.033877038895859544,0.0327705024495123,23.9974905897114,212.27888816731135
1445813085374,848.0,0.0,1700.0,0.1639150943396225,0.2222146421331672,0.055424528301886836,0.2222146421331672,0,0.0,0.0,100,0.8,0.5858585858585857,0,0.0,0.0,89,1.269662921348315,0.19918283963227787,0,0.0,0.0,0,0.0,0.0,659,2.2867981790591823,1.2899622251638512,0,0.0,0.0,0,0.0,0.0,0,0.0,0.0,0,0.0,0.0,1445813086139,863.0,0.0,100.127462340672,0.1554282395894081,0.5376593279258401,0.3579188768473436,0.03823870220162226,0.036819168013162984,16.129779837775214,62.60958777049805
1445813086375,860.0,0.0,1751.0,0.12674418604651166,0.11313723366813766,0.048837209302325636,0.11313723366813766,0,0.0,0.0,100,0.7399999999999999,0.557979797979798,0,0.0,0.0,11,1.0,0.0,0,0.0,0.0,0,0.0,0.0,749,2.2242990654205603,0.8186066270178399,0,0.0,0.0,0,0.0,0.0,0,0.0,0.0,0,0.0,0.0,1445813087147,934.0,0.0,100.15524625267658,0.13985990714028368,0.6124197002141335,1.1400813842202733,0.033190578158458245,0.03212335699580687,7.20663811563169,42.95082405539453
1445813087378,947.0,0.0,1099.0,0.28194297782470934,0.25129093543425196,0.05491024287222805,0.25129093543425196,0,0.0,0.0,0,0.0,0.0,0,0.0,0.0,100,1.4399999999999997,0.26909090909090905,0,0.0,0.0,0,0.0,0.0,394,0.8654822335025376,1.5772787744927077,0,0.0,0.0,94,0.0,0.0,115,0.017391304347826094,0.01723874904652937,244,2.508196721311476,2.020508668960399,1445813088148,981.0,0.0,100.14678899082571,0.1294514135929624,0.6126401630988777,0.4457176142628305,0.023445463812436305,0.022919137073789772,2.5229357798165113,2.823197903014418
1445813088381,969.0,0.0,807.0,0.30959752321981415,0.2697528337128674,0.04953560371517023,0.2697528337128674,0,0.0,0.0,0,0.0,0.0,0,0.0,0.0,0,0.0,0.0,0,0.0,0.0,0,0.0,0.0,327,0.0030581039755351665,0.0030581039755351687,0,0.0,0.0,172,0.0,0.0,149,0.006711409395973154,0.006711409395973154,321,2.5077881619937683,0.7507204049844237,1445813089150,951.0,0.0,100.1461619348054,0.1270352537495158,0.7255520504731857,0.8014411422878962,0.03470031545741332,0.03353146272621618,3.2807570977918,7.3221451104100925
1445813089382,960.0,0.0,896.0,0.3093749999999998,0.37238334202293993,0.032291666666666656,0.37238334202293993,0,0.0,0.0,0,0.0,0.0,0,0.0,0.0,0,0.0,0.0,0,0.0,0.0,0,0.0,0.0,295,0.0,0.0,0,0.0,0.0,154,0.0,0.0,180,0.0,0.0,331,2.7069486404833834,1.632042479172389,1445813090153,971.0,0.0,100.16683831101959,0.1535795810462153,0.7342945417095764,0.9169566925371867,0.02677651905252316,0.026086402582097296,3.0659114315139018,5.585341926168159
1445813090384,960.0,0.0,818.0,0.2739583333333332,0.20536909106708368,0.053124999999999985,0.20536909106708368,0,0.0,0.0,0,0.0,0.0,0,0.0,0.0,0,0.0,0.0,0,0.0,0.0,0,0.0,0.0,314,0.0,0.0,0,0.0,0.0,163,0.0,0.0,158,0.0,0.0,325,2.516923076923077,0.7381386514719851,1445813091155,967.0,0.0,100.16339193381602,0.14304769612534618,0.49844881075491193,0.26474914411607925,0.02998965873836607,0.0291203932676888,2.3185108583247165,2.538197366082802
1445813091385,976.0,0.0,756.0,0.35963114754098385,0.23668663303909196,0.04610655737704916,0.23668663303909196,0,0.0,0.0,0,0.0,0.0,0,0.0,0.0,0,0.0,0.0,0,0.0,0.0,0,0.0,0.0,326,0.0,0.0,0,0.0,0.0,183,0.0,0.0,140,0.0,0.0,327,2.3119266055045875,0.42387572465807344,1445813092157,976.0,0.0,100.15676229508196,0.13437473728457225,0.5081967213114758,0.25224043715847,0.026639344262295108,0.025956284153005455,2.186475409836065,2.3077553593947093
1445813092387,979.0,0.0,757.0,0.3258426966292134,0.2505686909767697,0.05107252298263526,0.2505686909767697,0,0.0,0.0,0,0.0,0.0,0,0.0,0.0,0,0.0,0.0,0,0.0,0.0,0,0.0,0.0,319,0.0031347962382445114,0.0031347962382445153,0,0.0,0.0,173,0.0,0.0,158,0.0,0.0,329,2.297872340425532,0.31344058121432267,1445813093158,977.0,0.0,100.15455475946784,0.13285064684464007,0.5087001023541465,0.2809180831249895,0.031729785056294806,0.0307544842861218,2.3582395087000987,2.723991979462055
1445813093389,966.0,0.0,805.0,0.32712215320910987,0.2327765798817835,0.03726708074534168,0.2327765798817835,0,0.0,0.0,0,0.0,0.0,0,0.0,0.0,0,0.0,0.0,0,0.0,0.0,0,0.0,0.0,303,0.0,0.0,0,0.0,0.0,171,0.0,0.0,162,0.0,0.0,330,2.4393939393939386,0.5996592060421851,1445813094162,968.0,0.0,100.12499999999999,0.10948810754911956,0.514462809917355,0.2521173946857881,0.0413223140495868,0.03965574709205428,2.253099173553716,2.6504557419641586
1445813094391,978.0,0.0,775.0,0.31288343558282244,0.2213486885482666,0.04498977505112471,0.2213486885482666,0,0.0,0.0,0,0.0,0.0,0,0.0,0.0,0,0.0,0.0,0,0.0,0.0,0,0.0,0.0,335,0.0,0.0,0,0.0,0.0,144,0.0,0.0,175,0.0,0.0,324,2.3919753086419764,0.610585559759966,1445813095167,980.0,0.0,100.16428571428568,0.1762512768130732,0.5030612244897967,0.3666913343478354,0.030612244897959173,0.029705447040920565,2.396938775510206,2.9771101290362934
1445813095393,969.0,0.0,783.0,0.3054695562435501,0.21237707784288115,0.05159958720330232,0.21237707784288115,0,0.0,0.0,0,0.0,0.0,0,0.0,0.0,0,0.0,0.0,0,0.0,0.0,0,0.0,0.0,329,0.0,0.0,0,0.0,0.0,144,0.0,0.0,175,0.0,0.0,321,2.439252336448597,0.7158294392523368,1445813096170,967.0,0.0,100.1571871768356,0.14917965747514783,0.4839710444674249,0.250001605785968,0.036194415718717704,0.03492049218410447,2.269906928645296,2.799745643502668
1445813096394,972.0,0.0,805.0,0.32818930041152267,0.23512627514801662,0.04320987654320989,0.23512627514801662,0,0.0,0.0,0,0.0,0.0,0,0.0,0.0,0,0.0,0.0,0,0.0,0.0,0,0.0,0.0,322,0.0,0.0,0,0.0,0.0,164,0.0,0.0,167,0.0,0.0,319,2.523510971786833,0.7659549299106873,1445813097171,975.0,0.0,100.15999999999997,0.16944558521560535,0.4635897435897439,0.26946348654767555,0.035897435897435895,0.034644342652556205,2.178461538461538,2.805901121465805
1445813097396,978.0,0.0,742.0,0.3456032719836399,0.25300521399133047,0.04498977505112477,0.25300521399133047,0,0.0,0.0,0,0.0,0.0,0,0.0,0.0,0,0.0,0.0,0,0.0,0.0,0,0.0,0.0,337,0.0,0.0,0,0.0,0.0,160,0.0,0.0,161,0.0,0.0,320,2.3187499999999988,0.5814655172413788,1445813098172,977.0,0.0,100.14841351074726,0.14086069768612255,0.4831115660184235,0.249970636105844,0.02763561924257934,0.02689942446767451,2.255885363357214,2.7213408393039926
