timeStamp,totalRequests,failedRequests,totalHandleTime,upstreamTime,upstreamTimeVar,downstreamTime,downstreamTimeVar,CREATE_CLIENT_N,CREATE_CLIENT_time,CREATE_CLIENT_timeVar,CLIENT_LIST_N,CLIENT_LIST_time,CLIENT_LIST_timeVar,QUEUE_LIST_N,QUEUE_LIST_time,QUEUE_LIST_timeVar,MESSAGE_COUNT_N,MESSAGE_COUNT_time,MESSAGE_COUNT_timeVar,CREATE_QUEUE_N,CREATE_QUEUE_time,CREATE_QUEUE_timeVar,DELETE_QUEUE_N,DELETE_QUEUE_time,DELETE_QUEUE_timeVar,SEND_MESSAGE_N,SEND_MESSAGE_time,SEND_MESSAGE_timeVar,RECEIVE_MESSAGE_N,RECEIVE_MESSAGE_time,RECEIVE_MESSAGE_timeVar,POP_QUEUE_N,POP_QUEUE_time,POP_QUEUE_timeVar,TOP_QUEUE_N,TOP_QUEUE_time,TOP_QUEUE_timeVar,INBOX_QUEUES_N,INBOX_QUEUES_time,INBOX_QUEUES_timeVar,timeStamp,totalRequests,failedRequests,clientThinkTime,clientThinkTimeVar,waitingForConnectionTime,waitingForConnectionTimeVar,upstreamTime,upstreamTimeVar,waitingForResponseTime,waitingForResponseTimeVar,waitingForResponseTimeSD,mwWorkers
1445813210339,968,0,1162,0.5103305785,0.3742468399,0.0578512397,0.3742468399,0,0,0,0,0,0,0,0,0,0,0,0,0,0,0,0,0,0,298,0,0,0,0,0,161,0.0062111801,0.0062111801,175,0,0,334,3.4760479042,2.9468720217,1445813211093,959,0,100.1480709072,0.12627759,0.6047966632,0.3707911642,0.0323253389,0.0313130631,2.7424400417,8.3479986329,2.8892903338,4
1445813211343,964,0,1012,0.4782157676,0.4491615069,0.0560165975,0.4491615069,0,0,0,0,0,0,0,0,0,0,0,0,0,0,0,0,0,0,326,0,0,0,0,0,155,0,0,160,0.00625,0.00625,323,3.1300309598,4.9768282599,1445813212097,964,0,100.1452282158,0.1242658876,0.781120332,1.9738487955,0.0280082988,0.0272521038,2.6141078838,5.9485442708,2.4389637699,4
1445813212348,975,0,1064,0.4051282051,0.2679408203,0.0430769231,0.2679408203,0,0,0,0,0,0,0,0,0,0,0,0,0,0,0,0,0,0,338,0.0029585799,0.0029585799,0,0,0,160,0,0,162,0,0,315,3.3746031746,4.7382064503,1445813213098,989,0,100.1577350859,0.1390620714,0.6572295248,1.7578955556,0.0374115268,0.0360483538,2.2962588473,3.5386600787,1.8811326584,4
1445813213350,983,0,934,0.481180061,0.2967432089,0.0356052899,0.2967432089,0,0,0,0,0,0,0,0,0,0,0,0,0,0,0,0,0,0,341,0,0,0,0,0,159,0,0,162,0,0,321,2.9096573209,1.4324376947,1445813214100,971,0,100.1585993821,0.1335831909,0.613800206,1.5197681209,0.0267765191,0.0260864026,2.1256436663,2.9037850234,1.7040495953,4
1445813214352,965,0,995,0.4362694301,0.2752391804,0.0528497409,0.2752391804,0,0,0,0,0,0,0,0,0,0,0,0,0,0,0,0,0,0,326,0.0030674847,0.0030674847,0,0,0,156,0,0,163,0,0,320,3.10625,1.7943181818,1445813215102,943,0,100.1845174973,0.3141124793,0.5980911983,0.3680218303,0.0339342524,0.0328175201,2.7115588547,4.9230828116,2.2188021119,4
1445813215354,954,0,1103,0.3888888889,0.3575259415,0.0471698113,0.3575259415,0,0,0,0,0,0,0,0,0,0,0,0,0,0,0,0,0,0,332,0,0,0,0,0,155,0,0,153,0.0065359477,0.0065359477,314,3.5095541401,2.557416414,1445813216107,993,0,100.1440080564,0.1233939999,0.5216515609,0.2558311406,0.0332326284,0.0321606081,2.5125881168,4.6109804925,2.1473193737,4
1445813216356,997,0,1036,0.444332999,0.2491571099,0.0511534604,0.2491571099,0,0,0,0,0,0,0,0,0,0,0,0,0,0,0,0,0,0,319,0,0,0,0,0,181,0,0,159,0,0,338,3.0650887574,1.9007953927,1445813217108,981,0,100.1804281346,0.2051675716,0.4923547401,0.3338700618,0.0234454638,0.0229191371,2.1090723751,2.572784955,1.6039903226,4
1445813217358,963,0,892,0.4839044652,0.3830566728,0.0394600208,0.3830566728,0,0,0,0,0,0,0,0,0,0,0,0,0,0,0,0,0,0,304,0.0065789474,0.0065572347,0,0,0,159,0,0,172,0,0,328,2.7134146341,0.9512568061,1445813218109,965,0,100.1585492228,0.1584460258,0.7015544041,2.0892610668,0.0373056995,0.0483993722,2.3637305699,5.2731644916,2.2963371903,4
1445813218360,959,0,963,0.4598540146,0.2883135486,0.0375391032,0.2883135486,0,0,0,0,0,0,0,0,0,0,0,0,0,0,0,0,0,0,339,0,0,0,0,0,145,0,0,167,0,0,308,3.1266233766,2.1435234147,1445813219128,967,0,100.1592554292,0.1340317432,0.6949327818,1.2908956218,0.0310237849,0.030092429,2.7600827301,8.8326492685,2.9719773331,4
1445813219370,981,0,1092,0.4862385321,0.6235349186,0.0489296636,0.6235349186,0,0,0,0,0,0,0,0,0,0,0,0,0,0,0,0,0,0,320,0,0,0,0,0,177,0,0,154,0,0,330,3.3090909091,3.6306161923,1445813220129,975,0,100.158974359,0.162586216,0.9148717949,3.1046553994,0.0246153846,0.0240341178,2.8871794872,6.5889011741,2.5668855008,4
1445813088381,969,0,807,0.3095975232,0.2697528337,0.0495356037,0.2697528337,0,0,0,0,0,0,0,0,0,0,0,0,0,0,0,0,0,0,327,0.003058104,0.003058104,0,0,0,172,0,0,149,0.0067114094,0.0067114094,321,2.507788162,0.750720405,1445813089150,951,0,100.1461619348,0.1270352537,0.7255520505,0.8014411423,0.0347003155,0.0335314627,3.2807570978,7.3221451104,2.7059462505,2
1445813089382,960,0,896,0.309375,0.372383342,0.0322916667,0.372383342,0,0,0,0,0,0,0,0,0,0,0,0,0,0,0,0,0,0,295,0,0,0,0,0,154,0,0,180,0,0,331,2.7069486405,1.6320424792,1445813090153,971,0,100.166838311,0.153579581,0.7342945417,0.9169566925,0.0267765191,0.0260864026,3.0659114315,5.5853419262,2.3633328006,2
1445813090384,960,0,818,0.2739583333,0.2053690911,0.053125,0.2053690911,0,0,0,0,0,0,0,0,0,0,0,0,0,0,0,0,0,0,314,0,0,0,0,0,163,0,0,158,0,0,325,2.5169230769,0.7381386515,1445813091155,967,0,100.1633919338,0.1430476961,0.4984488108,0.2647491441,0.0299896587,0.0291203933,2.3185108583,2.5381973661,1.5931721081,2
1445813091385,976,0,756,0.3596311475,0.236686633,0.0461065574,0.236686633,0,0,0,0,0,0,0,0,0,0,0,0,0,0,0,0,0,0,326,0,0,0,0,0,183,0,0,140,0,0,327,2.3119266055,0.4238757247,1445813092157,976,0,100.1567622951,0.1343747373,0.5081967213,0.2522404372,0.0266393443,0.0259562842,2.1864754098,2.3077553594,1.5191298033,2
1445813092387,979,0,757,0.3258426966,0.250568691,0.051072523,0.250568691,0,0,0,0,0,0,0,0,0,0,0,0,0,0,0,0,0,0,319,0.0031347962,0.0031347962,0,0,0,173,0,0,158,0,0,329,2.2978723404,0.3134405812,1445813093158,977,0,100.1545547595,0.1328506468,0.5087001024,0.2809180831,0.0317297851,0.0307544843,2.3582395087,2.7239919795,1.6504520531,2
1445813093389,966,0,805,0.3271221532,0.2327765799,0.0372670807,0.2327765799,0,0,0,0,0,0,0,0,0,0,0,0,0,0,0,0,0,0,303,0,0,0,0,0,171,0,0,162,0,0,330,2.4393939394,0.599659206,1445813094162,968,0,100.125,0.1094881075,0.5144628099,0.2521173947,0.041322314,0.0396557471,2.2530991736,2.650455742,1.6280220336,2
1445813094391,978,0,775,0.3128834356,0.2213486885,0.0449897751,0.2213486885,0,0,0,0,0,0,0,0,0,0,0,0,0,0,0,0,0,0,335,0,0,0,0,0,144,0,0,175,0,0,324,2.3919753086,0.6105855598,1445813095167,980,0,100.1642857143,0.1762512768,0.5030612245,0.3666913343,0.0306122449,0.029705447,2.3969387755,2.977110129,1.7254304185,2
1445813095393,969,0,783,0.3054695562,0.2123770778,0.0515995872,0.2123770778,0,0,0,0,0,0,0,0,0,0,0,0,0,0,0,0,0,0,329,0,0,0,0,0,144,0,0,175,0,0,321,2.4392523364,0.7158294393,1445813096170,967,0,100.1571871768,0.1491796575,0.4839710445,0.2500016058,0.0361944157,0.0349204922,2.2699069286,2.7997456435,1.6732440478,2
1445813096394,972,0,805,0.3281893004,0.2351262751,0.0432098765,0.2351262751,0,0,0,0,0,0,0,0,0,0,0,0,0,0,0,0,0,0,322,0,0,0,0,0,164,0,0,167,0,0,319,2.5235109718,0.7659549299,1445813097171,975,0,100.16,0.1694455852,0.4635897436,0.2694634865,0.0358974359,0.0346443427,2.1784615385,2.8059011215,1.6750824223,2
1445813097396,978,0,742,0.345603272,0.253005214,0.0449897751,0.253005214,0,0,0,0,0,0,0,0,0,0,0,0,0,0,0,0,0,0,337,0,0,0,0,0,160,0,0,161,0,0,320,2.31875,0.5814655172,1445813098172,977,0,100.1484135107,0.1408606977,0.483111566,0.2499706361,0.0276356192,0.0268994245,2.2558853634,2.7213408393,1.6496487018,2
1445813332127,974,0,907,0.522587269,0.2826342036,0.0605749487,0.2826342036,0,0,0,0,0,0,0,0,0,0,0,0,0,0,0,0,0,0,319,0.0094043887,0.0156345498,0,0,0,162,0,0,164,0,0,329,2.7477203647,1.5916487508,1445813332957,973,0,100.1366906475,0.1592799834,0.50668037,0.2543277547,0.0380267215,0.0427911639,2.0041109969,2.3703534527,1.5395952237,6
1445813333128,971,0,909,0.508753862,0.3677067961,0.0484037075,0.3677067961,0,0,0,0,0,0,0,0,0,0,0,0,0,0,0,0,0,0,305,0,0,0,0,0,180,0,0,148,0,0,338,2.6893491124,1.5322897828,1445813333958,981,0,100.1427115189,0.1490003953,0.4617737003,0.2957311365,0.0438328236,0.0419542741,2.0214067278,2.6209698558,1.6189409674,6
1445813334130,981,0,939,0.4597349643,0.2914893174,0.0489296636,0.2914893174,0,0,0,0,0,0,0,0,0,0,0,0,0,0,0,0,0,0,303,0,0,0,0,0,180,0,0,164,0,0,334,2.8113772455,1.4748251245,1445813334959,974,0,100.1406570842,0.1333298864,0.4866529774,0.2500786112,0.0246406571,0.0240581955,2.0410677618,3.0774483962,1.7542657713,6
1445813335131,977,0,963,0.4820880246,0.2499349799,0.0358239509,0.2499349799,0,0,0,0,0,0,0,0,0,0,0,0,0,0,0,0,0,0,316,0,0,0,0,0,172,0,0,164,0,0,325,2.9630769231,3.1591263058,1445813335962,973,0,100.1377183967,0.1229894391,0.4840698869,0.2500031721,0.0277492292,0.0270069659,1.9568345324,2.1709743316,1.4734226589,6
1445813336132,967,0,846,0.4736297828,0.2702666247,0.0403309204,0.2702666247,0,0,0,0,0,0,0,0,0,0,0,0,0,0,0,0,0,0,328,0,0,0,0,0,172,0,0,145,0,0,322,2.6273291925,1.0444844334,1445813336963,978,0,100.145194274,0.1385695119,0.4887525562,0.2890238261,0.036809816,0.0354911429,1.9509202454,2.5646306774,1.6014464329,6
1445813337134,976,0,898,0.4856557377,0.2521017234,0.0512295082,0.2521017234,0,0,0,0,0,0,0,0,0,0,0,0,0,0,0,0,0,0,328,0,0,0,0,0,163,0,0,158,0,0,327,2.74617737,1.9629838089,1445813337965,984,0,100.156504065,0.1524907162,0.4949186992,0.2827818856,0.0365853659,0.0352827333,1.9705284553,2.238194634,1.4960597027,6
1445813338135,983,0,920,0.507629705,0.2888928485,0.0478128179,0.2888928485,0,0,0,0,0,0,0,0,0,0,0,0,0,0,0,0,0,0,338,0,0,0,0,0,166,0,0,159,0,0,320,2.875,1.4827586207,1445813338966,952,0,100.1292016807,0.112626912,0.6848739496,1.0173103942,0.0147058824,0.0145048556,2.6134453782,5.1816486847,2.2763235018,6
1445813339136,956,0,1009,0.5052301255,0.3214385857,0.0449790795,0.3214385857,0,0,0,0,0,0,0,0,0,0,0,0,0,0,0,0,0,0,331,0,0,0,0,0,159,0.0062893082,0.0062893082,158,0,0,308,3.2727272727,2.9090909091,1445813339967,989,0,100.1445904955,0.1298821449,0.698685541,2.0103322785,0.026289181,0.0256239689,2.2588473205,4.6900152692,2.1656443081,6
1445813340139,984,0,993,0.5101626016,0.3091539918,0.0396341463,0.3091539918,0,0,0,0,0,0,0,0,0,0,0,0,0,0,0,0,0,0,350,0,0,0,0,0,140,0.0071428571,0.0071428571,175,0,0,319,3.1097178683,3.4564775931,1445813340969,951,0,100.1766561514,0.1666544911,0.8012618297,1.3573036693,0.0368033649,0.0354861918,2.6466876972,5.0729337539,2.2523174186,6
1445813341140,967,0,1064,0.5708376422,0.3632480554,0.0455015512,0.3632480554,0,0,0,0,0,0,0,0,0,0,0,0,0,0,0,0,0,0,365,0,0,0,0,0,163,0,0,138,0,0,301,3.5348837209,3.9096124031,1445813341970,968,0,100.1353305785,0.1171372226,0.7231404959,1.081490851,0.0320247934,0.0310312631,2.5578512397,5.2065773843,2.2817925813,6
1445813150225,967,0,893,0.4002068252,0.2858384665,0.0537745605,0.2858384665,0,0,0,0,0,0,0,0,0,0,0,0,0,0,0,0,0,0,309,0,0,0,0,0,165,0,0,165,0.0060606061,0.0060606061,328,2.7195121951,0.9547251436,1445813150885,975,0,100.1753846154,0.2269088612,0.4994871795,0.2995377244,0.0256410256,0.0250092139,2.3538461538,3.3767177381,1.8375847567,3
1445813151227,979,0,971,0.4065372829,0.2967261364,0.062308478,0.2967261364,0,0,0,0,0,0,0,0,0,0,0,0,0,0,0,0,0,0,328,0,0,0,0,0,144,0.0069444444,0.0069444444,173,0,0,334,2.9041916168,1.546348744,1445813151886,969,0,100.137254902,0.1185383244,0.4953560372,0.2543689072,0.0330237358,0.0319661575,2.4943240454,5.6262590726,2.3719736661,3
1445813152228,970,0,918,0.4195876289,0.2644250104,0.0505154639,0.2644250104,0,0,0,0,0,0,0,0,0,0,0,0,0,0,0,0,0,0,304,0,0,0,0,0,166,0,0,173,0,0,327,2.8073394495,1.3155287893,1445813152887,974,0,100.1478439425,0.1466705779,0.6201232033,0.6448567166,0.022587269,0.022099774,2.3726899384,3.3563345862,1.8320301816,3
1445813153236,974,0,913,0.4342915811,0.3219883465,0.045174538,0.3219883465,0,0,0,0,0,0,0,0,0,0,0,0,0,0,0,0,0,0,338,0,0,0,0,0,155,0,0,162,0.0061728395,0.0061728395,319,2.8589341693,1.3542516906,1445813153889,974,0,100.1488706366,0.1268383943,0.5564681725,0.4156158793,0.0287474333,0.0279497142,2.3747433265,3.4863501396,1.867177051,3
1445813154238,971,0,892,0.4243048404,0.3476148513,0.0360453141,0.3476148513,0,0,0,0,0,0,0,0,0,0,0,0,0,0,0,0,0,0,326,0,0,0,0,0,158,0,0,164,0,0,323,2.7616099071,0.9026210026,1445813154890,961,0,100.1644120708,0.2187738467,0.5379812695,0.2863163371,0.0416233091,0.0399323621,2.1779396462,2.5255961672,1.5892124361,3
1445813155240,963,0,962,0.3800623053,0.2566498922,0.0394600208,0.2566498922,0,0,0,0,0,0,0,0,0,0,0,0,0,0,0,0,0,0,314,0,0,0,0,0,170,0,0,151,0,0,328,2.9329268293,2.3441112851,1445813155892,968,0,100.1477272727,0.1301706308,1.0464876033,5.0185191912,0.0299586777,0.0290912082,3.1590909091,7.2921406412,2.7003963859,3
1445813156242,978,0,846,0.5102249489,0.2869987211,0.0347648262,0.2869987211,0,0,0,0,0,0,0,0,0,0,0,0,0,0,0,0,0,0,322,0,0,0,0,0,179,0,0,156,0,0,321,2.6355140187,1.0636098131,1445813156894,974,0,100.1293634497,0.1127443015,0.6622176591,1.0255597224,0.0359342916,0.0346786226,2.4753593429,4.2414271575,2.0594725435,3
1445813157244,966,0,872,0.4223602484,0.2566601229,0.0424430642,0.2566601229,0,0,0,0,0,0,0,0,0,0,0,0,0,0,0,0,0,0,335,0,0,0,0,0,146,0,0,170,0,0,315,2.7682539683,1.1531291073,1445813157896,966,0,100.1594202899,0.190102876,0.516563147,0.2499844452,0.0300207039,0.0291496369,2.2070393375,2.9581265622,1.7199205104,3
1445813158246,973,0,913,0.4265159301,0.2798311615,0.0308324769,0.2798311615,0,0,0,0,0,0,0,0,0,0,0,0,0,0,0,0,0,0,307,0,0,0,0,0,153,0,0,177,0,0,336,2.7172619048,1.3437011372,1445813158897,976,0,100.1424180328,0.1222604035,0.4631147541,0.2488944935,0.0297131148,0.028859815,1.9303278689,2.0730895334,1.4398227437,3
1445813159247,978,0,855,0.3987730061,0.2666105707,0.0419222904,0.2666105707,0,0,0,0,0,0,0,0,0,0,0,0,0,0,0,0,0,0,321,0,0,0,0,0,160,0,0,169,0,0,328,2.6067073171,1.0956123667,1445813159898,984,0,100.137195122,0.1571502121,0.4806910569,0.2498811089,0.031504065,0.0305425982,2.0518292683,2.8040251346,1.6745223601,3
1445813454264,973,0,1099,0.4922918808,0.4353829106,0.0441932169,0.4353829106,0,0,0,0,0,0,0,0,0,0,0,0,0,0,0,0,0,0,306,0,0,0,0,0,180,0,0,155,0,0,332,3.3102409639,3.2237014523,1445813455125,975,0,100.1394871795,0.1201537409,0.4697435897,0.2513936714,0.0256410256,0.0250092139,1.9405128205,2.2490243774,1.4996747572,8
1445813455266,972,0,946,0.4742798354,0.3031482965,0.0483539095,0.3031482965,0,0,0,0,0,0,0,0,0,0,0,0,0,0,0,0,0,0,313,0.0063897764,0.0063692963,0,0,0,154,0,0,172,0,0,333,2.8348348348,1.5660117949,1445813456127,968,0,100.1652892562,0.1774081893,0.451446281,0.2706494056,0.0392561983,0.0377541515,2.0299586777,3.249360081,1.8025981474,8
1445813456268,978,0,957,0.427402863,0.2838747219,0.0572597137,0.2838747219,0,0,0,0,0,0,0,0,0,0,0,0,0,0,0,0,0,0,332,0,0,0,0,0,155,0,0,170,0,0,321,2.9813084112,2.6621495327,1445813457138,974,0,100.1673511294,0.205263891,0.909650924,4.8983034751,0.0318275154,0.0308461943,3.249486653,18.2182679788,4.2682863047,8
1445813457269,970,0,1365,0.5453608247,0.4855563712,0.0391752577,0.4855563712,0,0,0,0,0,0,0,0,0,0,0,0,0,0,0,0,0,0,323,0,0,0,0,0,161,0,0,165,0,0,321,4.2523364486,10.8830023364,1445813458140,983,0,100.1505595117,0.1280215807,0.489318413,0.25014037,0.021363174,0.0209280788,2.2410986775,4.052810197,2.0131592577,8
1445813458271,958,0,1027,0.509394572,0.3358573133,0.0480167015,0.3358573133,0,0,0,0,0,0,0,0,0,0,0,0,0,0,0,0,0,0,322,0,0,0,0,0,166,0,0,151,0,0,319,3.2194357367,3.1592437058,1445813459141,958,0,100.1784968685,0.4268307581,0.5020876827,0.2523467342,0.0344467641,0.0332949392,2.2035490605,3.7401336815,1.9339425228,8
1445813459273,972,0,1075,0.5113168724,0.2830849788,0.04218107,0.2830849788,0,0,0,0,0,0,0,0,0,0,0,0,0,0,0,0,0,0,329,0,0,0,0,0,158,0,0,160,0,0,325,3.3076923077,3.3000949668,1445813460149,967,0,100.1437435367,0.1232087458,0.4891416753,0.2522111673,0.0268872802,0.0261914397,1.9689762151,2.6967590957,1.6421812006,8
1445813460294,997,0,988,0.5045135406,0.4409936637,0.0421263791,0.4409936637,0,0,0,0,0,0,0,0,0,0,0,0,0,0,0,0,0,0,332,0,0,0,0,0,159,0,0,173,0,0,333,2.966966967,3.513965773,1445813461150,993,0,100.1440080564,0.1314585161,0.7160120846,1.0341889192,0.0412890232,0.0396241432,2.4078549849,4.1288495273,2.0319570683,8
1445813461295,984,0,1031,0.6239837398,0.4444292815,0.0335365854,0.4444292815,0,0,0,0,0,0,0,0,0,0,0,0,0,0,0,0,0,0,343,0,0,0,0,0,167,0,0,154,0,0,320,3.221875,4.4929369122,1445813462152,968,0,100.1311983471,0.1534000103,0.604338843,0.338636791,0.0258264463,0.025185459,2.3171487603,4.0720117172,2.0179226242,8
1445813462296,956,0,861,0.5889121339,0.3114580823,0.0491631799,0.3114580823,0,0,0,0,0,0,0,0,0,0,0,0,0,0,0,0,0,0,337,0,0,0,0,0,157,0,0,157,0,0,305,2.8229508197,1.4553925798,1445813463153,968,0,100.1363636364,0.1178903826,0.6363636364,0.2440537746,0.0340909091,0.0329627715,2.1146694215,2.0519872743,1.4324759245,8
1445813463297,973,0,826,0.618705036,0.2505551115,0.0390544707,0.2505551115,0,0,0,0,0,0,0,0,0,0,0,0,0,0,0,0,0,0,336,0,0,0,0,0,170,0,0,148,0,0,319,2.5893416928,1.0792571124,1445813464154,977,0,100.1678607984,0.1459742101,0.6233367451,0.280110576,0.0368474923,0.0355261171,2.2343909928,2.7943898183,1.6716428501,8
1445813034071,936,0,675,0.1356837607,0.1452065908,0.0395299145,0.1452065908,0,0,0,0,0,0,0,0,0,0,0,0,0,0,0,0,0,0,285,0,0,0,0,0,178,0,0,148,0.0135135135,0.0134215849,325,2.0707692308,0.1400379867,1445813034941,939,0,100.1458998935,0.1354069452,0.529286475,0.2579366972,0.04685836,0.0575034458,5.3972310969,19.246090406,4.3870366315,1
1445813035073,942,0,619,0.1539278132,0.1431248322,0.0435244161,0.1431248322,0,0,0,0,0,0,0,0,0,0,0,0,0,0,0,0,0,0,347,0.0028818444,0.0028818444,0,0,0,159,0.0062893082,0.0062893082,138,0.0072463768,0.0072463768,298,2.067114094,0.0628205997,1445813035942,944,0,100.1536016949,0.1301460808,0.5063559322,0.256587343,0.0519067797,0.0513855438,6.280720339,23.6740287489,4.8655964433,1
1445813036078,940,0,667,0.1319148936,0.1146353069,0.0436170213,0.1146353069,0,0,0,0,0,0,0,0,0,0,0,0,0,0,0,0,0,0,311,0,0,0,0,0,147,0,0,163,0,0,319,2.0909090909,0.1017724414,1445813036944,943,0,100.1410392365,0.1233989188,0.5174973489,0.2648209063,0.0307529162,0.0298388168,5.1792152704,15.8945993835,3.9868031533,1
1445813037079,946,0,668,0.1342494715,0.1163495419,0.0422832981,0.1163495419,0,0,0,0,0,0,0,0,0,0,0,0,0,0,0,0,0,0,306,0,0,0,0,0,154,0,0,167,0,0,319,2.0940438871,0.091756866,1445813037945,947,0,100.1446673706,0.1280978544,0.4941921859,0.2523446692,0.0359028511,0.0346504261,5.4604012672,14.925227323,3.8633181752,1
1445813271086,981,0,827,0.505606524,0.3543052695,0.0417940877,0.3543052695,0,0,0,0,0,0,0,0,0,0,0,0,0,0,0,0,0,0,313,0.0031948882,0.0031948882,0,0,0,166,0,0,176,0.0113636364,0.0112987013,326,2.527607362,1.4930816423,1445813271862,975,0,100.1723076923,0.2166861475,0.4820512821,0.3279629337,0.0348717949,0.033690307,2.0030769231,2.732023377,1.6528833525,5
1445813272087,973,0,877,0.4820143885,0.3013737158,0.0369989723,0.3013737158,0,0,0,0,0,0,0,0,0,0,0,0,0,0,0,0,0,0,346,0.0028901734,0.0028901734,0,0,0,145,0,0,162,0.0061728395,0.0061728395,320,2.734375,1.5875293887,1445813272866,974,0,100.1498973306,0.2159455187,0.7299794661,1.6813819112,0.0297741273,0.0289173179,2.3347022587,4.3051254508,2.0748796232,5
1445813273093,971,0,1009,0.5303810505,0.3421172773,0.0360453141,0.3421172773,0,0,0,0,0,0,0,0,0,0,0,0,0,0,0,0,0,0,303,0,0,0,0,0,151,0,0,186,0,0,331,3.0483383686,2.2582623821,1445813273869,975,0,100.1466666667,0.125284052,0.5158974359,0.2890180593,0.0328205128,0.0317759174,2.1620512821,3.2427062602,1.800751582,5
1445813274099,973,0,1002,0.4748201439,0.25991059,0.0339157246,0.25991059,0,0,0,0,0,0,0,0,0,0,0,0,0,0,0,0,0,0,329,0,0,0,0,0,148,0,0,173,0.0057803468,0.0057803468,323,3.0990712074,2.1392227371,1445813274870,970,0,100.1515463918,0.1761843967,0.4711340206,0.2494238933,0.0288659794,0.0280616642,1.8608247423,1.8825710425,1.3720681625,5
1445813275100,991,0,857,0.4460141271,0.2473351069,0.0423814329,0.2473351069,0,0,0,0,0,0,0,0,0,0,0,0,0,0,0,0,0,0,339,0,0,0,0,0,156,0,0,168,0.005952381,0.005952381,328,2.6097560976,0.9603938241,1445813275875,984,0,100.1534552846,0.1300389136,0.4583333333,0.2485164463,0.0203252033,0.0199323458,1.9837398374,2.4575176372,1.5676471661,5
1445813276102,977,0,947,0.4595701126,0.2568166183,0.042988741,0.2568166183,0,0,0,0,0,0,0,0,0,0,0,0,0,0,0,0,0,0,296,0,0,0,0,0,167,0,0,171,0,0,343,2.7609329446,1.1882938639,1445813276876,983,0,100.1475076297,0.1890136392,0.477110885,0.2497301374,0.0325534079,0.0315257545,1.983723296,2.5618529254,1.6005789344,5
1445813277107,972,0,919,0.4547325103,0.2482062106,0.04218107,0.2482062106,0,0,0,0,0,0,0,0,0,0,0,0,0,0,0,0,0,0,328,0,0,0,0,0,174,0,0,149,0,0,321,2.8629283489,1.631152648,1445813277877,969,0,100.1279669763,0.1117067097,0.4633642931,0.2489147029,0.0268317853,0.0261388157,1.862745098,2.0069680765,1.4166750074,5
1445813278113,976,0,881,0.4682377049,0.3784773014,0.0461065574,0.3784773014,0,0,0,0,0,0,0,0,0,0,0,0,0,0,0,0,0,0,323,0,0,0,0,0,156,0,0,171,0,0,326,2.7024539877,1.1511939594,1445813278878,973,0,100.1634121274,0.2294418434,0.4779033916,0.3361881923,0.0339157246,0.0533752892,1.878725591,1.9235489915,1.3869206868,5
1445813279120,986,0,790,0.4675456389,0.2735649345,0.037525355,0.2735649345,0,0,0,0,0,0,0,0,0,0,0,0,0,0,0,0,0,0,336,0,0,0,0,0,174,0,0,155,0,0,321,2.46105919,0.6180101246,1445813279880,980,0,100.15,0.1644024515,0.4653061224,0.249050468,0.0316326531,0.0510923266,1.9540816327,2.4728638136,1.5725342011,5
1445813280122,986,0,928,0.4553752535,0.2746563565,0.0344827586,0.2746563565,0,0,0,0,0,0,0,0,0,0,0,0,0,0,0,0,0,0,312,0,0,0,0,0,161,0,0,178,0,0,335,2.7701492537,1.4170703369,1445813280881,969,0,100.1547987616,0.133037382,0.7244582043,1.6192462196,0.036119711,0.0348510435,2.4189886481,4.942035753,2.2230689942,5
1445813281124,953,0,1144,0.4501573977,0.2750866349,0.0545645331,0.2750866349,0,0,0,0,0,0,0,0,0,0,0,0,0,0,0,0,0,0,307,0.003257329,0.003257329,0,0,0,143,0,0,174,0,0,329,3.4741641337,3.7378975461,1445813281888,950,0,100.1589473684,0.2244456769,0.7273684211,0.8054672508,0.0252631579,0.0562631024,2.7010526316,5.535404581,2.3527440534,5
1445813393948,979,0,963,0.5362614913,0.4268534939,0.0449438202,0.4268534939,0,0,0,0,0,0,0,0,0,0,0,0,0,0,0,0,0,0,312,0.0032051282,0.0032051282,0,0,0,169,0.0059171598,0.0059171598,166,0.0120481928,0.0119751734,332,2.8885542169,1.6098988097,1445813394800,978,0,100.1871165644,0.2791787807,0.5603271984,0.3203077741,0.0327198364,0.031681643,2.091002045,2.6396118915,1.6246882444,7
1445813394949,974,0,842,0.5102669405,0.2850948927,0.0390143737,0.2850948927,0,0,0,0,0,0,0,0,0,0,0,0,0,0,0,0,0,0,337,0.0029673591,0.0029673591,0,0,0,148,0,0,174,0,0,315,2.6698412698,0.9288646244,1445813395801,962,0,100.1548856549,0.1435192897,0.4594594595,0.2486149,0.0446985447,0.0427450183,1.9449064449,2.3850988986,1.5443765404,7
1445813395950,964,0,853,0.5145228216,0.3102769268,0.0394190871,0.3102769268,0,0,0,0,0,0,0,0,0,0,0,0,0,0,0,0,0,0,327,0.003058104,0.003058104,0,0,0,152,0,0,168,0,0,317,2.6876971609,1.4686139839,1445813396803,978,0,100.1278118609,0.1115900894,0.4621676892,0.2549643854,0.0316973415,0.0307240352,2.0112474438,2.6027392816,1.6133007412,7
1445813396954,985,0,975,0.5005076142,0.286839173,0.0436548223,0.286839173,0,0,0,0,0,0,0,0,0,0,0,0,0,0,0,0,0,0,307,0,0,0,0,0,169,0,0,168,0,0,341,2.8592375367,1.5683629464,1445813397805,989,0,100.1506572295,0.134162017,0.4711830131,0.2494217772,0.0333670374,0.0383591981,1.8998988878,2.0982692205,1.4485403759,7
1445813397956,980,0,898,0.4683673469,0.2635540222,0.0479591837,0.2635540222,0,0,0,0,0,0,0,0,0,0,0,0,0,0,0,0,0,0,334,0,0,0,0,0,165,0,0,156,0.0064102564,0.0064102564,325,2.76,1.2940740741,1445813398807,973,0,100.121274409,0.1087341767,0.4789311408,0.2498128481,0.0339157246,0.0327991575,1.887975334,1.9678902381,1.4028151119,7
1445813398957,972,0,882,0.4639917695,0.2489595386,0.054526749,0.2489595386,0,0,0,0,0,0,0,0,0,0,0,0,0,0,0,0,0,0,326,0,0,0,0,0,166,0,0,158,0,0,322,2.7391304348,1.73235812,1445813399809,969,0,100.1135190918,0.1028025825,0.4829721362,0.2499680168,0.0423116615,0.0405632457,2.0144478844,3.3613612909,1.8334015629,7
1445813399959,972,0,926,0.4609053498,0.2816832166,0.0339506173,0.2816832166,0,0,0,0,0,0,0,0,0,0,0,0,0,0,0,0,0,0,329,0,0,0,0,0,161,0,0,161,0,0,321,2.8847352025,2.8335475078,1445813400812,962,0,100.1507276507,0.1323043607,1.395010395,10.8968741414,0.025987526,0.0253385139,3.3378378378,12.5381921984,3.5409309791,7
1445813400960,963,0,1318,0.6531671859,0.6945507693,0.0404984424,0.6945507693,0,0,0,0,0,0,0,0,0,0,0,0,0,0,0,0,0,0,343,0,0,0,0,0,150,0,0,161,0,0,309,4.2653721683,6.9293489682,1445813401813,972,0,100.1491769547,0.1455914949,0.6265432099,0.3619311897,0.0390946502,0.0376049467,2.1769547325,3.1324034871,1.7698597366,7
1445813401961,961,0,920,0.5431841831,0.2713102671,0.0499479709,0.2713102671,0,0,0,0,0,0,0,0,0,0,0,0,0,0,0,0,0,0,345,0,0,0,0,0,175,0,0,136,0,0,305,3.0163934426,2.5885461605,1445813402817,959,0,100.1741397289,0.1502282519,0.6892596455,0.3814189711,0.0323253389,0.0313130631,2.4921793535,3.8911183144,1.9725917759,7
1445813402962,975,0,1026,0.6953846154,0.3598862739,0.0482051282,0.3598862739,0,0,0,0,0,0,0,0,0,0,0,0,0,0,0,0,0,0,319,0,0,0,0,0,178,0,0,145,0,0,333,3.0810810811,2.6048518398,1445813403819,984,0,100.1443089431,0.1358170194,0.7987804878,0.5515346252,0.0294715447,0.0347358344,2.5721544715,4.0375147838,2.0093568085,7
