timeStamp,totalRequests,failedRequests,totalHandleTime,upstreamTime,upstreamTimeVar,downstreamTime,downstreamTimeVar,CREATE_CLIENT_N,CREATE_CLIENT_time,CREATE_CLIENT_timeVar,CLIENT_LIST_N,CLIENT_LIST_time,CLIENT_LIST_timeVar,QUEUE_LIST_N,QUEUE_LIST_time,QUEUE_LIST_timeVar,MESSAGE_COUNT_N,MESSAGE_COUNT_time,MESSAGE_COUNT_timeVar,CREATE_QUEUE_N,CREATE_QUEUE_time,CREATE_QUEUE_timeVar,DELETE_QUEUE_N,DELETE_QUEUE_time,DELETE_QUEUE_timeVar,SEND_MESSAGE_N,SEND_MESSAGE_time,SEND_MESSAGE_timeVar,RECEIVE_MESSAGE_N,RECEIVE_MESSAGE_time,RECEIVE_MESSAGE_timeVar,POP_QUEUE_N,POP_QUEUE_time,POP_QUEUE_timeVar,TOP_QUEUE_N,TOP_QUEUE_time,TOP_QUEUE_timeVar,INBOX_QUEUES_N,INBOX_QUEUES_time,INBOX_QUEUES_timeVar,timeStamp,totalRequests,failedRequests,clientThinkTime,clientThinkTimeVar,waitingForConnectionTime,waitingForConnectionTimeVar,upstreamTime,upstreamTimeVar,waitingForResponseTime,waitingForResponseTimeVar
1445545222086,850.8,0.0,7406.7,0.1646685472496477,0.24736092221737963,0.04630935590032915,0.24736092221737963,0,0.0,0.0,596,3.7818791946308727,31.148982008910913,0,0.0,0.0,796,48.72361809045225,451.79018362251503,0,0.0,0.0,0,0.0,0.0,7116,4.641512085441248,34.69353441039513,0,0.0,0.0,0,0.0,0.0,0,0.0,0.0,0,0.0,0.0,1445545225435,764.8,0.0,100.179393305439,0.614080343263684,0.5576621338912146,0.5351864782207378,0.02837343096234314,0.04797214142554866,174.78033472803313,151876.74682389706
1445545232089,783.6,0.0,7505.6,0.14458907605921348,0.1729649747064337,0.04836651352730986,0.1729649747064337,0,0.0,0.0,780,3.2717948717948695,35.46646917481323,0,0.0,0.0,611,62.84615384615392,526.0648171500626,0,0.0,0.0,0,0.0,0.0,6445,5.291698991466253,111.31992642707074,0,0.0,0.0,0,0.0,0.0,0,0.0,0.0,0,0.0,0.0,1445545235448,744.9,0.0,100.1639146194122,0.4329833847607367,0.5645053027251988,0.7668172935070582,0.028057457376829173,0.02727389787973184,159.4780507450661,152577.67167847752
1445545242096,621.4,0.0,7692.9,0.12777598970067594,0.24892095029416728,0.04216285806243961,0.24892095029416728,0,0.0,0.0,224,5.156249999999996,66.84991591928254,0,0.0,0.0,612,72.37908496732028,664.9951755934235,0,0.0,0.0,0,0.0,0.0,5378,5.853105243584959,75.24603926770183,0,0.0,0.0,0,0.0,0.0,0,0.0,0.0,0,0.0,0.0,1445545245449,583.5,0.0,100.1461868037705,0.13409370181417496,0.4927163667523558,0.2959273989693125,0.028449014567266534,0.06364029200922769,253.23976006855216,298461.0678052217
1445545252097,567.1,0.0,7664.1,0.1444189737259743,0.1835486526487525,0.04549462175983079,0.1835486526487525,0,0.0,0.0,576,3.3263888888888915,10.658502415458928,0,0.0,0.0,580,83.398275862069,791.6977517717819,0,0.0,0.0,0,0.0,0.0,4515,5.83698781838317,93.30483452244805,0,0.0,0.0,0,0.0,0.0,0,0.0,0.0,0,0.0,0.0,1445545255490,486.4,0.0,100.21833881578935,1.1264906801627754,0.7243009868421036,2.9963577263736942,0.024259868421052606,0.0236761948439885,260.32627467105294,327813.30931566877
1445545262116,542.8,0.0,7627.4,0.1390935887988219,0.1798386475874131,0.04734708916728075,0.1798386475874131,0,0.0,0.0,411,4.486618004866181,60.382137558601926,0,0.0,0.0,518,94.15444015444011,1027.7362568426397,0,0.0,0.0,0,0.0,0.0,4499,5.70304512113803,103.0954353672387,0,0.0,0.0,0,0.0,0.0,0,0.0,0.0,0,0.0,0.0,1445545265492,491.3,0.0,100.18990433543648,0.5858752555044091,0.8320781599837151,1.3298991209256041,0.02707103602686759,0.02634355704568945,355.0343985344997,483039.23191910645
1445545272118,444.5,0.0,7785.5,0.11968503937007839,0.1620899097783788,0.04274465691788541,0.1620899097783788,0,0.0,0.0,389,3.6015424164524386,40.00834813028385,0,0.0,0.0,443,108.58465011286683,1346.6822977845402,0,0.0,0.0,0,0.0,0.0,3613,7.846941599778576,522.441959774273,0,0.0,0.0,0,0.0,0.0,0,0.0,0.0,0,0.0,0.0,1445545275499,592.0,0.0,100.14560810810836,0.15787900165751292,0.5214527027027029,0.2820198524677747,0.028547297297297356,0.02773703442418594,237.5790540540545,364939.4510901686
1445545282120,323.6,0.0,7913.7,0.09116192830655113,0.12368075151454944,0.047280593325092664,0.12368075151454944,0,0.0,0.0,212,6.787735849056606,280.1680005365286,0,0.0,0.0,236,112.65254237288138,1409.1298232960698,0,0.0,0.0,0,0.0,0.0,2580,9.496124031007744,381.0721059481623,0,0.0,0.0,38,0.0,0.0,54,0.0,0.0,116,229.4137931034483,4220.870764617691,1445545285526,64.6,0.0,100.14396284829704,0.12342861257109838,0.5448916408668731,0.8406172750617996,0.026315789473684202,0.025662994696042433,2729.17027863777,1074608.848479612
1445545292126,107.7,0.0,7920.2,0.08356545961002784,0.08780586304377093,0.038068709377901605,0.08780586304377093,0,0.0,0.0,7,24.285714285714285,2604.5714285714284,0,0.0,0.0,117,186.40170940170935,752.9665487768937,0,0.0,0.0,0,0.0,0.0,607,19.253706754530484,1436.9520283165068,0,0.0,0.0,63,0.015873015873015883,0.01587301587301587,82,0.0,0.0,201,226.54228855721388,3537.719452736321,1445545295551,81.3,0.0,100.2226322263222,0.6412605505365465,0.5239852398523979,0.2743624234271901,0.024600246002460042,0.02402462448269801,2326.9815498154967,82534.26690055059
1445545302178,96.1,0.0,8031.2,0.07388137356919873,0.06849419007977803,0.05098855359001039,0.06849419007977803,0,0.0,0.0,0,0.0,0.0,0,0.0,0.0,0,0.0,0.0,0,0.0,0.0,0,0.0,0.0,308,0.0032467532467532465,0.003246753246753247,0,0.0,0.0,147,0.02040816326530613,0.020128599384959464,188,0.0,0.0,318,252.5408805031446,515.5740332916672,1445545305598,100.5,0.0,100.20895522388061,0.16545757269429645,0.5661691542288565,0.5008463657806589,0.028855721393034852,0.028050980158966114,1916.171144278608,73190.57825018343
1445545312214,90.6,0.0,7992.2,0.09602649006622528,0.2327576744356231,0.041942604856512154,0.2327576744356231,0,0.0,0.0,0,0.0,0.0,0,0.0,0.0,0,0.0,0.0,0,0.0,0.0,0,0.0,0.0,249,0.004016064257028112,0.004016064257028113,0,0.0,0.0,171,0.0,0.0,155,0.0,0.0,331,241.45317220543805,418.30916414904306,1445545315661,97.4,0.0,100.16324435318276,0.13673602039459717,0.5338809034907605,0.24910784191655194,0.03285420944558517,0.03180746690415344,1972.788501026695,45799.27690771983
1445545322226,97.7,0.0,8017.2,0.07778915046059352,0.07181150057888815,0.047082906857727785,0.07181150057888815,0,0.0,0.0,0,0.0,0.0,0,0.0,0.0,0,0.0,0.0,0,0.0,0.0,0,0.0,0.0,320,0.0,0.0,0,0.0,0.0,159,0.006289308176100629,0.006289308176100628,170,0.0,0.0,328,244.42378048780478,519.0645092116051,1445545325709,95.7,0.0,100.12957157784749,0.11290075768506044,0.5423197492163013,0.24846867171207107,0.02194357366771159,0.021484503088889204,1977.405433646811,50953.793610611916
1445545332227,100.5,0.0,8043.0,0.08656716417910461,0.07915204852232836,0.048756218905472576,0.07915204852232836,0,0.0,0.0,0,0.0,0.0,0,0.0,0.0,0,0.0,0.0,0,0.0,0.0,0,0.0,0.0,359,0.0,0.0,0,0.0,0.0,163,0.0,0.0,157,0.0,0.0,326,246.71779141104307,479.48319018404993,1445545335776,97.6,0.0,100.1567622950821,0.13232345523329306,0.5389344262295082,0.28976460697772183,0.039959016393442605,0.03840163934426224,1971.7622950819673,55704.08702816316
1445545342236,100.2,0.0,7980.1,0.08582834331337337,0.07854022225279705,0.0578842315369261,0.07854022225279705,0,0.0,0.0,0,0.0,0.0,0,0.0,0.0,0,0.0,0.0,0,0.0,0.0,0,0.0,0.0,333,0.0,0.0,0,0.0,0.0,190,0.005263157894736843,0.0052631578947368385,152,0.0,0.0,327,244.03669724770646,530.2685878313721,1445545345819,97.9,0.0,100.14811031664966,0.1263026626644197,0.5709908069458631,0.2452107759890211,0.02451481103166497,0.023938286845848734,1964.8192032686425,58553.63701327059
1445545352241,96.5,0.0,7984.4,0.07046632124352328,0.06556876572141111,0.054922279792746144,0.06556876572141111,0,0.0,0.0,0,0.0,0.0,0,0.0,0.0,0,0.0,0.0,0,0.0,0.0,0,0.0,0.0,334,0.0,0.0,0,0.0,0.0,143,0.0,0.0,164,0.0,0.0,324,246.43209876543213,379.7569850552309,1445545355841,99.4,0.0,100.1498993963782,0.1275578952060794,0.5935613682092551,0.34823644789178143,0.029175050301810886,0.028352390273159576,1893.5875251509074,43198.15597715198
1445545362249,96.7,0.0,7951.0,0.0785935884177869,0.07249160173938735,0.04653567735263699,0.07249160173938735,0,0.0,0.0,0,0.0,0.0,0,0.0,0.0,0,0.0,0.0,0,0.0,0.0,0,0.0,0.0,299,0.0,0.0,0,0.0,0.0,185,0.0,0.0,158,0.0,0.0,325,244.64615384615396,309.6490978157647,1445545365909,103.0,0.0,100.15242718446599,0.1293186900280232,0.5543689320388355,0.3094804079745626,0.02912621359223304,0.028305358204308066,1878.3106796116506,73791.52048836209
1445545372257,104.2,0.0,7996.6,0.081573896353167,0.07499156465896337,0.036468330134357005,0.07499156465896337,0,0.0,0.0,0,0.0,0.0,0,0.0,0.0,0,0.0,0.0,0,0.0,0.0,0,0.0,0.0,376,0.002659574468085105,0.002659574468085107,0,0.0,0.0,170,0.0,0.0,164,0.0,0.0,332,240.85843373493978,263.8197775998252,1445545375912,94.3,0.0,100.14740190880173,0.12580799859507844,0.6065747613997882,0.42360853129439685,0.025450689289501602,0.024829281801541373,1978.3170731707332,45742.070270829994
1445545382302,96.6,0.0,7982.5,0.11283643892339545,0.15823920016305687,0.04140786749482404,0.15823920016305687,0,0.0,0.0,0,0.0,0.0,0,0.0,0.0,0,0.0,0.0,0,0.0,0.0,0,0.0,0.0,336,0.0,0.0,0,0.0,0.0,129,0.0,0.0,180,0.0,0.0,321,248.6760124610592,598.0572040498439,1445545385931,89.1,0.0,100.17957351290694,0.14749240217404752,0.6711560044893378,1.6591558531633461,0.0202020202020202,0.019816138917262503,2172.5398428731796,74236.06442199723
1445545392394,92.1,0.0,8100.0,0.07709011943539634,0.07122456686965961,0.05646036916395223,0.07122456686965961,0,0.0,0.0,0,0.0,0.0,0,0.0,0.0,0,0.0,0.0,0,0.0,0.0,0,0.0,0.0,304,0.0,0.0,0,0.0,0.0,152,0.0,0.0,155,0.0,0.0,310,261.29032258064507,980.1355047499717,1445545395939,96.3,0.0,100.22637590861888,0.9570166859886321,0.6718587746625125,1.1354546494733397,0.02284527518172377,0.022346573748442906,2015.6137071651096,55550.97536285396
1445545402399,97.4,0.0,8046.7,0.09445585215605763,0.08562185159469965,0.04414784394250512,0.08562185159469965,0,0.0,0.0,0,0.0,0.0,0,0.0,0.0,0,0.0,0.0,0,0.0,0.0,0,0.0,0.0,318,0.0,0.0,0,0.0,0.0,176,0.0,0.0,159,0.0,0.0,321,250.676012461059,511.7447040498438,1445545406015,90.3,0.0,100.14507198228125,0.12416360346025668,0.5968992248062021,0.40717441001048527,0.027685492801771884,0.02694884997777795,2079.7098560354375,75993.39022425872
1445545412410,96.6,0.0,7980.8,0.09213250517598348,0.08373078449672272,0.05797101449275361,0.08373078449672272,0,0.0,0.0,0,0.0,0.0,0,0.0,0.0,0,0.0,0.0,0,0.0,0.0,0,0.0,0.0,314,0.0,0.0,0,0.0,0.0,162,0.0,0.0,159,0.0,0.0,331,241.1117824773414,329.2995880252678,1445545416026,95.0,0.0,100.14526315789477,0.12429260717652874,0.5926315789473682,0.9308202540069879,0.02526315789473684,0.02465087904165049,1985.1284210526314,45711.7369153123
1445545422443,88.7,0.0,7964.7,0.09808342728297643,0.08856291402526073,0.07215332581736193,0.08856291402526073,0,0.0,0.0,0,0.0,0.0,0,0.0,0.0,0,0.0,0.0,0,0.0,0.0,0,0.0,0.0,282,0.0,0.0,0,0.0,0.0,160,0.0,0.0,143,0.0,0.0,302,263.7317880794705,551.1869595828456,1445545426031,85.4,0.0,100.16744730679156,0.1395721396586233,0.5655737704918025,0.25771145234754883,0.026932084309133478,0.026237470176893252,2241.992974238873,172035.51694940767
1445545432467,92.1,0.0,8005.0,0.08577633007600431,0.07850398904782135,0.05537459283387622,0.07850398904782135,0,0.0,0.0,0,0.0,0.0,0,0.0,0.0,0,0.0,0.0,0,0.0,0.0,0,0.0,0.0,303,0.0,0.0,0,0.0,0.0,157,0.0,0.0,153,0.0,0.0,308,259.90259740259717,491.573543720125,1445545436082,93.0,0.0,100.15161290322578,0.12876488766971106,0.6010752688172044,0.25080616225100394,0.02795698924731181,0.02720464830954778,2085.0870967741926,52537.42943504956
1445545442472,92.8,0.0,8025.7,0.06788793103448285,0.06334742216270509,0.07219827586206905,0.06334742216270509,0,0.0,0.0,0,0.0,0.0,0,0.0,0.0,0,0.0,0.0,0,0.0,0.0,0,0.0,0.0,284,0.0,0.0,0,0.0,0.0,172,0.0,0.0,152,0.0,0.0,320,250.80312499999988,548.0582974137911,1445545446162,89.3,0.0,100.16461366181419,0.5591948337593301,0.5789473684210519,0.35839037054519707,0.034714445688689845,0.033546919488397546,2165.6047032474835,104923.88280296703
1445545452488,95.5,0.0,7981.2,0.07329842931937185,0.06799697059501471,0.06701570680628272,0.06799697059501471,0,0.0,0.0,0,0.0,0.0,0,0.0,0.0,0,0.0,0.0,0,0.0,0.0,0,0.0,0.0,321,0.0,0.0,0,0.0,0.0,152,0.0,0.0,165,0.0,0.0,317,251.7728706624605,834.1697679990386,1445545456177,95.9,0.0,100.15641293013573,0.13208565812073975,0.6027111574556822,0.5048360657522079,0.03128258602711157,0.03033561839163537,2000.8435870698665,63342.866949958254
1445545462489,92.1,0.0,7990.3,0.0694896851248643,0.06473115233913988,0.04451682953311617,0.06473115233913988,0,0.0,0.0,0,0.0,0.0,0,0.0,0.0,0,0.0,0.0,0,0.0,0.0,0,0.0,0.0,299,0.0,0.0,0,0.0,0.0,179,0.0,0.0,122,0.0,0.0,321,248.91900311526481,413.7371690031152,1445545466250,94.2,0.0,100.16878980891728,0.14044890582589314,0.5976645435244168,0.42562684590409516,0.022292993630573243,0.021819178675619527,2052.481953290871,37753.54643273747
1445545472577,103.2,0.0,8035.9,0.07170542635658914,0.06662832051368803,0.03779069767441863,0.06662832051368803,0,0.0,0.0,0,0.0,0.0,0,0.0,0.0,0,0.0,0.0,0,0.0,0.0,0,0.0,0.0,354,0.0,0.0,0,0.0,0.0,174,0.0,0.0,174,0.005747126436781617,0.0057471264367816065,330,243.509090909091,409.43000828958293,1445545476281,103.3,0.0,100.15004840271054,0.12765745889521743,0.606969990319458,0.26204439541637553,0.023233301064859622,0.02271550462639862,1810.447241045499,50661.19706844665
1445545482583,105.3,0.0,8015.9,0.06552706552706564,0.11452341490364316,0.04463437796771122,0.11452341490364316,0,0.0,0.0,0,0.0,0.0,0,0.0,0.0,0,0.0,0.0,0,0.0,0.0,0,0.0,0.0,386,0.002590673575129531,0.0025906735751295355,0,0.0,0.0,167,0.0,0.0,171,0.0,0.0,329,243.6413373860184,271.3221884498482,1445545486329,95.6,0.0,100.12238493723856,0.10751933229643516,0.7039748953974895,3.1782459637669955,0.03451882845188285,0.03336217660846899,1985.7018828451883,42580.72255142493
1445545492605,97.8,0.0,7992.9,0.06339468302658499,0.05943657078029854,0.04805725971370142,0.05943657078029854,0,0.0,0.0,0,0.0,0.0,0,0.0,0.0,0,0.0,0.0,0,0.0,0.0,0,0.0,0.0,326,0.0,0.0,0,0.0,0.0,158,0.0,0.0,164,0.0,0.0,330,242.20909090909095,409.0959657363912,1445545496337,91.0,0.0,100.15714285714286,0.13259468804023325,0.5428571428571434,0.3034417727487035,0.04395604395604399,0.18728466253218765,2113.2637362637356,66632.48702232886
1445545502700,95.1,0.0,8031.7,0.07781282860147205,0.07183352703525377,0.03575184016824397,0.07183352703525377,0,0.0,0.0,0,0.0,0.0,0,0.0,0.0,0,0.0,0.0,0,0.0,0.0,0,0.0,0.0,338,0.0,0.0,0,0.0,0.0,146,0.0,0.0,154,0.0,0.0,313,256.6038338658147,502.8040878184649,1445545506338,94.4,0.0,100.21398305084743,0.16837266567212505,0.6059322033898299,0.5232309434369212,0.02224576271186439,0.02177395438287473,2125.3601694915255,115857.40778618581
