timeStamp,totalRequests,failedRequests,totalHandleTime,upstreamTime,upstreamTimeVar,downstreamTime,downstreamTimeVar,CREATE_CLIENT_N,CREATE_CLIENT_time,CREATE_CLIENT_timeVar,CLIENT_LIST_N,CLIENT_LIST_time,CLIENT_LIST_timeVar,QUEUE_LIST_N,QUEUE_LIST_time,QUEUE_LIST_timeVar,MESSAGE_COUNT_N,MESSAGE_COUNT_time,MESSAGE_COUNT_timeVar,CREATE_QUEUE_N,CREATE_QUEUE_time,CREATE_QUEUE_timeVar,DELETE_QUEUE_N,DELETE_QUEUE_time,DELETE_QUEUE_timeVar,SEND_MESSAGE_N,SEND_MESSAGE_time,SEND_MESSAGE_timeVar,RECEIVE_MESSAGE_N,RECEIVE_MESSAGE_time,RECEIVE_MESSAGE_timeVar,POP_QUEUE_N,POP_QUEUE_time,POP_QUEUE_timeVar,TOP_QUEUE_N,TOP_QUEUE_time,TOP_QUEUE_timeVar,INBOX_QUEUES_N,INBOX_QUEUES_time,INBOX_QUEUES_timeVar,timeStamp,totalRequests,failedRequests,clientThinkTime,clientThinkTimeVar,waitingForConnectionTime,waitingForConnectionTimeVar,upstreamTime,upstreamTimeVar,waitingForResponseTime,waitingForResponseTimeVar
1445774278406,160.0,0.0,230.0,0.3062500000000001,0.21379716981132083,0.06250000000000001,0.21379716981132083,0,0.0,0.0,0,0.0,0.0,31,0.9999999999999999,0.46666666666666673,1,1.0,0.0,16,1.5,0.4,0,0.0,0.0,112,1.5535714285714286,0.5196267696267695,0,0.0,0.0,0,0.0,0.0,0,0.0,0.0,0,0.0,0.0,1445774279346,160.0,0.0,100.14999999999996,0.12830188679245133,0.5499999999999997,0.32452830188679266,0.06875000000000002,0.06442610062893078,1.7812500000000004,1.0147405660377367
1445774279433,160.0,0.0,50.0,0.4874999999999999,0.3394654088050318,0.10625,0.3394654088050318,0,0.0,0.0,0,0.0,0.0,0,0.0,0.0,15,0.7999999999999999,0.17142857142857146,0,0.0,0.0,0,0.0,0.0,52,0.01923076923076923,0.019230769230769225,0,0.0,0.0,23,0.0,0.0,21,0.0,0.0,49,0.7551020408163265,0.23044217687074833,1445774280376,160.0,0.0,100.18750000000001,0.2413522012578637,0.5187500000000002,0.25121855345911953,0.11250000000000004,0.10047169811320754,2.112500000000001,2.0375786163522016
1445774280463,160.0,0.0,45.0,0.3562499999999999,0.49492924528301874,0.08750000000000001,0.49492924528301874,0,0.0,0.0,0,0.0,0.0,0,0.0,0.0,0,0.0,0.0,0,0.0,0.0,0,0.0,0.0,54,0.0,0.0,0,0.0,0.0,33,0.0,0.0,21,0.0,0.0,52,0.8653846153846154,0.11877828054298642,1445774281406,160.0,0.0,100.12500000000003,0.11006289308176076,0.5875000000000002,0.30676100628930825,0.03125,0.030463836477987404,1.9500000000000004,1.0415094339622641
1445774281493,160.0,0.0,49.0,0.33125000000000016,0.2229166666666666,0.043750000000000004,0.2229166666666666,0,0.0,0.0,0,0.0,0.0,0,0.0,0.0,0,0.0,0.0,0,0.0,0.0,0,0.0,0.0,38,0.0,0.0,0,0.0,0.0,31,0.0,0.0,28,0.0,0.0,63,0.7777777777777777,0.2724014336917563,1445774282435,160.0,0.0,100.18124999999999,0.14933176100628842,0.5562499999999998,0.2483883647798742,0.06875000000000003,0.06442610062893082,2.3375000000000012,2.8916666666666675
1445774282522,160.0,0.0,58.0,0.2500000000000002,0.18867924528301888,0.04374999999999999,0.18867924528301888,0,0.0,0.0,0,0.0,0.0,0,0.0,0.0,0,0.0,0.0,0,0.0,0.0,0,0.0,0.0,47,0.0,0.0,0,0.0,0.0,27,0.0,0.0,31,0.0,0.0,55,1.0545454545454547,0.7562289562289559,1445774283459,160.0,0.0,100.14999999999995,0.1283018867924518,0.5562499999999997,0.24838836477987425,0.031250000000000014,0.03046383647798741,1.606250000000001,0.5924135220125782
1445774283548,160.0,0.0,43.0,0.3249999999999999,0.22075471698113208,0.03750000000000002,0.22075471698113208,0,0.0,0.0,0,0.0,0.0,0,0.0,0.0,0,0.0,0.0,0,0.0,0.0,0,0.0,0.0,55,0.0,0.0,0,0.0,0.0,24,0.0,0.0,26,0.0,0.0,55,0.7818181818181816,0.21077441077441084,1445774284488,160.0,0.0,100.18749999999997,0.165880503144653,0.6000000000000005,0.31698113207547174,0.03125,0.03046383647798743,1.7374999999999998,0.5595911949685536
1445774284576,160.0,0.0,43.0,0.26250000000000007,0.194811320754717,0.04999999999999999,0.194811320754717,0,0.0,0.0,0,0.0,0.0,0,0.0,0.0,0,0.0,0.0,0,0.0,0.0,0,0.0,0.0,40,0.0,0.0,0,0.0,0.0,38,0.0,0.0,24,0.0,0.0,58,0.7413793103448276,0.1950998185117967,1445774285517,160.0,0.0,100.0875,0.08034591194968621,0.6187499999999999,0.2373820754716981,0.049999999999999996,0.04779874213836479,1.9000000000000004,0.6566037735849053
1445774285604,160.0,0.0,39.0,0.27499999999999997,0.38930817610062896,0.03750000000000001,0.38930817610062896,0,0.0,0.0,0,0.0,0.0,0,0.0,0.0,0,0.0,0.0,0,0.0,0.0,0,0.0,0.0,50,0.0,0.0,0,0.0,0.0,26,0.0,0.0,30,0.0,0.0,54,0.7222222222222225,0.20440251572327042,1445774286543,160.0,0.0,100.28750000000002,0.6589622641509466,0.7124999999999998,0.4828616352201255,0.05625000000000001,0.33014937106918263,2.05,1.7459119496855362
1445774286631,160.0,0.0,40.0,0.33125,0.2983883647798744,0.03125,0.2983883647798744,0,0.0,0.0,0,0.0,0.0,0,0.0,0.0,0,0.0,0.0,0,0.0,0.0,0,0.0,0.0,58,0.0,0.0,0,0.0,0.0,31,0.0,0.0,20,0.0,0.0,51,0.7843137254901961,0.17254901960784316,1445774287585,160.0,0.0,100.17500000000004,0.145283018867921,1.149999999999999,3.9270440251572345,0.04375,0.042099056603773596,2.774999999999999,4.691194968553456
1445774287675,160.0,0.0,45.0,0.25625000000000003,0.20436320754716988,0.025,0.20436320754716988,0,0.0,0.0,0,0.0,0.0,0,0.0,0.0,0,0.0,0.0,0,0.0,0.0,0,0.0,0.0,56,0.0,0.0,0,0.0,0.0,24,0.0,0.0,26,0.0,0.0,54,0.8333333333333334,0.21698113207547176,1445774288614,160.0,0.0,100.17500000000003,0.14528301886792322,0.7000000000000002,0.37484276729559757,0.06875000000000003,0.06442610062893082,2.0000000000000004,1.1069182389937104
1445774288702,160.0,0.0,43.0,0.2187500000000001,0.17197327044025154,0.037500000000000006,0.17197327044025154,0,0.0,0.0,0,0.0,0.0,0,0.0,0.0,0,0.0,0.0,0,0.0,0.0,0,0.0,0.0,53,0.0,0.0,0,0.0,0.0,19,0.0,0.0,36,0.0,0.0,52,0.8269230769230766,0.14592760180995476,1445774289640,160.0,0.0,100.25625000000004,0.19178459119496713,0.40625000000000006,0.2427279874213838,0.025,0.024528301886792458,1.7437499999999992,0.5565644654088053
1445774289727,160.0,0.0,39.0,0.2875000000000001,0.2061320754716981,0.04999999999999999,0.2061320754716981,0,0.0,0.0,0,0.0,0.0,0,0.0,0.0,0,0.0,0.0,0,0.0,0.0,0,0.0,0.0,63,0.0,0.0,0,0.0,0.0,28,0.0,0.0,20,0.0,0.0,49,0.7959183673469389,0.16581632653061223,1445774290664,160.0,0.0,100.16874999999996,0.1411556603773588,0.4875000000000002,0.2891509433962265,0.06874999999999999,0.06442610062893082,1.9375000000000002,0.9017295597484277
1445774290751,160.0,0.0,33.0,0.23750000000000002,0.18223270440251566,0.05625000000000001,0.18223270440251566,0,0.0,0.0,0,0.0,0.0,0,0.0,0.0,0,0.0,0.0,0,0.0,0.0,0,0.0,0.0,60,0.0,0.0,0,0.0,0.0,21,0.0,0.0,29,0.034482758620689655,0.034482758620689655,50,0.64,0.23510204081632655,1445774291686,160.0,0.0,100.21874999999997,0.17197327044024815,0.5062500000000001,0.2641116352201259,0.03125000000000001,0.03046383647798742,1.6,0.6062893081761003
1445774291774,160.0,0.0,36.0,0.33125000000000004,0.22291666666666662,0.043750000000000004,0.22291666666666662,0,0.0,0.0,0,0.0,0.0,0,0.0,0.0,0,0.0,0.0,0,0.0,0.0,0,0.0,0.0,67,0.0,0.0,0,0.0,0.0,25,0.04000000000000001,0.04,21,0.0,0.0,47,0.74468085106383,0.19426456984273816,1445774292711,160.0,0.0,100.24999999999996,0.18867924528301933,0.44374999999999976,0.28612421383647796,0.05000000000000002,0.047798742138364776,1.66875,0.7763757861635221
1445774292799,160.0,0.0,39.0,0.29999999999999993,0.22389937106918237,0.05625000000000001,0.22389937106918237,0,0.0,0.0,0,0.0,0.0,0,0.0,0.0,0,0.0,0.0,0,0.0,0.0,0,0.0,0.0,57,0.0,0.0,0,0.0,0.0,23,0.0,0.0,28,0.0,0.0,52,0.7499999999999999,0.19117647058823525,1445774293736,160.0,0.0,100.16249999999995,0.13694968553458917,0.5437500000000004,0.24964622641509412,0.01875000000000001,0.018514150943396226,1.7374999999999996,0.6979559748427671
1445774293823,160.0,0.0,46.0,0.29999999999999993,0.2867924528301887,0.04999999999999999,0.2867924528301887,0,0.0,0.0,0,0.0,0.0,0,0.0,0.0,0,0.0,0.0,0,0.0,0.0,0,0.0,0.0,54,0.0,0.0,0,0.0,0.0,27,0.0,0.0,25,0.0,0.0,54,0.8518518518518517,0.16631726065688326,1445774294763,160.0,0.0,100.16874999999997,0.1411556603773587,0.5374999999999999,0.25015723270440243,0.03125,0.030463836477987415,1.73125,1.5688286163522005
1445774294854,160.0,0.0,37.0,0.38750000000000023,0.2388364779874214,0.031250000000000014,0.2388364779874214,0,0.0,0.0,0,0.0,0.0,0,0.0,0.0,0,0.0,0.0,0,0.0,0.0,0,0.0,0.0,49,0.0,0.0,0,0.0,0.0,28,0.035714285714285726,0.03571428571428571,29,0.0,0.0,54,0.6666666666666667,0.2264150943396227,1445774295793,160.0,0.0,100.27499999999999,0.5150943396226475,0.5437499999999997,0.2496462264150944,0.037500000000000006,0.03632075471698113,1.981249999999999,0.8864386792452829
1445774295881,160.0,0.0,41.0,0.1875,0.15330188679245277,0.04375000000000002,0.15330188679245277,0,0.0,0.0,0,0.0,0.0,0,0.0,0.0,0,0.0,0.0,0,0.0,0.0,0,0.0,0.0,64,0.0,0.0,0,0.0,0.0,23,0.0,0.0,25,0.0,0.0,48,0.8541666666666664,0.1272163120567376,1445774296819,160.0,0.0,100.26875,0.9776336477987446,0.48125000000000046,0.6034198113207555,0.06249999999999997,0.058962264150943404,2.34375,2.101218553459118
1445774296907,160.0,0.0,38.0,0.21875000000000003,0.29775943396226434,0.08125000000000002,0.29775943396226434,0,0.0,0.0,0,0.0,0.0,0,0.0,0.0,0,0.0,0.0,0,0.0,0.0,0,0.0,0.0,52,0.0,0.0,0,0.0,0.0,25,0.0,0.0,30,0.0,0.0,53,0.7169811320754718,0.2837445573294629,1445774297844,160.0,0.0,100.15,0.12830188679245363,0.55625,0.2483883647798741,0.025,0.024528301886792454,1.625,0.7012578616352197
1445774297932,160.0,0.0,43.0,0.25625000000000003,0.1917845911949686,0.05000000000000001,0.1917845911949686,0,0.0,0.0,0,0.0,0.0,0,0.0,0.0,0,0.0,0.0,0,0.0,0.0,0,0.0,0.0,70,0.0,0.0,0,0.0,0.0,29,0.034482758620689655,0.034482758620689655,15,0.0,0.0,46,0.9130434782608695,0.1256038647342995,1445774298868,160.0,0.0,100.1375,0.11933962264151013,0.5249999999999997,0.2509433962264151,0.025,0.02452830188679245,1.55,0.4
1445774298956,160.0,0.0,45.0,0.25624999999999987,0.19178459119496852,0.03125,0.19178459119496852,0,0.0,0.0,0,0.0,0.0,0,0.0,0.0,0,0.0,0.0,0,0.0,0.0,0,0.0,0.0,46,0.0,0.0,0,0.0,0.0,31,0.0,0.0,25,0.0,0.0,58,0.7758620689655173,0.17695099818511795,1445774299892,160.0,0.0,100.18124999999995,0.14933176100628998,0.5062500000000002,0.25153301886792445,0.03750000000000002,0.03632075471698112,1.5812500000000003,0.4336084905660378
1445774299980,160.0,0.0,44.0,0.27499999999999986,0.2006289308176101,0.03749999999999999,0.2006289308176101,0,0.0,0.0,0,0.0,0.0,0,0.0,0.0,0,0.0,0.0,0,0.0,0.0,0,0.0,0.0,53,0.0,0.0,0,0.0,0.0,31,0.0,0.0,23,0.0,0.0,53,0.830188679245283,0.1821480406386067,1445774300917,160.0,0.0,100.14999999999996,0.12830188679244958,0.5562499999999999,0.2483883647798743,0.031249999999999986,0.030463836477987432,1.8437499999999996,0.8622248427672954
1445774301004,160.0,0.0,40.0,0.2687499999999999,0.19775943396226428,0.03750000000000002,0.19775943396226428,0,0.0,0.0,0,0.0,0.0,0,0.0,0.0,0,0.0,0.0,0,0.0,0.0,0,0.0,0.0,58,0.0,0.0,0,0.0,0.0,30,0.0,0.0,22,0.0,0.0,50,0.7999999999999999,0.32653061224489793,1445774301942,160.0,0.0,100.13750000000002,0.1193396226415085,0.5437499999999998,0.24964622641509443,0.05,0.0477987421383648,1.6625000000000003,0.6149371069182387
1445774302030,160.0,0.0,37.0,0.2875,0.21871069182389932,0.03750000000000001,0.21871069182389932,0,0.0,0.0,0,0.0,0.0,0,0.0,0.0,0,0.0,0.0,0,0.0,0.0,0,0.0,0.0,51,0.0,0.0,0,0.0,0.0,25,0.0,0.0,30,0.0,0.0,54,0.6851851851851852,0.21977638015373865,1445774302967,160.0,0.0,100.18124999999999,0.14933176100628834,0.5874999999999999,0.24386792452830183,0.03125000000000001,0.030463836477987415,2.09375,3.280463836477989
1445774303055,160.0,0.0,41.0,0.2500000000000001,0.20125786163522014,0.06875000000000002,0.20125786163522014,0,0.0,0.0,0,0.0,0.0,0,0.0,0.0,0,0.0,0.0,0,0.0,0.0,0,0.0,0.0,50,0.0,0.0,0,0.0,0.0,22,0.0,0.0,33,0.0,0.0,55,0.7454545454545453,0.19326599326599322,1445774303994,160.0,0.0,100.16874999999995,0.14115566037735797,0.5749999999999997,0.2459119496855346,0.012500000000000008,0.012421383647798741,1.5937499999999998,0.6955581761006285
1445774304081,160.0,0.0,42.0,0.3125000000000002,0.21619496855345907,0.031249999999999972,0.21619496855345907,0,0.0,0.0,0,0.0,0.0,0,0.0,0.0,0,0.0,0.0,0,0.0,0.0,0,0.0,0.0,63,0.0,0.0,0,0.0,0.0,25,0.0,0.0,23,0.0,0.0,49,0.857142857142857,0.12499999999999996,1445774305020,160.0,0.0,100.18125000000002,0.1493317610062871,0.49375000000000036,0.25153301886792445,0.05,0.04779874213836478,1.6625000000000005,0.6149371069182386
1445774305107,160.0,0.0,44.0,0.2562499999999998,0.19178459119496866,0.0125,0.19178459119496866,0,0.0,0.0,0,0.0,0.0,0,0.0,0.0,0,0.0,0.0,0,0.0,0.0,0,0.0,0.0,53,0.0,0.0,0,0.0,0.0,25,0.039999999999999994,0.04,27,0.0,0.0,55,0.7818181818181819,0.17373737373737375,1445774306045,160.0,0.0,100.16875,0.14115566037735847,0.5812499999999999,0.24492924528301882,0.031250000000000014,0.030463836477987415,1.7187500000000002,0.5430424528301884
1445774306132,160.0,0.0,33.0,0.2687499999999999,0.19775943396226417,0.043750000000000004,0.19775943396226417,0,0.0,0.0,0,0.0,0.0,0,0.0,0.0,0,0.0,0.0,0,0.0,0.0,0,0.0,0.0,61,0.0,0.0,0,0.0,0.0,32,0.0,0.0,19,0.0,0.0,48,0.6875,0.21941489361702124,1445774307070,160.0,0.0,100.16875000000002,0.216627358490566,0.6187499999999999,0.5266902515723275,0.05625000000000002,0.05341981132075473,2.6187500000000004,7.7468160377358535
1445774307158,160.0,0.0,55.0,0.2625,0.23254716981132076,0.05,0.23254716981132076,0,0.0,0.0,0,0.0,0.0,0,0.0,0.0,0,0.0,0.0,0,0.0,0.0,0,0.0,0.0,65,0.0,0.0,0,0.0,0.0,20,0.0,0.0,25,0.0,0.0,50,1.1000000000000003,2.1734693877551017,1445774308099,160.0,0.0,100.1375,0.11933962264150737,0.6812500000000002,1.0109669811320758,0.056249999999999994,0.05341981132075474,1.7624999999999997,0.7231132075471697
1445774308187,160.0,0.0,47.0,0.275,0.3264150943396227,0.03750000000000002,0.3264150943396227,0,0.0,0.0,0,0.0,0.0,0,0.0,0.0,0,0.0,0.0,0,0.0,0.0,0,0.0,0.0,42,0.0,0.0,0,0.0,0.0,30,0.0,0.0,32,0.0,0.0,56,0.8392857142857141,0.13733766233766234,1445774309127,160.0,0.0,100.1875,0.15330188679245166,0.95625,3.865998427672956,0.01875000000000001,0.018514150943396226,1.8312499999999994,1.6254323899371068
1445774309216,160.0,0.0,38.0,0.29375000000000023,0.2087657232704402,0.05,0.2087657232704402,0,0.0,0.0,0,0.0,0.0,0,0.0,0.0,0,0.0,0.0,0,0.0,0.0,0,0.0,0.0,62,0.016129032258064516,0.016129032258064516,0,0.0,0.0,30,0.0,0.0,18,0.0,0.0,50,0.7399999999999998,0.1963265306122449,1445774310154,160.0,0.0,100.20624999999997,0.1898977987421352,0.6187500000000005,0.4260613207547171,0.08125,0.0751179245283019,1.7999999999999994,0.6641509433962262
1445774310250,160.0,0.0,49.0,0.2999999999999997,0.2867924528301885,0.01875000000000001,0.2867924528301885,0,0.0,0.0,0,0.0,0.0,0,0.0,0.0,0,0.0,0.0,0,0.0,0.0,0,0.0,0.0,43,0.0,0.0,0,0.0,0.0,35,0.0,0.0,23,0.0,0.0,59,0.830508474576271,0.17767387492694328,1445774311192,160.0,0.0,100.18124999999993,0.14933176100629103,0.8187500000000001,1.9480738993710687,0.00625,0.006249999999999999,1.9749999999999983,1.6220125786163513
1445774311280,160.0,0.0,37.0,0.32500000000000007,0.25849056603773574,0.05000000000000001,0.25849056603773574,0,0.0,0.0,0,0.0,0.0,0,0.0,0.0,0,0.0,0.0,0,0.0,0.0,0,0.0,0.0,51,0.0,0.0,0,0.0,0.0,25,0.0,0.0,28,0.0,0.0,56,0.6607142857142857,0.26461038961038963,1445774312219,160.0,0.0,100.16249999999998,0.13694968553459116,1.0249999999999997,2.7918238993710687,0.037500000000000006,0.03632075471698113,2.7875000000000005,4.206132075471695
1445774312306,160.0,0.0,44.0,0.20625000000000002,0.16474056603773574,0.05,0.16474056603773574,0,0.0,0.0,0,0.0,0.0,0,0.0,0.0,0,0.0,0.0,0,0.0,0.0,0,0.0,0.0,47,0.0,0.0,0,0.0,0.0,34,0.0,0.0,23,0.0,0.0,56,0.7857142857142857,0.17142857142857149,1445774313245,160.0,0.0,100.14999999999999,0.12830188679245305,0.5562500000000001,0.2483883647798741,0.037500000000000006,0.03632075471698114,1.6874999999999993,0.6564465408805032
1445774313332,160.0,0.0,37.0,0.3374999999999999,0.23757861635220104,0.05625000000000003,0.23757861635220104,0,0.0,0.0,0,0.0,0.0,0,0.0,0.0,0,0.0,0.0,0,0.0,0.0,0,0.0,0.0,48,0.0,0.0,0,0.0,0.0,33,0.0,0.0,25,0.0,0.0,54,0.6851851851851851,0.21977638015373865,1445774314269,160.0,0.0,100.13750000000002,0.11933962264150887,0.5562500000000002,0.2483883647798742,0.018750000000000003,0.018514150943396226,1.6749999999999998,0.49748427672955997
1445774314356,160.0,0.0,40.0,0.2562499999999999,0.19178459119496843,0.062499999999999986,0.19178459119496843,0,0.0,0.0,0,0.0,0.0,0,0.0,0.0,0,0.0,0.0,0,0.0,0.0,0,0.0,0.0,53,0.0,0.0,0,0.0,0.0,29,0.0,0.0,26,0.0,0.0,52,0.769230769230769,0.1809954751131221,1445774315293,160.0,0.0,100.18750000000003,0.15330188679245407,0.5124999999999998,0.2514150943396226,0.018750000000000006,0.018514150943396226,1.6749999999999996,0.4471698113207545
1445774315380,160.0,0.0,49.0,0.28749999999999987,0.2061320754716981,0.025,0.2061320754716981,0,0.0,0.0,0,0.0,0.0,0,0.0,0.0,0,0.0,0.0,0,0.0,0.0,0,0.0,0.0,45,0.0,0.0,0,0.0,0.0,34,0.0,0.0,22,0.0,0.0,59,0.8305084745762713,0.17767387492694334,1445774316337,160.0,0.0,100.11875000000005,0.1053066037735825,0.7874999999999998,0.9860062893081765,0.025,0.02452830188679246,3.175,17.277358490566034
1445774316425,160.0,0.0,52.0,0.31875,1.727948113207548,0.11250000000000007,1.727948113207548,0,0.0,0.0,0,0.0,0.0,0,0.0,0.0,0,0.0,0.0,0,0.0,0.0,0,0.0,0.0,58,0.0,0.0,0,0.0,0.0,24,0.0,0.0,27,0.0,0.0,51,1.019607843137255,3.7396078431372546,1445774317362,160.0,0.0,100.1625,0.13694968553459022,0.5562500000000004,0.2483883647798743,0.03125,0.03046383647798743,1.574999999999999,0.6232704402515717
1445774317449,160.0,0.0,40.0,0.3375000000000001,0.22499999999999998,0.06874999999999999,0.22499999999999998,0,0.0,0.0,0,0.0,0.0,0,0.0,0.0,0,0.0,0.0,0,0.0,0.0,0,0.0,0.0,47,0.0,0.0,0,0.0,0.0,26,0.0,0.0,31,0.0,0.0,56,0.7142857142857143,0.24415584415584418,1445774318386,160.0,0.0,100.14999999999999,0.12830188679245247,0.5687499999999998,0.2593946540880503,0.03125000000000001,0.03046383647798741,1.537499999999999,0.5394654088050312
1445774318474,160.0,0.0,46.0,0.3499999999999999,0.22893081761006293,0.03750000000000001,0.22893081761006293,0,0.0,0.0,0,0.0,0.0,0,0.0,0.0,0,0.0,0.0,0,0.0,0.0,0,0.0,0.0,53,0.0,0.0,0,0.0,0.0,28,0.0,0.0,24,0.0,0.0,55,0.8363636363636362,0.1764309764309764,1445774319412,160.0,0.0,100.16874999999999,0.14115566037735905,0.5125000000000002,0.25141509433962267,0.031249999999999986,0.03046383647798742,1.5812500000000003,0.4587657232704398
1445774319499,160.0,0.0,43.0,0.36249999999999993,0.23254716981132076,0.03125,0.23254716981132076,0,0.0,0.0,0,0.0,0.0,0,0.0,0.0,0,0.0,0.0,0,0.0,0.0,0,0.0,0.0,49,0.0,0.0,0,0.0,0.0,28,0.0,0.0,28,0.0,0.0,55,0.7818181818181819,0.32188552188552183,1445774320438,160.0,0.0,100.1625,0.13694968553458914,0.4750000000000001,0.250943396226415,0.025,0.02452830188679245,1.5749999999999995,0.4094339622641508
1445774320525,160.0,0.0,42.0,0.31874999999999976,0.2185141509433962,0.07499999999999998,0.2185141509433962,0,0.0,0.0,0,0.0,0.0,0,0.0,0.0,0,0.0,0.0,0,0.0,0.0,0,0.0,0.0,55,0.01818181818181818,0.018181818181818174,0,0.0,0.0,27,0.0,0.0,25,0.0,0.0,53,0.7735849056603774,0.17851959361393333,1445774321464,160.0,0.0,100.10624999999999,0.09555817610062789,0.6937499999999999,0.21379716981132083,0.03750000000000002,0.03632075471698113,1.8250000000000004,0.7490566037735851
1445774321553,160.0,0.0,36.0,0.2500000000000002,0.18867924528301894,0.04374999999999999,0.18867924528301894,0,0.0,0.0,0,0.0,0.0,0,0.0,0.0,0,0.0,0.0,0,0.0,0.0,0,0.0,0.0,51,0.0,0.0,0,0.0,0.0,31,0.0,0.0,25,0.0,0.0,53,0.6792452830188677,0.260522496371553,1445774322489,160.0,0.0,100.28749999999998,0.36965408805031424,0.51875,0.2512185534591194,0.018750000000000003,0.018514150943396226,1.8125,0.6564465408805035
1445774322576,160.0,0.0,42.0,0.24374999999999988,0.18549528301886792,0.0375,0.18549528301886792,0,0.0,0.0,0,0.0,0.0,0,0.0,0.0,0,0.0,0.0,0,0.0,0.0,0,0.0,0.0,64,0.0,0.0,0,0.0,0.0,24,0.0,0.0,21,0.0,0.0,51,0.823529411764706,0.308235294117647,1445774323514,160.0,0.0,100.20625000000001,0.16474056603773618,0.4812500000000001,0.2512185534591195,0.037500000000000006,0.036320754716981124,1.7062499999999996,0.49807389937106905
1445774323601,160.0,0.0,40.0,0.3187500000000001,0.23109276729559747,0.043750000000000004,0.23109276729559747,0,0.0,0.0,0,0.0,0.0,0,0.0,0.0,0,0.0,0.0,0,0.0,0.0,0,0.0,0.0,44,0.0,0.0,0,0.0,0.0,34,0.0,0.0,27,0.0,0.0,55,0.7272727272727274,0.20202020202020202,1445774324540,160.0,0.0,100.12499999999997,0.11006289308175982,0.5624999999999999,0.24764150943396218,0.01875000000000001,0.018514150943396226,1.83125,1.0468160377358489
1445774324628,160.0,0.0,43.0,0.30625,0.226375786163522,0.06875,0.226375786163522,0,0.0,0.0,0,0.0,0.0,0,0.0,0.0,0,0.0,0.0,0,0.0,0.0,0,0.0,0.0,36,0.0,0.0,0,0.0,0.0,19,0.0,0.0,42,0.0,0.0,63,0.6825396825396822,0.2846902201740911,1445774325567,160.0,0.0,100.18124999999995,0.14933176100628737,0.5874999999999998,0.2941823899371069,0.03125,0.03046383647798742,2.100000000000001,1.172327044025157
1445774325654,160.0,0.0,42.0,0.22500000000000006,0.17547169811320748,0.04375000000000002,0.17547169811320748,0,0.0,0.0,0,0.0,0.0,0,0.0,0.0,0,0.0,0.0,0,0.0,0.0,0,0.0,0.0,55,0.0,0.0,0,0.0,0.0,28,0.0,0.0,26,0.0,0.0,51,0.8235294117647058,0.14823529411764708,1445774326594,160.0,0.0,100.20000000000002,0.16100628930817568,0.5062500000000002,0.26411163522012565,0.018750000000000006,0.018514150943396226,1.7937499999999995,0.567256289308176
1445774326680,160.0,0.0,38.0,0.31249999999999994,0.22877358490566047,0.025,0.22877358490566047,0,0.0,0.0,0,0.0,0.0,0,0.0,0.0,0,0.0,0.0,0,0.0,0.0,0,0.0,0.0,51,0.0,0.0,0,0.0,0.0,28,0.0,0.0,27,0.0,0.0,54,0.7037037037037037,0.21243885394828788,1445774327618,160.0,0.0,100.15624999999999,0.13266509433962156,0.5750000000000001,0.258490566037736,0.03125000000000001,0.030463836477987415,1.6437500000000005,0.8219732704402525
1445774327705,160.0,0.0,47.0,0.2500000000000001,0.18867924528301885,0.01875000000000001,0.18867924528301885,0,0.0,0.0,0,0.0,0.0,0,0.0,0.0,0,0.0,0.0,0,0.0,0.0,0,0.0,0.0,49,0.0,0.0,0,0.0,0.0,32,0.0,0.0,21,0.0,0.0,58,0.8103448275862069,0.15638233514821537,1445774328645,160.0,0.0,100.17500000000001,0.14528301886792586,0.5875000000000001,0.24386792452830175,0.018750000000000003,0.018514150943396226,1.9750000000000008,1.2194968553459125
1445774328731,160.0,0.0,34.0,0.21250000000000002,0.16839622641509427,0.06874999999999998,0.16839622641509427,0,0.0,0.0,0,0.0,0.0,0,0.0,0.0,0,0.0,0.0,0,0.0,0.0,0,0.0,0.0,58,0.0,0.0,0,0.0,0.0,19,0.0,0.0,33,0.0,0.0,50,0.6799999999999999,0.26285714285714284,1445774329669,160.0,0.0,100.12500000000003,0.11006289308176152,0.5562499999999999,0.24838836477987433,0.03125,0.03046383647798742,1.756250000000001,0.6509040880503142
1445774329755,160.0,0.0,48.0,0.22500000000000006,0.18805031446540874,0.043750000000000004,0.18805031446540874,0,0.0,0.0,0,0.0,0.0,0,0.0,0.0,0,0.0,0.0,0,0.0,0.0,0,0.0,0.0,53,0.0,0.0,0,0.0,0.0,26,0.0,0.0,27,0.0,0.0,54,0.888888888888889,0.17610062893081765,1445774330693,160.0,0.0,100.09999999999997,0.0905660377358513,0.6437500000000002,0.28109276729559757,0.03750000000000001,0.036320754716981145,1.5062499999999999,0.3898977987421385
1445774330782,160.0,0.0,40.0,0.26250000000000007,0.19481132075471708,0.05,0.19481132075471708,0,0.0,0.0,0,0.0,0.0,0,0.0,0.0,0,0.0,0.0,0,0.0,0.0,0,0.0,0.0,56,0.0,0.0,0,0.0,0.0,23,0.0,0.0,27,0.0,0.0,54,0.7407407407407408,0.19566736547868624,1445774331718,160.0,0.0,100.16249999999992,0.1746855345911909,0.5750000000000002,0.27106918238993705,0.062499999999999986,0.058962264150943404,2.206250000000001,2.7181996855345916
1445774331806,160.0,0.0,39.0,0.28125000000000017,0.2034198113207547,0.05,0.2034198113207547,0,0.0,0.0,0,0.0,0.0,0,0.0,0.0,0,0.0,0.0,0,0.0,0.0,0,0.0,0.0,57,0.0,0.0,0,0.0,0.0,26,0.0,0.0,29,0.0,0.0,48,0.8125,1.0492021276595744,1445774332744,160.0,0.0,100.14999999999999,0.12830188679245286,0.4562499999999999,0.24964622641509412,0.04999999999999999,0.04779874213836479,1.75625,0.7641116352201258
1445774332830,160.0,0.0,45.0,0.28124999999999994,0.20341981132075468,0.031249999999999993,0.20341981132075468,0,0.0,0.0,0,0.0,0.0,0,0.0,0.0,0,0.0,0.0,0,0.0,0.0,0,0.0,0.0,45,0.0,0.0,0,0.0,0.0,27,0.0,0.0,29,0.0,0.0,59,0.7627118644067796,0.21858562244301574,1445774333767,160.0,0.0,100.10000000000001,0.09056603773584986,0.5874999999999999,0.2438679245283019,0.05,0.04779874213836477,1.4187500000000002,0.3329795597484277
1445774333854,160.0,0.0,37.0,0.3375,0.22499999999999998,0.05624999999999999,0.22499999999999998,0,0.0,0.0,0,0.0,0.0,0,0.0,0.0,0,0.0,0.0,0,0.0,0.0,0,0.0,0.0,56,0.0,0.0,0,0.0,0.0,27,0.0,0.0,25,0.0,0.0,52,0.7115384615384612,0.24849170437405732,1445774334792,160.0,0.0,100.12500000000004,0.11006289308176245,0.6062499999999998,0.24021226415094368,0.018750000000000003,0.018514150943396222,1.5437500000000008,0.4005896226415094
1445774334879,160.0,0.0,47.0,0.2,0.16100628930817598,0.06250000000000001,0.16100628930817598,0,0.0,0.0,0,0.0,0.0,0,0.0,0.0,0,0.0,0.0,0,0.0,0.0,0,0.0,0.0,53,0.0,0.0,0,0.0,0.0,26,0.0,0.0,27,0.0,0.0,54,0.8703703703703701,0.15269042627533194,1445774335818,160.0,0.0,100.14374999999998,0.16159591194968226,0.6812499999999999,0.33172169811320756,0.025,0.024528301886792454,1.9062500000000002,1.255306603773585
1445774335905,160.0,0.0,46.0,0.2625000000000002,0.2828616352201258,0.031249999999999986,0.2828616352201258,0,0.0,0.0,0,0.0,0.0,0,0.0,0.0,0,0.0,0.0,0,0.0,0.0,0,0.0,0.0,59,0.0,0.0,0,0.0,0.0,26,0.0,0.0,26,0.0,0.0,49,0.9387755102040816,0.26700680272108845,1445774336843,160.0,0.0,100.15625000000003,0.13266509433962223,0.5562499999999999,0.2483883647798742,0.037500000000000006,0.036320754716981124,1.5624999999999998,0.39858490566037724
1445774336930,160.0,0.0,38.0,0.25625000000000014,0.19178459119496855,0.06875000000000003,0.19178459119496855,0,0.0,0.0,0,0.0,0.0,0,0.0,0.0,0,0.0,0.0,0,0.0,0.0,0,0.0,0.0,61,0.0,0.0,0,0.0,0.0,25,0.0,0.0,24,0.0,0.0,50,0.76,0.22693877551020405,1445774337867,160.0,0.0,100.14999999999999,0.12830188679245286,0.5625000000000002,0.24764150943396226,0.03125000000000001,0.03046383647798742,1.63125,0.4983883647798744
1445774337955,160.0,0.0,35.0,0.24375,0.18549528301886797,0.02500000000000001,0.18549528301886797,0,0.0,0.0,0,0.0,0.0,0,0.0,0.0,0,0.0,0.0,0,0.0,0.0,0,0.0,0.0,68,0.0,0.0,0,0.0,0.0,25,0.0,0.0,19,0.0,0.0,48,0.7291666666666665,0.2016843971631205,1445774338892,160.0,0.0,100.11250000000001,0.10047169811320925,0.65625,0.2270047169811321,0.04374999999999999,0.042099056603773596,1.725,0.4522012578616356
1445774338979,160.0,0.0,40.0,0.19374999999999995,0.15719339622641515,0.03125000000000001,0.15719339622641515,0,0.0,0.0,0,0.0,0.0,0,0.0,0.0,0,0.0,0.0,0,0.0,0.0,0,0.0,0.0,48,0.0,0.0,0,0.0,0.0,31,0.0,0.0,26,0.0,0.0,55,0.7272727272727273,0.20202020202020202,1445774339918,160.0,0.0,100.16874999999997,0.14115566037735794,0.53125,0.2505896226415094,0.03750000000000002,0.036320754716981124,1.9687499999999998,1.2757468553459113
1445774340006,160.0,0.0,43.0,0.16249999999999998,0.1369496855345913,0.075,0.1369496855345913,0,0.0,0.0,0,0.0,0.0,0,0.0,0.0,0,0.0,0.0,0,0.0,0.0,0,0.0,0.0,53,0.0,0.0,0,0.0,0.0,26,0.0,0.0,28,0.0,0.0,53,0.8113207547169812,0.23294629898403485,1445774340943,160.0,0.0,100.16249999999997,0.18726415094339569,0.5874999999999997,0.2690251572327044,0.0125,0.012421383647798741,1.6937499999999992,0.5659984276729557
