timeStamp,totalRequests,failedRequests,totalHandleTime,upstreamTime,upstreamTimeVar,downstreamTime,downstreamTimeVar,CREATE_CLIENT_N,CREATE_CLIENT_time,CREATE_CLIENT_timeVar,CLIENT_LIST_N,CLIENT_LIST_time,CLIENT_LIST_timeVar,QUEUE_LIST_N,QUEUE_LIST_time,QUEUE_LIST_timeVar,MESSAGE_COUNT_N,MESSAGE_COUNT_time,MESSAGE_COUNT_timeVar,CREATE_QUEUE_N,CREATE_QUEUE_time,CREATE_QUEUE_timeVar,DELETE_QUEUE_N,DELETE_QUEUE_time,DELETE_QUEUE_timeVar,SEND_MESSAGE_N,SEND_MESSAGE_time,SEND_MESSAGE_timeVar,RECEIVE_MESSAGE_N,RECEIVE_MESSAGE_time,RECEIVE_MESSAGE_timeVar,POP_QUEUE_N,POP_QUEUE_time,POP_QUEUE_timeVar,TOP_QUEUE_N,TOP_QUEUE_time,TOP_QUEUE_timeVar,INBOX_QUEUES_N,INBOX_QUEUES_time,INBOX_QUEUES_timeVar,timeStamp,totalRequests,failedRequests,clientThinkTime,clientThinkTimeVar,waitingForConnectionTime,waitingForConnectionTimeVar,upstreamTime,upstreamTimeVar,waitingForResponseTime,waitingForResponseTimeVar
1445774189315,80.0,0.0,125.0,0.43749999999999994,0.5276898734177216,0.1125,0.5276898734177216,0,0.0,0.0,0,0.0,0.0,15,1.0,0.0,8,0.875,0.125,8,1.25,0.21428571428571425,0,0.0,0.0,48,1.8958333333333328,2.520833333333334,0,0.0,0.0,0,0.0,0.0,0,0.0,0.0,1,2.0,0.0,1445774189944,80.0,0.0,100.23750000000003,0.18338607594936424,0.5374999999999998,0.25174050632911393,0.08749999999999998,0.08085443037974681,2.3000000000000007,2.3645569620253175
1445774190341,80.0,0.0,29.0,0.43750000000000017,0.32515822784810133,0.11250000000000004,0.32515822784810133,0,0.0,0.0,0,0.0,0.0,0,0.0,0.0,0,0.0,0.0,0,0.0,0.0,0,0.0,0.0,21,0.04761904761904763,0.047619047619047616,0,0.0,0.0,19,0.0,0.0,10,0.0,0.0,30,0.9333333333333335,0.271264367816092,1445774190971,80.0,0.0,100.22500000000005,0.17658227848101055,0.5875000000000002,0.2454113924050633,0.0375,0.036550632911392406,1.6624999999999999,0.4542721518987341
1445774191370,80.0,0.0,22.0,0.4250000000000001,0.24746835443037976,0.0875,0.24746835443037976,0,0.0,0.0,0,0.0,0.0,0,0.0,0.0,0,0.0,0.0,0,0.0,0.0,0,0.0,0.0,27,0.0,0.0,0,0.0,0.0,11,0.0,0.0,15,0.0,0.0,27,0.8148148148148149,0.15669515669515663,1445774192000,80.0,0.0,100.125,0.13607594936708933,0.6874999999999996,0.21756329113924047,0.0625,0.05933544303797466,1.9250000000000003,0.9310126582278486
1445774192398,80.0,0.0,27.0,0.3,0.31392405063291146,0.11250000000000003,0.31392405063291146,0,0.0,0.0,0,0.0,0.0,0,0.0,0.0,0,0.0,0.0,0,0.0,0.0,0,0.0,0.0,25,0.0,0.0,0,0.0,0.0,12,0.0,0.0,15,0.0,0.0,28,0.9642857142857142,0.18386243386243387,1445774193028,80.0,0.0,100.20000000000002,0.1620253164556969,0.4624999999999999,0.25174050632911393,0.07499999999999998,0.07025316455696201,2.2500000000000013,1.1012658227848098
1445774193424,80.0,0.0,26.0,0.3875,0.31629746835443046,0.07499999999999998,0.31629746835443046,0,0.0,0.0,0,0.0,0.0,0,0.0,0.0,0,0.0,0.0,0,0.0,0.0,0,0.0,0.0,25,0.0,0.0,0,0.0,0.0,15,0.0,0.0,14,0.0,0.0,26,1.0,0.0,1445774194054,80.0,0.0,100.17500000000003,0.1462025316455702,0.5875,0.2454113924050633,0.0125,0.012500000000000004,1.6749999999999998,0.4500000000000001
1445774194452,80.0,0.0,25.0,0.43750000000000006,0.5023734177215188,0.07500000000000001,0.5023734177215188,0,0.0,0.0,0,0.0,0.0,0,0.0,0.0,0,0.0,0.0,0,0.0,0.0,0,0.0,0.0,25,0.0,0.0,0,0.0,0.0,10,0.0,0.0,17,0.0,0.0,28,0.8928571428571427,0.09920634920634919,1445774195083,80.0,0.0,100.18749999999996,0.15427215189873517,0.5750000000000003,0.2474683544303798,0.0375,0.0365506329113924,1.9375000000000004,1.2492088607594938
1445774195481,80.0,0.0,27.0,0.3999999999999999,0.3189873417721518,0.06249999999999998,0.3189873417721518,0,0.0,0.0,0,0.0,0.0,0,0.0,0.0,0,0.0,0.0,0,0.0,0.0,0,0.0,0.0,24,0.0,0.0,0,0.0,0.0,16,0.0625,0.06249999999999999,11,0.0909090909090909,0.0909090909090909,29,0.8620689655172414,0.3374384236453202,1445774196112,80.0,0.0,100.18749999999999,0.30617088607594767,0.5375,0.251740506329114,0.07499999999999998,0.07025316455696203,2.262500000000001,2.5251582278481015
1445774196509,80.0,0.0,25.0,0.3625,0.23401898734177212,0.1125,0.23401898734177212,0,0.0,0.0,0,0.0,0.0,0,0.0,0.0,0,0.0,0.0,0,0.0,0.0,0,0.0,0.0,30,0.0,0.0,0,0.0,0.0,15,0.0,0.0,11,0.0,0.0,24,1.041666666666667,1.259057971014493,1445774197140,80.0,0.0,100.08750000000002,0.08085443037974628,0.5499999999999999,0.25063291139240507,0.06249999999999998,0.059335443037974674,2.325,3.690506329113924
1445774197536,80.0,0.0,30.0,0.3749999999999999,0.6170886075949367,0.08750000000000001,0.6170886075949367,0,0.0,0.0,0,0.0,0.0,0,0.0,0.0,0,0.0,0.0,0,0.0,0.0,0,0.0,0.0,31,0.0,0.0,0,0.0,0.0,12,0.0,0.0,13,0.0,0.0,24,1.2500000000000002,2.369565217391304,1445774198167,80.0,0.0,100.16250000000005,0.13781645569620607,0.6625,0.6061708860759497,0.05,0.04810126582278481,1.575,0.8803797468354435
1445774198564,80.0,0.0,23.0,0.3999999999999999,0.2430379746835443,0.08749999999999998,0.2430379746835443,0,0.0,0.0,0,0.0,0.0,0,0.0,0.0,0,0.0,0.0,0,0.0,0.0,0,0.0,0.0,19,0.0,0.0,0,0.0,0.0,14,0.0,0.0,16,0.0,0.0,31,0.7419354838709677,0.19784946236559134,1445774199194,80.0,0.0,100.20000000000002,0.16202531645569548,0.5499999999999998,0.2506329113924052,0.0,0.0,1.8875,1.0125000000000004
1445774199590,80.0,0.0,22.0,0.27500000000000013,0.20189873417721516,0.1,0.20189873417721516,0,0.0,0.0,0,0.0,0.0,0,0.0,0.0,0,0.0,0.0,0,0.0,0.0,0,0.0,0.0,25,0.0,0.0,0,0.0,0.0,10,0.0,0.0,17,0.0,0.0,28,0.7857142857142858,0.17460317460317457,1445774200220,80.0,0.0,100.125,0.11075949367088574,0.6000000000000002,0.24303797468354435,0.07500000000000002,0.07025316455696203,1.6250000000000002,0.3892405063291138
1445774200620,80.0,0.0,24.0,0.275,0.2018987341772152,0.05000000000000002,0.2018987341772152,0,0.0,0.0,0,0.0,0.0,0,0.0,0.0,0,0.0,0.0,0,0.0,0.0,0,0.0,0.0,31,0.03225806451612903,0.03225806451612903,0,0.0,0.0,13,0.0,0.0,11,0.0,0.0,25,0.9199999999999998,0.16,1445774201258,80.0,0.0,100.16250000000002,0.13781645569620193,0.9000000000000002,0.5974683544303795,0.037500000000000006,0.0365506329113924,2.7125000000000017,2.1821202531645567
1445774201654,80.0,0.0,25.0,0.3,0.21265822784810118,0.08749999999999997,0.21265822784810118,0,0.0,0.0,0,0.0,0.0,0,0.0,0.0,0,0.0,0.0,0,0.0,0.0,0,0.0,0.0,23,0.04347826086956522,0.043478260869565216,0,0.0,0.0,16,0.0,0.0,12,0.0,0.0,29,0.8275862068965518,0.4334975369458127,1445774202289,80.0,0.0,100.125,0.11075949367088513,0.5750000000000001,0.24746835443037957,0.07500000000000002,0.07025316455696204,2.424999999999999,2.804430379746835
1445774202686,80.0,0.0,26.0,0.30000000000000004,0.23797468354430376,0.06249999999999998,0.23797468354430376,0,0.0,0.0,0,0.0,0.0,0,0.0,0.0,0,0.0,0.0,0,0.0,0.0,0,0.0,0.0,28,0.0,0.0,0,0.0,0.0,15,0.0,0.0,12,0.0,0.0,25,1.0400000000000003,0.79,1445774203317,80.0,0.0,100.13750000000002,0.12009493670886118,0.6249999999999998,0.2626582278481011,0.012500000000000002,0.012499999999999999,1.9624999999999997,0.8466772151898736
1445774203712,80.0,0.0,28.0,0.3375000000000001,0.3783227848101265,0.0125,0.3783227848101265,0,0.0,0.0,0,0.0,0.0,0,0.0,0.0,0,0.0,0.0,0,0.0,0.0,0,0.0,0.0,18,0.0,0.0,0,0.0,0.0,14,0.0,0.0,18,0.0,0.0,30,0.9333333333333332,0.13333333333333336,1445774204342,80.0,0.0,100.13750000000002,0.1960443037974672,0.55,0.25063291139240507,0.07500000000000001,0.07025316455696203,2.0374999999999996,3.2011075949367087
1445774204738,80.0,0.0,25.0,0.4125000000000001,0.24541139240506324,0.025,0.24541139240506324,0,0.0,0.0,0,0.0,0.0,0,0.0,0.0,0,0.0,0.0,0,0.0,0.0,0,0.0,0.0,27,0.0,0.0,0,0.0,0.0,12,0.0,0.0,13,0.0,0.0,28,0.892857142857143,0.24735449735449747,1445774205368,80.0,0.0,100.13750000000005,0.12009493670886108,0.5749999999999998,0.24746835443037976,0.03750000000000001,0.036550632911392406,1.5625,0.3251582278481011
1445774205764,80.0,0.0,24.0,0.275,0.2018987341772153,0.025,0.2018987341772153,0,0.0,0.0,0,0.0,0.0,0,0.0,0.0,0,0.0,0.0,0,0.0,0.0,0,0.0,0.0,25,0.04000000000000001,0.04,0,0.0,0.0,14,0.0,0.0,13,0.0,0.0,28,0.8214285714285715,0.1521164021164021,1445774206394,80.0,0.0,100.18749999999999,0.15427215189873408,0.5875,0.24541139240506324,0.0,0.0,1.7875,0.523892405063291
1445774206797,80.0,0.0,26.0,0.3625000000000001,0.6137658227848098,0.025000000000000005,0.6137658227848098,0,0.0,0.0,0,0.0,0.0,0,0.0,0.0,0,0.0,0.0,0,0.0,0.0,0,0.0,0.0,20,0.0,0.0,0,0.0,0.0,21,0.0,0.0,10,0.0,0.0,29,0.8965517241379308,0.09605911330049258,1445774207427,80.0,0.0,100.38749999999999,1.4302215189873415,0.7250000000000001,1.2398734177215185,0.05,0.04810126582278482,2.1000000000000005,2.2430379746835447
1445774207823,80.0,0.0,23.0,0.17500000000000002,0.14620253164556965,0.0875,0.14620253164556965,0,0.0,0.0,0,0.0,0.0,0,0.0,0.0,0,0.0,0.0,0,0.0,0.0,0,0.0,0.0,23,0.0,0.0,0,0.0,0.0,14,0.07142857142857144,0.07142857142857142,15,0.0,0.0,28,0.7857142857142858,0.17460317460317457,1445774208452,80.0,0.0,100.11250000000003,0.10110759493670865,0.7374999999999999,0.19604430379746832,0.0125,0.012500000000000004,1.7625000000000004,0.6390822784810124
1445774208849,80.0,0.0,17.0,0.17499999999999996,0.14620253164556968,0.0875,0.14620253164556968,0,0.0,0.0,0,0.0,0.0,0,0.0,0.0,0,0.0,0.0,0,0.0,0.0,0,0.0,0.0,37,0.0,0.0,0,0.0,0.0,12,0.0,0.0,9,0.0,0.0,22,0.7727272727272725,0.27922077922077915,1445774209479,80.0,0.0,100.17499999999995,0.14620253164557065,0.4875,0.3289556962025316,0.025,0.02468354430379747,1.9750000000000005,0.7588607594936712
1445774209875,80.0,0.0,20.0,0.2875000000000001,0.2833860759493671,0.06249999999999999,0.2833860759493671,0,0.0,0.0,0,0.0,0.0,0,0.0,0.0,0,0.0,0.0,0,0.0,0.0,0,0.0,0.0,22,0.0,0.0,0,0.0,0.0,13,0.0,0.0,17,0.0,0.0,28,0.7142857142857144,0.2116402116402116,1445774210505,80.0,0.0,100.21250000000002,0.16946202531645413,0.5125000000000003,0.253006329113924,0.05000000000000001,0.0481012658227848,1.7125000000000004,0.46060126582278477
1445774210900,80.0,0.0,22.0,0.225,0.17658227848101268,0.037500000000000006,0.17658227848101268,0,0.0,0.0,0,0.0,0.0,0,0.0,0.0,0,0.0,0.0,0,0.0,0.0,0,0.0,0.0,24,0.0,0.0,0,0.0,0.0,14,0.0,0.0,13,0.0,0.0,29,0.7586206896551722,0.18965517241379312,1445774211532,80.0,0.0,100.26250000000002,0.19604430379746504,0.47500000000000003,0.25253164556962027,0.012500000000000002,0.012499999999999999,1.8499999999999999,0.5594936708860759
1445774211927,80.0,0.0,26.0,0.25000000000000006,0.18987341772151894,0.0,0.18987341772151894,0,0.0,0.0,0,0.0,0.0,0,0.0,0.0,0,0.0,0.0,0,0.0,0.0,0,0.0,0.0,26,0.0,0.0,0,0.0,0.0,20,0.0,0.0,8,0.0,0.0,26,1.0,0.0,1445774212556,80.0,0.0,100.19999999999999,0.16202531645569565,0.5125,0.25300632911392407,0.0375,0.03655063291139241,2.024999999999999,1.7715189873417723
1445774212952,80.0,0.0,25.0,0.225,0.1765822784810126,0.025,0.1765822784810126,0,0.0,0.0,0,0.0,0.0,0,0.0,0.0,0,0.0,0.0,0,0.0,0.0,0,0.0,0.0,32,0.0,0.0,0,0.0,0.0,9,0.0,0.0,14,0.0,0.0,25,1.0,0.0,1445774213581,80.0,0.0,100.12499999999999,0.11075949367088671,0.5999999999999999,0.24303797468354424,0.05000000000000002,0.0481012658227848,1.7,0.5164556962025315
1445774213977,80.0,0.0,23.0,0.3250000000000002,0.22215189873417723,0.025,0.22215189873417723,0,0.0,0.0,0,0.0,0.0,0,0.0,0.0,0,0.0,0.0,0,0.0,0.0,0,0.0,0.0,22,0.0,0.0,0,0.0,0.0,15,0.0,0.0,15,0.0,0.0,28,0.8214285714285714,0.15211640211640212,1445774214609,80.0,0.0,100.19999999999999,0.16202531645569512,0.6125,0.29098101265822796,0.025000000000000005,0.024683544303797465,1.6250000000000002,0.4651898734177215
1445774215004,80.0,0.0,22.0,0.20000000000000007,0.16202531645569618,0.050000000000000024,0.16202531645569618,0,0.0,0.0,0,0.0,0.0,0,0.0,0.0,0,0.0,0.0,0,0.0,0.0,0,0.0,0.0,29,0.0,0.0,0,0.0,0.0,10,0.0,0.0,14,0.0,0.0,27,0.8148148148148148,0.23361823361823358,1445774215643,80.0,0.0,100.23749999999998,0.18338607594936587,1.0499999999999998,4.048101265822785,0.025,0.024683544303797465,2.1875000000000004,1.7238924050632918
1445774216042,80.0,0.0,25.0,0.23750000000000002,0.18338607594936704,0.025,0.18338607594936704,0,0.0,0.0,0,0.0,0.0,0,0.0,0.0,0,0.0,0.0,0,0.0,0.0,0,0.0,0.0,21,0.0,0.0,0,0.0,0.0,15,0.0,0.0,15,0.0,0.0,29,0.8620689655172414,0.1945812807881773,1445774216675,80.0,0.0,100.31249999999997,0.5213607594936603,0.55,0.27594936708860757,0.0625,0.05933544303797468,2.187499999999999,0.8631329113924051
1445774217070,80.0,0.0,25.0,0.20000000000000007,0.16202531645569626,0.0125,0.16202531645569626,0,0.0,0.0,0,0.0,0.0,0,0.0,0.0,0,0.0,0.0,0,0.0,0.0,0,0.0,0.0,19,0.0,0.0,0,0.0,0.0,13,0.0,0.0,16,0.0,0.0,32,0.7812500000000001,0.1764112903225806,1445774217699,80.0,0.0,100.2125,0.16946202531645657,0.525,0.2525316455696203,0.0125,0.012499999999999997,1.7750000000000004,0.7335443037974685
1445774218094,80.0,0.0,20.0,0.22500000000000006,0.17658227848101268,0.07499999999999998,0.17658227848101268,0,0.0,0.0,0,0.0,0.0,0,0.0,0.0,0,0.0,0.0,0,0.0,0.0,0,0.0,0.0,23,0.0,0.0,0,0.0,0.0,14,0.0,0.0,17,0.0,0.0,26,0.7692307692307693,0.18461538461538457,1445774218725,80.0,0.0,100.19999999999999,0.16202531645569457,0.4875,0.2530063291139241,0.07500000000000001,0.07025316455696201,1.7875,0.5492088607594938
1445774219121,80.0,0.0,18.0,0.2375,0.183386075949367,0.06249999999999998,0.183386075949367,0,0.0,0.0,0,0.0,0.0,0,0.0,0.0,0,0.0,0.0,0,0.0,0.0,0,0.0,0.0,28,0.0,0.0,0,0.0,0.0,14,0.0,0.0,11,0.0,0.0,27,0.6666666666666666,0.2307692307692308,1445774219750,80.0,0.0,100.21250000000002,0.16946202531645546,0.5375000000000002,0.25174050632911393,0.037500000000000006,0.03655063291139242,2.075,1.9943037974683542
1445774220147,80.0,0.0,23.0,0.18750000000000003,0.15427215189873417,0.03749999999999999,0.15427215189873417,0,0.0,0.0,0,0.0,0.0,0,0.0,0.0,0,0.0,0.0,0,0.0,0.0,0,0.0,0.0,27,0.0,0.0,0,0.0,0.0,15,0.0,0.0,12,0.0,0.0,26,0.8846153846153845,0.10615384615384615,1445774220782,80.0,0.0,100.24999999999999,0.18987341772151936,0.5624999999999998,0.603639240506329,0.0125,0.012500000000000004,2.0374999999999996,1.9099683544303796
1445774221179,80.0,0.0,30.0,0.2750000000000002,0.35379746835443043,0.012500000000000002,0.35379746835443043,0,0.0,0.0,0,0.0,0.0,0,0.0,0.0,0,0.0,0.0,0,0.0,0.0,0,0.0,0.0,26,0.0,0.0,0,0.0,0.0,13,0.0,0.0,14,0.0,0.0,27,1.1111111111111112,0.25641025641025633,1445774221809,80.0,0.0,100.22500000000001,0.17658227848101243,0.5124999999999998,0.25300632911392396,0.049999999999999996,0.04810126582278481,1.9249999999999998,0.5006329113924053
1445774222206,80.0,0.0,22.0,0.25000000000000006,0.18987341772151894,0.03750000000000001,0.18987341772151894,0,0.0,0.0,0,0.0,0.0,0,0.0,0.0,0,0.0,0.0,0,0.0,0.0,0,0.0,0.0,31,0.0,0.0,0,0.0,0.0,15,0.0,0.0,9,0.0,0.0,25,0.8799999999999999,0.19333333333333333,1445774222836,80.0,0.0,100.22500000000002,0.1765822784810099,0.6249999999999997,0.2373417721518987,0.03750000000000001,0.03655063291139242,1.7875000000000003,0.5998417721518986
1445774223234,80.0,0.0,20.0,0.21250000000000005,0.16946202531645577,0.05,0.16946202531645577,0,0.0,0.0,0,0.0,0.0,0,0.0,0.0,0,0.0,0.0,0,0.0,0.0,0,0.0,0.0,33,0.0,0.0,0,0.0,0.0,10,0.0,0.0,12,0.0,0.0,25,0.7999999999999999,0.1666666666666666,1445774223865,80.0,0.0,100.17500000000003,0.14620253164556793,0.6124999999999999,0.24034810126582284,0.05000000000000001,0.04810126582278479,2.012500000000001,0.8479430379746838
1445774224260,80.0,0.0,23.0,0.17500000000000002,0.1462025316455696,0.1125,0.1462025316455696,0,0.0,0.0,0,0.0,0.0,0,0.0,0.0,0,0.0,0.0,0,0.0,0.0,0,0.0,0.0,24,0.0,0.0,0,0.0,0.0,16,0.0,0.0,13,0.0,0.0,27,0.8518518518518519,0.20797720797720795,1445774224889,80.0,0.0,100.225,0.2525316455696217,0.6124999999999999,0.392246835443038,0.05000000000000001,0.04810126582278479,1.7000000000000002,0.5924050632911396
1445774225288,80.0,0.0,19.0,0.375,0.3132911392405064,0.05000000000000001,0.3132911392405064,0,0.0,0.0,0,0.0,0.0,0,0.0,0.0,0,0.0,0.0,0,0.0,0.0,0,0.0,0.0,25,0.0,0.0,0,0.0,0.0,18,0.0,0.0,11,0.0,0.0,26,0.7307692307692307,0.2046153846153846,1445774225918,80.0,0.0,100.22499999999995,0.201898734177213,0.4999999999999997,0.4050632911392405,0.08749999999999997,0.08085443037974685,2.025,2.0753164556962043
1445774226314,80.0,0.0,23.0,0.2749999999999999,0.35379746835443043,0.037500000000000006,0.35379746835443043,0,0.0,0.0,0,0.0,0.0,0,0.0,0.0,0,0.0,0.0,0,0.0,0.0,0,0.0,0.0,28,0.0,0.0,0,0.0,0.0,15,0.0,0.0,11,0.0,0.0,26,0.8846153846153845,0.18615384615384617,1445774226945,80.0,0.0,100.0375,0.03655063291139246,0.6249999999999998,0.23734177215189872,0.0625,0.05933544303797468,1.9374999999999998,1.1226265822784811
1445774227342,80.0,0.0,24.0,0.22500000000000006,0.17658227848101263,0.06249999999999998,0.17658227848101263,0,0.0,0.0,0,0.0,0.0,0,0.0,0.0,0,0.0,0.0,0,0.0,0.0,0,0.0,0.0,24,0.0,0.0,0,0.0,0.0,13,0.0,0.0,14,0.0,0.0,29,0.8275862068965517,0.5763546798029555,1445774227971,80.0,0.0,100.21249999999995,0.44794303797467916,0.5750000000000001,0.24746835443037976,0.05,0.04810126582278482,1.775,0.7841772151898735
1445774228366,80.0,0.0,17.0,0.2874999999999999,0.20743670886075957,0.0125,0.20743670886075957,0,0.0,0.0,0,0.0,0.0,0,0.0,0.0,0,0.0,0.0,0,0.0,0.0,0,0.0,0.0,27,0.0,0.0,0,0.0,0.0,11,0.0,0.0,16,0.0,0.0,26,0.6538461538461537,0.2353846153846153,1445774228996,80.0,0.0,100.1125,0.10110759493670797,0.48749999999999993,0.253006329113924,0.07499999999999998,0.07025316455696201,1.7624999999999995,0.461867088607595
1445774229392,80.0,0.0,19.0,0.23750000000000007,0.18338607594936704,0.07500000000000002,0.18338607594936704,0,0.0,0.0,0,0.0,0.0,0,0.0,0.0,0,0.0,0.0,0,0.0,0.0,0,0.0,0.0,24,0.0,0.0,0,0.0,0.0,10,0.0,0.0,18,0.0,0.0,28,0.6785714285714285,0.22619047619047614,1445774230022,80.0,0.0,100.19999999999997,0.1873417721518982,0.6624999999999999,0.22642405063291135,0.025,0.024683544303797465,1.6875000000000004,0.7998417721518983
1445774230419,80.0,0.0,17.0,0.18750000000000006,0.15427215189873414,0.15000000000000002,0.15427215189873414,0,0.0,0.0,0,0.0,0.0,0,0.0,0.0,0,0.0,0.0,0,0.0,0.0,0,0.0,0.0,24,0.0,0.0,0,0.0,0.0,13,0.0,0.0,15,0.06666666666666667,0.06666666666666665,28,0.5714285714285715,0.253968253968254,1445774231048,80.0,0.0,100.10000000000001,0.0911392405063304,0.6749999999999998,0.22215189873417723,0.03749999999999999,0.03655063291139241,1.8500000000000008,1.7746835443037987
1445774231444,80.0,0.0,22.0,0.2624999999999999,0.19604430379746826,0.06249999999999998,0.19604430379746826,0,0.0,0.0,0,0.0,0.0,0,0.0,0.0,0,0.0,0.0,0,0.0,0.0,0,0.0,0.0,25,0.0,0.0,0,0.0,0.0,16,0.0,0.0,11,0.0,0.0,28,0.7857142857142858,0.17460317460317457,1445774232073,80.0,0.0,100.23750000000001,0.18338607594936338,0.5750000000000002,0.24746835443037968,0.024999999999999998,0.024683544303797465,2.112499999999999,2.025158227848102
1445774232469,80.0,0.0,22.0,0.26249999999999996,0.19604430379746834,0.07499999999999997,0.19604430379746834,0,0.0,0.0,0,0.0,0.0,0,0.0,0.0,0,0.0,0.0,0,0.0,0.0,0,0.0,0.0,30,0.0,0.0,0,0.0,0.0,13,0.0,0.0,11,0.0,0.0,26,0.8461538461538461,0.13538461538461538,1445774233098,80.0,0.0,100.1875,0.15427215189873422,0.47500000000000003,0.2525316455696203,0.05000000000000002,0.04810126582278482,1.6500000000000001,0.5341772151898735
1445774233493,80.0,0.0,24.0,0.42500000000000004,0.2474683544303797,0.025,0.2474683544303797,0,0.0,0.0,0,0.0,0.0,0,0.0,0.0,0,0.0,0.0,0,0.0,0.0,0,0.0,0.0,17,0.0,0.0,0,0.0,0.0,14,0.0,0.0,18,0.0,0.0,31,0.7741935483870971,0.18064516129032254,1445774234124,80.0,0.0,100.25,0.18987341772152,0.5000000000000001,0.2531645569620253,0.0,0.0,1.5750000000000004,0.3234177215189874
1445774234519,80.0,0.0,22.0,0.32500000000000007,0.22215189873417718,0.10000000000000002,0.22215189873417718,0,0.0,0.0,0,0.0,0.0,0,0.0,0.0,0,0.0,0.0,0,0.0,0.0,0,0.0,0.0,24,0.0,0.0,0,0.0,0.0,13,0.0,0.0,15,0.0,0.0,28,0.7857142857142857,0.17460317460317454,1445774235150,80.0,0.0,100.19999999999997,0.26329113924050435,0.6875000000000002,0.2175632911392405,0.037500000000000006,0.036550632911392406,1.5500000000000003,0.47848101265822773
1445774235547,80.0,0.0,17.0,0.17500000000000004,0.14620253164556962,0.1125,0.14620253164556962,0,0.0,0.0,0,0.0,0.0,0,0.0,0.0,0,0.0,0.0,0,0.0,0.0,0,0.0,0.0,24,0.04166666666666666,0.041666666666666664,0,0.0,0.0,12,0.0,0.0,17,0.0,0.0,27,0.5925925925925928,0.25071225071225073,1445774236178,80.0,0.0,100.11250000000003,0.1011075949367084,0.8,0.1620253164556963,0.05,0.048101265822784796,1.8625000000000005,0.5504746835443037
1445774236574,80.0,0.0,15.0,0.23750000000000002,0.18338607594936712,0.07500000000000002,0.18338607594936712,0,0.0,0.0,0,0.0,0.0,0,0.0,0.0,0,0.0,0.0,0,0.0,0.0,0,0.0,0.0,29,0.0,0.0,0,0.0,0.0,13,0.0,0.0,12,0.0,0.0,26,0.5769230769230771,0.25384615384615383,1445774237202,80.0,0.0,100.07500000000002,0.07025316455696141,0.6874999999999999,0.2175632911392405,0.025000000000000005,0.024683544303797468,1.7375000000000003,0.6264240506329115
1445774237598,80.0,0.0,18.0,0.3249999999999999,0.3740506329113924,0.06250000000000001,0.3740506329113924,0,0.0,0.0,0,0.0,0.0,0,0.0,0.0,0,0.0,0.0,0,0.0,0.0,0,0.0,0.0,33,0.0,0.0,0,0.0,0.0,12,0.0,0.0,12,0.0,0.0,23,0.7826086956521738,0.17786561264822137,1445774238229,80.0,0.0,100.11250000000003,0.10110759493671043,0.6499999999999998,0.2556962025316456,0.01250000000000001,0.012499999999999999,1.8625000000000016,1.0314873417721524
1445774238626,80.0,0.0,18.0,0.2500000000000001,0.18987341772151892,0.05,0.18987341772151892,0,0.0,0.0,0,0.0,0.0,0,0.0,0.0,0,0.0,0.0,0,0.0,0.0,0,0.0,0.0,30,0.0,0.0,0,0.0,0.0,5,0.0,0.0,19,0.0,0.0,26,0.6923076923076925,0.2215384615384615,1445774239256,80.0,0.0,100.125,0.11075949367088729,0.7374999999999998,0.22136075949367084,0.025,0.024683544303797468,1.8624999999999996,0.7276898734177216
1445774239652,80.0,0.0,25.0,0.1875000000000001,0.15427215189873417,0.07500000000000002,0.15427215189873417,0,0.0,0.0,0,0.0,0.0,0,0.0,0.0,0,0.0,0.0,0,0.0,0.0,0,0.0,0.0,22,0.0,0.0,0,0.0,0.0,11,0.0,0.0,20,0.0,0.0,27,0.9259259259259257,0.14814814814814817,1445774240283,80.0,0.0,100.14999999999998,0.12911392405063407,0.5374999999999998,0.25174050632911393,0.037500000000000006,0.036550632911392406,1.8625,0.4492088607594936
1445774240682,80.0,0.0,24.0,0.22500000000000006,0.25253164556962027,0.05000000000000001,0.25253164556962027,0,0.0,0.0,0,0.0,0.0,0,0.0,0.0,0,0.0,0.0,0,0.0,0.0,0,0.0,0.0,22,0.0,0.0,0,0.0,0.0,15,0.0,0.0,13,0.0,0.0,30,0.8,0.16551724137931037,1445774241313,80.0,0.0,100.30000000000003,0.415189873417731,0.6124999999999997,0.2909810126582279,0.06249999999999998,0.05933544303797468,2.0375,0.9226265822784813
1445774241708,80.0,0.0,19.0,0.23750000000000007,0.18338607594936707,0.11250000000000003,0.18338607594936707,0,0.0,0.0,0,0.0,0.0,0,0.0,0.0,0,0.0,0.0,0,0.0,0.0,0,0.0,0.0,23,0.0,0.0,0,0.0,0.0,19,0.0,0.0,9,0.0,0.0,29,0.6551724137931035,0.23399014778325128,1445774242339,80.0,0.0,100.16250000000002,0.13781645569620107,0.6874999999999999,0.21756329113924047,0.0125,0.012500000000000004,1.7625000000000002,0.5884493670886077
1445774242735,80.0,0.0,21.0,0.175,0.1462025316455696,0.10000000000000003,0.1462025316455696,0,0.0,0.0,0,0.0,0.0,0,0.0,0.0,0,0.0,0.0,0,0.0,0.0,0,0.0,0.0,20,0.0,0.0,0,0.0,0.0,14,0.0,0.0,16,0.0,0.0,30,0.7,0.21724137931034485,1445774243365,80.0,0.0,100.15000000000005,0.1291139240506363,0.5999999999999999,0.24303797468354424,0.025,0.02468354430379746,2.162500000000001,2.441613924050634
1445774243760,80.0,0.0,18.0,0.3750000000000001,0.23734177215189872,0.0375,0.23734177215189872,0,0.0,0.0,0,0.0,0.0,0,0.0,0.0,0,0.0,0.0,0,0.0,0.0,0,0.0,0.0,27,0.0,0.0,0,0.0,0.0,14,0.0,0.0,13,0.0,0.0,26,0.6923076923076923,0.22153846153846155,1445774244389,80.0,0.0,100.17500000000003,0.14620253164557048,0.5874999999999999,0.24541139240506318,0.025,0.02468354430379747,1.4625,0.4289556962025315
1445774244784,80.0,0.0,20.0,0.37500000000000006,0.23734177215189864,0.025,0.23734177215189864,0,0.0,0.0,0,0.0,0.0,0,0.0,0.0,0,0.0,0.0,0,0.0,0.0,0,0.0,0.0,31,0.032258064516129045,0.032258064516129024,0,0.0,0.0,11,0.0,0.0,14,0.0,0.0,24,0.7916666666666667,0.17210144927536228,1445774245413,80.0,0.0,100.11250000000003,0.10110759493671136,0.6250000000000001,0.23734177215189872,0.0125,0.0125,1.5499999999999996,0.3265822784810127
1445774245808,80.0,0.0,17.0,0.23750000000000007,0.1833860759493671,0.07500000000000002,0.1833860759493671,0,0.0,0.0,0,0.0,0.0,0,0.0,0.0,0,0.0,0.0,0,0.0,0.0,0,0.0,0.0,31,0.0,0.0,0,0.0,0.0,12,0.0,0.0,11,0.0,0.0,26,0.6538461538461539,0.23538461538461536,1445774246437,80.0,0.0,100.15000000000002,0.12911392405063518,0.5750000000000002,0.2474683544303798,0.025,0.02468354430379747,1.6125000000000007,0.442879746835443
1445774246833,80.0,0.0,19.0,0.26249999999999996,0.19604430379746834,0.03749999999999999,0.19604430379746834,0,0.0,0.0,0,0.0,0.0,0,0.0,0.0,0,0.0,0.0,0,0.0,0.0,0,0.0,0.0,31,0.0,0.0,0,0.0,0.0,13,0.0,0.0,12,0.0,0.0,24,0.7916666666666667,0.25905797101449274,1445774247464,80.0,0.0,100.21250000000003,0.16946202531645363,0.4499999999999999,0.25063291139240523,0.03750000000000001,0.03655063291139241,1.975,0.6575949367088606
1445774247866,80.0,0.0,24.0,0.22500000000000006,0.3537974683544303,0.03749999999999999,0.3537974683544303,0,0.0,0.0,0,0.0,0.0,0,0.0,0.0,0,0.0,0.0,0,0.0,0.0,0,0.0,0.0,31,0.0,0.0,0,0.0,0.0,15,0.0,0.0,10,0.0,0.0,24,1.0,0.08695652173913043,1445774248496,80.0,0.0,100.38750000000002,0.6960443037974734,0.5749999999999998,0.3993670886075951,0.05000000000000002,0.04810126582278482,2.212500000000001,1.232753164556962
1445774248892,80.0,0.0,25.0,0.16250000000000003,0.13781645569620254,0.10000000000000002,0.13781645569620254,0,0.0,0.0,0,0.0,0.0,0,0.0,0.0,0,0.0,0.0,0,0.0,0.0,0,0.0,0.0,15,0.0,0.0,0,0.0,0.0,16,0.0,0.0,16,0.0,0.0,33,0.7575757575757576,0.1893939393939394,1445774249524,80.0,0.0,100.15000000000005,0.12911392405062908,0.7124999999999998,0.20743670886075943,0.025,0.024683544303797465,1.8625,0.5504746835443036
1445774249920,80.0,0.0,20.0,0.18750000000000003,0.15427215189873417,0.07499999999999998,0.15427215189873417,0,0.0,0.0,0,0.0,0.0,0,0.0,0.0,0,0.0,0.0,0,0.0,0.0,0,0.0,0.0,26,0.0,0.0,0,0.0,0.0,15,0.0,0.0,12,0.0,0.0,27,0.7407407407407408,0.19943019943019946,1445774250549,80.0,0.0,100.19999999999997,0.16202531645569485,0.4875,0.25300632911392407,0.025,0.024683544303797468,1.9625,1.758069620253164
1445774250944,80.0,0.0,25.0,0.21250000000000002,0.1694620253164557,0.06249999999999998,0.1694620253164557,0,0.0,0.0,0,0.0,0.0,0,0.0,0.0,0,0.0,0.0,0,0.0,0.0,0,0.0,0.0,25,0.0,0.0,0,0.0,0.0,12,0.0,0.0,16,0.0,0.0,27,0.9259259259259262,0.8404558404558405,1445774251573,80.0,0.0,100.17500000000001,0.1462025316455695,0.6250000000000002,0.23734177215189878,0.0375,0.036550632911392406,1.45,0.3265822784810125
