timeStamp,totalRequests,failedRequests,totalHandleTime,upstreamTime,upstreamTimeVar,downstreamTime,downstreamTimeVar,CREATE_CLIENT_N,CREATE_CLIENT_time,CREATE_CLIENT_timeVar,CLIENT_LIST_N,CLIENT_LIST_time,CLIENT_LIST_timeVar,QUEUE_LIST_N,QUEUE_LIST_time,QUEUE_LIST_timeVar,MESSAGE_COUNT_N,MESSAGE_COUNT_time,MESSAGE_COUNT_timeVar,CREATE_QUEUE_N,CREATE_QUEUE_time,CREATE_QUEUE_timeVar,DELETE_QUEUE_N,DELETE_QUEUE_time,DELETE_QUEUE_timeVar,SEND_MESSAGE_N,SEND_MESSAGE_time,SEND_MESSAGE_timeVar,RECEIVE_MESSAGE_N,RECEIVE_MESSAGE_time,RECEIVE_MESSAGE_timeVar,POP_QUEUE_N,POP_QUEUE_time,POP_QUEUE_timeVar,TOP_QUEUE_N,TOP_QUEUE_time,TOP_QUEUE_timeVar,INBOX_QUEUES_N,INBOX_QUEUES_time,INBOX_QUEUES_timeVar,timeStamp,totalRequests,failedRequests,clientThinkTime,clientThinkTimeVar,waitingForConnectionTime,waitingForConnectionTimeVar,upstreamTime,upstreamTimeVar,waitingForResponseTime,waitingForResponseTimeVar
1445774707770,892.0,0.0,807.0,0.1311659192825112,0.15000402631194854,0.06950672645739911,0.15000402631194854,0,0.0,0.0,254,0.97244094488189,0.3035853225856651,254,0.8346456692913387,0.36780679094955054,254,0.5905511811023622,0.24275621673773,84,1.452380952380952,0.395295467584624,0,0.0,0.0,46,1.652173913043479,1.076328502415459,0,0.0,0.0,0,0.0,0.0,0,0.0,0.0,0,0.0,0.0,1445774708709,594.0,0.0,100.39393939393939,3.1733864786141335,0.5589225589225585,0.3346335757802874,0.06060606060606055,0.05702897439828298,284.4175084175087,4038.0817165471412
1445774708771,597.0,0.0,909.0,0.10217755443886103,0.09189122345508301,0.04690117252931327,0.09189122345508301,0,0.0,0.0,0,0.0,0.0,0,0.0,0.0,0,0.0,0.0,0,0.0,0.0,0,0.0,0.0,597,1.5226130653266328,0.5485649725135746,0,0.0,0.0,0,0.0,0.0,0,0.0,0.0,0,0.0,0.0,1445774709711,599.0,0.0,100.1752921535894,0.14480656166073855,0.6010016694490818,0.5478919715691152,0.0467445742904841,0.04463403331081345,323.1302170283807,41.88268072205054
1445774709772,604.0,0.0,903.0,0.09271523178807943,0.0842586186067454,0.06622516556291391,0.0842586186067454,0,0.0,0.0,0,0.0,0.0,0,0.0,0.0,0,0.0,0.0,0,0.0,0.0,0,0.0,0.0,604,1.4950331125827814,0.3896933654025676,0,0.0,0.0,0,0.0,0.0,0,0.0,0.0,0,0.0,0.0,1445774710713,623.0,0.0,100.20224719101124,0.4734997651649258,0.6452648475120392,0.6826423332800012,0.04815409309791336,0.04590896657084016,310.41252006420535,7.577142031349254
1445774710774,619.0,0.0,891.0,0.12277867528271404,0.1984932373438733,0.04523424878836833,0.1984932373438733,0,0.0,0.0,0,0.0,0.0,0,0.0,0.0,0,0.0,0.0,0,0.0,0.0,0,0.0,0.0,619,1.4394184168012931,0.408540761537295,0,0.0,0.0,0,0.0,0.0,0,0.0,0.0,0,0.0,0.0,1445774711714,685.0,0.0,100.14160583941607,0.12173133563836645,0.6306569343065689,0.8531523455841545,0.023357664233576637,0.02284543475477013,294.7270072992703,1904.8010970248051
1445774711776,734.0,0.0,888.0,0.08719346049046314,0.11517001163521194,0.06130790190735696,0.11517001163521194,0,0.0,0.0,0,0.0,0.0,0,0.0,0.0,254,0.8110236220472443,0.1538700943014535,0,0.0,0.0,0,0.0,0.0,446,1.4506726457399106,0.7200332543961306,0,0.0,0.0,0,0.0,0.0,0,0.0,0.0,34,1.0294117647058827,0.029411764705882363,1445774712716,1913.0,0.0,100.3993727130162,2.9178238740876665,0.7370622059592261,0.9690074736388559,0.03188708834291693,0.03716259812295079,42.10663878724518,1554.9990824724855
1445774712778,1992.0,0.0,708.0,0.09437751004016062,0.14980262587265183,0.039658634538152715,0.14980262587265183,0,0.0,0.0,0,0.0,0.0,0,0.0,0.0,0,0.0,0.0,0,0.0,0.0,0,0.0,0.0,677,0.001477104874446086,0.0014771048744460853,0,0.0,0.0,338,0.0,0.0,297,0.010101010101010095,0.010032760032760032,680,1.0352941176470576,0.0664991769903837,1445774713717,2035.0,0.0,100.45012285012292,5.041144281852211,0.7405405405405403,0.6917430705041312,0.04570024570024575,0.2314404509094773,23.999508599508598,79.35054056470013
1445774713779,2032.0,0.0,683.0,0.09399606299212596,0.11572956768513253,0.05167322834645661,0.11572956768513253,0,0.0,0.0,0,0.0,0.0,0,0.0,0.0,0,0.0,0.0,0,0.0,0.0,0,0.0,0.0,683,0.0,0.0,0,0.0,0.0,326,0.0030674846625766855,0.0030674846625766885,349,0.0,0.0,674,1.011869436201782,0.07712488040176192,1445774714719,2086.0,0.0,100.27133269415157,1.32874134058046,0.6615532118887822,0.3304827662318852,0.031160115052732494,0.030203641497157003,19.91275167785237,98.9535351584505
1445774714780,2059.0,0.0,703.0,0.08984944147644497,0.1031962358245177,0.047595920349684386,0.1031962358245177,0,0.0,0.0,0,0.0,0.0,0,0.0,0.0,0,0.0,0.0,0,0.0,0.0,0,0.0,0.0,705,0.0,0.0,0,0.0,0.0,327,0.0,0.0,342,0.0,0.0,685,1.0262773722627754,0.08117983523285102,1445774715720,1947.0,0.0,100.16024653312799,0.13463673261259002,0.5921931176168457,0.26217951458775773,0.03492552645095023,0.03372305457417029,28.82126348228041,230.13555996497132
1445774715781,1985.0,0.0,722.0,0.094206549118388,0.1004956528804745,0.0403022670025189,0.1004956528804745,0,0.0,0.0,0,0.0,0.0,0,0.0,0.0,0,0.0,0.0,0,0.0,0.0,0,0.0,0.0,649,0.0,0.0,0,0.0,0.0,342,0.0,0.0,332,0.0,0.0,662,1.090634441087613,0.5333766014141363,1445774716721,1992.0,0.0,100.33785140562253,2.521158213970906,0.6706827309236948,0.5936553849753589,0.03363453815261039,0.03251958108677801,27.532630522088386,64.15363084684299
1445774716782,1944.0,0.0,697.0,0.09619341563785995,0.1127183897456101,0.05401234567901227,0.1127183897456101,0,0.0,0.0,0,0.0,0.0,0,0.0,0.0,0,0.0,0.0,0,0.0,0.0,0,0.0,0.0,647,0.001545595054095827,0.0015455950540958269,0,0.0,0.0,320,0.0,0.0,324,0.0,0.0,653,1.0658499234303211,0.37142400811732545,1445774717722,1935.0,0.0,100.16744186046516,0.13947716505134522,0.5741602067183468,0.2704798398841349,0.034625322997416004,0.033443693567307704,29.7777777777778,59.38595886475927
1445774717783,1943.0,0.0,703.0,0.09675759135357684,0.11318721566711004,0.050952135872362345,0.11318721566711004,0,0.0,0.0,0,0.0,0.0,0,0.0,0.0,0,0.0,0.0,0,0.0,0.0,0,0.0,0.0,604,0.0016556291390728477,0.0016556291390728477,0,0.0,0.0,316,0.006329113924050629,0.006309021498894916,355,0.0,0.0,668,1.0479041916167664,0.1086462756645629,1445774718724,1981.0,0.0,100.27006562342244,1.1598560057923915,0.8929833417465926,2.1057133679041775,0.028268551236749127,0.027483313702394922,28.42907622412918,143.07640667145895
1445774718784,1957.0,0.0,707.0,0.10066428206438444,0.10080221699044815,0.04649974450689827,0.10080221699044815,0,0.0,0.0,0,0.0,0.0,0,0.0,0.0,0,0.0,0.0,0,0.0,0.0,0,0.0,0.0,661,0.003025718608169442,0.0030211341860358477,0,0.0,0.0,340,0.0,0.0,307,0.0,0.0,649,1.086286594761171,0.37525918316878776,1445774719726,1940.0,0.0,100.16340206185563,0.13677232923762314,1.1634020618556677,5.0021668625022055,0.03969072164948465,0.038135025494063814,29.446391752577295,146.4153815071002
1445774719791,2005.0,0.0,759.0,0.06783042394014974,0.06326100915376232,0.048379052369077316,0.06326100915376232,0,0.0,0.0,0,0.0,0.0,0,0.0,0.0,0,0.0,0.0,0,0.0,0.0,0,0.0,0.0,648,0.0,0.0,0,0.0,0.0,339,0.0,0.0,340,0.0,0.0,678,1.1194690265486726,0.4539483144011182,1445774720727,2019.0,0.0,100.25606736007917,1.37790543847328,1.2243684992570594,5.655778528164782,0.032194155522535885,0.031173131759680513,25.676572560673595,64.51328140838443
1445774720792,2012.0,0.0,724.0,0.07902584493041756,0.08872943344408939,0.04821073558648114,0.08872943344408939,0,0.0,0.0,0,0.0,0.0,0,0.0,0.0,0,0.0,0.0,0,0.0,0.0,0,0.0,0.0,662,0.0015105740181268897,0.0015105740181268886,0,0.0,0.0,320,0.0,0.0,358,0.002793296089385473,0.0027932960893854754,672,1.0744047619047634,0.39385955574480175,1445774721729,2194.0,0.0,100.22835004557896,0.7207462960168727,0.6417502278942581,0.27378735938207305,0.03600729261622608,0.03472659547802918,14.355515041020977,44.33045976653148
1445774721793,2194.0,0.0,722.0,0.0811303555150411,0.0800541708701883,0.04056517775752053,0.0800541708701883,0,0.0,0.0,0,0.0,0.0,0,0.0,0.0,0,0.0,0.0,0,0.0,0.0,0,0.0,0.0,779,0.0,0.0,0,0.0,0.0,355,0.0,0.0,349,0.0,0.0,711,1.015471167369902,0.10821101008300164,1445774722730,2034.0,0.0,100.15339233038357,0.1299270009445913,0.6553588987217318,0.26335788883617056,0.04277286135693219,0.04096348306047569,24.688790560471983,100.51844782330487
1445774722794,2045.0,0.0,754.0,0.07237163814180948,0.06716682854941892,0.04107579462102693,0.06716682854941892,0,0.0,0.0,0,0.0,0.0,0,0.0,0.0,0,0.0,0.0,0,0.0,0.0,0,0.0,0.0,619,0.00161550888529887,0.001615508885298869,0,0.0,0.0,365,0.0,0.0,354,0.0,0.0,707,1.0650636492220642,0.1883952863113101,1445774723732,2139.0,0.0,100.24216923796172,0.8936184914573913,0.7433380084151459,1.2619703305051044,0.03646563814866769,0.035152329384660376,18.256661991584817,110.14597407231993
1445774723795,2124.0,0.0,757.0,0.07438794726930317,0.07736538122065467,0.0357815442561205,0.07736538122065467,0,0.0,0.0,0,0.0,0.0,0,0.0,0.0,0,0.0,0.0,0,0.0,0.0,0,0.0,0.0,710,0.001408450704225352,0.0014084507042253522,0,0.0,0.0,341,0.0,0.0,364,0.0,0.0,709,1.0662905500705218,0.45181404540492226,1445774724734,2090.0,0.0,100.21961722488045,0.796647053030109,0.7574162679425835,0.4432791038041601,0.030143540669856504,0.08190567589171788,19.64545454545454,81.11645850559209
1445774724797,2046.0,0.0,764.0,0.07331378299120248,0.07188407459722232,0.039100684261974654,0.07188407459722232,0,0.0,0.0,0,0.0,0.0,0,0.0,0.0,0,0.0,0.0,0,0.0,0.0,0,0.0,0.0,684,0.0,0.0,0,0.0,0.0,346,0.0,0.0,336,0.0,0.0,680,1.123529411764706,0.3941436368361781,1445774725735,1850.0,0.0,100.2070270270271,0.5871869381550223,0.9556756756756764,1.2614199055735016,0.03189189189189194,0.06983146478008562,36.589729729729754,120.69854238229566
1445774725798,1901.0,0.0,784.0,0.07206733298264077,0.06690882914809378,0.03892688058916357,0.06690882914809378,0,0.0,0.0,0,0.0,0.0,0,0.0,0.0,0,0.0,0.0,0,0.0,0.0,0,0.0,0.0,624,0.0016025641025641036,0.0016025641025641027,0,0.0,0.0,326,0.0,0.0,311,0.0,0.0,640,1.2234374999999995,0.5838003716744915,1445774726736,2101.0,0.0,100.17753450737763,0.307037918451529,0.6144693003331755,0.2617714920332721,0.03617325083293667,0.03488134901747468,20.315088053307957,66.61686271843358
1445774726800,2085.0,0.0,730.0,0.07146282973621106,0.07214589173191199,0.05131894484412479,0.07214589173191199,0,0.0,0.0,0,0.0,0.0,0,0.0,0.0,0,0.0,0.0,0,0.0,0.0,0,0.0,0.0,659,0.0,0.0,0,0.0,0.0,359,0.0,0.0,347,0.0,0.0,720,1.0138888888888895,0.18339514758151726,1445774727737,2154.0,0.0,100.22330547818007,0.76803997445208,0.6323119777158764,0.27161685385553885,0.045961002785515306,0.09496045551520385,16.77808727948007,53.53828412428782
1445774727802,2154.0,0.0,733.0,0.07985143918291554,0.08744335924781192,0.04085422469823586,0.08744335924781192,0,0.0,0.0,0,0.0,0.0,0,0.0,0.0,0,0.0,0.0,0,0.0,0.0,0,0.0,0.0,723,0.0,0.0,0,0.0,0.0,377,0.0,0.0,340,0.0,0.0,714,1.0266106442577023,0.10448022126101492,1445774728738,2096.0,0.0,100.25286259541993,0.9498724698937692,0.6750954198473289,0.6251742152343832,0.031011450381679472,0.030064083878372703,20.92652671755726,76.16739146277015
1445774728803,2104.0,0.0,738.0,0.07319391634980993,0.07072189105189225,0.044676806083650315,0.07072189105189225,0,0.0,0.0,0,0.0,0.0,0,0.0,0.0,0,0.0,0.0,0,0.0,0.0,0,0.0,0.0,654,0.0,0.0,0,0.0,0.0,363,0.0,0.0,366,0.0,0.0,721,1.02357836338419,0.10638773308676217,1445774729740,2052.0,0.0,100.19200779727113,0.3599946015968896,0.7499999999999993,0.9403949293027789,0.032163742690058485,0.03114441393586351,23.648635477582822,98.74678994604415
1445774729806,2020.0,0.0,752.0,0.08217821782178221,0.08140585232371676,0.03613861386138615,0.08140585232371676,0,0.0,0.0,0,0.0,0.0,0,0.0,0.0,0,0.0,0.0,0,0.0,0.0,0,0.0,0.0,647,0.0,0.0,0,0.0,0.0,350,0.0,0.0,334,0.0,0.0,689,1.0914368650217698,0.359359705673879,1445774730742,2004.0,0.0,100.16317365269471,0.1515937172086179,0.6666666666666677,0.5099018139457493,0.02694610778443109,0.026233105431672833,24.04740518962076,110.06814603444168
1445774730807,2066.0,0.0,757.0,0.07260406582768633,0.07414498311179045,0.04162633107454023,0.07414498311179045,0,0.0,0.0,0,0.0,0.0,0,0.0,0.0,0,0.0,0.0,0,0.0,0.0,0,0.0,0.0,689,0.0,0.0,0,0.0,0.0,369,0.005420054200542002,0.005405325792388356,327,0.0030581039755351665,0.003058103975535168,681,1.1071953010279008,0.5929040338602403,1445774731744,2172.0,0.0,100.27255985267028,1.1831619379176284,0.6864640883977897,0.6372556629198034,0.038674033149171255,0.07865102773628266,18.22559852670347,58.15543837950953
1445774731808,2147.0,0.0,726.0,0.07871448532836518,0.07255230753937844,0.04145319049836981,0.07255230753937844,0,0.0,0.0,0,0.0,0.0,0,0.0,0.0,0,0.0,0.0,0,0.0,0.0,0,0.0,0.0,735,0.0,0.0,0,0.0,0.0,362,0.0,0.0,339,0.0,0.0,711,1.0210970464135036,0.18124442859689777,1445774732745,2186.0,0.0,100.17291857273557,0.3151655741446004,0.6793229643183889,0.3415127679575253,0.02927721866422689,0.028433070025395666,14.819304666056704,78.76046926457317
1445774732810,2194.0,0.0,713.0,0.08842297174111215,0.09158501754775387,0.036463081130355554,0.09158501754775387,0,0.0,0.0,0,0.0,0.0,0,0.0,0.0,0,0.0,0.0,0,0.0,0.0,0,0.0,0.0,772,0.0,0.0,0,0.0,0.0,352,0.0,0.0,361,0.0,0.0,709,1.005641748942174,0.05081558333930976,1445774733746,2190.0,0.0,100.21141552511416,0.4920578400512363,0.584018264840182,0.3499500407809078,0.03652968036529678,0.035211341055630875,15.379452054794521,60.43932176448873
1445774733811,2214.0,0.0,716.0,0.0853658536585365,0.10341882225871508,0.03568202348690156,0.10341882225871508,0,0.0,0.0,0,0.0,0.0,0,0.0,0.0,0,0.0,0.0,0,0.0,0.0,0,0.0,0.0,766,0.0,0.0,0,0.0,0.0,362,0.0,0.0,368,0.0,0.0,718,0.9972144846796658,0.047412034824768856,1445774734748,2148.0,0.0,100.19972067039103,0.3788168758277753,0.6066108007448783,0.28066424156004793,0.029795158286778395,0.02892087092205223,17.013500931098697,81.2615782361425
1445774734813,2105.0,0.0,739.0,0.08028503562945367,0.07387444343090409,0.042280285035629486,0.07387444343090409,0,0.0,0.0,0,0.0,0.0,0,0.0,0.0,0,0.0,0.0,0,0.0,0.0,0,0.0,0.0,665,0.0,0.0,0,0.0,0.0,383,0.0,0.0,325,0.0,0.0,732,1.0095628415300562,0.09703564994430869,1445774735749,2147.0,0.0,100.22682813227756,0.6069593194691579,0.6590591523055447,0.39069492054410915,0.04145319049836985,0.03975333925705742,17.41453190498373,52.85138238796121
1445774735814,2181.0,0.0,738.0,0.08023842274186156,0.0765863651468688,0.03713892709766156,0.0765863651468688,0,0.0,0.0,0,0.0,0.0,0,0.0,0.0,0,0.0,0.0,0,0.0,0.0,0,0.0,0.0,719,0.0,0.0,0,0.0,0.0,379,0.0,0.0,360,0.0,0.0,723,1.020746887966805,0.1366880840450111,1445774736750,2189.0,0.0,100.18912745545914,0.31247771180983697,0.5979899497487438,0.2935242942316704,0.028780264961169505,0.047160348860807326,16.253997259022388,47.078051884818834
1445774736815,2167.0,0.0,732.0,0.07891093677895689,0.07271755762271398,0.04014766958929406,0.07271755762271398,0,0.0,0.0,0,0.0,0.0,0,0.0,0.0,0,0.0,0.0,0,0.0,0.0,0,0.0,0.0,724,0.0013812154696132596,0.00138121546961326,0,0.0,0.0,372,0.002688172043010754,0.002688172043010753,342,0.0,0.0,729,1.0013717421124833,0.07005306079380155,1445774737752,2153.0,0.0,100.22898281467707,0.750981167455453,0.6507199256850917,0.2803630967078018,0.03390617742684631,0.032771770003643265,17.094287041337715,95.34194225400023
1445774737818,2156.0,0.0,735.0,0.07606679035250469,0.07866591479451926,0.04128014842300554,0.07866591479451926,0,0.0,0.0,0,0.0,0.0,0,0.0,0.0,0,0.0,0.0,0,0.0,0.0,0,0.0,0.0,755,0.0,0.0,0,0.0,0.0,353,0.0,0.0,353,0.0,0.0,695,1.0575539568345333,0.34250409470694354,1445774738754,2098.0,0.0,100.18446139180159,0.3336258661767951,0.6568160152526222,0.30467693418306524,0.03527168732125842,0.034043822192764354,20.216396568160178,97.68514828710305
1445774738819,2109.0,0.0,761.0,0.0701754385964914,0.06623056692965819,0.035561877667140765,0.06623056692965819,0,0.0,0.0,0,0.0,0.0,0,0.0,0.0,0,0.0,0.0,0,0.0,0.0,0,0.0,0.0,713,0.0,0.0,0,0.0,0.0,355,0.002816901408450702,0.0028169014084507057,343,0.0029154518950437296,0.0029154518950437326,698,1.087392550143266,0.28073035070482183,1445774739755,2182.0,0.0,100.19569202566461,0.4105637345443624,0.6333638863428037,0.294677262299057,0.03299725022914768,0.03192306189064712,15.248395967002754,41.20833075923189
1445774739822,2182.0,0.0,727.0,0.08295142071494052,0.09261155105483536,0.03849679193400553,0.09261155105483536,0,0.0,0.0,0,0.0,0.0,0,0.0,0.0,0,0.0,0.0,0,0.0,0.0,0,0.0,0.0,735,0.0013605442176870745,0.001360544217687075,0,0.0,0.0,382,0.0,0.0,340,0.0,0.0,725,1.0013793103448267,0.056627929129357955,1445774740756,2181.0,0.0,100.19532324621737,0.4453175674823063,0.6304447501146265,0.3110726920148571,0.02842732691425955,0.02763188336298898,14.699220541036254,63.551692052715495
1445774740827,2192.0,0.0,733.0,0.07390510948905128,0.07395133375754159,0.04379562043795627,0.07395133375754159,0,0.0,0.0,0,0.0,0.0,0,0.0,0.0,0,0.0,0.0,0,0.0,0.0,0,0.0,0.0,726,0.0,0.0,0,0.0,0.0,377,0.002652519893899204,0.002652519893899205,353,0.0,0.0,736,0.9945652173913053,0.0707187222715173,1445774741757,2153.0,0.0,100.18764514630759,0.3374495171430346,1.1681374825824409,465.00331516324496,0.031119368323269857,0.030164963904433496,18.828146771946138,82.61450478885699
1445774741828,2142.0,0.0,761.0,0.07422969187675076,0.0743565992487606,0.0359477124183006,0.0743565992487606,0,0.0,0.0,0,0.0,0.0,0,0.0,0.0,0,0.0,0.0,0,0.0,0.0,0,0.0,0.0,669,0.0,0.0,0,0.0,0.0,385,0.0,0.0,350,0.0,0.0,738,1.0311653116531163,0.2690409739918298,1445774742758,2160.0,0.0,100.29074074074076,1.2466025080198317,0.7166666666666677,0.7432144511347842,0.03379629629629625,0.03266923129706825,14.939351851851873,44.44884441528142
1445774742829,2184.0,0.0,744.0,0.0769230769230771,0.09760738574297904,0.03754578754578746,0.09760738574297904,0,0.0,0.0,0,0.0,0.0,0,0.0,0.0,0,0.0,0.0,0,0.0,0.0,0,0.0,0.0,727,0.0,0.0,0,0.0,0.0,357,0.0,0.0,374,0.0,0.0,726,1.0247933884297526,0.0600740951838131,1445774743759,2240.0,0.0,100.20669642857158,0.5240283848018743,0.6575892857142864,0.4566194650035093,0.03348214285714287,0.03237554233395012,13.725892857142876,48.70911041281181
1445774743831,2214.0,0.0,750.0,0.07271906052393853,0.07830647594019237,0.03613369467028002,0.07830647594019237,0,0.0,0.0,0,0.0,0.0,0,0.0,0.0,0,0.0,0.0,0,0.0,0.0,0,0.0,0.0,740,0.0,0.0,0,0.0,0.0,336,0.0,0.0,396,0.0,0.0,742,1.0107816711590312,0.04846659464335735,1445774744761,2192.0,0.0,100.18202554744529,0.263976178260767,0.6240875912408758,0.2584428001745692,0.03786496350364965,0.036447835704790994,15.02828467153284,45.285370310527234
1445774744832,2220.0,0.0,730.0,0.07972972972972975,0.08872818289222086,0.03918918918918917,0.08872818289222086,0,0.0,0.0,0,0.0,0.0,0,0.0,0.0,0,0.0,0.0,0,0.0,0.0,0,0.0,0.0,707,0.0,0.0,0,0.0,0.0,370,0.0,0.0,398,0.0,0.0,745,0.9798657718120815,0.03857256260373819,1445774745774,2202.0,0.0,100.20980926430511,0.42029446610222854,0.7974568574023624,1.7436009806458221,0.0299727520435967,0.029087595804235596,15.902815622161723,27.85970129175043
1445774745833,2143.0,0.0,724.0,0.0821278581427906,0.08755625441964004,0.04106392907139531,0.08755625441964004,0,0.0,0.0,0,0.0,0.0,0,0.0,0.0,0,0.0,0.0,0,0.0,0.0,0,0.0,0.0,732,0.0013661202185792352,0.0013661202185792365,0,0.0,0.0,357,0.0,0.0,346,0.002890173410404621,0.0028901734104046263,708,1.0197740112994362,0.07032979326988399,1445774746775,2174.0,0.0,100.19917203311881,0.362060980055042,0.6839926402943881,0.44910397785653194,0.03173873045078203,0.030745525816335065,16.6057957681693,104.10546110139025
1445774746834,2167.0,0.0,707.0,0.08583294877711127,0.08681212905238095,0.041532071988924835,0.08681212905238095,0,0.0,0.0,0,0.0,0.0,0,0.0,0.0,0,0.0,0.0,0,0.0,0.0,0,0.0,0.0,744,0.0,0.0,0,0.0,0.0,359,0.0,0.0,350,0.0,0.0,714,0.9901960784313726,0.054602205538596904,1445774747777,2129.0,0.0,100.19163926726172,0.33355788484833854,0.5932362611554727,0.28841287695518747,0.032879286049788715,0.031813181379941116,18.83983090652894,91.54905185109331
1445774747840,2159.0,0.0,709.0,0.08846688281611861,0.09735997469051054,0.042149143121815814,0.09735997469051054,0,0.0,0.0,0,0.0,0.0,0,0.0,0.0,0,0.0,0.0,0,0.0,0.0,0,0.0,0.0,730,0.0013698630136986306,0.0013698630136986306,0,0.0,0.0,370,0.0,0.0,346,0.0,0.0,713,0.9929873772791026,0.06596199000898252,1445774748778,2208.0,0.0,100.20878623188395,0.46250545858697495,0.6494565217391309,0.2948252595496545,0.02898550724637681,0.028158100378899792,14.388134057971008,62.4478337618118
1445774748844,2184.0,0.0,751.0,0.07234432234432238,0.07263838619770828,0.0402930402930403,0.07263838619770828,0,0.0,0.0,0,0.0,0.0,0,0.0,0.0,0,0.0,0.0,0,0.0,0.0,0,0.0,0.0,679,0.0,0.0,0,0.0,0.0,364,0.0,0.0,383,0.0,0.0,758,0.990765171503958,0.04086572813808152,1445774749784,2110.0,0.0,100.18862559241722,0.3437302106296853,0.6734597156398097,0.34993539311324295,0.03317535545023696,0.05200461124631753,19.668246445497587,95.1198542019195
1445774749847,2104.0,0.0,751.0,0.07747148288973388,0.07720977094102384,0.03754752851711029,0.07720977094102384,0,0.0,0.0,0,0.0,0.0,0,0.0,0.0,0,0.0,0.0,0,0.0,0.0,0,0.0,0.0,675,0.0,0.0,0,0.0,0.0,361,0.002770083102493072,0.0027700831024930757,355,0.0,0.0,713,1.0518934081346407,0.06893250547614921,1445774750786,2149.0,0.0,100.17031177291766,0.20375507035015838,0.7757096323871582,0.5427802806380856,0.031177291763610938,0.03021933028484082,17.051651931130777,106.0396958266503
1445774750848,2185.0,0.0,718.0,0.08192219679633872,0.07982414229553823,0.041189931350114485,0.07982414229553823,0,0.0,0.0,0,0.0,0.0,0,0.0,0.0,0,0.0,0.0,0,0.0,0.0,0,0.0,0.0,736,0.0013586956521739128,0.001358695652173914,0,0.0,0.0,356,0.0,0.0,371,0.0,0.0,722,0.9930747922437676,0.07068706513345188,1445774751788,2175.0,0.0,100.20229885057498,0.37947953346233493,0.6059770114942522,0.3299550592688927,0.03310344827586211,0.032022332899787495,15.32735632183907,34.02342332053846
1445774751850,2133.0,0.0,739.0,0.0796999531176746,0.07338227390712729,0.03844350679793715,0.07338227390712729,0,0.0,0.0,0,0.0,0.0,0,0.0,0.0,0,0.0,0.0,0,0.0,0.0,0,0.0,0.0,767,0.0,0.0,0,0.0,0.0,358,0.0,0.0,319,0.0,0.0,689,1.0725689404934684,0.14007493165018403,1445774752789,2156.0,0.0,100.22077922077916,0.5702594389369335,0.6150278293135444,0.37052115931797824,0.030612244897959155,0.029688905724702865,19.054730983302413,114.87403329186553
1445774752852,2180.0,0.0,720.0,0.08348623853211024,0.08756562853930966,0.03807339449541295,0.08756562853930966,0,0.0,0.0,0,0.0,0.0,0,0.0,0.0,0,0.0,0.0,0,0.0,0.0,0,0.0,0.0,708,0.0014124293785310734,0.0014124293785310734,0,0.0,0.0,356,0.0,0.0,392,0.0,0.0,724,0.9930939226519331,0.06219290402940487,1445774753795,2168.0,0.0,100.21725092250932,0.47193115620588477,0.6388376383763823,0.4394138767183709,0.03736162361623627,0.035982329712544954,14.934963099630988,51.329870695453636
1445774753853,2177.0,0.0,728.0,0.07946715663757481,0.07594309830041347,0.040881947634359324,0.07594309830041347,0,0.0,0.0,0,0.0,0.0,0,0.0,0.0,0,0.0,0.0,0,0.0,0.0,0,0.0,0.0,725,0.0027586206896551752,0.0027548104400838234,0,0.0,0.0,374,0.0026737967914438497,0.002673796791443851,343,0.0,0.0,735,0.986394557823129,0.04613616563791725,1445774754796,2185.0,0.0,100.18032036613288,0.2586784687471203,0.6018306636155616,0.3212420683816573,0.04210526315789469,0.0495083863504917,16.409153318077784,108.76658284507263
1445774754855,2194.0,0.0,726.0,0.08113035551504118,0.08279014898236328,0.036918869644484945,0.08279014898236328,0,0.0,0.0,0,0.0,0.0,0,0.0,0.0,0,0.0,0.0,0,0.0,0.0,0,0.0,0.0,750,0.0013333333333333337,0.0013333333333333335,0,0.0,0.0,362,0.0,0.0,362,0.0,0.0,720,1.0069444444444453,0.07366519857827226,1445774755798,2163.0,0.0,100.18908922792416,0.37079671867669417,0.6329172445677295,0.3749011527228387,0.03236245954692556,0.03132961509330027,17.067498844197843,67.8853585424362
1445774755857,2169.0,0.0,710.0,0.08483171968649161,0.08136114556166317,0.04610419548178886,0.08136114556166317,0,0.0,0.0,0,0.0,0.0,0,0.0,0.0,0,0.0,0.0,0,0.0,0.0,0,0.0,0.0,737,0.0,0.0,0,0.0,0.0,384,0.0,0.0,336,0.0,0.0,712,0.9971910112359545,0.04218619131149358,1445774756799,2226.0,0.0,100.18733153638807,0.2475877525061345,0.66576819407008,0.37183439837669163,0.02291105121293803,0.027789454556467467,13.61635220125789,30.539489788707442
1445774756858,2212.0,0.0,734.0,0.07820976491862583,0.07755301251428229,0.036618444846292904,0.07755301251428229,0,0.0,0.0,0,0.0,0.0,0,0.0,0.0,0,0.0,0.0,0,0.0,0.0,0,0.0,0.0,749,0.0,0.0,0,0.0,0.0,359,0.00278551532033426,0.0027855153203342627,371,0.002695417789757411,0.002695417789757413,733,0.9986357435197809,0.042347863037595336,1445774757800,2232.0,0.0,100.17831541218636,0.2505739426041347,0.6630824372759834,0.3113572356932054,0.03091397849462372,0.035350486545885726,13.318100358422955,42.03233919566101
1445774757859,2209.0,0.0,745.0,0.07514712539610681,0.08040107662329994,0.0375735626980534,0.08040107662329994,0,0.0,0.0,0,0.0,0.0,0,0.0,0.0,0,0.0,0.0,0,0.0,0.0,0,0.0,0.0,771,0.0,0.0,0,0.0,0.0,345,0.002898550724637679,0.0028985507246376816,376,0.0,0.0,717,1.0376569037656886,0.05304925083565131,1445774758801,2158.0,0.0,100.22659870250224,0.5082027049032799,0.6376274328081565,0.3062701216763924,0.03985171455050979,0.0716609886641893,16.26042632066732,103.93214668882021
1445774758864,2177.0,0.0,713.0,0.08911345888837847,0.10143014199248845,0.04134129536058802,0.10143014199248845,0,0.0,0.0,0,0.0,0.0,0,0.0,0.0,0,0.0,0.0,0,0.0,0.0,0,0.0,0.0,756,0.0,0.0,0,0.0,0.0,346,0.0,0.0,363,0.002754820936639117,0.00275482093663912,712,1.0000000000000018,0.0618846694796062,1445774759802,2183.0,0.0,100.18689876316986,0.24461288021386965,0.646816307833256,0.2936275771491485,0.027943197434722854,0.03634072637785601,16.611085661933135,48.9444600031995
1445774759865,2169.0,0.0,741.0,0.07284462886122645,0.07310449660513223,0.041032733978792105,0.07310449660513223,0,0.0,0.0,0,0.0,0.0,0,0.0,0.0,0,0.0,0.0,0,0.0,0.0,0,0.0,0.0,705,0.0014184397163120573,0.0014184397163120568,0,0.0,0.0,371,0.0,0.0,359,0.0,0.0,734,1.008174386920982,0.05996037336763184,1445774760804,2033.0,0.0,100.19773733398902,0.3467074762482043,0.771273979340875,0.5170484253905051,0.03393999016232165,0.032804203089960515,21.97343826856863,102.23748310359389
1445774760866,2040.0,0.0,745.0,0.07549019607843153,0.0708065276134976,0.045098039215686295,0.0708065276134976,0,0.0,0.0,0,0.0,0.0,0,0.0,0.0,0,0.0,0.0,0,0.0,0.0,0,0.0,0.0,682,0.0,0.0,0,0.0,0.0,364,0.0,0.0,318,0.0,0.0,676,1.1020710059171595,0.42956607495069,1445774761805,1959.0,0.0,100.1796835119959,0.2792397363521151,1.0285860132720759,2.484371390835934,0.027054619703930558,0.03655061550341765,29.621235324144934,56.230314918547315
1445774761868,1963.0,0.0,778.0,0.07794192562404491,0.07598108327192715,0.03362200713194098,0.07598108327192715,0,0.0,0.0,0,0.0,0.0,0,0.0,0.0,0,0.0,0.0,0,0.0,0.0,0,0.0,0.0,636,0.0,0.0,0,0.0,0.0,357,0.0,0.0,306,0.0,0.0,664,1.171686746987952,0.790992022388196,1445774762807,1992.0,0.0,100.20381526104407,0.4265449543023955,0.9131526104417671,0.7182196894055376,0.022088353413654636,0.02161130710688051,25.270080321285096,95.60356443352498
1445774762873,1986.0,0.0,753.0,0.08106747230614315,0.07856329317819186,0.042296072507552886,0.07856329317819186,0,0.0,0.0,0,0.0,0.0,0,0.0,0.0,0,0.0,0.0,0,0.0,0.0,0,0.0,0.0,695,0.0,0.0,0,0.0,0.0,324,0.003086419753086417,0.003086419753086421,319,0.0,0.0,648,1.1604938271604943,0.7037227851241249,1445774763817,2173.0,0.0,100.21260929590414,0.4603013376115081,0.659456971928209,0.3554319333457071,0.032213529682466595,0.031190171695316463,18.92728946157384,143.77371626838342
1445774763874,2154.0,0.0,743.0,0.08310120705663893,0.08459121409050706,0.03342618384401116,0.08459121409050706,0,0.0,0.0,0,0.0,0.0,0,0.0,0.0,0,0.0,0.0,0,0.0,0.0,0,0.0,0.0,748,0.0,0.0,0,0.0,0.0,348,0.0,0.0,358,0.0,0.0,700,1.0614285714285687,0.6213999591252813,1445774764818,2204.0,0.0,100.19192377495459,0.3140337009506089,0.6678765880217795,0.3453861381897151,0.03266787658802175,0.03706214838205288,14.715517241379317,53.903145397342215
1445774764876,2213.0,0.0,741.0,0.07907817442385896,0.07918685328925162,0.032986895616809744,0.07918685328925162,0,0.0,0.0,0,0.0,0.0,0,0.0,0.0,0,0.0,0.0,0,0.0,0.0,0,0.0,0.0,780,0.0012820512820512823,0.0012820512820512823,0,0.0,0.0,342,0.0029239766081871335,0.0029239766081871356,370,0.0027027027027027033,0.002702702702702703,721,1.0235783633841884,0.11749884419787321,1445774765819,2186.0,0.0,100.17337602927728,0.25962951254184247,0.6688014638609339,0.3021566406568951,0.03522415370539795,0.033998965750427615,15.21683440073192,49.43579885311363
1445774765877,2207.0,0.0,748.0,0.07068418667874941,0.0684375643146489,0.04032623470774811,0.0684375643146489,0,0.0,0.0,0,0.0,0.0,0,0.0,0.0,0,0.0,0.0,0,0.0,0.0,0,0.0,0.0,727,0.0,0.0,0,0.0,0.0,374,0.0,0.0,368,0.0,0.0,738,1.0135501355013559,0.045949116207579944,1445774766820,2214.0,0.0,100.25383920505864,0.8365758548382276,0.6269196025293586,0.30629714943029857,0.035230352303523074,0.05298329530968156,13.682475158084944,47.23984637873174
1445774766879,2222.0,0.0,743.0,0.07335733573357343,0.07070812889483456,0.03735373537353737,0.07070812889483456,0,0.0,0.0,0,0.0,0.0,0,0.0,0.0,0,0.0,0.0,0,0.0,0.0,0,0.0,0.0,720,0.0,0.0,0,0.0,0.0,385,0.0,0.0,369,0.0,0.0,748,0.9933155080213903,0.07626047863468127,1445774767821,2154.0,0.0,100.19452181987016,0.2682282199138246,0.6355617455896002,0.35992381341748103,0.033426183844011165,0.04161324420029309,17.071959145775327,63.62278046094033
1445774767881,2127.0,0.0,751.0,0.07334273624823677,0.07081774842204844,0.04419370004701466,0.07081774842204844,0,0.0,0.0,0,0.0,0.0,0,0.0,0.0,0,0.0,0.0,0,0.0,0.0,0,0.0,0.0,678,0.0014749262536873152,0.0014749262536873167,0,0.0,0.0,352,0.0,0.0,367,0.005449591280653947,0.005434701686990958,730,1.0246575342465754,0.05151737226826012,1445774768822,2201.0,0.0,100.2244434348023,0.5659658832762064,0.669241253975467,0.4305489240427903,0.03452975920036354,0.03335260831853291,15.50295320308953,45.79374127462715
1445774768883,2206.0,0.0,732.0,0.0784224841341794,0.07230517471418904,0.04261106074342705,0.07230517471418904,0,0.0,0.0,0,0.0,0.0,0,0.0,0.0,0,0.0,0.0,0,0.0,0.0,0,0.0,0.0,736,0.0,0.0,0,0.0,0.0,365,0.0,0.0,372,0.0,0.0,733,0.9986357435197817,0.053276824786229096,1445774769823,2097.0,0.0,100.19074868860287,0.3433685708773338,0.6494992846924191,0.2850104838973886,0.03433476394849786,0.033171706581921756,18.83309489747263,146.9005645105509
1445774769887,2082.0,0.0,761.0,0.07829010566762752,0.07219544102651448,0.03410182516810765,0.07219544102651448,0,0.0,0.0,0,0.0,0.0,0,0.0,0.0,0,0.0,0.0,0,0.0,0.0,0,0.0,0.0,672,0.0,0.0,0,0.0,0.0,340,0.0,0.0,360,0.0027777777777777753,0.0027777777777777796,710,1.070422535211268,0.09376427819384574,1445774770825,2166.0,0.0,100.1883656509695,0.33586457940158443,0.6962142197599275,0.4037454764905454,0.034626038781163444,0.038985241150768096,17.86703601108034,126.28069578345983
