timeStamp,totalRequests,failedRequests,totalHandleTime,upstreamTime,upstreamTimeVar,downstreamTime,downstreamTimeVar,CREATE_CLIENT_N,CREATE_CLIENT_time,CREATE_CLIENT_timeVar,CLIENT_LIST_N,CLIENT_LIST_time,CLIENT_LIST_timeVar,QUEUE_LIST_N,QUEUE_LIST_time,QUEUE_LIST_timeVar,MESSAGE_COUNT_N,MESSAGE_COUNT_time,MESSAGE_COUNT_timeVar,CREATE_QUEUE_N,CREATE_QUEUE_time,CREATE_QUEUE_timeVar,DELETE_QUEUE_N,DELETE_QUEUE_time,DELETE_QUEUE_timeVar,SEND_MESSAGE_N,SEND_MESSAGE_time,SEND_MESSAGE_timeVar,RECEIVE_MESSAGE_N,RECEIVE_MESSAGE_time,RECEIVE_MESSAGE_timeVar,POP_QUEUE_N,POP_QUEUE_time,POP_QUEUE_timeVar,TOP_QUEUE_N,TOP_QUEUE_time,TOP_QUEUE_timeVar,INBOX_QUEUES_N,INBOX_QUEUES_time,INBOX_QUEUES_timeVar,timeStamp,totalRequests,failedRequests,clientThinkTime,clientThinkTimeVar,waitingForConnectionTime,waitingForConnectionTimeVar,upstreamTime,upstreamTimeVar,waitingForResponseTime,waitingForResponseTimeVar,waitingForResponseTimeSD,mwWorkers
1445541723037,1302.6,0,845,0.0758483034,0.0737859406,0.0396130815,0.0737859406,0,0,0,0,0,0,0,0,0,0,0,0,0,0,0,0,0,0,4353,0.0002297266,0.0002297266,0,0,0,2159,0.0004631774,0.0004631774,2177,0.0009186955,0.0009182733,4337,1.9474290985,0.2223279138,1445541723003,1304.8,0,100.1534334764,0.2099199954,0.4831391784,0.4996007219,0.0289699571,0.0402429184,52.4937921521,196.9870082904,14.0352060295,1
1445541733040,1302.7,0,847.4,0.072388117,0.0725271001,0.0418361864,0.0725271001,0,0,0,0,0,0,0,0,0,0,0,0,0,0,0,0,0,0,4368,0.0006868132,0.0006864986,0,0,0,2118,0.0004721435,0.0004721435,2209,0.0004526935,0.0004526935,4332,1.9549861496,0.3708663817,1445541733004,1296.1,0,100.1532289175,0.2132474822,0.4818301057,0.6510780085,0.0272355528,0.0317427353,53.822158784,229.6976138887,15.1557782343,1
1445541743042,1306.3,0,837.1,0.0789252086,0.0763763673,0.0415677869,0.0763763673,0,0,0,0,0,0,0,0,0,0,0,0,0,0,0,0,0,0,4349,0.0004598758,0.0004597701,0,0,0,2172,0.0009208103,0.0009203862,2185,0,0,4357,1.9203580445,0.2216171353,1445541743006,1314.4,0,100.1509433962,0.1639297194,0.4764150943,0.7630441056,0.0257912355,0.0275627156,51.5521150335,195.4045728678,13.9787185703,1
1445541753044,1313,0,841.2,0.0743335872,0.0712506984,0.0437928408,0.0712506984,0,0,0,0,0,0,0,0,0,0,0,0,0,0,0,0,0,0,4326,0.0006934813,0.0006931606,0,0,0,2174,0.0009199632,0.0009195398,2237,0,0,4393,1.9137263829,0.2368630007,1445541753009,1307.4,0,100.1548110754,0.1788925559,0.4197644179,0.4111017268,0.0268471776,0.0294941208,52.2958543674,177.8615188026,13.336473252,1
1445541817019,1641.2,0,1767.9,0.0814038508,0.0801440775,0.0413112357,0.0801440775,0,0,0,0,0,0,0,0,0,0,0,0,0,0,0,0,0,0,5451,0.0005503577,0.0005501558,0,0,0,2701,0.0003702332,0.0003702332,2784,0.0003591954,0.0003591954,5476,3.2275383492,2.3836506332,1445541816863,1638.2,0,100.1499816872,0.2182098159,0.5662312294,1.1876954469,0.0243560005,0.0237642364,21.3516054206,145.4118034783,12.0586816642,2
1445541827020,1586.3,0,1764.2,0.0868688142,0.0923146371,0.0380129862,0.0923146371,0,0,0,0,0,0,0,0,0,0,0,0,0,0,0,0,0,0,5328,0.0009384384,0.0009377338,0,0,0,2686,0.0003723008,0.0003723008,2576,0.0003881988,0.0003881988,5273,3.3443959795,3.3244645108,1445541826864,1583.4,0,100.1573196918,0.2662234982,0.7164961475,1.865240397,0.0242516105,0.027201881,25.2462422635,276.9142235467,16.6407398738,2
1445541837022,1618.6,0,1770.3,0.0790189052,0.0762394081,0.0408995428,0.0762394081,0,0,0,0,0,0,0,0,0,0,0,0,0,0,0,0,0,0,5459,0.0003663675,0.0003663003,0,0,0,2639,0.0003789314,0.0003789314,2727,0.0007334067,0.0007331376,5361,3.3012497668,3.0620301542,1445541836865,1624,0,100.1751847291,0.3556006802,0.5718596059,1.3632698959,0.0254926108,0.0337118086,22.5719827586,187.4091909696,13.6897476591,2
1445541847023,1628.2,0,1774.4,0.0822380543,0.0844471006,0.0394300454,0.0844471006,0,0,0,0,0,0,0,0,0,0,0,0,0,0,0,0,0,0,5335,0.0011246485,0.0011235943,0,0,0,2680,0.0003731343,0.0003731343,2796,0.0003576538,0.0003576538,5471,3.2418205081,2.9022068497,1445541846867,1627.7,0,100.1678441973,0.27865874,0.5771333784,2.0198088623,0.028260736,0.0481076469,22.0014744732,147.6070265798,12.149363217,2
1445542477951,1762.7,0,12365,0.2670902593,0.2374071859,0.041697396,0.2374071859,0,0,0,0,0,0,0,0,0,0,0,0,0,0,0,0,0,0,5835,0.0005141388,0.0005139626,0,0,0,2955,0.0003384095,0.0003384095,2946,0.0010183299,0.0010176384,5891,20.9884569683,69.568627347,1445542478152,1742.3,0,100.1941686277,0.9612058049,0.4742581645,0.7540009635,0.0243930437,0.0342459509,14.0887332836,223.6392387983,14.9545725047,16
1445542487955,1741.7,0,12986.2,0.2780042487,0.4410831091,0.0410518459,0.4410831091,0,0,0,0,0,0,0,0,0,0,0,0,0,0,0,0,0,0,5823,0.0003434656,0.0003434066,0,0,0,2937,0.000680967,0.000680735,2858,0.000349895,0.000349895,5799,22.3929987929,66.5186884703,1445542488153,1749.6,0,100.1760973937,0.521202854,0.5624142661,1.3783277291,0.0242341107,0.0237624885,13.5193758573,209.9726454178,14.4904328927,16
1445542497956,1749.7,0,12857.1,0.2678173401,0.2520009113,0.0388638052,0.2520009113,0,0,0,0,0,0,0,0,0,0,0,0,0,0,0,0,0,0,5759,0,0,0,0,0,2880,0.0006944444,0.0006942032,2987,0.0010043522,0.0010036795,5871,21.8984840743,66.0578358617,1445542498154,1751.8,0,100.1693115652,0.5153748871,0.4784221943,0.3777669458,0.0223769837,0.0355784793,13.5584541614,201.018875546,14.1781125523,16
1445542507958,1794.8,0,11568.6,0.3516269222,0.3366513899,0.0415645197,0.3366513899,0,0,0,0,0,0,0,0,0,0,0,0,0,0,0,0,0,0,6063,0.0028038925,0.0374385242,0,0,0,2957,0,0,2990,0.0006688963,0.0006686725,5938,19.479117548,81.7891040216,1445542508156,1787,0,100.1615556799,0.3419659048,0.6479574706,1.1152443029,0.0256855064,0.0324142567,11.091158366,162.7182552477,12.7561065866,16
1445542006998,1676.9,0,5307.9,0.1279742382,0.1470281062,0.0392987059,0.1470281062,0,0,0,0,0,0,0,0,0,0,0,0,0,0,0,0,0,0,5478,0.0001825484,0.0001825484,0,0,0,2884,0,0,2768,0.0003612717,0.0003612717,5639,9.4124844831,17.8149274729,1445542007061,1688.6,0,100.1819258557,0.6998592698,0.4750088831,0.8410396061,0.0252279995,0.0339504218,18.0300248727,179.9428947225,13.4142795081,6
1445542016999,1766.3,0,4915.7,0.1738662741,0.2629972071,0.0418388722,0.2629972071,0,0,0,0,0,0,0,0,0,0,0,0,0,0,0,0,0,0,5839,0.0001712622,0.0001712622,0,0,0,3009,0,0,2909,0,0,5906,8.3230612936,16.9581031417,1445542017062,1770.4,0,100.1718255761,0.5339946109,0.59195662,1.5785061641,0.0224243109,0.0219226995,12.1943628559,113.6605206695,10.6611688229,6
1445542027001,1772.8,0,4853.5,0.1879512635,0.3358575275,0.0416290614,0.3358575275,0,0,0,0,0,0,0,0,0,0,0,0,0,0,0,0,0,0,6011,0.0008318084,0.0008312547,0,0,0,2950,0.0003389831,0.0003389831,2903,0.0006889425,0.0006887051,5864,8.2754092769,15.7534050857,1445542027067,1761.5,0,100.1750212887,0.5194396143,0.6478569401,2.4212930964,0.0253760999,0.0247335576,12.6254896395,120.42048116,10.9736266184,6
1445542037002,1720,0,5178.5,0.155,0.1954049654,0.0420930233,0.1954049654,0,0,0,0,0,0,0,0,0,0,0,0,0,0,0,0,0,0,5674,0.00070497,0.0007045972,0,0,0,2953,0,0,2801,0.0007140307,0.0007137757,5772,8.9707207207,17.3190178135,1445542037068,1727.4,0,100.165971981,0.3395564367,0.6087761954,0.6965848161,0.0237350932,0.0337097558,15.1816024082,158.8707991226,12.6043960237,6
1445541910024,1719.9,0,3451.9,0.1266934124,0.1415824546,0.0380254666,0.1415824546,0,0,0,0,0,0,0,0,0,0,0,0,0,0,0,0,0,0,5660,0,0,0,0,0,2878,0.000694927,0.0006946855,2896,0.0010359116,0.0010351959,5765,5.9868169991,12.7364673997,1445541910083,1731.1,0,100.1831783259,0.814566235,0.5954017677,1.2219638348,0.0247819306,0.0242847228,15.1166310438,133.4300128205,11.5511909698,4
1445541920026,1699.7,0,3515.1,0.110137083,0.1138987633,0.0402423957,0.1138987633,0,0,0,0,0,0,0,0,0,0,0,0,0,0,0,0,0,0,5484,0.000547046,0.0005468464,0,0,0,2948,0.0033921303,0.0223841461,2806,0.0003563792,0.0003563792,5759,6.1012328529,11.8909310953,1445541920086,1692.3,0,100.1843644744,0.8725199645,0.48519766,0.418570028,0.0195591798,0.0191777515,17.3488743131,160.6623475981,12.6752651885,4
1445541930028,1728,0,3457.3,0.1197337963,0.1898993446,0.0431134259,0.1898993446,0,0,0,0,0,0,0,0,0,0,0,0,0,0,0,0,0,0,5741,0.0003483714,0.0003483107,0,0,0,2917,0,0,2856,0.0003501401,0.0003501401,5766,5.9954908082,11.9871435839,1445541930088,1740.1,0,100.2088960405,1.0551530398,0.4676742716,0.4555210792,0.0232745245,0.034803093,14.4627894949,131.3939170229,11.4627185703,4
1445541940035,1747.3,0,3406.4,0.1322039718,0.1683040765,0.0411492016,0.1683040765,0,0,0,0,0,0,0,0,0,0,0,0,0,0,0,0,0,0,5793,0.0003452443,0.0003451847,0,0,0,2929,0.0010242404,0.0010235407,2909,0.0003437607,0.0003437607,5842,5.8298527901,11.0780471963,1445541940089,1746.8,0,100.1650446531,0.3529613709,0.4344515686,0.3668601961,0.0242729563,0.0299827255,13.6261735745,118.1566905274,10.8699903646,4
1445542380271,1726.9,0,11357,0.2285019399,0.3250133973,0.0416353002,0.3250133973,0,0,0,0,0,0,0,0,0,0,0,0,0,0,0,0,0,0,5626,0.0001777462,0.0001777462,0,0,0,2928,0.0006830601,0.0006828267,2896,0,0,5819,19.5165836054,62.1284203647,1445542380325,1733.6,0,100.1965851407,1.5163563796,0.4960198431,0.8170594387,0.0234771574,0.022927303,14.6753576373,233.7815352052,15.2899161281,14
1445542390274,1733,0,11258.5,0.2327178304,0.220696462,0.041084824,0.220696462,0,0,0,0,0,0,0,0,0,0,0,0,0,0,0,0,0,0,5687,0,0,0,0,0,2934,0.0006816633,0.0006814308,2885,0.0003466205,0.0003466205,5824,19.3307005495,60.8231273814,1445542390328,1725.1,0,100.2427105675,2.7185374408,0.491797577,0.7036283685,0.0246942206,0.0240858123,14.669236566,231.6178935563,15.2189977842,14
1445542400277,1700.6,0,11870.7,0.1918146537,0.2139547545,0.0425144067,0.2139547545,0,0,0,0,0,0,0,0,0,0,0,0,0,0,0,0,0,0,5719,0.0003497115,0.0003496503,0,0,0,2802,0.0007137759,0.000713521,2844,0.0003516174,0.0003516174,5641,21.0427229215,59.7912595347,1445542400329,1711.8,0,100.1768898236,0.9812687746,0.9175721463,466.3966053805,0.0213810025,0.0209250776,16.2802313354,239.9652234786,15.4908109368,14
1445542410278,1727.4,0,11724.7,0.221257381,0.3227206791,0.0392497395,0.3227206791,0,0,0,0,0,0,0,0,0,0,0,0,0,0,0,0,0,0,5744,0.001218663,0.0012173898,0,0,0,2875,0.0006956522,0.0006954101,2890,0.0010380623,0.0010373437,5765,20.3356461405,52.1453026922,1445542410331,1732.6,0,100.1658778714,0.6773602885,0.4761052753,0.6579860077,0.0264342606,0.025736976,14.797125707,216.0129233397,14.6973781111,14
1445542100088,1778.5,0,6417.5,0.1966825977,0.2225598444,0.0419454597,0.2225598444,0,0,0,0,0,0,0,0,0,0,0,0,0,0,0,0,0,0,6077,0.0004936646,0.0004935021,0,0,0,2980,0,0,2876,0.0003477051,0.0003477051,5852,10.9656527683,24.5253967196,1445542100117,1778.2,0,100.1621302441,0.4545064117,0.4702508154,0.5758822722,0.0231132606,0.0225803076,11.7958047464,144.8639315581,12.0359433182,8
1445542110090,1754.5,0,6654.6,0.188600741,0.3014660367,0.0420632659,0.3014660367,0,0,0,0,0,0,0,0,0,0,0,0,0,0,0,0,0,0,5862,0,0,0,0,0,2946,0.0006788866,0.0006786561,2895,0,0,5842,11.3906196508,24.0319476043,1445542110119,1759.6,0,100.186746988,0.8144557771,0.5751875426,1.6379384417,0.0238122301,0.0232465289,12.9395885429,123.692116091,11.1216957381,8
1445542120091,1732.4,0,6788.8,0.1833872085,0.2392414038,0.042080351,0.2392414038,0,0,0,0,0,0,0,0,0,0,0,0,0,0,0,0,0,0,5671,0.0003526715,0.0003526093,0,0,0,2857,0.0003500175,0.0003500175,2963,0.0003374958,0.0003374958,5833,11.637922167,24.8290966421,1445542120120,1729.9,0,100.1644603734,0.3414909375,0.6673796173,1.9489017411,0.0246257009,0.0240206643,14.7870397133,165.405217615,12.8609959807,8
1445542130092,1682.9,0,7020.3,0.1647750906,0.2104872043,0.0435557668,0.2104872043,0,0,0,0,0,0,0,0,0,0,0,0,0,0,0,0,0,0,5599,0.0008930166,0.0008923785,0,0,0,2770,0.0007220217,0.0007217609,2845,0,0,5615,12.5015138023,25.2781861654,1445542130122,1678.9,0,100.1733873369,0.4184101419,0.7244028828,1.972826551,0.0258502591,0.0251835232,18.1719578295,223.1338192606,14.9376644513,8
1445542193480,1722.6,0,8089.3,0.2243701382,0.5047204305,0.0375595031,0.5047204305,0,0,0,0,0,0,0,0,0,0,0,0,0,0,0,0,0,0,5827,0.0006864596,0.0006861061,0,0,0,2814,0,0,2883,0.0003468609,0.0003468609,5702,14.1858996843,40.2955527687,1445542193537,1723.2,0,100.1823351903,0.7225989688,0.5851903435,59.4588207635,0.0258820799,0.0495883345,15.3566039926,220.1385681891,14.8370673716,10
1445542203483,1739.3,0,8429,0.187661703,0.220415835,0.040246076,0.220415835,0,0,0,0,0,0,0,0,0,0,0,0,0,0,0,0,0,0,5818,0.0008594019,0.0008588109,0,0,0,2940,0.0006802721,0.0006800406,2847,0,0,5788,14.5616793366,34.1760809533,1445542203538,1742.6,0,100.1753127511,0.5606553541,0.5177895099,0.5967853803,0.0249053139,0.0394370786,14.059394009,143.1298437418,11.9636885509,10
1445542213487,1714.5,0,8470.5,0.1870516185,0.2100516484,0.0447360747,0.2100516484,0,0,0,0,0,0,0,0,0,0,0,0,0,0,0,0,0,0,5720,0.0005244755,0.0005242921,0,0,0,2801,0.0014280614,0.0014265313,2910,0.0003436426,0.0003436426,5714,14.8227161358,33.1499057318,1445542213539,1725.1,0,100.1876992638,0.7296365092,0.5277954901,1.0674447572,0.024636253,0.043856788,15.2623036346,207.3731058582,14.4004550573,10
1445542223490,1757.5,0,8142.6,0.213428165,0.2318442559,0.0435846373,0.2318442559,0,0,0,0,0,0,0,0,0,0,0,0,0,0,0,0,0,0,5957,0.0001678697,0.0001678697,0,0,0,2915,0.0003430532,0.0003430532,2893,0,0,5810,14.0144578313,35.3714555934,1445542223540,1749.8,0,100.1685335467,0.3847513614,0.5261172705,0.9960887242,0.0241741913,0.0298779401,13.4091896217,154.7445963485,12.4396381116,10
1445542286868,1707.4,0,10307.4,0.200538831,0.452723894,0.0445121237,0.452723894,0,0,0,0,0,0,0,0,0,0,0,0,0,0,0,0,0,0,5673,0.0001762736,0.0001762736,0,0,0,2884,0.0013869626,0.0013855193,2814,0,0,5703,18.0727687182,40.2263768821,1445542286897,1715.1,0,100.206576876,2.0205888122,0.5341379511,1.1536887597,0.0198822226,0.0194880561,15.9436184479,202.9161795358,14.2448650234,12
1445542296869,1715.1,0,9950.2,0.200454784,0.1876872567,0.0441956737,0.1876872567,0,0,0,0,0,0,0,0,0,0,0,0,0,0,0,0,0,0,5598,0.0014290818,0.0050006374,0,0,0,2887,0.0003463803,0.0003463803,2890,0.0024221453,0.0024171149,5776,17.2240304709,42.4817497092,1445542296899,1717,0,100.2468841002,2.6181174384,0.4207338381,0.3333111278,0.0219569016,0.0214760468,15.803436226,208.4378587724,14.4373771431,12
1445542306870,1673.6,0,10466.1,0.1778800191,0.1733762284,0.0402724665,0.1733762284,0,0,0,0,0,0,0,0,0,0,0,0,0,0,0,0,0,0,5585,0.0005371531,0.0005369607,0,0,0,2788,0,0,2787,0,0,5576,18.7693687231,42.4242884624,1445542306900,1666.6,0,100.1664466579,0.6927258909,0.4279371175,0.3018273314,0.0215408616,0.0210781177,19.3272530901,292.9978494837,17.1171799513,12
1445542316872,1740.6,0,9801.3,0.2204986786,0.2896711331,0.0396989544,0.2896711331,0,0,0,0,0,0,0,0,0,0,0,0,0,0,0,0,0,0,5752,0.0006954103,0.0006950475,0,0,0,2865,0.0006980803,0.0006978365,2964,0.0006747638,0.0006745361,5825,16.8248927039,43.6819008513,1445542316901,1754.3,0,100.1611468962,0.5645557932,0.4705580573,0.7465821022,0.0258222653,0.0251569099,13.4393205267,188.4549741592,13.7278903754,12
