timeStamp,totalRequests,failedRequests,totalHandleTime,upstreamTime,upstreamTimeVar,downstreamTime,downstreamTimeVar,CREATE_CLIENT_N,CREATE_CLIENT_time,CREATE_CLIENT_timeVar,CLIENT_LIST_N,CLIENT_LIST_time,CLIENT_LIST_timeVar,QUEUE_LIST_N,QUEUE_LIST_time,QUEUE_LIST_timeVar,MESSAGE_COUNT_N,MESSAGE_COUNT_time,MESSAGE_COUNT_timeVar,CREATE_QUEUE_N,CREATE_QUEUE_time,CREATE_QUEUE_timeVar,DELETE_QUEUE_N,DELETE_QUEUE_time,DELETE_QUEUE_timeVar,SEND_MESSAGE_N,SEND_MESSAGE_time,SEND_MESSAGE_timeVar,RECEIVE_MESSAGE_N,RECEIVE_MESSAGE_time,RECEIVE_MESSAGE_timeVar,POP_QUEUE_N,POP_QUEUE_time,POP_QUEUE_timeVar,TOP_QUEUE_N,TOP_QUEUE_time,TOP_QUEUE_timeVar,INBOX_QUEUES_N,INBOX_QUEUES_time,INBOX_QUEUES_timeVar,timeStamp,totalRequests,failedRequests,clientThinkTime,clientThinkTimeVar,waitingForConnectionTime,waitingForConnectionTimeVar,upstreamTime,upstreamTimeVar,waitingForResponseTime,waitingForResponseTimeVar
1445542958965,1221.6,0.0,859.1,0.07089063523248221,0.0675078763723841,0.04158480681073996,0.0675078763723841,0,0.0,0.0,0,0.0,0.0,0,0.0,0.0,400,1.3799999999999988,0.2662656641604009,0,0.0,0.0,0,0.0,0.0,3929,0.053957750063629746,0.0770267202104159,0,0.0,0.0,1969,0.0010157440325038126,0.0010152279024059924,1907,0.0010487676979549047,0.0010482174525729747,4011,1.950386437297435,0.27609149651426146,1445542959072,1276.9,0.0,100.15584618999098,0.2817877570423802,0.47630981282794155,0.4764319954871919,0.026626987234709007,0.025920020703336467,216.52697940324225,1154.4925560460354
1445542968967,1300.6,0.0,853.4,0.07204367215131477,0.07470165929982443,0.037213593725972736,0.07470165929982443,0,0.0,0.0,0,0.0,0.0,0,0.0,0.0,0,0.0,0.0,0,0.0,0.0,0,0.0,0.0,4246,4.710315591144602E-4,4.7092059761643615E-4,0,0.0,0.0,2222,4.5004500450045013E-4,4.500450045004501E-4,2152,4.6468401486988997E-4,4.646840148698886E-4,4386,1.9448244414044724,0.1985513146681598,1445542969074,1300.5,0.0,100.178854286813,0.45447438702502546,0.47766243752403026,0.8381083465165113,0.025374855824682765,0.024732874313892175,206.76216839677153,257.3755295948329
1445542978970,1301.8,0.0,846.0,0.07412813028114897,0.0744769420203344,0.04048240897219231,0.0744769420203344,0,0.0,0.0,0,0.0,0.0,0,0.0,0.0,0,0.0,0.0,0,0.0,0.0,0,0.0,0.0,4253,0.0,0.0,0,0.0,0.0,2169,0.0,0.0,2218,9.017132551848537E-4,9.013065284121029E-4,4378,1.9319323892188247,0.3435494292865449,1445542979075,1291.2,0.0,100.17115861214356,0.3616868923524399,0.48125774473358224,1.2722069842944381,0.02656443618339529,0.025860769761373796,208.77524783147456,363.6571736664051
1445542988972,1295.3,0.0,852.7,0.07195244344939382,0.07033201997414847,0.03790627653825358,0.07033201997414847,0,0.0,0.0,0,0.0,0.0,0,0.0,0.0,0,0.0,0.0,0,0.0,0.0,0,0.0,0.0,4314,0.0,0.0,0,0.0,0.0,2125,0.0,0.0,2207,9.062075215224315E-4,9.05796729354922E-4,4307,1.979335964708611,0.45173267553624424,1445542989077,1306.5,0.0,100.17474167623419,0.4461164079269265,0.5709146574818249,1.4525832493756115,0.02564102564102565,0.03248700676747207,206.43597397627303,543.9006959760586
