timeStamp,totalRequests,failedRequests,totalHandleTime,upstreamTime,upstreamTimeVar,downstreamTime,downstreamTimeVar,CREATE_CLIENT_N,CREATE_CLIENT_time,CREATE_CLIENT_timeVar,CLIENT_LIST_N,CLIENT_LIST_time,CLIENT_LIST_timeVar,QUEUE_LIST_N,QUEUE_LIST_time,QUEUE_LIST_timeVar,MESSAGE_COUNT_N,MESSAGE_COUNT_time,MESSAGE_COUNT_timeVar,CREATE_QUEUE_N,CREATE_QUEUE_time,CREATE_QUEUE_timeVar,DELETE_QUEUE_N,DELETE_QUEUE_time,DELETE_QUEUE_timeVar,SEND_MESSAGE_N,SEND_MESSAGE_time,SEND_MESSAGE_timeVar,RECEIVE_MESSAGE_N,RECEIVE_MESSAGE_time,RECEIVE_MESSAGE_timeVar,POP_QUEUE_N,POP_QUEUE_time,POP_QUEUE_timeVar,TOP_QUEUE_N,TOP_QUEUE_time,TOP_QUEUE_timeVar,INBOX_QUEUES_N,INBOX_QUEUES_time,INBOX_QUEUES_timeVar,timeStamp,totalRequests,failedRequests,clientThinkTime,clientThinkTimeVar,waitingForConnectionTime,waitingForConnectionTimeVar,upstreamTime,upstreamTimeVar,waitingForResponseTime,waitingForResponseTimeVar,waitingForResponseTimeSD,mwWorkers
1445543442524,3512.6,0,6340.4,0.3323464101,0.8990231462,0.0405113022,0.8990231462,0,0,0,0,0,0,0,0,0,0,0,0,0,0,0,0,0,0,11672,0.0005140507,0.0005138305,0,0,0,5822,0.0005152868,0.0005151098,5904,0.0013550136,0.0013534067,11728,5.4047578445,12.1249777874,1445543442612,3492.1,0,100.3324933421,5.5886718157,8.3888204805,7607.6519643618,0.0232524842,0.0227124566,5.8675868389,68.0831535379,8.2512516346,10
1445543452527,3498.5,0,6556.5,0.3124481921,0.599806449,0.0411604974,0.599806449,0,0,0,0,0,0,0,0,0,0,0,0,0,0,0,0,0,0,11744,0.0008514986,0.000850846,0,0,0,5802,0,0,5813,0.0008601411,0.0008595491,11626,5.6382246688,17.7032578888,1445543452613,3527.2,0,100.3288160581,5.6457257055,7.2662451803,6576.7379062548,0.02551599,0.0586043948,5.8358471309,68.6714738705,8.2868253192,10
1445543462528,3553.9,0,6232.6,0.3456203045,0.6166848388,0.0411097667,0.6166848388,0,0,0,0,0,0,0,0,0,0,0,0,0,0,0,0,0,0,11816,0.000338524,0.0003384381,0,0,0,5981,0.0011703728,0.0011691986,5888,0.000169837,0.000169837,11854,5.2567909566,10.8669812139,1445543462614,3544.3,0,100.2658917135,3.1579548697,6.9245267049,6169.0911096703,0.023841097,0.0232733557,5.621984595,57.541542509,7.5856141814,10
1445543472530,3594.2,0,6617.4,0.3140615436,0.6918247488,0.0418173724,0.6918247488,0,0,0,0,0,0,0,0,0,0,0,0,0,0,0,0,0,0,12015,0.0005826051,0.0005823141,0,0,0,5983,0.0001671402,0.0001671402,5976,0.0011713521,0.0011701758,11968,5.5279913102,12.1401038615,1445543472615,3602.8,0,100.3290773843,4.9300929451,5.003802598,4333.6077519373,0.0244532031,0.0549992153,5.7299600311,46.8147717307,6.8421321042,10
1445543533434,3590.7,0,6810.2,0.4129835408,1.046311677,0.0405770463,1.046311677,0,0,0,0,0,0,0,0,0,0,0,0,0,0,0,0,0,0,11942,0.0005861665,0.0005858719,0,0,0,6008,0.0004993342,0.000499168,5974,0.000167392,0.000167392,11983,5.6822999249,16.590512086,1445543533475,3584.3,0,100.3524537567,6.8845056552,5.9820885529,5315.076739603,0.0263928801,0.0714533881,5.2248695701,95.5828790599,9.7766496848,12
1445543543436,3553.9,0,6700.9,0.3829595655,0.8490044547,0.0394496187,0.8490044547,0,0,0,0,0,0,0,0,0,0,0,0,0,0,0,0,0,0,11967,0.0005849419,0.0005846486,0,0,0,5968,0.0001675603,0.0001675603,5819,0.0005155525,0.0005153753,11785,5.6850233347,13.9500005617,1445543543476,3558.3,0,100.3213051176,5.5438007585,7.4470112132,6778.0687943242,0.0245060844,0.023906208,4.62268499,47.170933862,6.8681099192,12
1445543553437,3564.7,0,6659.8,0.3915336494,0.6395209801,0.0403400006,0.6395209801,0,0,0,0,0,0,0,0,0,0,0,0,0,0,0,0,0,0,12014,0.0004161811,0.0004160425,0,0,0,5905,0.000169348,0.000169348,5917,0.0005070137,0.0005068423,11811,5.6378799424,14.2381212967,1445543553477,3561,0,100.3936253861,7.4014870668,6.6463352991,5940.1246860838,0.0235327155,0.0229795721,5.3190395956,56.8499646481,7.5398915541,12
1445543563438,3612.7,0,7258,0.3404655798,0.3770213522,0.0406897888,0.3770213522,0,0,0,0,0,0,0,0,0,0,0,0,0,0,0,0,0,0,12073,0.0011596124,0.0011583636,0,0,0,6095,0.0008203445,0.0008198061,5930,0.0008431703,0.0008426015,12029,6.0317565882,14.9110300119,1445543563478,3608.4,0,100.2452333444,2.6917642695,5.7026660016,5144.9846438359,0.0228078927,0.0222883104,4.8710785944,37.3219593055,6.1091700996,12
1445543148619,3403.2,0,3227.8,0.1228255759,0.4156971318,0.0406382228,0.4156971318,0,0,0,0,0,0,0,0,0,0,0,0,0,0,0,0,0,0,11195,0.000446628,0.0004464684,0,0,0,5696,0.0005266854,0.0005265004,5718,0.000524659,0.0005244754,11423,2.8247395605,2.5376579058,1445543148614,3401.9,0,100.3510097299,6.6112526549,5.6849995591,5020.1808588181,0.0220758988,0.0221771121,11.5792645286,150.7061265565,12.2762423631,4
1445543158621,3481.4,0,3157.6,0.131010513,0.2968851018,0.0399264664,0.2968851018,0,0,0,0,0,0,0,0,0,0,0,0,0,0,0,0,0,0,11825,8.4566596194503E-005,8.45665961945031E-005,0,0,0,5784,0.0010373444,0.0010364475,5707,0.0010513405,0.0010504192,11498,2.7450861019,1.9429283609,1445543158615,3459.7,0,100.2969621644,4.8810559233,6.8028730815,6162.8497396929,0.0235280516,0.0229751464,8.5304506171,68.9601448224,8.3042245166,4
1445543168622,3461.3,0,3315.6,0.1204460752,0.5370640331,0.0392915956,0.5370640331,0,0,0,0,0,0,0,0,0,0,0,0,0,0,0,0,0,0,11416,0.0004379818,0.0004378283,0,0,0,5834,0.0006856359,0.0006852833,5770,0.0006932409,0.0006928804,11593,2.8588803588,1.9605873246,1445543168616,3482.7,0,100.2955752721,4.382339291,3.0048812703,2234.3535051451,0.0247509116,0.0241389971,11.528383151,106.9704443018,10.3426517055,4
1445543178625,3595.6,0,3331.1,0.1107464679,0.2370465183,0.038686172,0.2370465183,0,0,0,0,0,0,0,0,0,0,0,0,0,0,0,0,0,0,12147,0.0007409237,0.0007404357,0,0,0,5916,0.0008451657,0.0008445941,5985,0.0003341688,0.0003341129,11908,2.7960194827,1.8131797534,1445543178617,3597.7,0,100.2671151013,3.166639534,1.171220502,553.4977007368,0.0244322762,0.0238360026,9.6948606054,71.8969362832,8.4792061116,4
1445543714142,3229.4,0,13136.5,0.2145909457,2.6693984686,0.0390475011,2.6693984686,0,0,0,0,0,0,0,0,0,0,0,0,0,0,0,0,0,0,11035,0.0050747621,0.2009892889,0,0,0,5239,0.0001908761,0.0001908761,5390,0,0,10630,12.3525870179,28.9600624571,1445543714681,3206.4,0,100.2862712076,4.3578990296,9.0756611776,8303.3105587743,0.0242951597,0.0237056442,15.3193924651,147.771827395,12.156143607,16
1445543724144,3328.7,0,15026.3,0.1366299156,1.4322720406,0.037492114,1.4322720406,0,0,0,0,0,0,0,0,0,0,0,0,0,0,0,0,0,0,11016,0.0009077705,0.0009070288,0,0,0,5690,0.0008787346,0.0008781168,5445,0.0005509642,0.0005507618,11136,13.4918283046,18.4112488887,1445543724682,3313.9,0,100.3264733396,5.8148012837,3.3127734693,2674.04662632,0.0254986572,0.0607596607,17.0191617128,158.5700655535,12.5924606632,16
1445543734145,3272.4,0,13922.3,0.1775760909,0.6407452048,0.0391761398,0.6407452048,0,0,0,0,0,0,0,0,0,0,0,0,0,0,0,0,0,0,10748,0.000651284,0.0006509204,0,0,0,5457,0.0005497526,0.0005495511,5525,0.0005429864,0.0005427898,10994,12.662361288,23.2004625763,1445543734683,3255.9,0,100.3011148991,4.892864105,5.3629411223,4577.1622373843,0.0218065665,0.0645161662,17.1412819804,161.2623042844,12.6989095707,16
1445543744147,3283.2,0,13574.9,0.2273391813,1.7077500031,0.0422453704,1.7077500031,0,0,0,0,0,0,0,0,0,0,0,0,0,0,0,0,0,0,11104,0.0009005764,0.0008998464,0,0,0,5468,0.0003657644,0.0003656975,5392,0.0009272997,0.0009266117,10868,12.4891424365,28.879333653,1445543744684,3294,0,100.2606860959,3.2576729255,4.7695810565,3905.4538122049,0.0228901032,0.0470184542,16.347996357,170.9053073184,13.0730756641,16
1445543353622,3444.3,0,5417.7,0.330139651,1.539079671,0.036320878,1.539079671,0,0,0,0,0,0,0,0,0,0,0,0,0,0,0,0,0,0,11448,0.0002620545,0.0002620087,0,0,0,5810,0.0012048193,0.0012035748,5686,0.0005276117,0.0005274261,11499,4.7103226368,9.5583653421,1445543353721,3439.9,0.3,100.3422490987,6.5944190612,8.8898709152,7839.0990211085,0.026718223,0.0272262234,7.0215722758,80.7972087039,8.9887267566,8
1445543363624,3548.3,0,5581.3,0.2639292055,0.6797052869,0.0377645633,0.6797052869,0,0,0,0,0,0,0,0,0,0,0,0,0,0,0,0,0,0,11802,0.0005083884,0.000508173,0,0,0,5912,0.00067659,0.0006762466,5930,0.0005059022,0.0005057315,11839,4.7132359152,9.3740020216,1445543363722,3550.2,0,100.269618613,3.435880979,6.0546166413,5258.1472943955,0.026899893,0.0261770261,6.3316714551,60.943848585,7.8066541223,8
1445543373625,3521.6,0,5610.9,0.2877669241,0.4956913245,0.0405497501,0.4956913245,0,0,0,0,0,0,0,0,0,0,0,0,0,0,0,0,0,0,11668,0.0010284539,0.0010274842,0,0,0,5916,0.0005070994,0.0005069279,5855,0.0003415884,0.00034153,11777,4.7628428292,10.5054874339,1445543373723,3509.8,0,100.3562596159,5.3443693125,6.5868425551,5592.3525601588,0.0254430452,0.0247964031,7.0282352271,59.978545713,7.7445817003,8
1445543383626,3578.7,0,5651,0.2635035069,0.7881619049,0.0387291475,0.7881619049,0,0,0,0,0,0,0,0,0,0,0,0,0,0,0,0,0,0,11911,0.000503736,0.0005035246,0,0,0,5987,0.0008351428,0.0008345847,5952,0.0011760753,0.0011748895,11937,4.7325123565,9.9608672884,1445543383724,3594.7,0,100.2324533341,1.9636015117,4.7669902913,4062.6971098503,0.0259270593,0.0252555495,6.3093164937,49.6121880016,7.0435919815,8
1445543264749,3451.5,0,4428.8,0.1987541649,0.6716273521,0.0398087788,0.6716273521,0,0,0,0,0,0,0,0,0,0,0,0,0,0,0,0,0,0,11359,0.0002641078,0.0002640612,0,0,0,5749,0.0003478866,0.0003478261,5819,0,0,11588,3.8214532275,7.5408290953,1445543264701,3428.2,0,100.3428913132,6.1120828626,7.7617116854,6991.1866754983,0.0232191821,0.0226807133,8.5137389884,92.4022061473,9.6126066261,6
1445543274751,3411,0,4491.4,0.1838170624,0.6323687888,0.0388449135,0.6323687888,0,0,0,0,0,0,0,0,0,0,0,0,0,0,0,0,0,0,11482,0.000522557,0.0005223295,0,0,0,5722,0.0010485844,0.001047668,5603,0.0008923791,0.0008917419,11303,3.9721312926,7.5192197272,1445543274702,3425.5,0,100.3506933294,6.6439575242,7.9911837688,7103.7481560547,0.0240548825,0.0234769305,8.3920595533,97.3926735622,9.8687726472,6
1445543284753,3534,0,4587.2,0.1969722694,1.6843678665,0.0391907187,1.6843678665,0,0,0,0,0,0,0,0,0,0,0,0,0,0,0,0,0,0,11715,0.0002560819,0.0002560382,0,0,0,5790,0.0006908463,0.0006904883,6026,0.0001659476,0.0001659476,11809,3.8838174274,7.0295221469,1445543284704,3540.6,0,100.2852341411,4.0308549755,5.2440264362,4434.8966420447,0.0252499576,0.0686746657,7.3123764334,69.0103973068,8.3072496837,6
1445543294754,3510.8,0,4757.5,0.1941722684,1.2935690217,0.0361740914,1.2935690217,0,0,0,0,0,0,0,0,0,0,0,0,0,0,0,0,0,0,11929,0.0001676586,0.0001676446,0,0,0,5729,0.0006982021,0.0006978365,5854,0.0005124701,0.000512295,11596,4.1019317006,7.5418298172,1445543294706,3486.1,0,100.3301396977,4.6143838847,4.1938269126,3028.8731873652,0.024153065,0.0452571176,10.4108315883,109.3085504874,10.4550729547,6
1445543619072,3407.7,0,9089.9,0.4569064178,2.968129096,0.0426387299,2.968129096,0,0,0,0,0,0,0,0,0,0,0,0,0,0,0,0,0,0,11294,0.0003541704,0.0003540763,0,0,0,5750,0.0010434783,0.0010425707,5640,0.0003546099,0.000354547,11393,7.9774422891,22.0631322567,1445543619148,3397.1,0,100.2984898884,4.6512014287,9.74369315,8476.2280051888,0.0238733037,0.0815907786,7.6882046451,82.3343380513,9.0738270896,14
1445543629074,3446.5,0,9424.2,0.4114609024,4.4751646049,0.0447990715,4.4751646049,0,0,0,0,0,0,0,0,0,0,0,0,0,0,0,0,0,0,11372,0.0007914175,0.0007908607,0,0,0,5730,0.0005235602,0.0005233774,5818,0.0001718804,0.0001718804,11545,8.1618882633,24.1005224217,1445543629149,3442.9,0,100.333672195,5.5974431807,6.6423073572,5712.8334499565,0.0236428592,0.0683965003,9.1606784978,146.8318556567,12.1174195131,14
1445543639077,3500.7,0,9928.7,0.324935013,0.7898892826,0.0403919216,0.7898892826,0,0,0,0,0,0,0,0,0,0,0,0,0,0,0,0,0,0,11555,0.0007788836,0.0007783443,0,0,0,5878,0.0001701259,0.0001701259,5847,0.0003420558,0.0003419972,11727,8.4655069498,19.0734945899,1445543639151,3502.5,0,100.3410421128,5.0209357002,6.2652105639,5441.4752015496,0.023668808,0.0231092553,7.5607137759,73.6920723548,8.5844086782,14
1445543649080,3599.7,0,9501.7,0.393116093,1.1499059387,0.0394199517,1.1499059387,0,0,0,0,0,0,0,0,0,0,0,0,0,0,0,0,0,0,12029,0.0004156621,0.0004155239,0,0,0,5992,0.0006675567,0.0006672225,5993,0.0003337227,0.000333667,11983,7.9283985646,18.1599537613,1445543649152,3607,0,100.2643748267,3.1532041823,3.7217632381,2979.3153571172,0.025006931,0.0554893052,7.0222068201,60.9513214211,7.8071327273,14
1445543053071,2482.9,0,1690.2,0.0818397841,1.0218987256,0.039671352,1.0218987256,0,0,0,0,0,0,0,0,0,0,0,0,0,0,0,0,0,0,8268,0.0007256894,0.0007252505,0,0,0,4138,0.0002416626,0.0002416626,4139,0.0004832085,0.0004830917,8284,2.0392322549,0.5964323937,1445543053023,2479.2,0,100.1960713133,1.6731837096,0.5926105195,0.9227286615,0.0221845757,0.0216932953,60.2808163924,237.6163509449,15.4148094683,2
1445543063073,2407.9,0,1680.1,0.0886664729,1.5810157439,0.0415714938,1.5810157439,0,0,0,0,0,0,0,0,0,0,0,0,0,0,0,0,0,0,8101,0.0006172078,0.000616903,0,0,0,4002,0.0004997501,0.0004996252,3980,0.0010050251,0.0010042674,7996,2.0997998999,1.3919149068,1445543063024,2412.6,0,100.2807759264,5.4424880363,0.9036723866,5.2942646477,0.0218851032,0.0214070328,64.7388294786,414.9808648516,20.3710791283,2
1445543073077,2389.6,0,1674,0.093572146,2.6223382583,0.0401322397,2.6223382583,0,0,0,0,0,0,0,0,0,0,0,0,0,0,0,0,0,0,7961,0.0008792865,0.0008786237,0,0,0,3992,0,0,3981,0,0,7962,2.1016076363,1.0004772544,1445543073026,2404.1,0,101.825672809,244.6242260708,0.8875254773,8.6187965429,0.0240838567,0.0235048023,63.8418119047,395.4317558516,19.885465945,2
1445543083078,2559.9,0,1690.9,0.0787921403,0.0860253244,0.0401968827,0.0860253244,0,0,0,0,0,0,0,0,0,0,0,0,0,0,0,0,0,0,8618,0.0002320724,0.0002320455,0,0,0,4265,0.0004689332,0.0004688232,4228,0.0004730369,0.000472925,8488,1.991399623,0.3111078323,1445543083027,2555.4,0,100.2427799953,3.4197077803,0.5471550442,1.1351965786,0.0255145965,0.1368670795,55.7819519449,159.1664789354,12.6161198051,2
