timeStamp,totalRequests,failedRequests,totalHandleTime,upstreamTime,upstreamTimeVar,downstreamTime,downstreamTimeVar,CREATE_CLIENT_N,CREATE_CLIENT_time,CREATE_CLIENT_timeVar,CLIENT_LIST_N,CLIENT_LIST_time,CLIENT_LIST_timeVar,QUEUE_LIST_N,QUEUE_LIST_time,QUEUE_LIST_timeVar,MESSAGE_COUNT_N,MESSAGE_COUNT_time,MESSAGE_COUNT_timeVar,CREATE_QUEUE_N,CREATE_QUEUE_time,CREATE_QUEUE_timeVar,DELETE_QUEUE_N,DELETE_QUEUE_time,DELETE_QUEUE_timeVar,SEND_MESSAGE_N,SEND_MESSAGE_time,SEND_MESSAGE_timeVar,RECEIVE_MESSAGE_N,RECEIVE_MESSAGE_time,RECEIVE_MESSAGE_timeVar,POP_QUEUE_N,POP_QUEUE_time,POP_QUEUE_timeVar,TOP_QUEUE_N,TOP_QUEUE_time,TOP_QUEUE_timeVar,INBOX_QUEUES_N,INBOX_QUEUES_time,INBOX_QUEUES_timeVar,timeStamp,totalRequests,failedRequests,clientThinkTime,clientThinkTimeVar,waitingForConnectionTime,waitingForConnectionTimeVar,upstreamTime,upstreamTimeVar,waitingForResponseTime,waitingForResponseTimeVar
1445769370626,947.0,0.0,1704.0,0.6314677930306233,0.9433216276614027,0.06652587117212257,0.9433216276614027,0,0.0,0.0,0,0.0,0.0,0,0.0,0.0,100,0.9099999999999998,0.1433333333333334,0,0.0,0.0,0,0.0,0.0,640,2.2749999999999986,1.9367762128325514,0,0.0,0.0,32,0.031250000000000014,0.031249999999999997,52,0.0,0.0,123,1.26829268292683,0.5421831267493002,1445769371512,989.0,0.0,100.20121334681492,0.35926978136014265,0.5672396359959553,0.25584874919662853,0.04246713852376135,0.04070483824089275,1.8756319514661288,1.1515209818120795
1445769371640,993.0,0.0,373.0,0.6354481369587104,0.41737119514017523,0.07754279959718009,0.41737119514017523,0,0.0,0.0,0,0.0,0.0,0,0.0,0.0,0,0.0,0.0,0,0.0,0.0,0,0.0,0.0,330,0.0,0.0,0,0.0,0.0,172,0.0,0.0,165,0.0,0.0,326,1.1441717791411041,0.23453515809344022,1445769372522,990.0,0.0,100.16666666666656,0.19969666329625796,0.57070707070707,0.32007128923205763,0.04141414141414147,0.07007282123561195,1.648484848484848,0.6973435058369333
1445769372647,990.0,0.0,353.0,0.5979797979797981,0.4246672998948024,0.05858585858585871,0.4246672998948024,0,0.0,0.0,0,0.0,0.0,0,0.0,0.0,0,0.0,0.0,0,0.0,0.0,0,0.0,0.0,336,0.0,0.0,0,0.0,0.0,155,0.0,0.0,167,0.005988023952095816,0.005988023952095805,332,1.0602409638554215,0.21992501728970276,1445769373523,980.0,0.0,100.16632653061234,0.18170457151195615,0.5704081632653067,0.24937879135310892,0.02755102040816327,0.026819328344207975,1.765306122448981,1.460695003231119
1445769373648,973.0,0.0,357.0,0.6053442959917773,0.6403829317498387,0.05035971223021574,0.6403829317498387,0,0.0,0.0,0,0.0,0.0,0,0.0,0.0,0,0.0,0.0,0,0.0,0.0,0,0.0,0.0,303,0.0,0.0,0,0.0,0.0,159,0.0,0.0,180,0.0,0.0,331,1.0785498489425993,0.4604778906893713,1445769374524,976.0,0.0,100.19774590163946,0.3188051702396032,0.5922131147540972,0.29712904581756977,0.03278688524590163,0.03994955863808324,1.690573770491802,0.8846700294241271
1445769374650,967.0,0.0,326.0,0.5946225439503634,0.35516774040221744,0.044467425025853144,0.35516774040221744,0,0.0,0.0,0,0.0,0.0,0,0.0,0.0,0,0.0,0.0,0,0.0,0.0,0,0.0,0.0,342,0.0,0.0,0,0.0,0.0,149,0.0,0.0,161,0.0,0.0,315,1.0349206349206346,0.07202507329895866,1445769375525,972.0,0.0,100.18312757201659,0.1765224430289094,0.5843621399176951,0.3420003136217807,0.027777777777777825,0.02703398558187437,1.6810699588477382,1.1463766089009246
1445769375651,975.0,0.0,341.0,0.6061538461538472,0.5736787237403246,0.03897435897435898,0.5736787237403246,0,0.0,0.0,0,0.0,0.0,0,0.0,0.0,0,0.0,0.0,0,0.0,0.0,0,0.0,0.0,311,0.0,0.0,0,0.0,0.0,165,0.0,0.0,169,0.0,0.0,330,1.0333333333333328,0.11134751773049655,1445769376526,975.0,0.0,100.18769230769236,0.16699415574158955,0.5805128205128219,0.25814142052335065,0.04102564102564101,0.045543094824409006,1.5753846153846147,0.620338019270258
1445769376671,995.0,0.0,331.0,0.5728643216080412,0.3294440006875423,0.06432160804020094,0.3294440006875423,0,0.0,0.0,0,0.0,0.0,0,0.0,0.0,0,0.0,0.0,0,0.0,0.0,0,0.0,0.0,349,0.0028653295128939806,0.002865329512893985,0,0.0,0.0,144,0.0,0.0,180,0.0,0.0,322,1.0248447204968933,0.142682997620015,1445769377550,997.0,0.0,100.1574724172518,0.14485625551352801,0.5305917753259781,0.2613624004543753,0.03711133400200598,0.0417940568694034,1.687061183550651,0.9100031016745019
1445769377672,998.0,0.0,373.0,0.5490981963927859,0.2899640806186094,0.045090180360721446,0.2899640806186094,0,0.0,0.0,0,0.0,0.0,0,0.0,0.0,0,0.0,0.0,0,0.0,0.0,0,0.0,0.0,319,0.0,0.0,0,0.0,0.0,169,0.0,0.0,171,0.0058479532163742695,0.005847953216374266,339,1.097345132743362,0.8336911556789015,1445769378551,991.0,0.0,100.15842583249253,0.1577041861602897,0.5287588294651869,0.26154583167701284,0.034308779011099896,0.03316515304406329,1.6528758829465164,0.6167568724581846
1445769378675,972.0,0.0,365.0,0.5668724279835392,0.2519601361288054,0.03806584362139918,0.2519601361288054,0,0.0,0.0,0,0.0,0.0,0,0.0,0.0,0,0.0,0.0,0,0.0,0.0,0,0.0,0.0,274,0.0,0.0,0,0.0,0.0,177,0.0,0.0,171,0.011695906432748539,0.011627106983144137,350,1.0371428571428567,0.07024969300040936,1445769379555,980.0,0.0,100.13775510204083,0.12911446498926424,0.5826530612244906,0.2434168560171771,0.030612244897959183,0.029705447040920537,1.6051020408163261,0.47208834504179636
1445769379678,974.0,0.0,331.0,0.5995893223819309,0.25060620321577864,0.027720739219712538,0.25060620321577864,0,0.0,0.0,0,0.0,0.0,0,0.0,0.0,0,0.0,0.0,0,0.0,0.0,0,0.0,0.0,329,0.0,0.0,0,0.0,0.0,157,0.0,0.0,164,0.0,0.0,324,1.0216049382716044,0.052163360470894024,1445769380557,975.0,0.0,100.16615384615385,0.13868899068077833,0.6348717948717945,0.9137724424788088,0.03179487179487184,0.030815563628705325,1.6471794871794863,0.7501332069709897
1445769380679,976.0,0.0,321.0,0.6229508196721321,0.35204707860445544,0.05225409836065571,0.35204707860445544,0,0.0,0.0,0,0.0,0.0,0,0.0,0.0,0,0.0,0.0,0,0.0,0.0,0,0.0,0.0,355,0.0,0.0,0,0.0,0.0,158,0.0,0.0,153,0.0,0.0,310,1.0354838709677419,0.09258795281344619,1445769381560,971.0,0.0,100.20082389289388,0.28024674318111503,0.6591143151390323,0.37955344155775234,0.033985581874356297,0.04523554205994458,1.870236869207002,1.4326287067217325
1445769381688,980.0,0.0,395.0,0.6214285714285712,0.39484167517875374,0.035714285714285705,0.39484167517875374,0,0.0,0.0,0,0.0,0.0,0,0.0,0.0,0,0.0,0.0,0,0.0,0.0,0,0.0,0.0,315,0.0,0.0,0,0.0,0.0,170,0.0,0.0,159,0.0,0.0,336,1.1755952380952381,0.9272832267235246,1445769382563,983.0,0.0,100.15869786368268,0.1356854717571397,0.5523906408952186,0.24954366801822409,0.030518819938962303,0.029617551325693586,1.7151576805696835,1.0796783610585647
1445769382690,999.0,0.0,433.0,0.5495495495495499,0.29388506743216186,0.05705705705705704,0.29388506743216186,0,0.0,0.0,0,0.0,0.0,0,0.0,0.0,0,0.0,0.0,0,0.0,0.0,0,0.0,0.0,294,0.0,0.0,0,0.0,0.0,186,0.0,0.0,172,0.0,0.0,347,1.2478386167146966,0.9846412686778503,1445769383565,998.0,0.0,100.14829659318632,0.12643139840362685,0.5841683366733476,0.2531894280034495,0.030060120240480968,0.04122186197872173,1.5871743486973933,0.854479269471742
1445769383692,960.0,0.0,399.0,0.5406249999999994,0.2840621741397287,0.041666666666666644,0.2840621741397287,0,0.0,0.0,0,0.0,0.0,0,0.0,0.0,0,0.0,0.0,0,0.0,0.0,0,0.0,0.0,344,0.0,0.0,0,0.0,0.0,153,0.0,0.0,150,0.0,0.0,313,1.2747603833865817,1.1999057917588272,1445769384570,960.0,0.0,100.17708333333334,0.16881734445603092,0.522916666666667,0.2497349669794928,0.029166666666666674,0.028345498783455013,1.5604166666666635,0.4655848105665629
1445769384693,973.0,0.0,333.0,0.5950668036998972,0.2926505356561311,0.043165467625899345,0.2926505356561311,0,0.0,0.0,0,0.0,0.0,0,0.0,0.0,0,0.0,0.0,0,0.0,0.0,0,0.0,0.0,322,0.0,0.0,0,0.0,0.0,170,0.0,0.0,155,0.0,0.0,326,1.0214723926380367,0.10722982538933458,1445769385571,975.0,0.0,100.16102564102576,0.13523508661085992,0.5733333333333335,0.30236824093086895,0.02974358974358975,0.04120886642447217,1.6317948717948711,0.5449839414521143
1445769385699,988.0,0.0,338.0,0.5748987854251013,0.3236651366550585,0.0465587044534413,0.3236651366550585,0,0.0,0.0,0,0.0,0.0,0,0.0,0.0,0,0.0,0.0,0,0.0,0.0,0,0.0,0.0,324,0.0,0.0,0,0.0,0.0,170,0.0,0.0,165,0.0,0.0,329,1.0273556231003038,0.13034694936615016,1445769386572,982.0,0.0,100.16089613034627,0.1494173408820564,0.5865580448065172,0.33042055677007787,0.025458248472505062,0.024835416705593635,1.64765784114053,0.609673407782491
1445769386703,982.0,0.0,331.0,0.5672097759674127,0.28039159509291606,0.044806517311608965,0.28039159509291606,0,0.0,0.0,0,0.0,0.0,0,0.0,0.0,0,0.0,0.0,0,0.0,0.0,0,0.0,0.0,334,0.0,0.0,0,0.0,0.0,159,0.0,0.0,165,0.012121212121212121,0.01204730229120473,324,1.015432098765432,0.10812024614914185,1445769387573,985.0,0.0,100.16243654822324,0.17277454500433218,0.5401015228426393,0.2486442986257272,0.0406091370558376,0.04509718955057572,1.45279187817259,0.32932400643803333
1445769387708,997.0,0.0,327.0,0.5145436308926774,0.26409549934945353,0.04513540621865595,0.26409549934945353,0,0.0,0.0,0,0.0,0.0,0,0.0,0.0,0,0.0,0.0,0,0.0,0.0,0,0.0,0.0,344,0.0,0.0,0,0.0,0.0,146,0.0,0.0,179,0.0,0.0,328,0.9969512195121955,0.06421085999850823,1445769388575,978.0,0.0,100.16973415132908,0.14311579414467493,0.5071574642126786,0.2747695985163882,0.02760736196319019,0.02687267269907255,1.4928425357873203,0.3791708267661324
1445769388713,971.0,0.0,343.0,0.5139031925849631,0.25212608958773464,0.0556127703398558,0.25212608958773464,0,0.0,0.0,0,0.0,0.0,0,0.0,0.0,0,0.0,0.0,0,0.0,0.0,0,0.0,0.0,312,0.0032051282051282046,0.0032051282051282068,0,0.0,0.0,162,0.0,0.0,167,0.0,0.0,330,1.0363636363636364,0.0837800497374965,1445769389576,977.0,0.0,100.18730808597762,0.16467481584643512,0.5005117707267145,0.250255885363357,0.031729785056294806,0.030754484286121785,1.5005117707267148,0.5125509673305692
1445769389718,980.0,0.0,324.0,0.5438775510204091,0.3280012924475205,0.04285714285714287,0.3280012924475205,0,0.0,0.0,0,0.0,0.0,0,0.0,0.0,0,0.0,0.0,0,0.0,0.0,0,0.0,0.0,324,0.0,0.0,0,0.0,0.0,172,0.0,0.0,157,0.0,0.0,327,0.9908256880733948,0.08273765970619687,1445769390577,979.0,0.0,100.16343207354451,0.15526673643444833,0.573033707865169,0.2715011144045404,0.03881511746680284,0.03734665187756796,1.4800817160367723,0.3889177847267046
1445769390719,980.0,0.0,299.0,0.5377551020408169,0.2958151800045859,0.045918367346938826,0.2958151800045859,0,0.0,0.0,0,0.0,0.0,0,0.0,0.0,0,0.0,0.0,0,0.0,0.0,0,0.0,0.0,345,0.0,0.0,0,0.0,0.0,169,0.0,0.0,148,0.0,0.0,318,0.940251572327044,0.08790151379878182,1445769391578,978.0,0.0,100.15132924335374,0.12856015556155692,0.7791411042944791,2.137455965739618,0.029652351738241302,0.028802540224760507,1.661554192229039,0.6990526485443325
1445769391721,974.0,0.0,333.0,0.5800821355236138,0.28700266539481817,0.04825462012320326,0.28700266539481817,0,0.0,0.0,0,0.0,0.0,0,0.0,0.0,0,0.0,0.0,0,0.0,0.0,0,0.0,0.0,337,0.002967359050445102,0.002967359050445106,0,0.0,0.0,170,0.0,0.0,151,0.0,0.0,316,1.0506329113924042,0.24504721719911607,1445769392579,978.0,0.0,100.20347648261757,0.2564055066111597,0.5961145194274042,0.2778559213652246,0.020449897750511252,0.02005220270725669,1.6380368098159483,0.6856346270981027
1445769392723,983.0,0.0,360.0,0.5584944048830114,0.2957093398362801,0.05289928789420141,0.2957093398362801,0,0.0,0.0,0,0.0,0.0,0,0.0,0.0,0,0.0,0.0,0,0.0,0.0,0,0.0,0.0,328,0.0,0.0,0,0.0,0.0,154,0.0,0.0,170,0.0,0.0,331,1.0876132930513593,0.21957337727730455,1445769393582,966.0,0.0,100.18322981366462,0.23271328806359176,0.5631469979296067,0.25248500842103005,0.03830227743271228,0.036873384181336434,1.5766045548654257,0.5552655574507339
1445769393728,969.0,0.0,322.0,0.5737874097007213,0.25100640517189904,0.04643962848297213,0.25100640517189904,0,0.0,0.0,0,0.0,0.0,0,0.0,0.0,0,0.0,0.0,0,0.0,0.0,0,0.0,0.0,330,0.0,0.0,0,0.0,0.0,167,0.0,0.0,155,0.0,0.0,317,1.0157728706624598,0.09785169508445467,1445769394604,1000.0,0.0,100.15100000000004,0.14834734734734714,0.5370000000000001,0.27690790790790776,0.034,0.032876876876876876,1.5859999999999992,0.5391431431431422
1445769394751,1000.0,0.0,337.0,0.5760000000000008,0.30452852852852785,0.04700000000000005,0.30452852852852785,0,0.0,0.0,0,0.0,0.0,0,0.0,0.0,0,0.0,0.0,0,0.0,0.0,0,0.0,0.0,326,0.0,0.0,0,0.0,0.0,179,0.0,0.0,159,0.0,0.0,336,1.0029761904761905,0.15222992181947398,1445769395630,1000.0,0.0,100.17800000000007,0.15447047047047063,0.5920000000000011,0.3138498498498498,0.029000000000000005,0.028187187187187192,1.563,0.49652752752752766
1445769395752,999.0,0.0,375.0,0.5595595595595595,0.28277174970561775,0.04604604604604607,0.28277174970561775,0,0.0,0.0,0,0.0,0.0,0,0.0,0.0,0,0.0,0.0,0,0.0,0.0,0,0.0,0.0,330,0.0,0.0,0,0.0,0.0,161,0.0,0.0,173,0.0,0.0,335,1.119402985074627,0.6324068281347751,1445769396633,989.0,0.0,100.14256825075836,0.1223662719059461,0.9271991911021237,1.3691886050195874,0.033367037411526794,0.032286323649210164,2.062689585439843,2.4576044996991113
1445769396753,970.0,0.0,426.0,0.6567010309278356,0.30204483312587094,0.037113402061855635,0.30204483312587094,0,0.0,0.0,0,0.0,0.0,0,0.0,0.0,0,0.0,0.0,0,0.0,0.0,0,0.0,0.0,336,0.0029761904761904734,0.0029761904761904778,0,0.0,0.0,158,0.0,0.0,161,0.0,0.0,315,1.3492063492063484,2.896774845819432,1445769397634,984.0,0.0,100.17682926829262,0.14570875617199677,0.7215447154471551,0.5612444069506821,0.03658536585365849,0.035282733295288145,1.7601626016260163,0.7338742359956665
1445769397754,960.0,0.0,342.0,0.6375000000000004,0.2959854014598543,0.04687499999999999,0.2959854014598543,0,0.0,0.0,0,0.0,0.0,0,0.0,0.0,0,0.0,0.0,0,0.0,0.0,0,0.0,0.0,304,0.0,0.0,0,0.0,0.0,159,0.0,0.0,164,0.0,0.0,333,1.0270270270270259,0.17095408661673722,1445769398635,944.0,0.0,100.1610169491525,0.13735463810054555,0.7129237288135585,0.6396631288531017,0.025423728813559275,0.024803637866887142,1.997881355932205,1.6797409996944475
1445769398765,971.0,0.0,411.0,0.6549948506694125,0.44064255151984877,0.04943357363542738,0.44064255151984877,0,0.0,0.0,0,0.0,0.0,0,0.0,0.0,0,0.0,0.0,0,0.0,0.0,0,0.0,0.0,314,0.0,0.0,0,0.0,0.0,172,0.011627906976744188,0.011559907520739836,157,0.0,0.0,328,1.2469512195121961,1.097850003729396,1445769399642,983.0,0.0,100.20244150559513,0.38972926719609813,0.6236012207527983,0.32661145792111534,0.04476093591047811,0.04280093566185231,1.7293997965412007,0.6965583970264349
1445769399788,1000.0,0.0,359.0,0.6570000000000012,0.3837347347347345,0.039000000000000014,0.3837347347347345,0,0.0,0.0,0,0.0,0.0,0,0.0,0.0,0,0.0,0.0,0,0.0,0.0,0,0.0,0.0,334,0.0,0.0,0,0.0,0.0,161,0.0,0.0,174,0.0,0.0,331,1.0845921450151053,0.1928224846653849,1445769400666,1000.0,0.0,100.17300000000009,0.14922022022021864,0.6300000000000007,0.2553553553553555,0.025999999999999995,0.02534934934934936,1.9160000000000008,1.6606046046046046
1445769400813,1000.0,0.0,431.0,0.6619999999999996,0.7264824824824823,0.04499999999999999,0.7264824824824823,0,0.0,0.0,0,0.0,0.0,0,0.0,0.0,0,0.0,0.0,0,0.0,0.0,0,0.0,0.0,357,0.0,0.0,0,0.0,0.0,156,0.0,0.0,168,0.0,0.0,319,1.3510971786833852,2.0147079119102536,1445769401687,1000.0,0.0,100.18300000000009,0.24575675675676012,0.6709999999999997,1.1619209209209218,0.041,0.03935835835835833,1.7999999999999987,1.5015015015015003
1445769401834,1000.0,0.0,369.0,0.5870000000000001,0.26269369369369355,0.04099999999999993,0.26269369369369355,0,0.0,0.0,0,0.0,0.0,0,0.0,0.0,0,0.0,0.0,0,0.0,0.0,0,0.0,0.0,316,0.0,0.0,0,0.0,0.0,168,0.0,0.0,176,0.0,0.0,340,1.0852941176470583,0.5797241020301926,1445769402688,980.0,0.0,100.14897959183656,0.1473431865085163,0.9000000000000007,1.628396322778347,0.042857142857142864,0.041062308478038816,1.8020408163265298,1.0332951157991286
1445769402840,993.0,0.0,359.0,0.6626384692849951,0.46167730565571913,0.026183282980866068,0.46167730565571913,0,0.0,0.0,0,0.0,0.0,0,0.0,0.0,0,0.0,0.0,0,0.0,0.0,0,0.0,0.0,348,0.0,0.0,0,0.0,0.0,166,0.0,0.0,149,0.0,0.0,330,1.0878787878787886,0.11687390623560828,1445769403689,970.0,0.0,100.18247422680419,0.18441905248263116,0.8453608247422687,2.572553275243901,0.03195876288659798,0.03716127796750823,1.903092783505155,1.8089687529922456
1445769403849,983.0,0.0,374.0,0.6225839267548329,0.47350166682896483,0.052899287894201424,0.47350166682896483,0,0.0,0.0,0,0.0,0.0,0,0.0,0.0,0,0.0,0.0,0,0.0,0.0,0,0.0,0.0,319,0.0031347962382445122,0.003134796238244515,0,0.0,0.0,181,0.0,0.0,153,0.0,0.0,330,1.1303030303030306,0.4601731601731598,1445769404696,965.0,0.0,100.16062176165804,0.1474104013931604,0.5616580310880831,0.24645367961645173,0.02901554404145081,0.028202868015393578,1.6113989637305697,0.4577537462644851
1445769404853,961.0,0.0,333.0,0.5806451612903223,0.24791666666666676,0.04474505723204994,0.24791666666666676,0,0.0,0.0,0,0.0,0.0,0,0.0,0.0,0,0.0,0.0,0,0.0,0.0,0,0.0,0.0,303,0.0,0.0,0,0.0,0.0,160,0.0,0.0,168,0.0,0.0,330,1.009090909090909,0.09414202818458142,1445769405699,994.0,0.0,100.15291750503026,0.14174878070031507,0.5623742454728365,0.25038549524741593,0.035211267605633784,0.034005645149851785,1.5794768611670007,0.4856206726765426
1445769405863,978.0,0.0,321.0,0.5725971370143146,0.2900159705956842,0.03680981595092026,0.2900159705956842,0,0.0,0.0,0,0.0,0.0,0,0.0,0.0,0,0.0,0.0,0,0.0,0.0,0,0.0,0.0,326,0.0,0.0,0,0.0,0.0,167,0.0,0.0,161,0.0,0.0,324,0.9907407407407413,0.08350533195734429,1445769406717,991.0,0.0,100.16347124117054,0.17931076659633438,0.5812310797174568,0.26990999806337856,0.04137235116044395,0.03970074101254722,1.562058526740666,0.43831656626813104
1445769406865,987.0,0.0,324.0,0.5511651469098279,0.2922577688448824,0.046605876393110444,0.2922577688448824,0,0.0,0.0,0,0.0,0.0,0,0.0,0.0,0,0.0,0.0,0,0.0,0.0,0,0.0,0.0,362,0.0,0.0,0,0.0,0.0,145,0.0,0.0,166,0.0,0.0,314,1.031847133757961,0.17150648134958596,1445769407739,1000.0,0.0,100.16700000000016,0.13925025025024723,0.580000000000001,0.2678678678678679,0.03499999999999996,0.033808808808808814,1.6940000000000002,0.8351991991992007
1445769407887,998.0,0.0,328.0,0.5490981963927856,0.2799339903477969,0.053106212424849676,0.2799339903477969,0,0.0,0.0,0,0.0,0.0,0,0.0,0.0,0,0.0,0.0,0,0.0,0.0,0,0.0,0.0,349,0.0028653295128939806,0.002865329512893984,0,0.0,0.0,157,0.0,0.0,167,0.0,0.0,325,1.0061538461538462,0.06169040835707501,1445769408763,1000.0,0.0,100.17000000000014,0.1812812812812834,0.5460000000000002,0.248132132132132,0.029000000000000005,0.028187187187187168,1.5309999999999981,0.40544444444444433
1445769408910,1000.0,0.0,324.0,0.5570000000000009,0.2670180180180179,0.04100000000000001,0.2670180180180179,0,0.0,0.0,0,0.0,0.0,0,0.0,0.0,0,0.0,0.0,0,0.0,0.0,0,0.0,0.0,331,0.0030211480362537764,0.003021148036253778,0,0.0,0.0,179,0.0,0.0,159,0.0,0.0,331,0.9758308157099698,0.06608074704751442,1445769409786,1000.0,0.0,100.17000000000003,0.145245245245245,0.5730000000000001,0.2449159159159161,0.025000000000000022,0.024399399399399377,1.6090000000000004,0.4585775775775779
1445769409932,1000.0,0.0,332.0,0.6019999999999996,0.2678638638638639,0.041999999999999954,0.2678638638638639,0,0.0,0.0,0,0.0,0.0,0,0.0,0.0,0,0.0,0.0,0,0.0,0.0,0,0.0,0.0,341,0.0,0.0,0,0.0,0.0,162,0.00617283950617284,0.006172839506172839,165,0.0,0.0,332,0.996987951807229,0.10573108142539939,1445769410808,1000.0,0.0,100.19100000000006,0.22874774774774748,0.5610000000000003,0.25453353353353336,0.043000000000000024,0.04119219219219222,1.6020000000000016,0.5581541541541541
1445769410955,1000.0,0.0,336.0,0.6130000000000002,0.32355455455455495,0.03000000000000002,0.32355455455455495,0,0.0,0.0,0,0.0,0.0,0,0.0,0.0,0,0.0,0.0,0,0.0,0.0,0,0.0,0.0,320,0.0,0.0,0,0.0,0.0,180,0.0,0.0,162,0.00617283950617284,0.006172839506172837,338,0.99112426035503,0.11564799044826433,1445769411831,1000.0,0.0,100.14799999999994,0.14023623623623674,0.6180000000000003,0.3624384384384384,0.03399999999999998,0.032876876876876876,1.650000000000001,0.5680680680680673
1445769411977,1000.0,0.0,318.0,0.6239999999999993,0.2628868868868869,0.043000000000000024,0.2628868868868869,0,0.0,0.0,0,0.0,0.0,0,0.0,0.0,0,0.0,0.0,0,0.0,0.0,0,0.0,0.0,352,0.0,0.0,0,0.0,0.0,166,0.0,0.0,161,0.0,0.0,321,0.9906542056074774,0.07803738317757007,1445769412853,1000.0,0.0,100.17799999999988,0.15246846846847012,0.5440000000000002,0.24831231231231235,0.031000000000000014,0.03006906906906907,1.517,0.40811911911911897
1445769413000,1000.0,0.0,326.0,0.5440000000000005,0.2543183183183181,0.03000000000000001,0.2543183183183181,0,0.0,0.0,0,0.0,0.0,0,0.0,0.0,0,0.0,0.0,0,0.0,0.0,0,0.0,0.0,349,0.0,0.0,0,0.0,0.0,159,0.0,0.0,161,0.0,0.0,331,0.9848942598187314,0.07552870090634439,1445769413855,982.0,0.0,100.17718940936865,0.16021309150851915,0.5539714867617112,0.2718037830801521,0.03156822810590633,0.030602838867193585,1.6985743380855405,1.3443200857016526
1445769414001,981.0,0.0,336.0,0.5616717635066263,0.5280804676610712,0.04383282364933739,0.5280804676610712,0,0.0,0.0,0,0.0,0.0,0,0.0,0.0,0,0.0,0.0,0,0.0,0.0,0,0.0,0.0,330,0.0,0.0,0,0.0,0.0,160,0.0,0.0,169,0.0,0.0,322,1.043478260869565,0.3657049979683054,1445769414856,974.0,0.0,100.14784394250513,0.128171091756692,0.5533880903490765,0.24740371973468472,0.025667351129363438,0.02503424072123937,1.5246406570841886,0.4264220187358471
1445769415002,975.0,0.0,313.0,0.54974358974359,0.25393987258463624,0.04307692307692306,0.25393987258463624,0,0.0,0.0,0,0.0,0.0,0,0.0,0.0,0,0.0,0.0,0,0.0,0.0,0,0.0,0.0,356,0.0,0.0,0,0.0,0.0,150,0.0,0.0,155,0.0,0.0,314,0.9968152866242035,0.08625180602755332,1445769415858,979.0,0.0,100.16853932584276,0.1607270053537362,0.5321756894790602,0.24921929016504066,0.03983656792645554,0.03828872581888369,1.491317671092954,0.5160288345647132
1445769416008,979.0,0.0,331.0,0.5291113381001011,0.2616772258324612,0.05005107252298264,0.2616772258324612,0,0.0,0.0,0,0.0,0.0,0,0.0,0.0,0,0.0,0.0,0,0.0,0.0,0,0.0,0.0,338,0.0029585798816568025,0.0029585798816568064,0,0.0,0.0,171,0.0,0.0,154,0.0,0.0,316,1.044303797468354,0.3916817359855333,1445769416862,988.0,0.0,100.14473684210525,0.1543086439503017,0.5374493927125501,0.2670864969297224,0.024291497975708495,0.023725434699678832,1.5263157894736854,0.6771183277342288
1445769417013,991.0,0.0,330.0,0.5600403632694252,0.3516945438237064,0.05247225025227046,0.3516945438237064,0,0.0,0.0,0,0.0,0.0,0,0.0,0.0,0,0.0,0.0,0,0.0,0.0,0,0.0,0.0,347,0.0,0.0,0,0.0,0.0,158,0.0,0.0,161,0.0,0.0,325,1.0153846153846153,0.2127255460588793,1445769417863,982.0,0.0,100.15987780040741,0.16707358342104475,0.5468431771894093,0.24805832196665412,0.035641547861507146,0.03440626485713276,1.4562118126272898,0.5235648399010939
1445769418016,984.0,0.0,332.0,0.548780487804878,0.28652953874401355,0.03150406504065043,0.28652953874401355,0,0.0,0.0,0,0.0,0.0,0,0.0,0.0,0,0.0,0.0,0,0.0,0.0,0,0.0,0.0,318,0.0031446540880503125,0.003144654088050315,0,0.0,0.0,173,0.005780346820809249,0.0057803468208092465,162,0.0,0.0,331,0.9969788519637462,0.08180902682413255,1445769418865,979.0,0.0,100.14504596527067,0.12413443040037052,0.5454545454545457,0.28908719092768154,0.03472931562819203,0.03969243688000156,1.4565883554647585,0.42219325675588154
1445769419018,984.0,0.0,325.0,0.5436991869918706,0.2931036978223286,0.02845528455284553,0.2931036978223286,0,0.0,0.0,0,0.0,0.0,0,0.0,0.0,0,0.0,0.0,0,0.0,0.0,0,0.0,0.0,325,0.0,0.0,0,0.0,0.0,164,0.0,0.0,164,0.0,0.0,331,0.981873111782478,0.04815526869907537,1445769419866,970.0,0.0,100.16804123711343,0.14820358962901548,0.5402061855670095,0.2610236932537532,0.03092783505154639,0.04238613513772295,1.4360824742268035,0.33904758865021833
1445769420020,966.0,0.0,317.0,0.5610766045548647,0.2796854718458686,0.05072463768115949,0.2796854718458686,0,0.0,0.0,0,0.0,0.0,0,0.0,0.0,0,0.0,0.0,0,0.0,0.0,0,0.0,0.0,325,0.0,0.0,0,0.0,0.0,171,0.0,0.0,151,0.0,0.0,319,0.993730407523511,0.05656434218568248,1445769420871,984.0,0.0,100.15040650406502,0.13401814587830624,0.6910569105691063,0.9644774169003136,0.02845528455284554,0.033777469005615776,1.6778455284552845,0.7964161063278985
1445769421021,981.0,0.0,381.0,0.5942915392456675,0.29237554348956685,0.03873598369011206,0.29237554348956685,0,0.0,0.0,0,0.0,0.0,0,0.0,0.0,0,0.0,0.0,0,0.0,0.0,0,0.0,0.0,313,0.0,0.0,0,0.0,0.0,184,0.0,0.0,147,0.0,0.0,337,1.1305637982195849,0.5662356930902923,1445769421875,987.0,0.0,100.15096251266462,0.13641641542897448,0.6697061803444776,0.5135134024262671,0.03850050658561298,0.037055761409479436,1.7365754812563325,0.7134986056051182
1445769422022,985.0,0.0,376.0,0.6243654822335031,0.3485927118154431,0.04162436548223348,0.3485927118154431,0,0.0,0.0,0,0.0,0.0,0,0.0,0.0,0,0.0,0.0,0,0.0,0.0,0,0.0,0.0,318,0.0,0.0,0,0.0,0.0,160,0.0,0.0,175,0.0,0.0,332,1.1325301204819278,0.2119899537727952,1445769422877,984.0,0.0,100.15345528455295,0.13207350155902672,0.5894308943089426,0.28090547436501795,0.038617886178861784,0.0371643136573787,1.6351626016260161,0.5330858331472426
1445769423025,985.0,0.0,337.0,0.5766497461928934,0.2626655936610127,0.03350253807106599,0.2626655936610127,0,0.0,0.0,0,0.0,0.0,0,0.0,0.0,0,0.0,0.0,0,0.0,0.0,0,0.0,0.0,344,0.0,0.0,0,0.0,0.0,164,0.0,0.0,159,0.0,0.0,318,1.0597484276729563,0.1320655516536714,1445769423878,960.0,0.0,100.1572916666668,0.1326892161974276,0.5593749999999996,0.2634156673618353,0.02916666666666674,0.028345498783455016,1.5395833333333337,0.40927615571776094
1445769424030,965.0,0.0,336.0,0.5751295336787561,0.24875841162685686,0.03419689119170984,0.24875841162685686,0,0.0,0.0,0,0.0,0.0,0,0.0,0.0,0,0.0,0.0,0,0.0,0.0,0,0.0,0.0,307,0.0,0.0,0,0.0,0.0,169,0.0,0.0,155,0.0,0.0,334,1.005988023952096,0.06603010195824564,1445769424886,981.0,0.0,100.15902140672787,0.15223740872495878,0.5606523955147806,0.2833073290478267,0.0458715596330275,0.04993446920052429,1.554536187563711,0.44931868771973626
1445769425036,979.0,0.0,325.0,0.5750766087844741,0.2998280871721278,0.049029622063329906,0.2998280871721278,0,0.0,0.0,0,0.0,0.0,0,0.0,0.0,0,0.0,0.0,0,0.0,0.0,0,0.0,0.0,310,0.0,0.0,0,0.0,0.0,156,0.0,0.0,181,0.0,0.0,332,0.978915662650603,0.1113365850107378,1445769425889,992.0,0.0,100.13205645161291,0.11876953061423752,0.5352822580645158,0.27322413821164654,0.0342741935483871,0.03313287327886459,1.5493951612903234,0.48393505256990343
1445769426041,992.0,0.0,350.0,0.5483870967741936,0.3225806451612898,0.027217741935483875,0.3225806451612898,0,0.0,0.0,0,0.0,0.0,0,0.0,0.0,0,0.0,0.0,0,0.0,0.0,0,0.0,0.0,319,0.003134796238244513,0.003134796238244515,0,0.0,0.0,178,0.0,0.0,159,0.0,0.0,336,1.038690476190475,0.10297619047619058,1445769426891,988.0,0.0,100.18825910931191,0.1934992965228122,0.6194331983805672,0.5824791110345432,0.028340080971659916,0.027564820397967107,1.5850202429149798,0.7536558253243586
1445769427045,984.0,0.0,352.0,0.6158536585365868,0.24292236309952117,0.034552845528455306,0.24292236309952117,0,0.0,0.0,0,0.0,0.0,0,0.0,0.0,0,0.0,0.0,0,0.0,0.0,0,0.0,0.0,321,0.0,0.0,0,0.0,0.0,173,0.005780346820809249,0.0057803468208092465,160,0.0,0.0,330,1.063636363636364,0.728460900801326,1445769427893,975.0,0.0,100.19076923076925,0.17096193334386262,0.6184615384615375,0.7249154951824353,0.030769230769230795,0.02985310377507502,1.65846153846154,0.5947306902543046
1445769428050,990.0,0.0,343.0,0.5585858585858591,0.3175955714883929,0.03939393939393939,0.3175955714883929,0,0.0,0.0,0,0.0,0.0,0,0.0,0.0,0,0.0,0.0,0,0.0,0.0,0,0.0,0.0,316,0.0,0.0,0,0.0,0.0,173,0.0,0.0,161,0.0,0.0,340,1.008823529411765,0.13266527850078086,1445769428895,957.0,0.0,100.2006269592477,0.2065686441678323,0.5161964472309301,0.27301145927606785,0.034482758620689655,0.039604674650122663,1.638453500522468,0.5699842167162915
1445769429051,955.0,0.0,329.0,0.5602094240837694,0.26550100431360946,0.03769633507853403,0.26550100431360946,0,0.0,0.0,0,0.0,0.0,0,0.0,0.0,0,0.0,0.0,0,0.0,0.0,0,0.0,0.0,304,0.0,0.0,0,0.0,0.0,168,0.0,0.0,157,0.006369426751592358,0.006369426751592357,326,1.0061349693251538,0.11073147711184517,1445769429897,994.0,0.0,100.15593561368233,0.165991923342673,0.6297786720321937,0.27770246858796305,0.038229376257545224,0.03680491812911705,1.5744466800804828,0.5226494921188765
1445769430062,981.0,0.0,309.0,0.6411824668705396,0.28132268197799,0.03771661569826714,0.28132268197799,0,0.0,0.0,0,0.0,0.0,0,0.0,0.0,0,0.0,0.0,0,0.0,0.0,0,0.0,0.0,357,0.0,0.0,0,0.0,0.0,150,0.0,0.0,168,0.0,0.0,306,1.0098039215686272,0.14744455159112824,1445769430898,986.0,0.0,100.15517241379315,0.14340976719761825,0.5578093306288034,0.27736534837985555,0.03651115618661253,0.03521380545916954,1.5557809330628796,0.5171898971386216
1445769431064,997.0,0.0,354.0,0.5677031093279847,0.29987955835377555,0.037111334002005995,0.29987955835377555,0,0.0,0.0,0,0.0,0.0,0,0.0,0.0,0,0.0,0.0,0,0.0,0.0,0,0.0,0.0,343,0.0,0.0,0,0.0,0.0,161,0.0,0.0,163,0.0,0.0,330,1.0727272727272723,0.25609284332688603,1445769431899,983.0,0.0,100.15768056968484,0.13295265957116487,0.6103763987792487,0.2971223632713354,0.030518819938962376,0.02961755132569366,1.6236012207527983,0.6056338611797707
1445769432065,986.0,0.0,314.0,0.6075050709939154,0.28132432738542623,0.036511156186612534,0.28132432738542623,0,0.0,0.0,0,0.0,0.0,0,0.0,0.0,0,0.0,0.0,0,0.0,0.0,0,0.0,0.0,354,0.0,0.0,0,0.0,0.0,144,0.0,0.0,171,0.0,0.0,317,0.9905362776025239,0.053707622888631526,1445769432901,957.0,0.0,100.20062695924773,0.19610839312181153,0.55485893416928,0.30582626146036923,0.03343782654127485,0.03235354555510375,1.5747126436781593,0.49362766315587037
