timeStamp,totalRequests,failedRequests,totalHandleTime,upstreamTime,upstreamTimeVar,downstreamTime,downstreamTimeVar,CREATE_CLIENT_N,CREATE_CLIENT_time,CREATE_CLIENT_timeVar,CLIENT_LIST_N,CLIENT_LIST_time,CLIENT_LIST_timeVar,QUEUE_LIST_N,QUEUE_LIST_time,QUEUE_LIST_timeVar,MESSAGE_COUNT_N,MESSAGE_COUNT_time,MESSAGE_COUNT_timeVar,CREATE_QUEUE_N,CREATE_QUEUE_time,CREATE_QUEUE_timeVar,DELETE_QUEUE_N,DELETE_QUEUE_time,DELETE_QUEUE_timeVar,SEND_MESSAGE_N,SEND_MESSAGE_time,SEND_MESSAGE_timeVar,RECEIVE_MESSAGE_N,RECEIVE_MESSAGE_time,RECEIVE_MESSAGE_timeVar,POP_QUEUE_N,POP_QUEUE_time,POP_QUEUE_timeVar,TOP_QUEUE_N,TOP_QUEUE_time,TOP_QUEUE_timeVar,INBOX_QUEUES_N,INBOX_QUEUES_time,INBOX_QUEUES_timeVar,timeStamp,totalRequests,failedRequests,clientThinkTime,clientThinkTimeVar,waitingForConnectionTime,waitingForConnectionTimeVar,upstreamTime,upstreamTimeVar,waitingForResponseTime,waitingForResponseTimeVar
1445769915142,969.0,0.0,1774.0,0.7667698658410729,1.2864566009091776,0.06914344685242513,1.2864566009091776,0,0.0,0.0,0,0.0,0.0,0,0.0,0.0,100,0.8600000000000001,0.18222222222222229,0,0.0,0.0,0,0.0,0.0,666,2.3123123123123093,2.5399083293820093,0,0.0,0.0,42,0.0,0.0,38,0.02631578947368421,0.02631578947368421,123,1.1951219512195124,0.3550579768092762,1445769916026,990.0,0.0,100.16161616161621,0.13563338133611105,0.9373737373737386,0.9242842990062408,0.03232323232323234,0.0333323119976305,2.2121212121212115,1.6091552532401878
1445769916144,970.0,0.0,448.0,0.8257731958762881,0.5547530135222833,0.03505154639175255,0.5547530135222833,0,0.0,0.0,0,0.0,0.0,0,0.0,0.0,0,0.0,0.0,0,0.0,0.0,0,0.0,0.0,286,0.003496503496503496,0.003496503496503497,0,0.0,0.0,171,0.0,0.0,175,0.005714285714285715,0.005714285714285711,338,1.3195266272189345,0.8115463627903705,1445769917030,967.0,0.0,100.22647362978279,0.5666690218194198,0.8159255429162355,0.6451705451750408,0.03516028955532573,0.03395916165126185,1.9875904860392968,1.2917713103855812
1445769917146,981.0,0.0,355.0,0.7665647298674825,0.7097380848363809,0.03465851172273187,0.7097380848363809,0,0.0,0.0,0,0.0,0.0,0,0.0,0.0,0,0.0,0.0,0,0.0,0.0,0,0.0,0.0,340,0.0,0.0,0,0.0,0.0,163,0.0,0.0,158,0.0,0.0,320,1.1093750000000009,0.17922217868338544,1445769918031,980.0,0.0,100.17857142857157,0.14683350357507496,0.6316326530612245,0.3677419691063351,0.03469387755102043,0.03352442100435677,1.8153061224489786,1.0516551666631928
1445769918153,959.0,0.0,341.0,0.6558915537017731,0.4388770487699216,0.040667361835245046,0.4388770487699216,0,0.0,0.0,0,0.0,0.0,0,0.0,0.0,0,0.0,0.0,0,0.0,0.0,0,0.0,0.0,310,0.0,0.0,0,0.0,0.0,158,0.0,0.0,165,0.006060606060606059,0.00606060606060606,326,1.0429447852760731,0.2258423784804153,1445769919035,963.0,0.0,100.18587746625126,0.18474837166426253,0.6448598130841123,0.4226008898906093,0.025960539979231576,0.025312875780165497,1.7009345794392534,1.1121301027843091
1445769919175,1000.0,0.0,375.0,0.6240000000000002,0.35898298298298226,0.05600000000000001,0.35898298298298226,0,0.0,0.0,0,0.0,0.0,0,0.0,0.0,0,0.0,0.0,0,0.0,0.0,0,0.0,0.0,357,0.0028011204481792717,0.002801120448179272,0,0.0,0.0,166,0.012048192771084338,0.011975173420956556,163,0.0,0.0,314,1.1847133757961783,1.301235221098472,1445769920038,990.0,0.0,100.15050505050517,0.1279825555861954,0.6646464646464636,0.7489005321159012,0.028282828282828326,0.027510698491487122,1.7181818181818183,1.326969390568984
1445769920179,990.0,0.0,353.0,0.6252525252525257,0.34172769147491094,0.044444444444444425,0.34172769147491094,0,0.0,0.0,0,0.0,0.0,0,0.0,0.0,0,0.0,0.0,0,0.0,0.0,0,0.0,0.0,340,0.0,0.0,0,0.0,0.0,161,0.0,0.0,159,0.0,0.0,330,1.06969696969697,0.265644284793221,1445769921040,984.0,0.0,100.18394308943094,0.25199013307529194,0.8810975609756098,3.830201846016427,0.03658536585365852,0.03528273329528822,1.7936991869918697,3.9462064445161245
1445769921180,983.0,0.0,370.0,0.6246185147507619,0.27136887163241497,0.04883011190233981,0.27136887163241497,0,0.0,0.0,0,0.0,0.0,0,0.0,0.0,0,0.0,0.0,0,0.0,0.0,0,0.0,0.0,327,0.0030581039755351665,0.00305810397553517,0,0.0,0.0,166,0.0,0.0,165,0.0,0.0,325,1.1353846153846163,0.8396391263057936,1445769922041,968.0,0.0,100.19524793388432,0.2586330305024444,0.6260330578512399,0.3357021374789546,0.04235537190082643,0.07162712487287089,1.7210743801652892,0.9086764039758305
1445769922185,972.0,0.0,317.0,0.5812757201646099,0.375467783838307,0.06481481481481477,0.375467783838307,0,0.0,0.0,0,0.0,0.0,0,0.0,0.0,0,0.0,0.0,0,0.0,0.0,0,0.0,0.0,345,0.0,0.0,0,0.0,0.0,166,0.006024096385542169,0.006024096385542167,145,0.0,0.0,316,0.9999999999999999,0.18412698412698408,1445769923043,973.0,0.0,100.13771839671122,0.118874212799072,0.642343268242549,1.2258595240209935,0.03597122302158273,0.03471297036444919,1.707091469681397,1.4995072724888876
1445769923186,975.0,0.0,425.0,0.5641025641025647,0.29337124203653975,0.04512820512820506,0.29337124203653975,0,0.0,0.0,0,0.0,0.0,0,0.0,0.0,0,0.0,0.0,0,0.0,0.0,0,0.0,0.0,306,0.0,0.0,0,0.0,0.0,167,0.0,0.0,166,0.0,0.0,336,1.2648809523809528,2.3326137171286407,1445769924045,976.0,0.0,100.16393442622956,0.161815889029004,0.6014344262295083,0.3732902480033624,0.0358606557377049,0.04691782261454386,1.6670081967213113,1.0613104245481297
1445769924188,972.0,0.0,355.0,0.6296296296296303,0.3199450738070717,0.037037037037037104,0.3199450738070717,0,0.0,0.0,0,0.0,0.0,0,0.0,0.0,0,0.0,0.0,0,0.0,0.0,0,0.0,0.0,334,0.0,0.0,0,0.0,0.0,154,0.006493506493506496,0.006493506493506492,166,0.0,0.0,318,1.1132075471698117,0.6054401523718825,1445769925047,966.0,0.0,100.1801242236025,0.14783252341260816,1.0414078674948242,5.523672212746321,0.038302277432712216,0.03687338418133641,1.8809523809523798,1.4417715272637546
1445769925190,971.0,0.0,366.0,0.7064881565396496,0.4199475511482474,0.0298661174047374,0.4199475511482474,0,0.0,0.0,0,0.0,0.0,0,0.0,0.0,0,0.0,0.0,0,0.0,0.0,0,0.0,0.0,314,0.0,0.0,0,0.0,0.0,175,0.0,0.0,155,0.0,0.0,327,1.119266055045872,0.1544436314515675,1445769926060,984.0,0.0,100.19512195121953,0.34846041237625136,0.8689024390243906,1.4019210728729872,0.026422764227642278,0.06847711915572884,1.9695121951219525,1.7752648686202013
1445769926200,978.0,0.0,381.0,0.7361963190184045,0.6550037362402751,0.041922290388548125,0.6550037362402751,0,0.0,0.0,0,0.0,0.0,0,0.0,0.0,0,0.0,0.0,0,0.0,0.0,0,0.0,0.0,357,0.0,0.0,0,0.0,0.0,159,0.0,0.0,149,0.0,0.0,313,1.2172523961661343,0.8564962726304588,1445769927065,999.0,0.0,100.14414414414418,0.12349022369062436,0.6776776776776773,0.3669461044210542,0.028028028028028035,0.02726975472466456,1.8668668668668655,0.877047388069431
1445769927205,999.0,0.0,353.0,0.6416416416416421,0.3484045167411903,0.04604604604604605,0.3484045167411903,0,0.0,0.0,0,0.0,0.0,0,0.0,0.0,0,0.0,0.0,0,0.0,0.0,0,0.0,0.0,355,0.0,0.0,0,0.0,0.0,157,0.0,0.0,169,0.0,0.0,318,1.110062893081762,0.19920441243576756,1445769928067,984.0,0.0,100.14532520325204,0.12636673035092366,0.6067073170731718,0.4016233282882166,0.03150406504065047,0.03054259815232944,1.6351626016260152,0.5086707771960737
1445769928207,984.0,0.0,318.0,0.6087398373983739,0.25469464638695244,0.04979674796747967,0.25469464638695244,0,0.0,0.0,0,0.0,0.0,0,0.0,0.0,0,0.0,0.0,0,0.0,0.0,0,0.0,0.0,351,0.0,0.0,0,0.0,0.0,149,0.0,0.0,166,0.0,0.0,318,0.9999999999999998,0.09463722397476343,1445769929068,952.0,0.0,100.1596638655462,0.16796119078546357,0.7069327731092436,0.7836322226051304,0.03991596638655467,0.03836297926110506,1.7857142857142865,1.180111161183718
1445769929208,951.0,0.0,354.0,0.6550998948475283,0.4240765952736731,0.03995793901156678,0.4240765952736731,0,0.0,0.0,0,0.0,0.0,0,0.0,0.0,0,0.0,0.0,0,0.0,0.0,0,0.0,0.0,294,0.0,0.0,0,0.0,0.0,164,0.0,0.0,164,0.0,0.0,329,1.0759878419452888,0.5094521461931945,1445769930071,971.0,0.0,100.13800205973222,0.11908012783080493,0.585993820803295,0.29027785150816987,0.039134912461380074,0.03764213744996659,1.6343975283213186,0.7538258995402756
1445769930211,972.0,0.0,338.0,0.5761316872427984,0.3433226108589425,0.04732510288065842,0.3433226108589425,0,0.0,0.0,0,0.0,0.0,0,0.0,0.0,0,0.0,0.0,0,0.0,0.0,0,0.0,0.0,344,0.0,0.0,0,0.0,0.0,160,0.0,0.0,157,0.0,0.0,311,1.0868167202572352,0.5375998340421122,1445769931074,997.0,0.0,100.18254764292878,0.21363085239654456,0.9468405215646946,3.4660467345812545,0.027081243731193562,0.02637430363379296,1.9157472417251755,1.9768300886595531
1445769931214,997.0,0.0,380.0,0.736208625877633,0.5458060929777273,0.03911735205616859,0.5458060929777273,0,0.0,0.0,0,0.0,0.0,0,0.0,0.0,0,0.0,0.0,0,0.0,0.0,0,0.0,0.0,361,0.0,0.0,0,0.0,0.0,155,0.0,0.0,157,0.0,0.0,324,1.1728395061728394,0.8492909834499092,1445769932095,948.0,0.0,100.20780590717304,0.30207205521321784,1.3966244725738408,4.505669691987573,0.030590717299578084,0.02968623991374047,2.6803797468354444,4.5091394543729
1445769932235,948.0,0.0,391.0,0.9156118143459921,1.0361657287726276,0.05590717299578057,1.0361657287726276,0,0.0,0.0,0,0.0,0.0,0,0.0,0.0,0,0.0,0.0,0,0.0,0.0,0,0.0,0.0,346,0.0,0.0,0,0.0,0.0,144,0.0069444444444444475,0.006944444444444445,162,0.0,0.0,296,1.3175675675675675,0.6174530462666057,1445769933098,997.0,0.0,100.17151454363092,0.14223997293084062,0.7091273821464394,0.6924166072514734,0.02407221664994987,0.023516332128916833,1.8144433299899685,1.19143776711661
1445769933237,997.0,0.0,360.0,0.7191574724172521,0.8065904540932032,0.039117352056168474,0.8065904540932032,0,0.0,0.0,0,0.0,0.0,0,0.0,0.0,0,0.0,0.0,0,0.0,0.0,0,0.0,0.0,360,0.0,0.0,0,0.0,0.0,145,0.0,0.0,168,0.005952380952380953,0.005952380952380951,324,1.1080246913580238,0.43101899629247437,1445769934100,994.0,0.0,100.16599597585528,0.19296139374008134,0.6931589537223343,0.25721397873646723,0.028169014084507026,0.027403089230245512,1.907444668008046,1.6087461323834196
1445769934239,994.0,0.0,352.0,0.6931589537223345,0.3780599001866183,0.04527162977867205,0.3780599001866183,0,0.0,0.0,0,0.0,0.0,0,0.0,0.0,0,0.0,0.0,0,0.0,0.0,0,0.0,0.0,323,0.0,0.0,0,0.0,0.0,160,0.0,0.0,176,0.005681818181818183,0.005681818181818179,335,1.0477611940298501,0.17136473322012696,1445769935101,962.0,0.0,100.14553014553017,0.12448051990195684,0.6112266112266115,0.3023920422463611,0.03846153846153851,0.03702073160970144,1.6309771309771295,0.6742943615992526
1445769935240,961.0,0.0,335.0,0.6087408949011458,0.32175685050294817,0.046826222684703454,0.32175685050294817,0,0.0,0.0,0,0.0,0.0,0,0.0,0.0,0,0.0,0.0,0,0.0,0.0,0,0.0,0.0,329,0.0,0.0,0,0.0,0.0,170,0.005882352941176471,0.005882352941176466,148,0.0,0.0,314,1.063694267515924,0.16845404041431794,1445769936105,955.0,0.0,100.16125654450269,0.18361267520607855,0.6471204188481667,0.40888844984468903,0.03664921465968583,0.035343058162380515,1.6324607329842908,0.7903498084669662
1445769936245,956.0,0.0,329.0,0.6119246861924692,0.2565696948454512,0.04184100418410043,0.2565696948454512,0,0.0,0.0,0,0.0,0.0,0,0.0,0.0,0,0.0,0.0,0,0.0,0.0,0,0.0,0.0,331,0.0,0.0,0,0.0,0.0,144,0.0,0.0,165,0.0,0.0,316,1.0411392405063278,0.0649688567410087,1445769937108,992.0,0.0,100.21572580645152,0.42970199537774717,1.4858870967741948,7.565895478662801,0.024193548387096774,0.023632043227759515,2.6108870967741935,5.785875297028087
1445769937248,992.0,0.0,415.0,0.774193548387097,0.9096058071026332,0.0544354838709677,0.9096058071026332,0,0.0,0.0,0,0.0,0.0,0,0.0,0.0,0,0.0,0.0,0,0.0,0.0,0,0.0,0.0,326,0.0,0.0,0,0.0,0.0,162,0.0,0.0,171,0.0,0.0,333,1.2462462462462474,0.5717102644813483,1445769938109,960.0,0.0,100.1687500000001,0.1404197080291949,0.892708333333334,1.3596965154675011,0.029166666666666667,0.02834549878345497,2.18645833333333,3.292621437261033
1445769938249,950.0,0.0,324.0,0.6915789473684203,0.346293605457268,0.05368421052631575,0.346293605457268,0,0.0,0.0,0,0.0,0.0,0,0.0,0.0,0,0.0,0.0,0,0.0,0.0,0,0.0,0.0,353,0.0,0.0,0,0.0,0.0,156,0.0,0.0,147,0.0,0.0,294,1.1020408163265307,0.126070906178171,1445769939112,968.0,0.0,100.1776859504131,0.2165853325014709,0.6570247933884297,0.2979650790123664,0.027892561983471106,0.02714260685258144,1.8192148760330578,1.2775207893544824
1445769939252,978.0,0.0,407.0,0.6646216768916158,0.3213878301130504,0.06032719836400817,0.3213878301130504,0,0.0,0.0,0,0.0,0.0,0,0.0,0.0,0,0.0,0.0,0,0.0,0.0,0,0.0,0.0,311,0.0,0.0,0,0.0,0.0,175,0.005714285714285715,0.005714285714285712,154,0.0,0.0,338,1.201183431952662,0.49946447070391403,1445769940113,983.0,0.0,100.1658189216685,0.1506838246110548,0.6205493387589015,0.3355039749053666,0.02950152594099698,0.04088030116874854,1.6195320447609367,0.5597810435240225
1445769940254,985.0,0.0,328.0,0.626395939086295,0.33995295282902044,0.03654822335025383,0.33995295282902044,0,0.0,0.0,0,0.0,0.0,0,0.0,0.0,0,0.0,0.0,0,0.0,0.0,0,0.0,0.0,353,0.0,0.0,0,0.0,0.0,155,0.0,0.0,163,0.0,0.0,314,1.0445859872611456,0.07468305488288797,1445769941114,985.0,0.0,100.13705583756342,0.11839172960257371,0.6934010152284265,0.39167388882010634,0.02842639593908631,0.02764640336758699,1.712690355329949,0.6236700920308691
1445769941258,983.0,0.0,369.0,0.6144455747711095,0.28602329209597777,0.038657171922685675,0.28602329209597777,0,0.0,0.0,0,0.0,0.0,0,0.0,0.0,0,0.0,0.0,0,0.0,0.0,0,0.0,0.0,314,0.0,0.0,0,0.0,0.0,185,0.0,0.0,151,0.0,0.0,333,1.1081081081081088,0.21116900032562672,1445769942119,975.0,0.0,100.18461538461531,0.30879797820249477,0.6758974358974366,0.5067593323856159,0.027692307692307697,0.026953087979782023,1.6082051282051273,0.5301174116779869
1445769942259,975.0,0.0,365.0,0.574358974358974,0.25293529194966585,0.0553846153846154,0.25293529194966585,0,0.0,0.0,0,0.0,0.0,0,0.0,0.0,0,0.0,0.0,0,0.0,0.0,0,0.0,0.0,320,0.0,0.0,0,0.0,0.0,159,0.0,0.0,169,0.0,0.0,327,1.1162079510703367,0.13369355171572755,1445769943122,981.0,0.0,100.16309887869525,0.1488818157232321,0.6829765545361883,0.4412303147558729,0.027522935779816498,0.026792735442800943,1.7573904179408764,0.908427468846865
1445769943261,981.0,0.0,381.0,0.6534148827726803,0.26955210218644077,0.046890927624872555,0.26955210218644077,0,0.0,0.0,0,0.0,0.0,0,0.0,0.0,0,0.0,0.0,0,0.0,0.0,0,0.0,0.0,351,0.002849002849002846,0.0028490028490028504,0,0.0,0.0,159,0.0,0.0,155,0.006451612903225808,0.0064516129032258064,316,1.1993670886075953,0.3759995981514971,1445769944123,957.0,0.0,100.1839080459771,0.17325542249795725,0.5841170323928939,0.27037508252340176,0.02821316614420062,0.027445862462454583,1.5673981191222552,0.4674715704148685
1445769944266,966.0,0.0,344.0,0.5248447204968945,0.2558587841534451,0.05072463768115944,0.2558587841534451,0,0.0,0.0,0,0.0,0.0,0,0.0,0.0,0,0.0,0.0,0,0.0,0.0,0,0.0,0.0,307,0.003257328990228012,0.003257328990228013,0,0.0,0.0,162,0.0,0.0,169,0.0,0.0,328,1.045731707317073,0.11105206235548605,1445769945144,999.0,0.0,100.15515515515521,0.13121337770636238,0.5555555555555557,0.30928523714094863,0.03603603603603602,0.03477224719709685,1.569569569569569,0.5039227604357868
1445769945284,990.0,0.0,342.0,0.583838383838384,0.30590638436947815,0.04343434343434348,0.30590638436947815,0,0.0,0.0,0,0.0,0.0,0,0.0,0.0,0,0.0,0.0,0,0.0,0.0,0,0.0,0.0,326,0.0,0.0,0,0.0,0.0,155,0.0,0.0,180,0.0,0.0,329,1.0395136778115492,0.11733634813551785,1445769946146,999.0,0.0,100.17717717717719,0.23611186336637704,0.626626626626626,0.2562442201720759,0.026026026026026036,0.025374071466255838,1.7487487487487499,0.851639214364666
1445769946286,999.0,0.0,391.0,0.6356356356356352,0.2538791296306324,0.048048048048048006,0.2538791296306324,0,0.0,0.0,0,0.0,0.0,0,0.0,0.0,0,0.0,0.0,0,0.0,0.0,0,0.0,0.0,314,0.0,0.0,0,0.0,0.0,166,0.0,0.0,171,0.0,0.0,348,1.1235632183908058,0.48901089800920866,1445769947147,974.0,0.0,100.16837782340869,0.15455913356730314,0.5482546201232033,0.27053651886352437,0.037987679671457976,0.036582174565422516,1.6355236139630391,0.8649649362352302
1445769947287,975.0,0.0,390.0,0.5938461538461539,0.28661506870952497,0.04307692307692308,0.28661506870952497,0,0.0,0.0,0,0.0,0.0,0,0.0,0.0,0,0.0,0.0,0,0.0,0.0,0,0.0,0.0,313,0.0,0.0,0,0.0,0.0,163,0.0,0.0,166,0.0,0.0,333,1.171171171171171,0.7447085639856724,1445769948152,981.0,0.0,100.1580020387359,0.133173146934616,0.5749235474006124,0.25075828496536207,0.03261977573904176,0.0377103746697456,1.6106014271151903,0.5073976991408191
1445769948292,980.0,0.0,332.0,0.5979591836734689,0.27129307289820925,0.0489795918367346,0.27129307289820925,0,0.0,0.0,0,0.0,0.0,0,0.0,0.0,0,0.0,0.0,0,0.0,0.0,0,0.0,0.0,338,0.0,0.0,0,0.0,0.0,158,0.006329113924050633,0.006329113924050631,160,0.0,0.0,324,1.0216049382716055,0.10789091465046055,1445769949153,966.0,0.0,100.16873706004148,0.1590630665422249,0.5393374741200829,0.24871002692584107,0.02795031055900621,0.027197245196794586,1.5393374741200834,0.5347203896201421
1445769949294,968.0,0.0,364.0,0.5237603305785132,0.2641711606997871,0.04648760330578507,0.2641711606997871,0,0.0,0.0,0,0.0,0.0,0,0.0,0.0,0,0.0,0.0,0,0.0,0.0,0,0.0,0.0,311,0.0,0.0,0,0.0,0.0,175,0.0,0.0,157,0.0,0.0,325,1.1199999999999986,0.4269135802469137,1445769950155,980.0,0.0,100.1591836734694,0.13398094682203804,0.5275510204081638,0.2576671322257196,0.0397959183673469,0.03825123512121906,1.5591836734693865,0.6410289549936417
1445769950295,979.0,0.0,344.0,0.5648621041879458,0.2664941271820706,0.03472931562819208,0.2664941271820706,0,0.0,0.0,0,0.0,0.0,0,0.0,0.0,0,0.0,0.0,0,0.0,0.0,0,0.0,0.0,330,0.0,0.0,0,0.0,0.0,170,0.0,0.0,159,0.0,0.0,320,1.075000000000001,0.2012539184952978,1445769951158,999.0,0.0,100.15615615615614,0.14793551066096117,0.5725725725725712,0.24898646141131095,0.028028028028028066,0.027269754724664537,1.653653653653655,0.8839320282206049
1445769951296,997.0,0.0,445.0,0.5717151454363086,0.26719113162781505,0.03510531594784356,0.26719113162781505,0,0.0,0.0,0,0.0,0.0,0,0.0,0.0,0,0.0,0.0,0,0.0,0.0,0,0.0,0.0,315,0.0,0.0,0,0.0,0.0,166,0.0,0.0,173,0.0,0.0,343,1.2973760932944605,0.8937650248069149,1445769952159,981.0,0.0,100.17227319062181,0.1672304395764388,0.5484199796126407,0.29484699078408105,0.02956167176350662,0.02871705257026355,1.6503567787971476,0.7500738521708368
1445769952297,975.0,0.0,372.0,0.577435897435898,0.3140693939872583,0.03794871794871794,0.3140693939872583,0,0.0,0.0,0,0.0,0.0,0,0.0,0.0,0,0.0,0.0,0,0.0,0.0,0,0.0,0.0,292,0.0,0.0,0,0.0,0.0,159,0.0,0.0,184,0.0,0.0,340,1.0941176470588232,0.3922956793336798,1445769953162,959.0,0.0,100.1616266944734,0.16904787302361376,0.5432742440041718,0.2504740280520116,0.03441084462982269,0.05205056589479735,1.6016684045881122,0.5530661070487038
1445769953303,966.0,0.0,327.0,0.5600414078674956,0.27981098273956995,0.041407867494824016,0.27981098273956995,0,0.0,0.0,0,0.0,0.0,0,0.0,0.0,0,0.0,0.0,0,0.0,0.0,0,0.0,0.0,331,0.003021148036253775,0.0030211480362537777,0,0.0,0.0,147,0.0,0.0,170,0.0,0.0,318,1.0251572327044023,0.09400234113048822,1445769954164,976.0,0.0,100.18340163934431,0.1642780580075651,0.543032786885245,0.25660781841109714,0.033811475409836055,0.03270176544766709,1.6331967213114746,0.8253173602353924
1445769954304,977.0,0.0,401.0,0.5864892528147391,0.25916153497659267,0.049129989764585505,0.25916153497659267,0,0.0,0.0,0,0.0,0.0,0,0.0,0.0,0,0.0,0.0,0,0.0,0.0,0,0.0,0.0,312,0.0,0.0,0,0.0,0.0,151,0.0,0.0,184,0.0,0.0,330,1.2151515151515144,0.8137514967302207,1445769955172,985.0,0.0,100.19796954314734,0.3052804259007094,0.5756345177664973,0.3197309231975567,0.03654822335025385,0.04744335768230782,1.6802030456852795,0.7665284140151062
1445769955312,984.0,0.0,366.0,0.6077235772357729,0.36885178109156425,0.04166666666666671,0.36885178109156425,0,0.0,0.0,0,0.0,0.0,0,0.0,0.0,0,0.0,0.0,0,0.0,0.0,0,0.0,0.0,343,0.0,0.0,0,0.0,0.0,164,0.0,0.0,155,0.0,0.0,322,1.1366459627329202,0.4236373135194753,1445769956194,1000.0,0.0,100.15499999999994,0.15513013013012938,0.5540000000000005,0.24733133133133128,0.03199999999999998,0.031007007007006974,1.574999999999998,0.5489239239239234
1445769956335,1000.0,0.0,342.0,0.543000000000001,0.29644744744744755,0.040999999999999946,0.29644744744744755,0,0.0,0.0,0,0.0,0.0,0,0.0,0.0,0,0.0,0.0,0,0.0,0.0,0,0.0,0.0,338,0.0029585798816568025,0.0029585798816568047,0,0.0,0.0,163,0.0,0.0,168,0.0,0.0,331,1.0302114803625373,0.0899935915041655,1445769957195,998.0,0.0,100.15931863727464,0.13407054831830326,0.5751503006012039,0.24660353806911714,0.03507014028056113,0.03387416759295922,1.5400801603206409,0.48535285214360535
1445769957360,1000.0,0.0,335.0,0.5659999999999992,0.26390790790790775,0.03599999999999999,0.26390790790790775,0,0.0,0.0,0,0.0,0.0,0,0.0,0.0,0,0.0,0.0,0,0.0,0.0,0,0.0,0.0,333,0.0030030030030030012,0.0030030030030030034,0,0.0,0.0,151,0.0,0.0,180,0.0,0.0,336,0.9940476190476194,0.06563610518834405,1445769958198,974.0,0.0,100.17659137577014,0.15377829739728194,0.6601642710472283,2.415739335782765,0.03182751540041069,0.030846194267818372,1.5780287474332626,0.9985301286691397
1445769958369,988.0,0.0,315.0,0.5941295546558711,0.7601276103515753,0.05263157894736845,0.7601276103515753,0,0.0,0.0,0,0.0,0.0,0,0.0,0.0,0,0.0,0.0,0,0.0,0.0,0,0.0,0.0,359,0.0,0.0,0,0.0,0.0,160,0.0,0.0,154,0.006493506493506496,0.00649350649350649,315,0.9968253968253961,0.09234657769689614,1445769959199,976.0,0.0,100.16598360655729,0.19601092896174832,0.5379098360655731,0.2549716267339219,0.035860655737704916,0.03461013030685164,1.5522540983606552,0.5593179907524178
1445769959371,993.0,0.0,342.0,0.5397784491440079,0.2688293863496086,0.04330312185297078,0.2688293863496086,0,0.0,0.0,0,0.0,0.0,0,0.0,0.0,0,0.0,0.0,0,0.0,0.0,0,0.0,0.0,326,0.0,0.0,0,0.0,0.0,158,0.006329113924050634,0.006329113924050632,174,0.0,0.0,335,1.017910447761193,0.1194387344713557,1445769960200,967.0,0.0,100.16339193381597,0.15132926962431054,0.5698035160289564,0.28885948516360793,0.03309203722854189,0.032030077441704614,1.5832471561530495,0.6408370641093982
1445769960372,974.0,0.0,381.0,0.5882956878850102,0.26711877784366805,0.05544147843942502,0.26711877784366805,0,0.0,0.0,0,0.0,0.0,0,0.0,0.0,0,0.0,0.0,0,0.0,0.0,0,0.0,0.0,308,0.0,0.0,0,0.0,0.0,162,0.0,0.0,171,0.005847953216374269,0.0058479532163742695,333,1.1411411411411416,0.3745974890553202,1445769961202,973.0,0.0,100.14799588900314,0.14679896294604447,0.6680369989722502,0.46067484636629297,0.03597122302158272,0.03471297036444921,1.7543679342240492,1.11964396736579
1445769961374,973.0,0.0,383.0,0.6526207605344293,0.4738537212557999,0.0349434737923946,0.4738537212557999,0,0.0,0.0,0,0.0,0.0,0,0.0,0.0,0,0.0,0.0,0,0.0,0.0,0,0.0,0.0,343,0.0,0.0,0,0.0,0.0,150,0.0,0.0,169,0.0,0.0,311,1.2315112540192932,0.7268748055180997,1445769962203,992.0,0.0,100.15826612903227,0.13335238924514317,0.7429435483870959,1.0509087838937528,0.03124999999999995,0.030303985872855696,1.8598790322580667,1.3577428713258037
1445769962375,977.0,0.0,358.0,0.6407369498464672,0.4660847022501123,0.045035823950869976,0.4660847022501123,0,0.0,0.0,0,0.0,0.0,0,0.0,0.0,0,0.0,0.0,0,0.0,0.0,0,0.0,0.0,336,0.0,0.0,0,0.0,0.0,169,0.0,0.0,145,0.0,0.0,327,1.0948012232415905,0.16583178551997144,1445769963213,965.0,0.0,100.19067357512961,0.2519876163653196,0.5834196891191713,0.24536796164513158,0.0352331606217617,0.03402704620213702,1.56062176165803,0.4312278287790507
1445769963385,983.0,0.0,306.0,0.5859613428280761,0.2530410046140811,0.057985757884028426,0.2530410046140811,0,0.0,0.0,0,0.0,0.0,0,0.0,0.0,0,0.0,0.0,0,0.0,0.0,0,0.0,0.0,347,0.0,0.0,0,0.0,0.0,170,0.0,0.0,152,0.0,0.0,314,0.9745222929936311,0.06963635253657842,1445769964239,1000.0,0.0,100.16700000000013,0.1572682682682708,0.599999999999999,0.25425425425425424,0.03100000000000002,0.030069069069069095,1.6119999999999999,0.46592192192192144
1445769964391,978.0,0.0,331.0,0.5910020449897748,0.26243686591188337,0.0337423312883436,0.26243686591188337,0,0.0,0.0,0,0.0,0.0,0,0.0,0.0,0,0.0,0.0,0,0.0,0.0,0,0.0,0.0,330,0.00303030303030303,0.0030303030303030307,0,0.0,0.0,155,0.0,0.0,169,0.0,0.0,324,1.0185185185185175,0.09253525971792222,1445769965261,1000.0,0.0,100.14700000000003,0.13552652652652564,0.6280000000000006,0.28389989989989944,0.033999999999999954,0.03287687687687686,1.5950000000000024,0.5154904904904899
1445769965401,979.0,0.0,331.0,0.5822267620020429,0.30074718370024034,0.038815117466802836,0.30074718370024034,0,0.0,0.0,0,0.0,0.0,0,0.0,0.0,0,0.0,0.0,0,0.0,0.0,0,0.0,0.0,326,0.0,0.0,0,0.0,0.0,169,0.0,0.0,158,0.0,0.0,326,1.0153374233128836,0.10745634733364794,1445769966285,1000.0,0.0,100.17400000000004,0.221945945945951,0.5439999999999997,0.2483123123123122,0.03500000000000003,0.0338088088088088,1.5739999999999998,0.5991231231231237
1445769966425,1000.0,0.0,363.0,0.5639999999999997,0.2781821821821822,0.04699999999999998,0.2781821821821822,0,0.0,0.0,0,0.0,0.0,0,0.0,0.0,0,0.0,0.0,0,0.0,0.0,0,0.0,0.0,314,0.0,0.0,0,0.0,0.0,166,0.0,0.0,174,0.0,0.0,346,1.0491329479768774,0.18018765183882057,1445769967306,1000.0,0.0,100.16000000000014,0.15655655655655687,0.5399999999999997,0.27267267267267276,0.04499999999999999,0.04301801801801802,1.5649999999999986,0.5303053053053055
1445769967446,1000.0,0.0,329.0,0.5850000000000005,0.31509009009009087,0.03300000000000006,0.31509009009009087,0,0.0,0.0,0,0.0,0.0,0,0.0,0.0,0,0.0,0.0,0,0.0,0.0,0,0.0,0.0,357,0.0,0.0,0,0.0,0.0,163,0.0,0.0,163,0.0,0.0,317,1.0378548895899047,0.2137523459649403,1445769968335,1000.0,0.0,100.17800000000005,0.3086246246246239,0.6180000000000007,0.42650250250250343,0.045999999999999985,0.04392792792792799,1.6930000000000012,0.9016526526526526
1445769968475,1000.0,0.0,329.0,0.6290000000000004,0.3156746746746743,0.04699999999999994,0.3156746746746743,0,0.0,0.0,0,0.0,0.0,0,0.0,0.0,0,0.0,0.0,0,0.0,0.0,0,0.0,0.0,353,0.0028328611898016977,0.0028328611898017,0,0.0,0.0,165,0.0,0.0,157,0.0,0.0,325,1.0092307692307696,0.1141120607787275,1445769969357,1000.0,0.0,100.18900000000006,0.2335125125125142,0.6190000000000004,0.26009909909909873,0.030999999999999993,0.05008908908908906,1.6860000000000002,0.5919959959959957
1445769969497,1000.0,0.0,334.0,0.6340000000000003,0.29033433433433414,0.05199999999999995,0.29033433433433414,0,0.0,0.0,0,0.0,0.0,0,0.0,0.0,0,0.0,0.0,0,0.0,0.0,0,0.0,0.0,363,0.0,0.0,0,0.0,0.0,166,0.0,0.0,153,0.0,0.0,318,1.0503144654088057,0.16149832351248938,1445769970385,1000.0,0.0,100.16600000000001,0.16060460460460202,0.8760000000000003,2.455079079079075,0.03099999999999997,0.04208108108108106,1.8630000000000004,1.2114424424424426
1445769970524,1000.0,0.0,362.0,0.7420000000000007,0.47390990990991055,0.03699999999999999,0.47390990990991055,0,0.0,0.0,0,0.0,0.0,0,0.0,0.0,0,0.0,0.0,0,0.0,0.0,0,0.0,0.0,336,0.0,0.0,0,0.0,0.0,172,0.0,0.0,160,0.0,0.0,332,1.090361445783132,0.2153750955483564,1445769971406,1000.0,0.0,100.14699999999998,0.12551651651651577,0.6169999999999994,0.26657757757757755,0.03999999999999995,0.03843843843843839,1.7270000000000014,0.5790500500500487
1445769971547,1000.0,0.0,342.0,0.6600000000000003,0.264664664664665,0.041999999999999954,0.264664664664665,0,0.0,0.0,0,0.0,0.0,0,0.0,0.0,0,0.0,0.0,0,0.0,0.0,0,0.0,0.0,323,0.0,0.0,0,0.0,0.0,168,0.0,0.0,171,0.0,0.0,338,1.0118343195266275,0.12448861341808148,1445769972428,1000.0,0.0,100.17900000000003,0.18914814814814787,0.5739999999999993,0.28881281281281274,0.036000000000000004,0.03473873873873874,1.7030000000000005,0.6674584584584589
1445769972568,1000.0,0.0,366.0,0.6010000000000004,0.2700690690690686,0.04900000000000002,0.2700690690690686,0,0.0,0.0,0,0.0,0.0,0,0.0,0.0,0,0.0,0.0,0,0.0,0.0,0,0.0,0.0,319,0.0031347962382445122,0.0031347962382445144,0,0.0,0.0,156,0.0,0.0,185,0.0,0.0,340,1.0735294117647043,0.1332205448551102,1445769973457,1000.0,0.0,100.16000000000011,0.15455455455455475,0.5660000000000004,0.30594994994995006,0.04000000000000004,0.038438438438438395,1.6050000000000004,0.6296046046046053
1445769973596,1000.0,0.0,328.0,0.5920000000000001,0.2798158158158159,0.04000000000000003,0.2798158158158159,0,0.0,0.0,0,0.0,0.0,0,0.0,0.0,0,0.0,0.0,0,0.0,0.0,0,0.0,0.0,357,0.008403361344537816,0.025210084033613456,0,0.0,0.0,165,0.0,0.0,155,0.0,0.0,323,1.0061919504643966,0.09934042266792291,1445769974479,1000.0,0.0,100.16400000000013,0.15726126126126377,0.5560000000000014,0.3091731731731735,0.04799999999999995,0.05775375375375369,1.537999999999999,0.4670230230230234
1445769974619,1000.0,0.0,353.0,0.5539999999999992,0.2673513513513514,0.04400000000000004,0.2673513513513514,0,0.0,0.0,0,0.0,0.0,0,0.0,0.0,0,0.0,0.0,0,0.0,0.0,0,0.0,0.0,317,0.0,0.0,0,0.0,0.0,170,0.0,0.0,171,0.0,0.0,342,1.032163742690058,0.22476891152612716,1445769975504,1000.0,0.0,100.188,0.2128688688688717,0.5370000000000004,0.2548858858858858,0.030999999999999972,0.030069069069069063,1.5600000000000003,0.5029029029029028
1445769975643,1000.0,0.0,342.0,0.5380000000000001,0.27483083083083065,0.04400000000000004,0.27483083083083065,0,0.0,0.0,0,0.0,0.0,0,0.0,0.0,0,0.0,0.0,0,0.0,0.0,0,0.0,0.0,300,0.006666666666666664,0.006644370122630988,0,0.0,0.0,168,0.0,0.0,184,0.0,0.0,348,0.9770114942528739,0.1089800920865216,1445769976525,1000.0,0.0,100.19099999999992,0.2928118118118115,0.5489999999999994,0.2838828828828825,0.047000000000000035,0.0748658658658659,1.575000000000001,0.536911911911912
1445769976665,1000.0,0.0,324.0,0.6169999999999991,0.31662762762762753,0.03399999999999999,0.31662762762762753,0,0.0,0.0,0,0.0,0.0,0,0.0,0.0,0,0.0,0.0,0,0.0,0.0,0,0.0,0.0,337,0.0,0.0,0,0.0,0.0,159,0.0,0.0,174,0.0,0.0,330,0.9818181818181821,0.05437966289030121,1445769977526,998.0,0.0,100.14829659318653,0.13445547062028568,0.5921843687374754,0.2557863972679564,0.05010020040080163,0.05365595785352044,1.575150300601202,0.4833136684602905
