timeStamp,totalRequests,failedRequests,totalHandleTime,upstreamTime,upstreamTimeVar,downstreamTime,downstreamTimeVar,CREATE_CLIENT_N,CREATE_CLIENT_time,CREATE_CLIENT_timeVar,CLIENT_LIST_N,CLIENT_LIST_time,CLIENT_LIST_timeVar,QUEUE_LIST_N,QUEUE_LIST_time,QUEUE_LIST_timeVar,MESSAGE_COUNT_N,MESSAGE_COUNT_time,MESSAGE_COUNT_timeVar,CREATE_QUEUE_N,CREATE_QUEUE_time,CREATE_QUEUE_timeVar,DELETE_QUEUE_N,DELETE_QUEUE_time,DELETE_QUEUE_timeVar,SEND_MESSAGE_N,SEND_MESSAGE_time,SEND_MESSAGE_timeVar,RECEIVE_MESSAGE_N,RECEIVE_MESSAGE_time,RECEIVE_MESSAGE_timeVar,POP_QUEUE_N,POP_QUEUE_time,POP_QUEUE_timeVar,TOP_QUEUE_N,TOP_QUEUE_time,TOP_QUEUE_timeVar,INBOX_QUEUES_N,INBOX_QUEUES_time,INBOX_QUEUES_timeVar,timeStamp,totalRequests,failedRequests,clientThinkTime,clientThinkTimeVar,waitingForConnectionTime,waitingForConnectionTimeVar,upstreamTime,upstreamTimeVar,waitingForResponseTime,waitingForResponseTimeVar
1445770271065,937.0,0.0,1517.0,0.6093916755602984,0.8899971722810571,0.07257203842049095,0.8899971722810571,0,0.0,0.0,0,0.0,0.0,0,0.0,0.0,100,0.8399999999999997,0.21656565656565657,0,0.0,0.0,0,0.0,0.0,568,2.2165492957746484,3.63732704871203,0,0.0,0.0,62,0.0,0.0,54,0.0,0.0,153,1.1372549019607847,0.7770897832817334,1445770271892,968.0,0.0,100.18078512396711,0.4605611202748601,0.696280991735538,0.43092720948319413,0.04648760330578518,0.08780564410676295,2.1146694214876014,5.2350276051860165
1445770272086,990.0,0.0,423.0,0.6606060606060599,0.3134111591138889,0.0585858585858586,0.3134111591138889,0,0.0,0.0,0,0.0,0.0,0,0.0,0.0,0,0.0,0.0,0,0.0,0.0,0,0.0,0.0,319,0.0031347962382445122,0.0031347962382445157,0,0.0,0.0,161,0.0,0.0,174,0.0,0.0,336,1.255952380952381,0.7283226723525229,1445770272894,963.0,0.0,100.2367601246106,0.5114539413604879,0.6313603322949116,0.5801797484040474,0.024922118380062325,0.024326267316921536,1.8899273104880583,1.67186309242384
1445770273112,1000.0,0.0,395.0,0.6849999999999995,0.40818318318318303,0.04899999999999996,0.40818318318318303,0,0.0,0.0,0,0.0,0.0,0,0.0,0.0,0,0.0,0.0,0,0.0,0.0,0,0.0,0.0,339,0.0,0.0,0,0.0,0.0,177,0.0,0.0,160,0.00625,0.006249999999999999,324,1.2160493827160497,0.3370790811451286,1445770273898,974.0,0.0,100.16016427104722,0.13464992159982725,0.8839835728952768,1.9628881230597783,0.03182751540041063,0.030846194267818358,1.9127310061601634,1.000598289335676
1445770274136,1000.0,0.0,362.0,0.6620000000000003,0.34610210210210174,0.04899999999999994,0.34610210210210174,0,0.0,0.0,0,0.0,0.0,0,0.0,0.0,0,0.0,0.0,0,0.0,0.0,0,0.0,0.0,350,0.0,0.0,0,0.0,0.0,164,0.0,0.0,154,0.0,0.0,332,1.0903614457831334,0.16099443089578855,1445770274902,996.0,0.0,100.21385542168677,0.3351244172670598,0.6104417670682732,0.27221246796230103,0.03815261044176703,0.11311577970172135,1.819277108433734,1.466803899013138
1445770275139,996.0,0.0,380.0,0.6445783132530114,0.641387661197555,0.05522088353413659,0.641387661197555,0,0.0,0.0,0,0.0,0.0,0,0.0,0.0,0,0.0,0.0,0,0.0,0.0,0,0.0,0.0,318,0.0,0.0,0,0.0,0.0,153,0.0,0.0,185,0.0,0.0,340,1.1176470588235294,0.4816935623807044,1445770275905,974.0,0.0,100.13347022587276,0.1157747899656228,0.6375770020533882,0.2724200223276942,0.036960985626283374,0.035631453769222825,1.9342915811088293,2.706880432878694
1445770276143,974.0,0.0,413.0,0.5852156057494868,0.32931870988981765,0.0564681724845996,0.32931870988981765,0,0.0,0.0,0,0.0,0.0,0,0.0,0.0,0,0.0,0.0,0,0.0,0.0,0,0.0,0.0,320,0.0,0.0,0,0.0,0.0,171,0.0,0.0,161,0.0,0.0,322,1.282608695652174,2.514899092509819,1445770276909,943.0,0.0,100.18345705196197,0.24762412952293636,1.0254506892895017,5.765805927236782,0.03605514316012727,0.043284633898678995,2.0296924708377486,3.4428541516099185
1445770277148,943.0,0.0,400.0,0.8218451749734896,1.3971018995706426,0.04878048780487808,1.3971018995706426,0,0.0,0.0,0,0.0,0.0,0,0.0,0.0,0,0.0,0.0,0,0.0,0.0,0,0.0,0.0,300,0.0,0.0,0,0.0,0.0,165,0.0,0.0,154,0.012987012987012991,0.012902130549189372,324,1.2283950617283956,0.48018193632228745,1445770277939,1000.0,0.0,100.15500000000003,0.13110610610610662,1.8260000000000018,7.0367607607607505,0.024000000000000018,0.023447447447447436,3.223999999999998,6.099923923923923
1445770278176,1000.0,0.0,388.0,1.0910000000000002,1.8005195195195207,0.052999999999999964,1.8005195195195207,0,0.0,0.0,0,0.0,0.0,0,0.0,0.0,0,0.0,0.0,0,0.0,0.0,0,0.0,0.0,332,0.0,0.0,0,0.0,0.0,166,0.0,0.0,168,0.0,0.0,334,1.1616766467065873,0.49029868191544845,1445770278963,1000.0,0.0,100.15400000000001,0.13041441441441354,0.6709999999999999,0.7595185185185188,0.03500000000000001,0.03380880880880884,1.8310000000000004,1.3117507507507506
1445770279202,1000.0,0.0,346.0,0.6280000000000006,0.289905905905906,0.05500000000000001,0.289905905905906,0,0.0,0.0,0,0.0,0.0,0,0.0,0.0,0,0.0,0.0,0,0.0,0.0,0,0.0,0.0,308,0.0032467532467532465,0.003246753246753247,0,0.0,0.0,163,0.0,0.0,186,0.0,0.0,343,1.005830903790088,0.14616473155678297,1445770279988,1000.0,0.0,100.17500000000005,0.1925675675675651,0.6400000000000009,0.42482482482482486,0.031999999999999994,0.031007007007007013,1.6549999999999983,0.5765515515515511
1445770280226,1000.0,0.0,367.0,0.5949999999999999,0.24722222222222207,0.03200000000000003,0.24722222222222207,0,0.0,0.0,0,0.0,0.0,0,0.0,0.0,0,0.0,0.0,0,0.0,0.0,0,0.0,0.0,331,0.01208459214501511,0.03015655039824226,0,0.0,0.0,157,0.0,0.0,175,0.0,0.0,337,1.0771513353115723,0.15474424191041392,1445770281014,1000.0,0.0,100.1609999999999,0.13521421421421134,0.5720000000000001,0.263079079079079,0.04099999999999998,0.03935835835835836,1.7100000000000009,0.7066066066066068
1445770281253,1000.0,0.0,372.0,0.6270000000000004,0.26413513513513537,0.056999999999999974,0.26413513513513537,0,0.0,0.0,0,0.0,0.0,0,0.0,0.0,0,0.0,0.0,0,0.0,0.0,0,0.0,0.0,320,0.0,0.0,0,0.0,0.0,165,0.0,0.0,175,0.0,0.0,340,1.0941176470588234,0.23300364393545003,1445770282037,1000.0,0.0,100.14099999999996,0.13525425425425447,0.6200000000000002,0.2998998998998996,0.029000000000000085,0.02818718718718721,1.6690000000000003,0.6821211211211209
1445770282275,1000.0,0.0,366.0,0.6210000000000004,0.3777367367367361,0.032999999999999995,0.3777367367367361,0,0.0,0.0,0,0.0,0.0,0,0.0,0.0,0,0.0,0.0,0,0.0,0.0,0,0.0,0.0,332,0.0,0.0,0,0.0,0.0,173,0.0,0.0,160,0.0,0.0,335,1.0925373134328362,0.15608186611850908,1445770283058,1000.0,0.0,100.15600000000005,0.13179579579579498,0.5869999999999997,0.26069169169169193,0.03600000000000001,0.034738738738738804,1.6990000000000014,1.017416416416416
1445770283276,991.0,0.0,350.0,0.5782038345105943,0.3208981846721502,0.044399596367305706,0.3208981846721502,0,0.0,0.0,0,0.0,0.0,0,0.0,0.0,0,0.0,0.0,0,0.0,0.0,0,0.0,0.0,358,0.0,0.0,0,0.0,0.0,156,0.0,0.0,166,0.0,0.0,311,1.1254019292604496,0.3809978218027177,1445770284060,985.0,0.0,100.20710659898475,0.31681936362511276,0.6426395939086302,0.24818001733316783,0.021319796954314692,0.0208864677479262,1.831472081218274,0.9736019974412942
1445770284277,949.0,0.0,347.0,0.5953635405690196,0.30867046369040474,0.038988408851422504,0.30867046369040474,0,0.0,0.0,0,0.0,0.0,0,0.0,0.0,0,0.0,0.0,0,0.0,0.0,0,0.0,0.0,303,0.0,0.0,0,0.0,0.0,157,0.0,0.0,164,0.0,0.0,325,1.067692307692308,0.13120607787274446,1445770285062,950.0,0.0,100.2073684210526,0.3226010759247949,0.6726315789473685,0.47965060174144536,0.03473684210526319,0.033565526038489286,1.8357894736842115,1.648454328656204
1445770285295,980.0,0.0,375.0,0.6928571428571422,0.5337589376915223,0.042857142857142885,0.5337589376915223,0,0.0,0.0,0,0.0,0.0,0,0.0,0.0,0,0.0,0.0,0,0.0,0.0,0,0.0,0.0,308,0.0,0.0,0,0.0,0.0,171,0.0,0.0,164,0.0,0.0,337,1.1127596439169136,0.2848664688427299,1445770286079,985.0,0.0,100.169543147208,0.1409413561140689,0.982741116751269,2.7527506087243627,0.03147208121827419,0.03051256654698529,2.038578680203044,1.7647703355206152
1445770286318,1000.0,0.0,374.0,0.7459999999999999,0.780264264264264,0.05099999999999995,0.780264264264264,0,0.0,0.0,0,0.0,0.0,0,0.0,0.0,0,0.0,0.0,0,0.0,0.0,0,0.0,0.0,345,0.0,0.0,0,0.0,0.0,161,0.0,0.0,167,0.0,0.0,327,1.1437308868501523,0.2093394120185362,1445770287101,1000.0,0.0,100.19700000000002,0.19638738738738432,0.6229999999999997,0.36323423423423473,0.016999999999999977,0.016727727727727737,1.7530000000000014,1.0610520520520519
1445770287340,1000.0,0.0,382.0,0.5749999999999995,0.33270770770770763,0.06099999999999999,0.33270770770770763,0,0.0,0.0,0,0.0,0.0,0,0.0,0.0,0,0.0,0.0,0,0.0,0.0,0,0.0,0.0,333,0.0,0.0,0,0.0,0.0,169,0.0,0.0,160,0.0,0.0,338,1.1301775147928999,0.439976822994399,1445770288124,1000.0,0.0,100.15100000000004,0.12832732732732602,0.6630000000000004,0.7521831831831839,0.03300000000000003,0.03194294294294299,1.6089999999999998,0.6367557557557558
1445770288362,1000.0,0.0,347.0,0.6109999999999991,0.36404304304304275,0.039000000000000014,0.36404304304304275,0,0.0,0.0,0,0.0,0.0,0,0.0,0.0,0,0.0,0.0,0,0.0,0.0,0,0.0,0.0,325,0.0,0.0,0,0.0,0.0,155,0.0,0.0,184,0.0,0.0,336,1.032738095238095,0.10937277896233115,1445770289148,1000.0,0.0,100.23000000000006,0.4495495495495397,0.6620000000000004,0.36612212212212303,0.034000000000000044,0.03287687687687688,1.727999999999999,0.7807967967967981
1445770289387,1000.0,0.0,339.0,0.6220000000000007,0.26337937937937944,0.04600000000000003,0.26337937937937944,0,0.0,0.0,0,0.0,0.0,0,0.0,0.0,0,0.0,0.0,0,0.0,0.0,0,0.0,0.0,347,0.0,0.0,0,0.0,0.0,181,0.0,0.0,154,0.0,0.0,318,1.0660377358490565,0.2700732099279805,1445770290152,996.0,0.0,100.21385542168667,0.42155657807107916,0.8604417670682727,1.6176898548969734,0.028112449799196845,0.02734959940263568,1.9548192771084336,1.3637857964521407
1445770290390,996.0,0.0,350.0,0.7530120481927708,0.5097899134225345,0.037148594377510044,0.5097899134225345,0,0.0,0.0,0,0.0,0.0,0,0.0,0.0,0,0.0,0.0,0,0.0,0.0,0,0.0,0.0,337,0.0,0.0,0,0.0,0.0,160,0.0,0.0,162,0.0,0.0,337,1.0385756676557858,0.15029320333474638,1445770291153,960.0,0.0,100.14374999999997,0.12321428571428558,0.8229166666666656,1.8101103580118185,0.034374999999999996,0.03322797184567258,1.8770833333333337,1.4426442474800147
1445770291391,946.0,0.0,401.0,0.7378435517970405,0.4327885723234561,0.046511627906976716,0.4327885723234561,0,0.0,0.0,0,0.0,0.0,0,0.0,0.0,0,0.0,0.0,0,0.0,0.0,0,0.0,0.0,306,0.0,0.0,0,0.0,0.0,167,0.0,0.0,153,0.0065359477124183,0.0065359477124183,320,1.2499999999999998,1.4921630094043887,1445770292166,955.0,0.0,100.16230366492154,0.15287519070982633,0.7078534031413607,0.4061751566838986,0.05235602094240836,0.0936920324453667,1.8732984293193728,1.1443072431317023
1445770292405,969.0,0.0,342.0,0.6615067079463367,0.3419154960809901,0.056759545923632616,0.3419154960809901,0,0.0,0.0,0,0.0,0.0,0,0.0,0.0,0,0.0,0.0,0,0.0,0.0,0,0.0,0.0,320,0.0,0.0,0,0.0,0.0,165,0.0,0.0,162,0.0,0.0,322,1.0621118012422361,0.18927652328708802,1445770293189,1000.0,0.0,100.15400000000001,0.1344184184184179,1.1120000000000008,2.55801401401401,0.029000000000000012,0.028187187187187164,2.337,3.0404714714714722
1445770293427,1000.0,0.0,357.0,0.8629999999999995,0.7629939939939931,0.035999999999999976,0.7629939939939931,0,0.0,0.0,0,0.0,0.0,0,0.0,0.0,0,0.0,0.0,0,0.0,0.0,0,0.0,0.0,344,0.0,0.0,0,0.0,0.0,165,0.0,0.0,159,0.0,0.0,332,1.0753012048192756,0.17860262803479765,1445770294213,1000.0,0.0,100.13599999999991,0.1176216216216204,0.629,0.3076666666666664,0.022000000000000006,0.02153753753753757,1.6240000000000023,0.553177177177177
1445770294451,1000.0,0.0,323.0,0.611000000000001,0.2579369369369367,0.04900000000000005,0.2579369369369367,0,0.0,0.0,0,0.0,0.0,0,0.0,0.0,0,0.0,0.0,0,0.0,0.0,0,0.0,0.0,315,0.0,0.0,0,0.0,0.0,175,0.0,0.0,171,0.0,0.0,339,0.9528023598820055,0.13386046673997667,1445770295237,1000.0,0.0,100.19700000000007,0.23042142142142175,0.6029999999999991,0.7361271271271276,0.03699999999999994,0.05568668668668676,1.6380000000000008,0.5214774774774776
1445770295475,1000.0,0.0,335.0,0.6290000000000004,0.30566466466466424,0.05700000000000003,0.30566466466466424,0,0.0,0.0,0,0.0,0.0,0,0.0,0.0,0,0.0,0.0,0,0.0,0.0,0,0.0,0.0,338,0.0,0.0,0,0.0,0.0,162,0.0,0.0,167,0.0,0.0,333,1.0060060060060065,0.10839755418068664,1445770296265,1000.0,0.0,100.21700000000006,0.37828928928929195,0.649000000000001,0.45425325325325255,0.02999999999999999,0.02912912912912916,1.7709999999999995,0.8273863863863873
1445770296504,1000.0,0.0,334.0,0.7120000000000004,0.5015575575575577,0.04199999999999999,0.5015575575575577,0,0.0,0.0,0,0.0,0.0,0,0.0,0.0,0,0.0,0.0,0,0.0,0.0,0,0.0,0.0,341,0.0,0.0,0,0.0,0.0,154,0.0,0.0,178,0.0,0.0,327,1.0214067278287462,0.08849740154968949,1445770297292,1000.0,0.0,100.16500000000009,0.13791291291291574,0.8059999999999997,1.1014654654654654,0.025000000000000026,0.02439939939939941,1.8379999999999985,0.874630630630631
1445770297530,1000.0,0.0,334.0,0.692,0.5416776776776786,0.046,0.5416776776776786,0,0.0,0.0,0,0.0,0.0,0,0.0,0.0,0,0.0,0.0,0,0.0,0.0,0,0.0,0.0,342,0.0029239766081871343,0.0029239766081871348,0,0.0,0.0,163,0.0,0.0,162,0.0,0.0,333,1.0,0.09036144578313243,1445770298315,1000.0,0.0,100.2199999999999,0.5981981981981874,1.1680000000000006,4.768544544544545,0.03599999999999999,0.03473873873873873,2.0460000000000016,2.0339179179179196
1445770298555,1000.0,0.0,345.0,0.8850000000000007,0.8546296296296301,0.050999999999999976,0.8546296296296301,0,0.0,0.0,0,0.0,0.0,0,0.0,0.0,0,0.0,0.0,0,0.0,0.0,0,0.0,0.0,338,0.0,0.0,0,0.0,0.0,175,0.0,0.0,159,0.0,0.0,328,1.051829268292683,0.12880398299395837,1445770299317,978.0,0.0,100.18609406952957,0.23145432891054607,1.0490797546012285,1.659820032527268,0.03783231083844583,0.036438285055248154,2.37116564417178,1.9040602570784473
1445770299559,986.0,0.0,372.0,0.8265720081135907,0.4318211303425619,0.044624746450304245,0.4318211303425619,0,0.0,0.0,0,0.0,0.0,0,0.0,0.0,0,0.0,0.0,0,0.0,0.0,0,0.0,0.0,336,0.0,0.0,0,0.0,0.0,151,0.0,0.0,171,0.0,0.0,328,1.1341463414634145,0.18378459013947931,1445770300319,925.0,0.0,100.20432432432442,0.26448344448343664,1.139459459459459,1.6699239499239524,0.03459459459459466,0.03343395343395344,2.7513513513513534,5.358020358020352
1445770300563,928.0,0.0,311.0,1.129310344827588,1.9789458021798152,0.03987068965517242,1.9789458021798152,0,0.0,0.0,0,0.0,0.0,0,0.0,0.0,0,0.0,0.0,0,0.0,0.0,0,0.0,0.0,317,0.0031545741324921117,0.003154574132492114,0,0.0,0.0,162,0.0,0.0,151,0.0,0.0,298,1.0402684563758386,0.1532551465437374,1445770301345,1000.0,0.0,100.13600000000001,0.11762162162162283,0.7530000000000002,0.38437537537537564,0.03399999999999999,0.03287687687687687,1.9610000000000027,0.9344134134134147
1445770301583,989.0,0.0,369.0,0.7067745197168849,0.28032855335819495,0.04651162790697675,0.28032855335819495,0,0.0,0.0,0,0.0,0.0,0,0.0,0.0,0,0.0,0.0,0,0.0,0.0,0,0.0,0.0,323,0.0,0.0,0,0.0,0.0,156,0.0,0.0,173,0.0,0.0,337,1.094955489614244,0.1992899533700723,1445770302347,982.0,0.0,100.17718940936857,0.2580724187256448,1.8767820773930743,6.27124427254288,0.03054989816700614,0.029646792104984516,3.152749490835035,5.150955735346319
1445770302585,976.0,0.0,402.0,1.178278688524591,1.0615174443043294,0.03176229508196724,1.0615174443043294,0,0.0,0.0,0,0.0,0.0,0,0.0,0.0,0,0.0,0.0,0,0.0,0.0,0,0.0,0.0,324,0.0,0.0,0,0.0,0.0,151,0.0,0.0,172,0.0,0.0,329,1.2218844984802428,0.7158610719845804,1445770303348,975.0,0.0,100.18871794871791,0.2682504080450662,0.698461538461539,0.36894013583952057,0.02974358974358976,0.028888537882377715,1.7579487179487174,0.6600368556836721
1445770303586,981.0,0.0,332.0,0.6493374108053002,0.2973184380785949,0.05198776758409785,0.2973184380785949,0,0.0,0.0,0,0.0,0.0,0,0.0,0.0,0,0.0,0.0,0,0.0,0.0,0,0.0,0.0,325,0.0,0.0,0,0.0,0.0,165,0.0,0.0,167,0.0,0.0,324,1.024691358024692,0.09226770630279402,1445770304359,969.0,0.0,100.16408668730658,0.1600312156180437,0.5933952528379779,0.30144393555595345,0.030959752321981428,0.030032239080930334,1.6594427244582066,0.5843141519330655
1445770304596,969.0,0.0,328.0,0.6109391124870998,0.2916570717021046,0.04231166150670796,0.2916570717021046,0,0.0,0.0,0,0.0,0.0,0,0.0,0.0,0,0.0,0.0,0,0.0,0.0,0,0.0,0.0,344,0.0,0.0,0,0.0,0.0,142,0.0,0.0,169,0.0,0.0,314,1.044585987261147,0.15775014753464528,1445770305360,998.0,0.0,100.17134268537076,0.17422307001163845,0.5941883767535082,0.26945465655483514,0.02905811623246497,0.028242040751513042,1.6683366733466938,0.968123810308683
1445770305597,997.0,0.0,339.0,0.6018054162487473,0.2920850906132051,0.04413239719157475,0.2920850906132051,0,0.0,0.0,0,0.0,0.0,0,0.0,0.0,0,0.0,0.0,0,0.0,0.0,0,0.0,0.0,367,0.0,0.0,0,0.0,0.0,148,0.0,0.0,166,0.0,0.0,316,1.0727848101265824,0.5375426964034563,1445770306367,976.0,0.0,100.18135245901631,0.1486160151324082,0.530737704918033,0.25546448087431683,0.026639344262295105,0.025956284153005455,1.6116803278688538,0.5003352248844058
1445770306605,977.0,0.0,318.0,0.5291709314227226,0.27399449636726675,0.052200614124872036,0.27399449636726675,0,0.0,0.0,0,0.0,0.0,0,0.0,0.0,0,0.0,0.0,0,0.0,0.0,0,0.0,0.0,339,0.002949852507374629,0.002949852507374632,0,0.0,0.0,158,0.0,0.0,162,0.0,0.0,318,0.9968553459119492,0.07254528500287671,1445770307369,977.0,0.0,100.16274309109511,0.14049574643018997,0.5220061412487211,0.2538697417655255,0.03480040941658138,0.0336237562293404,1.5138178096212898,0.4775240364447875
1445770307607,978.0,0.0,314.0,0.55521472392638,0.2656278453510494,0.042944785276073615,0.2656278453510494,0,0.0,0.0,0,0.0,0.0,0,0.0,0.0,0,0.0,0.0,0,0.0,0.0,0,0.0,0.0,343,0.0,0.0,0,0.0,0.0,139,0.0,0.0,175,0.0,0.0,321,0.9781931464174457,0.09639797507788164,1445770308376,985.0,0.0,100.16142131979687,0.15582724608972126,0.579695431472082,0.2865791754364243,0.03248730964467005,0.031463827328628596,1.6091370558375642,1.0188188683917294
1445770308608,979.0,0.0,339.0,0.5985699693564867,0.3386891594653362,0.05311542390194071,0.3386891594653362,0,0.0,0.0,0,0.0,0.0,0,0.0,0.0,0,0.0,0.0,0,0.0,0.0,0,0.0,0.0,297,0.0,0.0,0,0.0,0.0,170,0.0,0.0,171,0.0,0.0,341,0.9941348973607043,0.08820079351388652,1445770309383,971.0,0.0,100.14006179196706,0.14943463535307272,0.570545829042224,0.2865130007325851,0.04222451081359424,0.05903999490375531,1.5066941297631307,0.3718623589242678
1445770309611,974.0,0.0,309.0,0.5636550308008206,0.33253174521104706,0.0503080082135524,0.33253174521104706,0,0.0,0.0,0,0.0,0.0,0,0.0,0.0,0,0.0,0.0,0,0.0,0.0,0,0.0,0.0,317,0.0,0.0,0,0.0,0.0,167,0.0,0.0,163,0.0,0.0,327,0.9449541284403666,0.064445319975235,1445770310387,993.0,0.0,100.16717019133937,0.18573563330409287,0.5951661631419937,0.3843314491764934,0.038267875125881194,0.03684054510606502,1.676737160120845,0.628258697982654
1445770310625,995.0,0.0,339.0,0.5809045226130655,0.28595290334974627,0.04824120603015073,0.28595290334974627,0,0.0,0.0,0,0.0,0.0,0,0.0,0.0,0,0.0,0.0,0,0.0,0.0,0,0.0,0.0,346,0.0028901734104046224,0.0028901734104046254,0,0.0,0.0,164,0.0,0.0,162,0.0,0.0,323,1.0464396284829722,0.1624329365613523,1445770311388,985.0,0.0,100.14111675126915,0.12132598737155213,0.6121827411167508,0.4856237877099582,0.03756345177664978,0.03618917915067471,1.5989847715736047,0.657112789402005
1445770311626,986.0,0.0,328.0,0.6054766734279917,0.35485322432841515,0.0557809330628803,0.35485322432841515,0,0.0,0.0,0,0.0,0.0,0,0.0,0.0,0,0.0,0.0,0,0.0,0.0,0,0.0,0.0,314,0.0,0.0,0,0.0,0.0,180,0.0,0.0,157,0.0,0.0,335,0.9791044776119407,0.10435248905174736,1445770312389,970.0,0.0,100.23092783505159,0.3717978998435989,0.6546391752577309,0.5648133371634054,0.032989690721649485,0.031934292979264416,1.7175257731958753,0.7333354611513636
1445770312627,965.0,0.0,332.0,0.6746113989637306,0.4230580697869414,0.03730569948186534,0.4230580697869414,0,0.0,0.0,0,0.0,0.0,0,0.0,0.0,0,0.0,0.0,0,0.0,0.0,0,0.0,0.0,320,0.0,0.0,0,0.0,0.0,169,0.0,0.0,154,0.0,0.0,322,1.031055900621118,0.15479576633579073,1445770313391,972.0,0.0,100.17489711934155,0.25980174017707147,1.1286008230452662,1.669335630400966,0.03497942386831271,0.033790627794518406,2.4423868312757184,3.3385928553567865
1445770313628,976.0,0.0,359.0,1.0051229508196724,0.8748455233291299,0.040983606557377074,0.8748455233291299,0,0.0,0.0,0,0.0,0.0,0,0.0,0.0,0,0.0,0.0,0,0.0,0.0,0,0.0,0.0,342,0.0,0.0,0,0.0,0.0,168,0.0,0.0,146,0.0,0.0,320,1.1218749999999988,0.22020963949843267,1445770314394,981.0,0.0,100.14678899082568,0.12945141359295956,0.6605504587155964,0.3346564313798913,0.038735983690112136,0.06992656389773037,1.7023445463812426,0.5439638852482885
1445770314638,982.0,0.0,345.0,0.6446028513238277,0.27213699807545005,0.03665987780040733,0.27213699807545005,0,0.0,0.0,0,0.0,0.0,0,0.0,0.0,0,0.0,0.0,0,0.0,0.0,0,0.0,0.0,303,0.0,0.0,0,0.0,0.0,175,0.0,0.0,169,0.0,0.0,335,1.0298507462686552,0.08892662436321379,1445770315395,969.0,0.0,100.19091847265226,0.2827273580158426,0.5799793601651195,0.24798718965620214,0.03508771929824559,0.03389154704944177,1.5644994840041284,0.4651020477786597
1445770315643,983.0,0.0,324.0,0.6144455747711098,0.29416993160717925,0.04476093591047811,0.29416993160717925,0,0.0,0.0,0,0.0,0.0,0,0.0,0.0,0,0.0,0.0,0,0.0,0.0,0,0.0,0.0,330,0.0030303030303030277,0.0030303030303030325,0,0.0,0.0,143,0.0,0.0,180,0.0,0.0,330,0.9787878787878794,0.05122041079487888,1445770316397,963.0,0.0,100.15576323987545,0.1316377484601786,0.5638629283489099,0.2482561641440149,0.0363447559709242,0.035060221976109786,1.5991692627206653,0.6936375627964414
1445770316651,947.0,0.0,324.0,0.5987328405491033,0.6147129803474194,0.03695881731784582,0.6147129803474194,0,0.0,0.0,0,0.0,0.0,0,0.0,0.0,0,0.0,0.0,0,0.0,0.0,0,0.0,0.0,323,0.0,0.0,0,0.0,0.0,149,0.0,0.0,161,0.0,0.0,314,1.0318471337579604,0.0884393886978287,1445770317401,983.0,0.0,100.13733468972542,0.11859451821495047,1.1892166836215652,6.159679935688786,0.03662258392675485,0.03531729834891736,2.157680569684639,3.295885449795197
1445770317676,1000.0,0.0,336.0,0.8240000000000008,1.1341581581581597,0.045000000000000026,1.1341581581581597,0,0.0,0.0,0,0.0,0.0,0,0.0,0.0,0,0.0,0.0,0,0.0,0.0,0,0.0,0.0,345,0.0,0.0,0,0.0,0.0,171,0.0,0.0,158,0.0,0.0,326,1.0306748466257656,0.10982538933459164,1445770318423,1000.0,0.0,100.15999999999997,0.13453453453453365,0.7149999999999989,0.7925675675675676,0.03999999999999997,0.03843843843843846,1.764000000000001,0.763067067067068
1445770318698,1000.0,0.0,349.0,0.7310000000000005,0.5091481481481481,0.04600000000000003,0.5091481481481481,0,0.0,0.0,0,0.0,0.0,0,0.0,0.0,0,0.0,0.0,0,0.0,0.0,0,0.0,0.0,329,0.00303951367781155,0.00303951367781155,0,0.0,0.0,144,0.0,0.0,191,0.0,0.0,336,1.0357142857142856,0.14200426439232414,1445770319425,990.0,0.0,100.18080808080803,0.27566769821572606,0.767676767676767,0.532422301886406,0.029292929292929277,0.02846360470222958,1.9000000000000026,1.0365015166835192
1445770319725,1000.0,0.0,339.0,0.6819999999999989,0.28315915915915923,0.039000000000000014,0.28315915915915923,0,0.0,0.0,0,0.0,0.0,0,0.0,0.0,0,0.0,0.0,0,0.0,0.0,0,0.0,0.0,320,0.0,0.0,0,0.0,0.0,183,0.0,0.0,157,0.0,0.0,340,0.9970588235294123,0.1150355717508241,1445770320426,934.0,0.0,100.18094218415415,0.14836095485310255,0.6199143468950736,0.3430542263105591,0.036402569593147825,0.03511501890014253,1.8661670235546033,0.7376965465641215
1445770320750,1000.0,0.0,385.0,0.644000000000001,0.31157557557557597,0.04099999999999999,0.31157557557557597,0,0.0,0.0,0,0.0,0.0,0,0.0,0.0,0,0.0,0.0,0,0.0,0.0,0,0.0,0.0,307,0.0,0.0,0,0.0,0.0,201,0.0,0.0,146,0.0,0.0,346,1.112716763005781,0.26841752534137564,1445770321436,992.0,0.0,100.18749999999994,0.2090060544904098,0.6844758064516137,0.4321300983040914,0.029233870967741937,0.028407888740600885,1.8951612903225812,1.2846587025161942
1445770321777,1000.0,0.0,349.0,0.7400000000000011,0.48888888888888915,0.048999999999999974,0.48888888888888915,0,0.0,0.0,0,0.0,0.0,0,0.0,0.0,0,0.0,0.0,0,0.0,0.0,0,0.0,0.0,347,0.0,0.0,0,0.0,0.0,165,0.0,0.0,166,0.006024096385542169,0.006024096385542167,322,1.080745341614908,0.16168417793773332,1445770322462,1000.0,0.0,100.19600000000001,0.25183583583583763,0.8250000000000004,0.689064064064065,0.016999999999999987,0.01672772772772774,2.080999999999999,1.393832832832833
1445770322801,1000.0,0.0,447.0,0.7490000000000003,0.42041941941941957,0.03200000000000005,0.42041941941941957,0,0.0,0.0,0,0.0,0.0,0,0.0,0.0,0,0.0,0.0,0,0.0,0.0,0,0.0,0.0,351,0.0,0.0,0,0.0,0.0,138,0.0,0.0,181,0.0,0.0,330,1.3545454545454547,0.7523348991434098,1445770323484,1000.0,0.0,100.18599999999999,0.18158558558558519,0.6019999999999991,0.2518478478478477,0.03999999999999994,0.03843843843843839,1.7640000000000007,0.7270310310310328
1445770323823,1000.0,0.0,368.0,0.5809999999999998,0.27571471471471476,0.038000000000000006,0.27571471471471476,0,0.0,0.0,0,0.0,0.0,0,0.0,0.0,0,0.0,0.0,0,0.0,0.0,0,0.0,0.0,311,0.0,0.0,0,0.0,0.0,149,0.0,0.0,189,0.0,0.0,351,1.0484330484330489,0.0919332519332519,1445770324506,1000.0,0.0,100.16000000000005,0.17657657657657885,0.5389999999999995,0.24872772772772797,0.03699999999999998,0.03566666666666665,1.5999999999999999,0.542542542542542
1445770324847,1000.0,0.0,308.0,0.569,0.24748648648648647,0.037,0.24748648648648647,0,0.0,0.0,0,0.0,0.0,0,0.0,0.0,0,0.0,0.0,0,0.0,0.0,0,0.0,0.0,347,0.002881844380403455,0.00288184438040346,0,0.0,0.0,165,0.006060606060606061,0.006060606060606061,166,0.0,0.0,322,0.9503105590062118,0.08475068206884541,1445770325507,995.0,0.0,100.14773869346737,0.13609900609688616,0.5678391959798996,0.26777751938768324,0.028140703517587944,0.033412535514595124,1.5658291457286424,0.51955552409937
1445770325848,999.0,0.0,334.0,0.5825825825825819,0.26747188069833355,0.03903903903903908,0.26747188069833355,0,0.0,0.0,0,0.0,0.0,0,0.0,0.0,0,0.0,0.0,0,0.0,0.0,0,0.0,0.0,327,0.0,0.0,0,0.0,0.0,168,0.0,0.0,175,0.0,0.0,329,1.0151975683890577,0.17354881755504498,1445770326508,963.0,0.0,100.15680166147452,0.13235233795981574,0.6240913811007271,0.2660302286470512,0.024922118380062277,0.024326267316921564,1.5721703011422639,0.49244715599855865
1445770326849,960.0,0.0,339.0,0.6572916666666656,0.31099995655196366,0.03749999999999999,0.31099995655196366,0,0.0,0.0,0,0.0,0.0,0,0.0,0.0,0,0.0,0.0,0,0.0,0.0,0,0.0,0.0,328,0.0,0.0,0,0.0,0.0,147,0.0,0.0,168,0.0,0.0,317,1.069400630914826,0.22934552569580322,1445770327509,974.0,0.0,100.18069815195072,0.2715283918362516,0.6119096509240246,0.3158292374607213,0.02772073921971252,0.033146495417335796,1.6878850102669405,0.6917955222211196
1445770327852,976.0,0.0,346.0,0.6137295081967213,0.33577028163093725,0.047131147540983624,0.33577028163093725,0,0.0,0.0,0,0.0,0.0,0,0.0,0.0,0,0.0,0.0,0,0.0,0.0,0,0.0,0.0,334,0.0,0.0,0,0.0,0.0,174,0.0,0.0,145,0.0,0.0,323,1.0712074303405579,0.22162182950983592,1445770328510,975.0,0.0,100.1517948717949,0.1288853788237794,0.5794871794871798,0.28089296056441837,0.04102564102564105,0.039382930553361804,1.6379487179487187,0.666525562049176
1445770328855,974.0,0.0,352.0,0.5482546201232047,0.26642552194677244,0.04004106776180694,0.26642552194677244,0,0.0,0.0,0,0.0,0.0,0,0.0,0.0,0,0.0,0.0,0,0.0,0.0,0,0.0,0.0,318,0.0,0.0,0,0.0,0.0,162,0.0,0.0,168,0.0,0.0,326,1.079754601226995,0.3136196319018406,1445770329516,993.0,0.0,100.16817724068487,0.16624435565084633,0.5911379657603213,0.2681471916317453,0.02618328298086608,0.02552342201864666,1.6042296072507547,0.4893772536789788
1445770329860,992.0,0.0,332.0,0.6280241935483873,0.2540271719670584,0.05040322580645154,0.2540271719670584,0,0.0,0.0,0,0.0,0.0,0,0.0,0.0,0,0.0,0.0,0,0.0,0.0,0,0.0,0.0,340,0.005882352941176466,0.005865000867603677,0,0.0,0.0,163,0.0,0.0,158,0.0,0.0,331,0.9969788519637462,0.08180902682413257,1445770330517,972.0,0.0,100.14711934156381,0.12972392807041924,0.6409465020576138,0.3065811835407892,0.03497942386831277,0.03379062779451843,1.7788065843621392,1.0457707679071668
1445770330862,976.0,0.0,353.0,0.6506147540983607,0.2972919293820934,0.04200819672131148,0.2972919293820934,0,0.0,0.0,0,0.0,0.0,0,0.0,0.0,0,0.0,0.0,0,0.0,0.0,0,0.0,0.0,346,0.0,0.0,0,0.0,0.0,143,0.0,0.0,176,0.0,0.0,311,1.1350482315112536,1.0204128202468623,1445770331518,977.0,0.0,100.14841351074699,0.1552049599812056,0.5946775844421696,0.24538147893350346,0.03787103377686794,0.03647415138345889,1.6294779938587518,0.5633924526402333
1445770331865,977.0,0.0,334.0,0.6284544524053222,0.2972632850646842,0.05322415557830088,0.2972632850646842,0,0.0,0.0,0,0.0,0.0,0,0.0,0.0,0,0.0,0.0,0,0.0,0.0,0,0.0,0.0,313,0.0,0.0,0,0.0,0.0,175,0.0,0.0,159,0.0,0.0,330,1.0121212121212126,0.15790734088606426,1445770332521,968.0,0.0,100.16528925619849,0.14638440435187808,0.5836776859504144,0.261863606450896,0.022727272727272735,0.022233712512926586,1.549586776859503,0.45048586836684956
1445770332867,966.0,0.0,325.0,0.5993788819875778,0.29011360344994025,0.06004140786749493,0.29011360344994025,0,0.0,0.0,0,0.0,0.0,0,0.0,0.0,0,0.0,0.0,0,0.0,0.0,0,0.0,0.0,328,0.0030487804878048764,0.0030487804878048786,0,0.0,0.0,162,0.0,0.0,149,0.0,0.0,327,0.9908256880733951,0.0827376597061969,1445770333526,990.0,0.0,100.18080808080809,0.26757871944929523,0.6262626262626266,0.4789860179142292,0.03838383838383832,0.036947840385656426,1.6222222222222207,0.566947533984945
