timeStamp,totalRequests,failedRequests,totalHandleTime,upstreamTime,upstreamTimeVar,downstreamTime,downstreamTimeVar,CREATE_CLIENT_N,CREATE_CLIENT_time,CREATE_CLIENT_timeVar,CLIENT_LIST_N,CLIENT_LIST_time,CLIENT_LIST_timeVar,QUEUE_LIST_N,QUEUE_LIST_time,QUEUE_LIST_timeVar,MESSAGE_COUNT_N,MESSAGE_COUNT_time,MESSAGE_COUNT_timeVar,CREATE_QUEUE_N,CREATE_QUEUE_time,CREATE_QUEUE_timeVar,DELETE_QUEUE_N,DELETE_QUEUE_time,DELETE_QUEUE_timeVar,SEND_MESSAGE_N,SEND_MESSAGE_time,SEND_MESSAGE_timeVar,RECEIVE_MESSAGE_N,RECEIVE_MESSAGE_time,RECEIVE_MESSAGE_timeVar,POP_QUEUE_N,POP_QUEUE_time,POP_QUEUE_timeVar,TOP_QUEUE_N,TOP_QUEUE_time,TOP_QUEUE_timeVar,INBOX_QUEUES_N,INBOX_QUEUES_time,INBOX_QUEUES_timeVar,timeStamp,totalRequests,failedRequests,clientThinkTime,clientThinkTimeVar,waitingForConnectionTime,waitingForConnectionTimeVar,upstreamTime,upstreamTimeVar,waitingForResponseTime,waitingForResponseTimeVar
1445769737875,951.0,0.0,1370.0,0.6351209253417455,0.4488283800985115,0.06098843322818093,0.4488283800985115,0,0.0,0.0,0,0.0,0.0,0,0.0,0.0,100,0.95,0.31060606060606066,0,0.0,0.0,0,0.0,0.0,575,1.897391304347826,1.6323102560218152,0,0.0,0.0,69,0.0,0.0,54,0.0,0.0,153,1.2026143790849682,0.43894048847609224,1445769738646,979.0,0.0,100.15628192032699,0.13199270571573565,0.7487231869254349,1.3048935623554765,0.04596527068437184,0.04389730349611787,1.9060265577119482,1.49831742669683
1445769738876,990.0,0.0,366.0,0.7181818181818183,0.7162514937034659,0.04242424242424243,0.7162514937034659,0,0.0,0.0,0,0.0,0.0,0,0.0,0.0,0,0.0,0.0,0,0.0,0.0,0,0.0,0.0,323,0.0,0.0,0,0.0,0.0,160,0.0,0.0,171,0.0,0.0,336,1.0892857142857155,0.17110874200426437,1445769739649,978.0,0.0,100.18916155419227,0.255890596186732,0.6411042944785272,0.3367733954574854,0.023517382413087918,0.05369406366888337,1.8773006134969334,1.04531839674476
1445769739877,952.0,0.0,325.0,0.6418067226890757,0.42992228437116153,0.04831932773109245,0.42992228437116153,0,0.0,0.0,0,0.0,0.0,0,0.0,0.0,0,0.0,0.0,0,0.0,0.0,0,0.0,0.0,327,0.0030581039755351665,0.0030581039755351687,0,0.0,0.0,165,0.0,0.0,148,0.006756756756756757,0.006756756756756756,312,1.0352564102564095,0.07270797262758677,1445769740669,969.0,0.0,100.16305469556244,0.13660884101357068,0.7760577915376691,1.1409137817806556,0.02476780185758514,0.02417931069774584,1.8586171310629511,1.235155523714489
1445769740894,999.0,0.0,404.0,0.6596596596596602,0.5072988820483808,0.048048048048047985,0.5072988820483808,0,0.0,0.0,0,0.0,0.0,0,0.0,0.0,0,0.0,0.0,0,0.0,0.0,0,0.0,0.0,318,0.0,0.0,0,0.0,0.0,173,0.0,0.0,166,0.0,0.0,342,1.181286549707602,0.33654027541973197,1445769741671,999.0,0.0,100.19819819819831,0.44164003683042385,0.7127127127127126,0.30515886628111116,0.04004004004004004,0.06452745330500849,2.1121121121121122,1.7790014463361152
1445769741895,977.0,0.0,388.0,0.6458546571136139,0.3396165075423261,0.04196519959058343,0.3396165075423261,0,0.0,0.0,0,0.0,0.0,0,0.0,0.0,0,0.0,0.0,0,0.0,0.0,0,0.0,0.0,312,0.0032051282051282037,0.0032051282051282063,0,0.0,0.0,181,0.0,0.0,154,0.0,0.0,330,1.1727272727272724,0.4047250621718706,1445769742676,980.0,0.0,100.20510204081631,0.27147547476600575,0.5857142857142853,0.27558733401430024,0.03673469387755103,0.03542140042942607,1.6642857142857115,0.8115934627170581
1445769742900,991.0,0.0,356.0,0.5983854692230067,0.3334923401522788,0.045408678102926314,0.3334923401522788,0,0.0,0.0,0,0.0,0.0,0,0.0,0.0,0,0.0,0.0,0,0.0,0.0,0,0.0,0.0,352,0.0,0.0,0,0.0,0.0,169,0.0,0.0,151,0.006622516556291392,0.00662251655629139,319,1.1128526645768024,0.2954003272806135,1445769743677,982.0,0.0,100.17107942973527,0.18680800795563654,0.5570264765784111,0.2551544518976648,0.03665987780040733,0.035351931089893304,1.5570264765784119,0.45902805026667604
1445769743901,960.0,0.0,339.0,0.5666666666666663,0.2583246437261038,0.05520833333333328,0.2583246437261038,0,0.0,0.0,0,0.0,0.0,0,0.0,0.0,0,0.0,0.0,0,0.0,0.0,0,0.0,0.0,297,0.003367003367003366,0.0033670033670033677,0,0.0,0.0,185,0.0,0.0,147,0.0,0.0,331,1.0211480362537764,0.14197564771582893,1445769744679,967.0,0.0,100.14167528438469,0.1320812484878852,0.5780765253360916,0.2648604786098607,0.04239917269906927,0.04064351337405605,1.5873836608066194,0.8388882822586342
1445769744904,973.0,0.0,327.0,0.6073997944501549,0.3374760509053068,0.04419321685508735,0.3374760509053068,0,0.0,0.0,0,0.0,0.0,0,0.0,0.0,0,0.0,0.0,0,0.0,0.0,0,0.0,0.0,349,0.0028653295128939814,0.002865329512893985,0,0.0,0.0,157,0.0,0.0,152,0.0,0.0,315,1.034920634920635,0.0911333535537357,1445769745682,972.0,0.0,100.15329218107006,0.1978985221633093,0.5658436213991763,0.2871122638830617,0.03292181069958849,0.031870753921331776,1.5339506172839508,0.5539440057977657
1445769745925,1000.0,0.0,326.0,0.5680000000000008,0.29767367367367337,0.04900000000000001,0.29767367367367337,0,0.0,0.0,0,0.0,0.0,0,0.0,0.0,0,0.0,0.0,0,0.0,0.0,0,0.0,0.0,330,0.0,0.0,0,0.0,0.0,173,0.005780346820809249,0.005780346820809246,166,0.0,0.0,331,0.9818731117824778,0.07845829900210571,1445769746704,1000.0,0.0,100.15200000000003,0.14904504504504576,0.5709999999999993,0.2672262262262263,0.03000000000000001,0.029129129129129128,1.5639999999999987,0.6245285285285291
1445769746948,1000.0,0.0,345.0,0.5969999999999999,0.3469379379379374,0.04699999999999995,0.3469379379379374,0,0.0,0.0,0,0.0,0.0,0,0.0,0.0,0,0.0,0.0,0,0.0,0.0,0,0.0,0.0,343,0.0,0.0,0,0.0,0.0,142,0.0,0.0,181,0.0,0.0,334,1.0329341317365266,0.14005322687957414,1445769747726,1000.0,0.0,100.15399999999984,0.13642042042042246,0.5870000000000003,0.26669769769769797,0.035000000000000024,0.033808808808808787,1.5640000000000005,0.5244284284284282
1445769747970,1000.0,0.0,321.0,0.599999999999999,0.28028028028028007,0.03499999999999997,0.28028028028028007,0,0.0,0.0,0,0.0,0.0,0,0.0,0.0,0,0.0,0.0,0,0.0,0.0,0,0.0,0.0,339,0.0,0.0,0,0.0,0.0,148,0.0,0.0,183,0.0,0.0,330,0.9727272727272732,0.08132080685272175,1445769748749,1000.0,0.0,100.15700000000001,0.15450550550550518,0.5799999999999998,0.2598598598598599,0.02599999999999997,0.02534934934934935,1.5920000000000023,0.5040400400400397
1445769748996,1000.0,0.0,315.0,0.593000000000002,0.2816326326326325,0.03199999999999999,0.2816326326326325,0,0.0,0.0,0,0.0,0.0,0,0.0,0.0,0,0.0,0.0,0,0.0,0.0,0,0.0,0.0,351,0.0,0.0,0,0.0,0.0,193,0.0,0.0,134,0.0,0.0,322,0.978260869565218,0.08363808749830702,1445769749774,1000.0,0.0,100.16799999999995,0.14191791791791683,0.5539999999999998,0.27335735735735733,0.027000000000000007,0.02629729729729733,1.6070000000000002,0.5270780780780778
1445769750019,1000.0,0.0,334.0,0.5759999999999998,0.3065305305305305,0.048999999999999974,0.3065305305305305,0,0.0,0.0,0,0.0,0.0,0,0.0,0.0,0,0.0,0.0,0,0.0,0.0,0,0.0,0.0,299,0.0,0.0,0,0.0,0.0,176,0.0,0.0,171,0.0,0.0,354,0.9435028248587565,0.0761191402186265,1445769750797,1000.0,0.0,100.16600000000011,0.14659059059059037,1.1329999999999996,5.25856956956957,0.033000000000000015,0.03194294294294292,2.0250000000000004,2.3046796796796807
1445769751042,1000.0,0.0,377.0,0.7200000000000003,0.4720720720720721,0.033000000000000015,0.4720720720720721,0,0.0,0.0,0,0.0,0.0,0,0.0,0.0,0,0.0,0.0,0,0.0,0.0,0,0.0,0.0,324,0.0030864197530864183,0.0030864197530864204,0,0.0,0.0,180,0.0,0.0,159,0.0,0.0,337,1.115727002967359,0.22763883001271726,1445769751798,961.0,0.0,100.20707596253904,0.3268665452653458,0.7669094693028096,0.3476955428373216,0.024973985431841855,0.024375650364203947,2.1311134235171703,1.620291363163372
1445769752043,961.0,0.0,402.0,0.7835587929240383,0.4114377384668743,0.04578563995837669,0.4114377384668743,0,0.0,0.0,0,0.0,0.0,0,0.0,0.0,0,0.0,0.0,0,0.0,0.0,0,0.0,0.0,330,0.0,0.0,0,0.0,0.0,163,0.0,0.0,152,0.0,0.0,316,1.2721518987341776,1.5193490054249563,1445769752800,976.0,0.0,100.16188524590152,0.1501765447667113,0.7786885245901637,0.4699453551912566,0.029713114754098373,0.028859815048339656,1.947745901639344,1.0998308112652373
1445769753044,976.0,0.0,373.0,0.6885245901639346,0.38698612862547277,0.03688524590163934,0.38698612862547277,0,0.0,0.0,0,0.0,0.0,0,0.0,0.0,0,0.0,0.0,0,0.0,0.0,0,0.0,0.0,317,0.0,0.0,0,0.0,0.0,180,0.0,0.0,152,0.0,0.0,327,1.1406727828746188,0.27462899382750783,1445769753820,999.0,0.0,100.1751751751752,0.17469373180795963,0.6346346346346334,0.3082581579575564,0.028028028028028014,0.027269754724664565,1.8228228228228207,1.0056509415226833
1445769754065,999.0,0.0,322.0,0.5925925925925921,0.2777406665182211,0.04504504504504507,0.2777406665182211,0,0.0,0.0,0,0.0,0.0,0,0.0,0.0,0,0.0,0.0,0,0.0,0.0,0,0.0,0.0,343,0.0,0.0,0,0.0,0.0,165,0.0,0.0,165,0.0,0.0,326,0.9877300613496937,0.06754129306276542,1445769754841,1000.0,0.0,100.15999999999991,0.15855855855855555,0.5650000000000002,0.2580330330330331,0.02900000000000002,0.02818718718718718,1.5289999999999997,0.4696286286286287
1445769755085,1000.0,0.0,323.0,0.5759999999999995,0.26849249249249246,0.04500000000000002,0.26849249249249246,0,0.0,0.0,0,0.0,0.0,0,0.0,0.0,0,0.0,0.0,0,0.0,0.0,0,0.0,0.0,341,0.0,0.0,0,0.0,0.0,175,0.0,0.0,153,0.0,0.0,331,0.9758308157099699,0.07214135310812053,1445769755864,1000.0,0.0,100.15099999999991,0.15235135135135003,0.5560000000000002,0.2471111111111112,0.033999999999999954,0.032876876876876855,1.560000000000001,0.4428428428428431
1445769756109,1000.0,0.0,350.0,0.5769999999999998,0.25432532532532537,0.03799999999999996,0.25432532532532537,0,0.0,0.0,0,0.0,0.0,0,0.0,0.0,0,0.0,0.0,0,0.0,0.0,0,0.0,0.0,287,0.003484320557491288,0.0034843205574912896,0,0.0,0.0,184,0.0,0.0,171,0.0,0.0,358,0.9748603351955305,0.11421216531305263,1445769756865,995.0,0.0,100.15075376884423,0.1321800147619387,0.6321608040201007,0.34141937049432264,0.03216080402010049,0.03316987351243136,1.6713567839195984,0.7802149580902495
1445769757110,985.0,0.0,342.0,0.6385786802030459,0.29810366885394773,0.0416243654822335,0.29810366885394773,0,0.0,0.0,0,0.0,0.0,0,0.0,0.0,0,0.0,0.0,0,0.0,0.0,0,0.0,0.0,316,0.0,0.0,0,0.0,0.0,166,0.0,0.0,170,0.0,0.0,333,1.0270270270270279,0.231195050472159,1445769757867,968.0,0.0,100.16012396694212,0.14082811284795022,0.6363636363636369,0.3371251292657704,0.025826446280991747,0.0251854589896331,1.6487603305785106,0.5259343458083696
1445769758114,978.0,0.0,335.0,0.6319018404907971,0.3147232984408259,0.0398773006134969,0.3147232984408259,0,0.0,0.0,0,0.0,0.0,0,0.0,0.0,0,0.0,0.0,0,0.0,0.0,0,0.0,0.0,300,0.0,0.0,0,0.0,0.0,168,0.0,0.0,171,0.0,0.0,339,0.9882005899705021,0.08270059869787579,1445769758875,970.0,0.0,100.14639175257733,0.13747406721776972,0.5845360824742267,0.3008958113902097,0.027835051546391747,0.027088187418211982,1.5731958762886602,0.5317885374442779
1445769759119,970.0,0.0,308.0,0.5876288659793822,0.28591490855702045,0.038144329896907164,0.28591490855702045,0,0.0,0.0,0,0.0,0.0,0,0.0,0.0,0,0.0,0.0,0,0.0,0.0,0,0.0,0.0,363,0.0027548209366391177,0.00275482093663912,0,0.0,0.0,134,0.0,0.0,172,0.0,0.0,301,1.0199335548172754,0.10626799557032116,1445769759878,981.0,0.0,100.16004077471962,0.1345648962949086,0.5107033639143731,0.2521812394682644,0.043832823649337375,0.041954274064365873,1.6177370030581022,1.0751544654559089
1445769760122,981.0,0.0,430.0,0.5504587155963296,0.2558696873244714,0.04485219164118245,0.2558696873244714,0,0.0,0.0,0,0.0,0.0,0,0.0,0.0,0,0.0,0.0,0,0.0,0.0,0,0.0,0.0,345,0.0,0.0,0,0.0,0.0,160,0.0,0.0,155,0.0,0.0,321,1.3395638629283495,1.65621105919003,1445769760879,989.0,0.0,100.15874620829122,0.1397538920023087,0.6026289180990901,0.3611671708633018,0.03134479271991915,0.030393027758787952,1.5915065722952473,0.7904541044608092
1445769761123,989.0,0.0,362.0,0.6177957532861459,0.3578206424515827,0.04448938321536905,0.3578206424515827,0,0.0,0.0,0,0.0,0.0,0,0.0,0.0,0,0.0,0.0,0,0.0,0.0,0,0.0,0.0,343,0.0,0.0,0,0.0,0.0,165,0.0,0.0,159,0.0,0.0,322,1.1242236024844725,0.41442696542249585,1445769761880,982.0,0.0,100.18533604887979,0.23268994811811491,0.532586558044805,0.2491918757824324,0.0274949083503055,0.02676619518301909,1.4806517311608967,0.4496762312865006
1445769762124,983.0,0.0,338.0,0.5259409969481167,0.25976426128087865,0.038657171922685675,0.25976426128087865,0,0.0,0.0,0,0.0,0.0,0,0.0,0.0,0,0.0,0.0,0,0.0,0.0,0,0.0,0.0,320,0.0,0.0,0,0.0,0.0,164,0.0,0.0,163,0.0,0.0,336,1.0059523809523812,0.053695806680881294,1445769762882,972.0,0.0,100.16460905349776,0.16237131971197852,0.5092592592592599,0.2625300377617576,0.024691358024691357,0.02410649578517756,1.5277777777777768,0.43486096807415014
1445769763126,971.0,0.0,326.0,0.5458290422245112,0.26877382228970015,0.038105046343975275,0.26877382228970015,0,0.0,0.0,0,0.0,0.0,0,0.0,0.0,0,0.0,0.0,0,0.0,0.0,0,0.0,0.0,328,0.0,0.0,0,0.0,0.0,155,0.0,0.0,169,0.0,0.0,319,1.0219435736677112,0.10329055026517615,1445769763883,974.0,0.0,100.16837782340873,0.17100312123430997,0.5071868583162226,0.270760217874395,0.04312114989733058,0.05363711377627145,1.4907597535934276,0.44544382094793517
1445769764127,973.0,0.0,320.0,0.547790339157246,0.305584104145255,0.048304213771839556,0.305584104145255,0,0.0,0.0,0,0.0,0.0,0,0.0,0.0,0,0.0,0.0,0,0.0,0.0,0,0.0,0.0,307,0.0,0.0,0,0.0,0.0,163,0.0,0.0,173,0.0,0.0,330,0.9696969696969691,0.059869208805379014,1445769764890,985.0,0.0,100.17360406091377,0.15987165201601305,0.49644670050761414,0.25024142627213075,0.03959390862944162,0.038064875572613614,1.514720812182741,0.46954933762535533
1445769765134,986.0,0.0,315.0,0.5547667342799206,0.28786050390749707,0.042596348884381297,0.28786050390749707,0,0.0,0.0,0,0.0,0.0,0,0.0,0.0,0,0.0,0.0,0,0.0,0.0,0,0.0,0.0,357,0.0,0.0,0,0.0,0.0,159,0.0,0.0,155,0.0,0.0,315,1.0000000000000002,0.08280254777070063,1445769765892,988.0,0.0,100.15080971659913,0.1302222413644588,0.5293522267206489,0.26762794875896795,0.02834008097165993,0.027564820397967118,1.501012145748988,0.4569391974207209
1445769766135,988.0,0.0,339.0,0.5516194331983808,0.271902136683772,0.04757085020242921,0.271902136683772,0,0.0,0.0,0,0.0,0.0,0,0.0,0.0,0,0.0,0.0,0,0.0,0.0,0,0.0,0.0,329,0.0,0.0,0,0.0,0.0,165,0.0,0.0,163,0.0,0.0,331,1.02416918429003,0.13274741371418106,1445769766940,980.0,0.0,100.15918367346957,0.13398094682204004,1.0183673469387766,2.653390590148218,0.028571428571428564,0.02778345250255362,2.3693877551020406,9.305701361239082
1445769767185,980.0,0.0,375.0,1.0030612244897954,3.6251183006399685,0.038775510204081653,3.6251183006399685,0,0.0,0.0,0,0.0,0.0,0,0.0,0.0,0,0.0,0.0,0,0.0,0.0,0,0.0,0.0,311,0.0,0.0,0,0.0,0.0,161,0.0,0.0,170,0.0,0.0,338,1.1094674556213018,0.12744719329973836,1445769767965,1000.0,0.0,100.15500000000004,0.15513013013013235,0.7899999999999999,0.4643643643643636,0.03499999999999995,0.03380880880880881,2.068,1.2225985985985983
1445769768210,1000.0,0.0,332.0,0.6930000000000015,0.34109209209209157,0.03900000000000002,0.34109209209209157,0,0.0,0.0,0,0.0,0.0,0,0.0,0.0,0,0.0,0.0,0,0.0,0.0,0,0.0,0.0,349,0.0,0.0,0,0.0,0.0,152,0.0,0.0,176,0.0,0.0,323,1.027863777089782,0.052016229832894265,1445769768990,1000.0,0.0,100.15999999999997,0.1425425425425423,0.6030000000000001,0.24163263263263274,0.028,0.027243243243243235,1.6180000000000003,0.5946706706706709
1445769769237,1000.0,0.0,326.0,0.6149999999999993,0.2950700700700699,0.04199999999999999,0.2950700700700699,0,0.0,0.0,0,0.0,0.0,0,0.0,0.0,0,0.0,0.0,0,0.0,0.0,0,0.0,0.0,348,0.0,0.0,0,0.0,0.0,162,0.0,0.0,167,0.0,0.0,323,1.0092879256965945,0.11482029882891372,1445769770017,1000.0,0.0,100.19800000000005,0.19499099099099318,0.6190000000000008,0.26810710710710695,0.03999999999999997,0.04444444444444443,1.6240000000000008,0.46909309309309266
1445769770261,1000.0,0.0,327.0,0.6680000000000001,0.34412012012011983,0.045999999999999985,0.34412012012011983,0,0.0,0.0,0,0.0,0.0,0,0.0,0.0,0,0.0,0.0,0,0.0,0.0,0,0.0,0.0,325,0.0,0.0,0,0.0,0.0,166,0.006024096385542169,0.006024096385542167,172,0.0,0.0,337,0.9673590504451034,0.09714568319909561,1445769771039,1000.0,0.0,100.17599999999985,0.17319719719719903,0.7759999999999998,1.0028268268268272,0.04300000000000004,0.06121221221221213,1.8389999999999997,1.4024814814814834
1445769771287,1000.0,0.0,367.0,0.6859999999999996,0.39980380380380387,0.03399999999999998,0.39980380380380387,0,0.0,0.0,0,0.0,0.0,0,0.0,0.0,0,0.0,0.0,0,0.0,0.0,0,0.0,0.0,337,0.0,0.0,0,0.0,0.0,179,0.0,0.0,150,0.0,0.0,334,1.098802395209581,0.48570426714139237,1445769772065,1000.0,0.0,100.22700000000007,0.5079789789789808,0.7069999999999999,0.40155255255255273,0.04200000000000003,0.07030630630630631,1.8439999999999979,1.072736736736738
1445769772310,1000.0,0.0,352.0,0.7019999999999998,0.5657617617617618,0.051000000000000066,0.5657617617617618,0,0.0,0.0,0,0.0,0.0,0,0.0,0.0,0,0.0,0.0,0,0.0,0.0,0,0.0,0.0,295,0.0,0.0,0,0.0,0.0,186,0.0,0.0,168,0.0,0.0,351,1.002849002849003,0.15142043142043138,1445769773089,1000.0,0.0,100.15000000000002,0.14764764764764685,0.6380000000000002,0.2872432432432429,0.03499999999999997,0.033808808808808814,1.6830000000000018,0.6551661661661675
1445769773333,1000.0,0.0,352.0,0.5689999999999997,0.2835225225225223,0.049,0.2835225225225223,0,0.0,0.0,0,0.0,0.0,0,0.0,0.0,0,0.0,0.0,0,0.0,0.0,0,0.0,0.0,319,0.0,0.0,0,0.0,0.0,164,0.018292682926829278,0.054878048780487784,176,0.005681818181818183,0.005681818181818181,341,1.0205278592375362,0.1319303087804037,1445769774111,1000.0,0.0,100.17800000000001,0.1724884884884874,0.5190000000000002,0.2578968968968969,0.03299999999999998,0.03794894894894898,1.5819999999999976,0.4757517517517523
1445769774356,1000.0,0.0,352.0,0.5990000000000001,0.2784774774774774,0.04400000000000002,0.2784774774774774,0,0.0,0.0,0,0.0,0.0,0,0.0,0.0,0,0.0,0.0,0,0.0,0.0,0,0.0,0.0,297,0.0,0.0,0,0.0,0.0,164,0.0,0.0,186,0.005376344086021505,0.005376344086021503,353,0.9943342776203965,0.11928599021375219,1445769775133,1000.0,0.0,100.18099999999995,0.2164554554554549,0.5469999999999999,0.26805905905905913,0.03600000000000007,0.034738738738738756,1.579000000000002,0.5563153153153155
1445769775379,1000.0,0.0,360.0,0.5730000000000011,0.28295395395395384,0.038000000000000055,0.28295395395395384,0,0.0,0.0,0,0.0,0.0,0,0.0,0.0,0,0.0,0.0,0,0.0,0.0,0,0.0,0.0,322,0.0,0.0,0,0.0,0.0,180,0.0,0.0,160,0.0,0.0,338,1.0650887573964505,0.19159657963584015,1445769776157,1000.0,0.0,100.16299999999995,0.13856956956956995,0.7120000000000014,1.5586146146146134,0.03700000000000002,0.041672672672672655,1.6530000000000002,0.901492492492493
1445769776402,1000.0,0.0,370.0,0.6269999999999997,0.34221321321321285,0.04600000000000006,0.34221321321321285,0,0.0,0.0,0,0.0,0.0,0,0.0,0.0,0,0.0,0.0,0,0.0,0.0,0,0.0,0.0,301,0.0,0.0,0,0.0,0.0,186,0.0,0.0,162,0.0,0.0,351,1.0541310541310533,0.13134717134717133,1445769777180,1000.0,0.0,100.14300000000007,0.1306816816816795,0.6210000000000007,0.2756346346346343,0.02499999999999999,0.024399399399399394,1.677999999999999,0.5869029029029024
1445769777424,1000.0,0.0,343.0,0.6169999999999998,0.3126236236236234,0.04500000000000005,0.3126236236236234,0,0.0,0.0,0,0.0,0.0,0,0.0,0.0,0,0.0,0.0,0,0.0,0.0,0,0.0,0.0,322,0.0,0.0,0,0.0,0.0,174,0.0,0.0,166,0.0,0.0,338,1.0147928994082833,0.0977033694449809,1445769778201,1000.0,0.0,100.16600000000005,0.14058458458458614,0.6010000000000002,0.3361351351351353,0.023,0.02249349349349347,1.682999999999997,0.5991101101101106
1445769778444,1000.0,0.0,338.0,0.6639999999999998,0.367471471471471,0.05199999999999998,0.367471471471471,0,0.0,0.0,0,0.0,0.0,0,0.0,0.0,0,0.0,0.0,0,0.0,0.0,0,0.0,0.0,346,0.0,0.0,0,0.0,0.0,168,0.0,0.0,157,0.0,0.0,329,1.0273556231003043,0.13644451034175986,1445769779202,996.0,0.0,100.14759036144567,0.15206453956529484,0.6485943775100406,0.29649048455127125,0.02710843373493977,0.026400072652418692,1.6877510040160637,0.5184829771346697
1445769779468,1000.0,0.0,352.0,0.6150000000000008,0.2530280280280283,0.04200000000000003,0.2530280280280283,0,0.0,0.0,0,0.0,0.0,0,0.0,0.0,0,0.0,0.0,0,0.0,0.0,0,0.0,0.0,320,0.0,0.0,0,0.0,0.0,157,0.0,0.0,185,0.0,0.0,338,1.0414201183431953,0.10510420873351714,1445769780210,976.0,0.0,100.16803278688529,0.16865910046238466,0.6147540983606559,0.3396385035729302,0.018442622950819682,0.01812105926860025,1.6311475409836063,0.5058596048759985
1445769780491,1000.0,0.0,350.0,0.6140000000000001,0.3113153153153152,0.04500000000000004,0.3113153153153152,0,0.0,0.0,0,0.0,0.0,0,0.0,0.0,0,0.0,0.0,0,0.0,0.0,0,0.0,0.0,332,0.0,0.0,0,0.0,0.0,159,0.0,0.0,174,0.0,0.0,335,1.044776119402986,0.12074358745196183,1445769781217,982.0,0.0,100.1486761710794,0.13281679818797412,0.6924643584521389,0.6372316373624327,0.02647657841140531,0.02580184399725121,1.7331975560081463,0.8135553105750616
1445769781493,985.0,0.0,331.0,0.6467005076142135,0.2978168461887668,0.05279187817258886,0.2978168461887668,0,0.0,0.0,0,0.0,0.0,0,0.0,0.0,0,0.0,0.0,0,0.0,0.0,0,0.0,0.0,328,0.0,0.0,0,0.0,0.0,177,0.0,0.0,155,0.0,0.0,325,1.018461538461539,0.13546058879392203,1445769782218,960.0,0.0,100.16041666666669,0.16193517553006753,0.6864583333333331,0.31764750608272513,0.030208333333333375,0.029326338199513413,1.8916666666666682,0.899617657281891
1445769782494,980.0,0.0,359.0,0.6908163265306131,0.31390944528986287,0.03163265306122454,0.31390944528986287,0,0.0,0.0,0,0.0,0.0,0,0.0,0.0,0,0.0,0.0,0,0.0,0.0,0,0.0,0.0,340,0.0,0.0,0,0.0,0.0,171,0.0,0.0,149,0.0,0.0,320,1.1218750000000004,0.1387049373040752,1445769783230,987.0,0.0,100.21073961499499,0.2780589858834148,0.6079027355623093,0.29336547531705215,0.03039513677811553,0.02950116216699447,1.8682877406281662,1.1530196818272433
1445769783495,950.0,0.0,339.0,0.649473684210526,0.2974444013088571,0.04631578947368424,0.2974444013088571,0,0.0,0.0,0,0.0,0.0,0,0.0,0.0,0,0.0,0.0,0,0.0,0.0,0,0.0,0.0,344,0.0,0.0,0,0.0,0.0,155,0.0,0.0,147,0.0,0.0,304,1.115131578947369,0.1352158242140002,1445769784232,995.0,0.0,100.16281407035163,0.18875666056641624,0.9015075376884424,0.8252995359089201,0.02613065326633165,0.025473443677138222,2.267336683417087,2.099485354337076
1445769784505,986.0,0.0,417.0,0.7464503042596342,0.5447843411826484,0.04969574036511151,0.5447843411826484,0,0.0,0.0,0,0.0,0.0,0,0.0,0.0,0,0.0,0.0,0,0.0,0.0,0,0.0,0.0,308,0.0,0.0,0,0.0,0.0,163,0.0,0.0,172,0.0,0.0,343,1.2157434402332368,0.4328508345694169,1445769785235,964.0,0.0,100.1732365145228,0.15791225552927082,0.6161825726141081,0.2865914349607686,0.01970954356846476,0.01934114088494204,1.7956431535269726,0.7463569067962752
1445769785527,1000.0,0.0,349.0,0.6190000000000007,0.25809709709709694,0.044000000000000004,0.25809709709709694,0,0.0,0.0,0,0.0,0.0,0,0.0,0.0,0,0.0,0.0,0,0.0,0.0,0,0.0,0.0,348,0.0,0.0,0,0.0,0.0,176,0.005681818181818183,0.00568181818181818,151,0.0,0.0,325,1.070769230769231,0.09065527065527065,1445769786236,967.0,0.0,100.12616339193374,0.11657149708496184,0.628748707342295,0.38687451960236463,0.036194415718717676,0.03699088555884571,1.7590486039296782,1.6613440214447377
1445769786552,1000.0,0.0,382.0,0.6079999999999995,1.0273633633633632,0.05499999999999995,1.0273633633633632,0,0.0,0.0,0,0.0,0.0,0,0.0,0.0,0,0.0,0.0,0,0.0,0.0,0,0.0,0.0,301,0.003322259136212622,0.003322259136212627,0,0.0,0.0,169,0.0,0.0,183,0.0,0.0,347,1.097982708933719,0.1695623927637388,1445769787241,980.0,0.0,100.17040816326539,0.1435565237330886,0.5469387755102043,0.25417856621708934,0.0336734693877551,0.03257280440265996,1.5020408163265315,0.3993829605386593
1445769787575,1000.0,0.0,339.0,0.5690000000000005,0.2855245245245245,0.033999999999999996,0.2855245245245245,0,0.0,0.0,0,0.0,0.0,0,0.0,0.0,0,0.0,0.0,0,0.0,0.0,0,0.0,0.0,329,0.0,0.0,0,0.0,0.0,150,0.0,0.0,182,0.0,0.0,339,0.9999999999999998,0.0710059171597633,1445769788252,994.0,0.0,100.12877263581495,0.11230322519203864,0.5995975855130788,0.2564348832167222,0.03621730382293768,0.03494076239916843,1.583501006036217,0.46885137613191785
1445769788598,1000.0,0.0,342.0,0.5640000000000005,0.27417817817817813,0.034000000000000016,0.27417817817817813,0,0.0,0.0,0,0.0,0.0,0,0.0,0.0,0,0.0,0.0,0,0.0,0.0,0,0.0,0.0,334,0.0,0.0,0,0.0,0.0,166,0.0,0.0,166,0.0,0.0,334,1.023952095808383,0.10152667637697582,1445769789276,1000.0,0.0,100.16500000000019,0.14992492492492585,0.6050000000000009,0.2932682682682682,0.043,0.04119219219219218,1.6590000000000003,0.5993183183183182
1445769789623,1000.0,0.0,352.0,0.630999999999999,0.24308208208208196,0.04399999999999997,0.24308208208208196,0,0.0,0.0,0,0.0,0.0,0,0.0,0.0,0,0.0,0.0,0,0.0,0.0,0,0.0,0.0,319,0.0,0.0,0,0.0,0.0,163,0.0,0.0,185,0.0,0.0,333,1.0570570570570568,0.22866239733709595,1445769790299,1000.0,0.0,100.16900000000015,0.14057957957957898,0.5780000000000008,0.29220820820820803,0.04100000000000001,0.05737637637637636,1.6089999999999989,0.5786976976976974
1445769790649,1000.0,0.0,359.0,0.5760000000000001,0.3325565565565561,0.04000000000000001,0.3325565565565561,0,0.0,0.0,0,0.0,0.0,0,0.0,0.0,0,0.0,0.0,0,0.0,0.0,0,0.0,0.0,330,0.0030303030303030286,0.003030303030303031,0,0.0,0.0,161,0.0,0.0,170,0.0,0.0,339,1.0560471976401182,0.12406835279537812,1445769791325,1000.0,0.0,100.16200000000008,0.1679239239239248,0.6109999999999993,0.2899689689689688,0.02900000000000001,0.028187187187187174,1.5560000000000003,0.5013653653653658
1445769791670,1000.0,0.0,333.0,0.5699999999999996,0.3674674674674676,0.036000000000000004,0.3674674674674676,0,0.0,0.0,0,0.0,0.0,0,0.0,0.0,0,0.0,0.0,0,0.0,0.0,0,0.0,0.0,341,0.0,0.0,0,0.0,0.0,161,0.0,0.0,171,0.0,0.0,327,1.0183486238532105,0.12236168176957277,1445769792346,1000.0,0.0,100.14300000000004,0.18073173173173113,0.624,0.3309549549549549,0.03500000000000006,0.05382882882882882,1.5530000000000004,0.5897807807807808
1445769792695,1000.0,0.0,323.0,0.5589999999999998,0.26478378378378403,0.034999999999999976,0.26478378378378403,0,0.0,0.0,0,0.0,0.0,0,0.0,0.0,0,0.0,0.0,0,0.0,0.0,0,0.0,0.0,370,0.0027027027027027016,0.0027027027027027033,0,0.0,0.0,166,0.0,0.0,147,0.0,0.0,317,1.0157728706624602,0.07886435331230285,1445769793372,1000.0,0.0,100.17100000000003,0.1639229229229229,0.5330000000000017,0.25116216216216225,0.034000000000000016,0.03287687687687689,1.526999999999999,0.45372472472472436
1445769793718,1000.0,0.0,341.0,0.5860000000000007,0.26286686686686683,0.040000000000000056,0.26286686686686683,0,0.0,0.0,0,0.0,0.0,0,0.0,0.0,0,0.0,0.0,0,0.0,0.0,0,0.0,0.0,331,0.0,0.0,0,0.0,0.0,156,0.0,0.0,182,0.0,0.0,331,1.030211480362537,0.09605419756477161,1445769794396,1000.0,0.0,100.14400000000006,0.1353993993994002,0.5440000000000008,0.24831231231231232,0.03999999999999999,0.03843843843843848,1.5469999999999988,0.4962872872872866
1445769794742,1000.0,0.0,363.0,0.5619999999999996,0.24640240240240244,0.03799999999999999,0.24640240240240244,0,0.0,0.0,0,0.0,0.0,0,0.0,0.0,0,0.0,0.0,0,0.0,0.0,0,0.0,0.0,308,0.0,0.0,0,0.0,0.0,182,0.0,0.0,158,0.0,0.0,352,1.0312500000000013,0.11013176638176636,1445769795417,1000.0,0.0,100.14499999999997,0.13010510510510576,0.5659999999999991,0.2879319319319318,0.037000000000000005,0.03566666666666663,1.5409999999999993,0.48079979979979987
1445769795743,985.0,0.0,355.0,0.5705583756345183,0.5135632041599608,0.043654822335025406,0.5135632041599608,0,0.0,0.0,0,0.0,0.0,0,0.0,0.0,0,0.0,0.0,0,0.0,0.0,0,0.0,0.0,330,0.0030303030303030286,0.0030303030303030303,0,0.0,0.0,160,0.0,0.0,168,0.0,0.0,327,1.0825688073394493,0.2538976754657511,1445769796418,974.0,0.0,100.12422997946615,0.1109642060478918,0.8193018480492814,2.1153105089996607,0.032854209445585224,0.031807466904153425,1.7032854209445567,1.0125894004655476
1445769796744,980.0,0.0,320.0,0.5806122448979598,0.2805226074086429,0.040816326530612214,0.2805226074086429,0,0.0,0.0,0,0.0,0.0,0,0.0,0.0,0,0.0,0.0,0,0.0,0.0,0,0.0,0.0,347,0.0,0.0,0,0.0,0.0,163,0.0,0.0,155,0.0,0.0,315,1.0158730158730154,0.08573450611667172,1445769797419,989.0,0.0,100.14155712841256,0.13581174293749723,0.5581395348837214,0.2711609076358156,0.03235591506572296,0.03134069910718307,1.5530839231547002,0.39520556076354074
1445769797746,969.0,0.0,339.0,0.5583075335397332,0.2654500251601293,0.03715170278637778,0.2654500251601293,0,0.0,0.0,0,0.0,0.0,0,0.0,0.0,0,0.0,0.0,0,0.0,0.0,0,0.0,0.0,300,0.0,0.0,0,0.0,0.0,179,0.005586592178770951,0.005586592178770947,156,0.0,0.0,334,1.0119760479041924,0.0719282156407905,1445769798420,970.0,0.0,100.16082474226798,0.14954730671432923,0.5845360824742275,0.28644792697328514,0.027835051546391758,0.02708818741821202,1.635051546391751,0.7046524741204141
1445769798748,990.0,0.0,336.0,0.6464646464646476,0.42493693252035,0.0494949494949495,0.42493693252035,0,0.0,0.0,0,0.0,0.0,0,0.0,0.0,0,0.0,0.0,0,0.0,0.0,0,0.0,0.0,335,0.00298507462686567,0.0029850746268656734,0,0.0,0.0,169,0.0,0.0,158,0.0,0.0,328,1.0213414634146338,0.13104162004922806,1445769799422,985.0,0.0,100.16345177664981,0.13890677231645474,0.5908629441624365,0.2846725269283151,0.031472081218274064,0.030512566546985274,1.6314720812182737,0.5906751681730019
1445769799749,977.0,0.0,336.0,0.5875127942681677,0.29177013943654884,0.038894575230296845,0.29177013943654884,0,0.0,0.0,0,0.0,0.0,0,0.0,0.0,0,0.0,0.0,0,0.0,0.0,0,0.0,0.0,315,0.0,0.0,0,0.0,0.0,188,0.0,0.0,147,0.0,0.0,327,1.0275229357798175,0.10046715821466765,1445769800423,979.0,0.0,100.14913176710921,0.13111120859104552,0.5342185903983664,0.24908351454156935,0.03881511746680287,0.03939164165261912,1.5331971399387139,0.5743058210143069
