timeStamp,totalRequests,failedRequests,totalHandleTime,upstreamTime,upstreamTimeVar,downstreamTime,downstreamTimeVar,CREATE_CLIENT_N,CREATE_CLIENT_time,CREATE_CLIENT_timeVar,CLIENT_LIST_N,CLIENT_LIST_time,CLIENT_LIST_timeVar,QUEUE_LIST_N,QUEUE_LIST_time,QUEUE_LIST_timeVar,MESSAGE_COUNT_N,MESSAGE_COUNT_time,MESSAGE_COUNT_timeVar,CREATE_QUEUE_N,CREATE_QUEUE_time,CREATE_QUEUE_timeVar,DELETE_QUEUE_N,DELETE_QUEUE_time,DELETE_QUEUE_timeVar,SEND_MESSAGE_N,SEND_MESSAGE_time,SEND_MESSAGE_timeVar,RECEIVE_MESSAGE_N,RECEIVE_MESSAGE_time,RECEIVE_MESSAGE_timeVar,POP_QUEUE_N,POP_QUEUE_time,POP_QUEUE_timeVar,TOP_QUEUE_N,TOP_QUEUE_time,TOP_QUEUE_timeVar,INBOX_QUEUES_N,INBOX_QUEUES_time,INBOX_QUEUES_timeVar,timeStamp,totalRequests,failedRequests,clientThinkTime,clientThinkTimeVar,waitingForConnectionTime,waitingForConnectionTimeVar,upstreamTime,upstreamTimeVar,waitingForResponseTime,waitingForResponseTimeVar
1445770093526,930.0,0.0,2179.0,0.6150537634408585,1.0249615148674138,0.061290322580645186,1.0249615148674138,0,0.0,0.0,0,0.0,0.0,0,0.0,0.0,100,1.1200000000000003,0.36929292929292934,0,0.0,0.0,0,0.0,0.0,633,3.037914691943131,6.185269062331279,0,0.0,0.0,37,0.0,0.0,40,0.024999999999999998,0.024999999999999998,120,1.1916666666666669,0.25707282913165275,1445770094515,1000.0,0.0,100.18100000000007,0.16840740740740967,0.662,0.6063623623623621,0.031000000000000007,0.060099099099099045,1.9859999999999993,2.8626666666666667
1445770094550,1000.0,0.0,362.0,0.6969999999999993,0.5697607607607611,0.04900000000000002,0.5697607607607611,0,0.0,0.0,0,0.0,0.0,0,0.0,0.0,0,0.0,0.0,0,0.0,0.0,0,0.0,0.0,324,0.003086419753086417,0.003086419753086421,0,0.0,0.0,169,0.01183431952662722,0.011763877148492535,177,0.0,0.0,330,1.087878787878789,0.23845445334807008,1445770095516,993.0,0.0,100.19133937562937,0.2859329824903332,0.552870090634441,0.25148620992106024,0.03222557905337359,0.0312185297079557,1.664652567975833,1.227146476951564
1445770095552,993.0,0.0,381.0,0.6042296072507547,0.42284499561446237,0.062437059415911475,0.42284499561446237,0,0.0,0.0,0,0.0,0.0,0,0.0,0.0,0,0.0,0.0,0,0.0,0.0,0,0.0,0.0,322,0.0,0.0,0,0.0,0.0,167,0.0,0.0,164,0.0,0.0,340,1.120588235294118,0.4662415408641329,1445770096517,982.0,0.0,100.18737270875769,0.25027871721568906,0.6853360488798375,0.7969101316043525,0.050916496945010166,0.07487683501809325,1.7179226069246445,0.8612278920674076
1445770096553,982.0,0.0,371.0,0.5824847250509174,0.3576133917134307,0.05804480651731155,0.3576133917134307,0,0.0,0.0,0,0.0,0.0,0,0.0,0.0,0,0.0,0.0,0,0.0,0.0,0,0.0,0.0,343,0.0,0.0,0,0.0,0.0,155,0.0,0.0,163,0.006134969325153374,0.0061349693251533735,321,1.1526479750778802,0.31100077881619986,1445770097520,963.0,0.0,100.1578400830737,0.15385478936880706,0.5856697819314649,0.27825596984475476,0.03946002076843198,0.058732348451974586,1.6697819314641762,0.8742106592573874
1445770097555,963.0,0.0,367.0,0.557632398753894,0.32177900402199483,0.06334371754932504,0.32177900402199483,0,0.0,0.0,0,0.0,0.0,0,0.0,0.0,0,0.0,0.0,0,0.0,0.0,0,0.0,0.0,302,0.0,0.0,0,0.0,0.0,161,0.0,0.0,174,0.0,0.0,326,1.1257668711656443,0.7256724870221808,1445770098521,995.0,0.0,100.15778894472366,0.133025287402808,0.6261306532663325,0.4536424577616455,0.03015075376884421,0.02927110401100069,1.787939698492464,1.17329504666188
1445770098557,995.0,0.0,360.0,0.6180904522613064,0.5260305551904396,0.05226130653266332,0.5260305551904396,0,0.0,0.0,0,0.0,0.0,0,0.0,0.0,0,0.0,0.0,0,0.0,0.0,0,0.0,0.0,317,0.0,0.0,0,0.0,0.0,152,0.0,0.0,184,0.0,0.0,342,1.0526315789473684,0.1907701805834235,1445770099522,968.0,0.0,100.16322314049599,0.13672258924679603,0.5816115702479332,0.24979595237891752,0.03099173553719009,0.030062303964720094,1.6322314049586786,0.6774295554966798
1445770099558,968.0,0.0,346.0,0.5650826446280989,0.26256441922278173,0.053719008264462784,0.26256441922278173,0,0.0,0.0,0,0.0,0.0,0,0.0,0.0,0,0.0,0.0,0,0.0,0.0,0,0.0,0.0,321,0.0,0.0,0,0.0,0.0,162,0.0,0.0,160,0.006249999999999999,0.00625,325,1.0615384615384618,0.13817663817663817,1445770100524,974.0,0.0,100.13860369609853,0.11951541729362065,0.563655030800822,0.2564783022511299,0.03388090349075979,0.045099619922718284,1.6930184804928143,1.5305370253518489
1445770100559,973.0,0.0,428.0,0.552929085303186,0.321526905459759,0.04624871531346354,0.321526905459759,0,0.0,0.0,0,0.0,0.0,0,0.0,0.0,0,0.0,0.0,0,0.0,0.0,0,0.0,0.0,341,0.0,0.0,0,0.0,0.0,154,0.0,0.0,166,0.0,0.0,312,1.3717948717948736,2.581581333992909,1445770101529,970.0,0.0,100.13092783505152,0.12009511346589613,1.5670103092783494,1021.8370942516993,0.041237113402061897,0.039577415339440175,1.5546391752577322,0.6105305714255319
1445770101564,971.0,0.0,329.0,0.534500514933058,0.2676229203605593,0.044284243048403726,0.2676229203605593,0,0.0,0.0,0,0.0,0.0,0,0.0,0.0,0,0.0,0.0,0,0.0,0.0,0,0.0,0.0,339,0.0,0.0,0,0.0,0.0,168,0.005952380952380953,0.005952380952380951,148,0.0,0.0,316,1.0379746835443033,0.34141048824593134,1445770102530,987.0,0.0,100.16919959473148,0.1427420564704232,0.5146909827760896,0.2581510960950777,0.032421479229989884,0.03140214266190699,1.507598784194527,0.4124675548869586
1445770102566,987.0,0.0,327.0,0.5876393110435664,0.2527070989804583,0.026342451874366762,0.2527070989804583,0,0.0,0.0,0,0.0,0.0,0,0.0,0.0,0,0.0,0.0,0,0.0,0.0,0,0.0,0.0,366,0.0,0.0,0,0.0,0.0,158,0.006329113924050634,0.006329113924050632,147,0.0,0.0,316,1.0316455696202533,0.08153506128189672,1445770103532,972.0,0.0,100.14506172839496,0.15298279742151932,0.556584362139917,0.2655899691887793,0.03395061728395066,0.032831750390967696,1.5092592592592577,0.45820460006865743
1445770103567,971.0,0.0,326.0,0.56951596292482,0.323770796394407,0.04634397528321321,0.323770796394407,0,0.0,0.0,0,0.0,0.0,0,0.0,0.0,0,0.0,0.0,0,0.0,0.0,0,0.0,0.0,328,0.0030487804878048764,0.0030487804878048773,0,0.0,0.0,159,0.0,0.0,167,0.0,0.0,317,1.0252365930599356,0.08796869384658389,1445770104547,992.0,0.0,100.1723790322582,0.15693560593730577,0.5171370967741928,0.2499582940008466,0.046370967741935484,0.04426532339442075,1.5372983870967758,0.5192936020962857
1445770104582,993.0,0.0,356.0,0.5558912386706952,0.29551213332033904,0.03524672708962741,0.29551213332033904,0,0.0,0.0,0,0.0,0.0,0,0.0,0.0,0,0.0,0.0,0,0.0,0.0,0,0.0,0.0,313,0.0,0.0,0,0.0,0.0,171,0.0,0.0,166,0.0,0.0,343,1.0379008746355685,0.22955347552554864,1445770105548,988.0,0.0,100.16599190283411,0.17505301715828075,0.5627530364372478,0.2767064961913785,0.02935222672064778,0.028519539437792504,1.6062753036437258,0.6057153932293904
1445770105583,988.0,0.0,352.0,0.5728744939271251,0.28546406933864943,0.044534412955465584,0.28546406933864943,0,0.0,0.0,0,0.0,0.0,0,0.0,0.0,0,0.0,0.0,0,0.0,0.0,0,0.0,0.0,314,0.0,0.0,0,0.0,0.0,171,0.0,0.0,168,0.0,0.0,335,1.0507462686567157,0.1141835731522029,1445770106549,969.0,0.0,100.16511867905065,0.14006302825610478,0.5810113519091842,0.3573250091685217,0.03715170278637771,0.04200675485505206,1.628482972136224,0.6138986260010743
1445770106584,968.0,0.0,345.0,0.5650826446280997,0.2977247087781076,0.03615702479338846,0.2977247087781076,0,0.0,0.0,0,0.0,0.0,0,0.0,0.0,0,0.0,0.0,0,0.0,0.0,0,0.0,0.0,297,0.0,0.0,0,0.0,0.0,169,0.0,0.0,162,0.0,0.0,340,1.0147058823529422,0.09122852680895369,1445770107550,986.0,0.0,100.15720081135916,0.15292779110593752,0.5466531440162263,0.26025782271599335,0.040567951318458396,0.0389617075606717,1.594320486815414,0.5093687256103209
1445770107585,985.0,0.0,330.0,0.5959390862944169,0.24917048409062778,0.03248730964467008,0.24917048409062778,0,0.0,0.0,0,0.0,0.0,0,0.0,0.0,0,0.0,0.0,0,0.0,0.0,0,0.0,0.0,324,0.0,0.0,0,0.0,0.0,171,0.0,0.0,163,0.0,0.0,327,1.0091743119266061,0.10727753700681036,1445770108551,957.0,0.0,100.16614420062696,0.18261827625555818,0.6039707419017754,0.29592563931043253,0.03134796238244513,0.04294933172440021,1.5496342737722049,0.7624397196608992
1445770108588,964.0,0.0,312.0,0.5601659751037349,0.4086296712813948,0.04771784232365147,0.4086296712813948,0,0.0,0.0,0,0.0,0.0,0,0.0,0.0,0,0.0,0.0,0,0.0,0.0,0,0.0,0.0,358,0.0,0.0,0,0.0,0.0,159,0.0,0.0,146,0.0,0.0,301,1.0365448504983392,0.14866002214839416,1445770109552,998.0,0.0,100.1653306613228,0.16421308012213187,0.7214428857715433,0.7568316170957777,0.04509018036072139,0.05513635093657726,1.8777555110220467,1.666084425621557
1445770109614,995.0,0.0,348.0,0.7256281407035179,0.7365155758672637,0.04221105527638191,0.7365155758672637,0,0.0,0.0,0,0.0,0.0,0,0.0,0.0,0,0.0,0.0,0,0.0,0.0,0,0.0,0.0,290,0.0,0.0,0,0.0,0.0,190,0.0,0.0,164,0.0,0.0,351,0.9914529914529913,0.08278388278388277,1445770110553,975.0,0.0,100.17846153846152,0.21452535144527082,0.5671794871794873,0.3278744800716056,0.028717948717948753,0.02792186595061337,1.5487179487179485,0.42036539777812865
1445770110636,1000.0,0.0,343.0,0.6010000000000002,0.3401391391391395,0.05299999999999996,0.3401391391391395,0,0.0,0.0,0,0.0,0.0,0,0.0,0.0,0,0.0,0.0,0,0.0,0.0,0,0.0,0.0,337,0.0,0.0,0,0.0,0.0,162,0.0,0.0,163,0.006134969325153374,0.006134969325153373,338,1.011834319526628,0.13042333151897173,1445770111554,935.0,0.0,100.16256684491988,0.15555657341776594,0.9839572192513371,2.3391427818937585,0.03208556149732621,0.031089328859828912,2.260962566844922,6.20805688831888
1445770111687,1000.0,0.0,400.0,0.8120000000000003,1.4461021021021034,0.04999999999999995,1.4461021021021034,0,0.0,0.0,0,0.0,0.0,0,0.0,0.0,0,0.0,0.0,0,0.0,0.0,0,0.0,0.0,338,0.0,0.0,0,0.0,0.0,174,0.0,0.0,162,0.0,0.0,326,1.2269938650306758,0.6806229353468619,1445770112595,992.0,0.0,100.17036290322574,0.15157282477783707,1.620967741935483,6.839035187656654,0.030241935483870948,0.02935695452621984,3.1834677419354835,5.79274356303505
1445770112733,1000.0,0.0,456.0,1.1060000000000003,1.6924564564564573,0.04400000000000002,1.6924564564564573,0,0.0,0.0,0,0.0,0.0,0,0.0,0.0,0,0.0,0.0,0,0.0,0.0,0,0.0,0.0,337,0.0,0.0,0,0.0,0.0,190,0.0,0.0,140,0.0,0.0,333,1.3693693693693696,0.9324324324324322,1445770113619,1000.0,0.0,100.16000000000005,0.16456456456456572,0.7190000000000006,0.34238138138138097,0.02700000000000002,0.026297297297297323,1.9739999999999986,0.9462702702702701
1445770113757,1000.0,0.0,374.0,0.696999999999999,0.36956056056056064,0.047,0.36956056056056064,0,0.0,0.0,0,0.0,0.0,0,0.0,0.0,0,0.0,0.0,0,0.0,0.0,0,0.0,0.0,315,0.0,0.0,0,0.0,0.0,154,0.0,0.0,184,0.0,0.0,347,1.0778097982708938,0.13554663423897648,1445770114643,1000.0,0.0,100.17900000000004,0.23919819819819663,0.6450000000000002,0.2972722722722725,0.033000000000000015,0.031942942942942976,1.7770000000000026,0.800071071071071
1445770114781,1000.0,0.0,384.0,0.7279999999999989,0.6987147147147147,0.04600000000000003,0.6987147147147147,0,0.0,0.0,0,0.0,0.0,0,0.0,0.0,0,0.0,0.0,0,0.0,0.0,0,0.0,0.0,327,0.0,0.0,0,0.0,0.0,164,0.0,0.0,179,0.0,0.0,330,1.1636363636363636,0.36827852998065774,1445770115645,994.0,0.0,100.17605633802823,0.1532629817170903,1.3782696177062348,3.6936260057829373,0.03219315895372231,0.031188135864532618,2.723340040241446,4.079474834910777
1445770115782,993.0,0.0,469.0,0.9154078549848934,0.6984821167527531,0.03222557905337364,0.6984821167527531,0,0.0,0.0,0,0.0,0.0,0,0.0,0.0,0,0.0,0.0,0,0.0,0.0,0,0.0,0.0,311,0.0,0.0,0,0.0,0.0,154,0.0,0.0,189,0.0,0.0,339,1.3834808259587024,0.6749925817318603,1445770116646,955.0,0.0,100.1821989528795,0.21834107148737494,0.7120418848167541,0.4694041072584981,0.03141361256544505,0.030458691428759586,1.8502617801047108,0.9995675414622369
1445770116784,955.0,0.0,363.0,0.6460732984293183,0.2687345648523167,0.06282722513089006,0.2687345648523167,0,0.0,0.0,0,0.0,0.0,0,0.0,0.0,0,0.0,0.0,0,0.0,0.0,0,0.0,0.0,317,0.003154574132492111,0.003154574132492115,0,0.0,0.0,151,0.0,0.0,165,0.0,0.0,322,1.1242236024844723,0.3645827286623707,1445770117662,984.0,0.0,100.18292682926831,0.2126888817209631,0.8160569105691056,1.2062119031668432,0.026422764227642285,0.025750771241181393,1.875,0.8073499491352992
1445770117800,985.0,0.0,359.0,0.6873096446700507,0.30862944162436556,0.04568527918781723,0.30862944162436556,0,0.0,0.0,0,0.0,0.0,0,0.0,0.0,0,0.0,0.0,0,0.0,0.0,0,0.0,0.0,318,0.0,0.0,0,0.0,0.0,160,0.0,0.0,173,0.0,0.0,334,1.0748502994011973,0.2015878153602704,1445770118667,997.0,0.0,100.17953861584755,0.14745239735269988,0.6048144433299901,0.37178402677913214,0.030090270812437304,0.02921414846950488,1.6950852557673022,0.7081384716398184
1445770118804,997.0,0.0,338.0,0.6559679037111326,0.27810942868766975,0.04212637913741228,0.27810942868766975,0,0.0,0.0,0,0.0,0.0,0,0.0,0.0,0,0.0,0.0,0,0.0,0.0,0,0.0,0.0,369,0.0,0.0,0,0.0,0.0,162,0.0,0.0,153,0.0,0.0,313,1.0798722044728437,0.18270254771852218,1445770119668,952.0,0.0,100.1733193277311,0.19600663609292074,1.0304621848739495,1.9138975779586282,0.03361344537815131,0.03251773895678146,2.055672268907561,1.6446365612491076
1445770119808,952.0,0.0,351.0,0.8161764705882347,0.6675403599925777,0.03991596638655461,0.6675403599925777,0,0.0,0.0,0,0.0,0.0,0,0.0,0.0,0,0.0,0.0,0,0.0,0.0,0,0.0,0.0,309,0.0,0.0,0,0.0,0.0,160,0.0,0.0,165,0.0,0.0,318,1.1037735849056596,0.18162609368489985,1445770120669,989.0,0.0,100.19211324570284,0.21609158230412662,0.8776541961577357,0.7653807264525173,0.037411526794742134,0.03604835375363812,2.0667340748230543,1.3234772784025082
1445770120810,991.0,0.0,386.0,0.7547931382441984,0.3771865985791314,0.04439959636730575,0.3771865985791314,0,0.0,0.0,0,0.0,0.0,0,0.0,0.0,0,0.0,0.0,0,0.0,0.0,0,0.0,0.0,343,0.0,0.0,0,0.0,0.0,149,0.0,0.0,166,0.0,0.0,333,1.1591591591591592,0.20651977278483305,1445770121670,962.0,0.0,100.17879417879429,0.23438855488803295,0.6850311850311852,0.5115134745727877,0.027027027027027004,0.026323930590319778,1.8586278586278562,1.2411793847798007
1445770121815,964.0,0.0,403.0,0.7116182572614116,0.3092729756164822,0.03941908713692942,0.3092729756164822,0,0.0,0.0,0,0.0,0.0,0,0.0,0.0,0,0.0,0.0,0,0.0,0.0,0,0.0,0.0,343,0.0,0.0,0,0.0,0.0,166,0.0,0.0,148,0.0,0.0,307,1.3127035830618883,1.4509165229609753,1445770122674,954.0,0.0,100.14360587002098,0.12311227262028084,1.0534591194968546,3.397978578075196,0.033542976939203384,0.03245186226437093,2.222222222222222,2.0345109012475233
1445770122820,962.0,0.0,463.0,0.7702702702702713,0.3769299997187617,0.03222453222453219,0.3769299997187617,0,0.0,0.0,0,0.0,0.0,0,0.0,0.0,0,0.0,0.0,0,0.0,0.0,0,0.0,0.0,279,0.0,0.0,0,0.0,0.0,169,0.0,0.0,176,0.0,0.0,338,1.3698224852070997,1.0468017488104238,1445770123679,995.0,0.0,100.17085427135682,0.16192633186051011,0.7638190954773866,0.6554300678442508,0.03417085427135682,0.053157133757317745,1.9165829145728643,0.9880044083597054
1445770123839,987.0,0.0,379.0,0.7284701114488343,0.3663590160935977,0.049645390070922,0.3663590160935977,0,0.0,0.0,0,0.0,0.0,0,0.0,0.0,0,0.0,0.0,0,0.0,0.0,0,0.0,0.0,322,0.0,0.0,0,0.0,0.0,175,0.0,0.0,155,0.0,0.0,335,1.13134328358209,0.3419787291089464,1445770124683,985.0,0.0,100.1827411167512,0.24909207213899404,0.7482233502538072,1.2393896248607195,0.026395939086294434,0.02572531055259794,1.7756345177664983,0.8286740126284512
1445770124853,996.0,0.0,374.0,0.6696787148594388,0.4746977861193526,0.02911646586345385,0.4746977861193526,0,0.0,0.0,0,0.0,0.0,0,0.0,0.0,0,0.0,0.0,0,0.0,0.0,0,0.0,0.0,326,0.0,0.0,0,0.0,0.0,168,0.0,0.0,166,0.0,0.0,336,1.1130952380952388,0.17821606254442074,1445770125688,958.0,0.0,100.18058455114827,0.16066757852806654,1.0010438413361167,2.7262267044500126,0.037578288100208794,0.03620395154481972,2.371607515657621,5.0926935469444965
1445770125856,978.0,0.0,410.0,0.8302658486707566,0.7244873396922689,0.028629856850715726,0.7244873396922689,0,0.0,0.0,0,0.0,0.0,0,0.0,0.0,0,0.0,0.0,0,0.0,0.0,0,0.0,0.0,316,0.0,0.0,0,0.0,0.0,169,0.0,0.0,161,0.0,0.0,332,1.2349397590361426,0.40385105376187513,1445770126689,971.0,0.0,100.22039134912447,0.5390064446261006,0.8444902162718849,1.0263072398526347,0.02883625128733262,0.028033592746345055,1.9577754891864043,1.4178028815016923
1445770126859,971.0,0.0,367.0,0.7435633367662217,0.49190440294308163,0.0442842430484037,0.49190440294308163,0,0.0,0.0,0,0.0,0.0,0,0.0,0.0,0,0.0,0.0,0,0.0,0.0,0,0.0,0.0,347,0.0,0.0,0,0.0,0.0,153,0.0,0.0,158,0.0,0.0,313,1.1725239616613425,0.3419349553534855,1445770127691,978.0,0.0,100.19222903885492,0.302825937252098,1.069529652351737,3.446542460225258,0.030674846625766864,0.04204683173104086,2.119631901840487,1.4503613792064098
1445770127861,956.0,0.0,379.0,0.8054393305439337,0.4940436811321167,0.03661087866108793,0.4940436811321167,0,0.0,0.0,0,0.0,0.0,0,0.0,0.0,0,0.0,0.0,0,0.0,0.0,0,0.0,0.0,316,0.0,0.0,0,0.0,0.0,154,0.0,0.0,168,0.0,0.0,318,1.1918238993710681,0.38264587425351665,1445770128697,962.0,0.0,100.15072765072779,0.15519718069145996,1.361746361746363,11.182218799284339,0.03846153846153838,0.043264227967661946,2.1787941787941802,4.045002498696569
1445770128899,979.0,0.0,453.0,0.8621041879468849,1.1005972038576988,0.030643513789581165,1.1005972038576988,0,0.0,0.0,0,0.0,0.0,0,0.0,0.0,0,0.0,0.0,0,0.0,0.0,0,0.0,0.0,332,0.0,0.0,0,0.0,0.0,160,0.0,0.0,162,0.0,0.0,325,1.3938461538461522,1.7456410256410255,1445770129698,956.0,0.0,100.14853556485356,0.12660518302701013,1.4968619246861892,6.702607943218904,0.04079497907949793,0.03917172336743413,2.771966527196655,3.5290981182501295
1445770129929,1000.0,0.0,464.0,0.8820000000000002,0.4485245245245251,0.032,0.4485245245245251,0,0.0,0.0,0,0.0,0.0,0,0.0,0.0,0,0.0,0.0,0,0.0,0.0,0,0.0,0.0,290,0.0,0.0,0,0.0,0.0,199,0.0,0.0,160,0.0,0.0,351,1.3219373219373223,0.40748880748880734,1445770130720,974.0,0.0,100.15605749486643,0.13183891138775855,0.7217659137576995,0.47646306539397393,0.040041067761807034,0.03847728505374054,1.9815195071868599,1.8043857668338796
1445770130978,1000.0,0.0,410.0,0.7900000000000007,0.5204204204204207,0.05200000000000005,0.5204204204204207,0,0.0,0.0,0,0.0,0.0,0,0.0,0.0,0,0.0,0.0,0,0.0,0.0,0,0.0,0.0,332,0.0,0.0,0,0.0,0.0,170,0.0,0.0,164,0.0,0.0,334,1.227544910179641,0.47659635683587775,1445770131776,1000.0,0.0,100.3919999999999,1.5138498498498223,1.543,2.3364874874874877,0.030999999999999986,0.030069069069069056,3.3660000000000014,4.490534534534528
1445770132016,1000.0,0.0,421.0,1.1749999999999994,0.913288288288289,0.042000000000000016,0.913288288288289,0,0.0,0.0,0,0.0,0.0,0,0.0,0.0,0,0.0,0.0,0,0.0,0.0,0,0.0,0.0,320,0.0,0.0,0,0.0,0.0,177,0.0,0.0,159,0.0,0.0,344,1.2238372093023249,0.25004237575428845,1445770132800,1000.0,0.0,100.13999999999993,0.12452452452452598,0.7879999999999994,0.2973533533533535,0.036999999999999984,0.03566666666666665,2.0630000000000006,0.9319629629629629
1445770133040,1000.0,0.0,434.0,0.7339999999999992,0.26751151151151165,0.04100000000000001,0.26751151151151165,0,0.0,0.0,0,0.0,0.0,0,0.0,0.0,0,0.0,0.0,0,0.0,0.0,0,0.0,0.0,351,0.0,0.0,0,0.0,0.0,146,0.0,0.0,180,0.0,0.0,323,1.3436532507739942,2.3007903390189024,1445770133824,1000.0,0.0,100.16999999999994,0.1452452452452444,0.6499999999999995,0.25175175175175196,0.02199999999999998,0.02153753753753756,1.946999999999999,1.5557467467467472
1445770134064,1000.0,0.0,351.0,0.6560000000000001,0.2999639639639641,0.038000000000000034,0.2999639639639641,0,0.0,0.0,0,0.0,0.0,0,0.0,0.0,0,0.0,0.0,0,0.0,0.0,0,0.0,0.0,316,0.0,0.0,0,0.0,0.0,169,0.0,0.0,176,0.0,0.0,339,1.0353982300884947,0.08750065455307118,1445770134848,1000.0,0.0,100.17000000000013,0.15925925925925896,0.5589999999999997,0.24876776776776796,0.04099999999999992,0.03935835835835835,1.5729999999999997,0.42309409409409443
1445770135087,1000.0,0.0,316.0,0.5830000000000011,0.2533643643643643,0.04100000000000002,0.2533643643643643,0,0.0,0.0,0,0.0,0.0,0,0.0,0.0,0,0.0,0.0,0,0.0,0.0,0,0.0,0.0,351,0.002849002849002846,0.002849002849002851,0,0.0,0.0,156,0.0,0.0,170,0.0,0.0,323,0.9752321981424149,0.0614964521277619,1445770135871,1000.0,0.0,100.16099999999997,0.13521421421421553,0.6190000000000007,0.2500890890890888,0.03200000000000002,0.031007007007007033,1.767999999999998,0.8550310310310307
1445770136110,1000.0,0.0,429.0,0.6110000000000004,0.26794694694694726,0.04499999999999999,0.26794694694694726,0,0.0,0.0,0,0.0,0.0,0,0.0,0.0,0,0.0,0.0,0,0.0,0.0,0,0.0,0.0,338,0.0,0.0,0,0.0,0.0,176,0.0,0.0,152,0.0,0.0,334,1.2844311377245508,0.5645016273758784,1445770136893,1000.0,0.0,100.13699999999993,0.12835935935935885,0.6139999999999993,0.26126526526526517,0.03400000000000007,0.03287687687687686,1.6589999999999991,0.6573763763763771
1445770137132,1000.0,0.0,336.0,0.6360000000000001,0.3278318318318317,0.03599999999999998,0.3278318318318317,0,0.0,0.0,0,0.0,0.0,0,0.0,0.0,0,0.0,0.0,0,0.0,0.0,0,0.0,0.0,333,0.0,0.0,0,0.0,0.0,159,0.0,0.0,172,0.0,0.0,336,0.9999999999999999,0.14328358208955225,1445770137917,1000.0,0.0,100.16199999999998,0.14189789789789725,0.5269999999999989,0.25352452452452434,0.03600000000000004,0.034738738738738756,1.4540000000000002,0.3782622622622623
1445770138156,1000.0,0.0,304.0,0.553,0.2634544544544543,0.04699999999999998,0.2634544544544543,0,0.0,0.0,0,0.0,0.0,0,0.0,0.0,0,0.0,0.0,0,0.0,0.0,0,0.0,0.0,355,0.0,0.0,0,0.0,0.0,172,0.0,0.0,156,0.0,0.0,317,0.9589905362776021,0.06476859801142042,1445770138940,1000.0,0.0,100.17999999999996,0.19779779779779508,0.5379999999999991,0.28083683683683686,0.02700000000000003,0.026297297297297306,1.5359999999999991,0.48919319319319404
1445770139180,1000.0,0.0,372.0,0.5110000000000009,0.28616516516516566,0.038999999999999986,0.28616516516516566,0,0.0,0.0,0,0.0,0.0,0,0.0,0.0,0,0.0,0.0,0,0.0,0.0,0,0.0,0.0,321,0.0,0.0,0,0.0,0.0,165,0.006060606060606061,0.00606060606060606,169,0.0,0.0,345,1.0753623188405796,0.4303505224132119,1445770139962,1000.0,0.0,100.17100000000002,0.1459049049049047,0.5409999999999997,0.25657557557557537,0.030000000000000002,0.029129129129129173,1.5190000000000017,0.5682072072072072
1445770140204,1000.0,0.0,348.0,0.5670000000000007,0.27178278278278256,0.03899999999999999,0.27178278278278256,0,0.0,0.0,0,0.0,0.0,0,0.0,0.0,0,0.0,0.0,0,0.0,0.0,0,0.0,0.0,335,0.00298507462686567,0.0029850746268656717,0,0.0,0.0,155,0.0,0.0,179,0.0,0.0,331,1.048338368580061,0.20977753364460325,1445770140988,1000.0,0.0,100.15099999999998,0.13032932932933075,0.5889999999999997,0.2843633633633629,0.03300000000000001,0.03794894894894896,1.604,0.6137977977977981
1445770141227,1000.0,0.0,335.0,0.5840000000000002,0.2752192192192191,0.045,0.2752192192192191,0,0.0,0.0,0,0.0,0.0,0,0.0,0.0,0,0.0,0.0,0,0.0,0.0,0,0.0,0.0,333,0.0,0.0,0,0.0,0.0,186,0.0,0.0,152,0.0,0.0,329,1.0182370820668691,0.08503224849877675,1445770142012,1000.0,0.0,100.16299999999988,0.1425735735735736,0.5520000000000005,0.24954554554554523,0.048999999999999995,0.05265165165165161,1.6659999999999993,0.5049489489489487
1445770142252,1000.0,0.0,348.0,0.6100000000000007,0.26816816816816824,0.036000000000000004,0.26816816816816824,0,0.0,0.0,0,0.0,0.0,0,0.0,0.0,0,0.0,0.0,0,0.0,0.0,0,0.0,0.0,357,0.0,0.0,0,0.0,0.0,164,0.0,0.0,158,0.0,0.0,321,1.0841121495327095,0.14602803738317757,1445770143034,1000.0,0.0,100.14300000000001,0.12667767767767868,0.695,0.6426176176176183,0.03200000000000001,0.031007007007007023,1.7449999999999974,0.7307057057057045
1445770143275,1000.0,0.0,411.0,0.6489999999999999,0.2700690690690686,0.03800000000000002,0.2700690690690686,0,0.0,0.0,0,0.0,0.0,0,0.0,0.0,0,0.0,0.0,0,0.0,0.0,0,0.0,0.0,326,0.0,0.0,0,0.0,0.0,156,0.006410256410256411,0.006410256410256409,174,0.0,0.0,344,1.1918604651162794,0.47620177639161965,1445770144058,1000.0,0.0,100.16600000000012,0.14258658658658785,0.6340000000000001,0.2502942942942945,0.036000000000000025,0.03473873873873875,1.7519999999999996,0.6931891891891894
1445770144299,1000.0,0.0,354.0,0.6210000000000006,0.2616206206206204,0.03700000000000008,0.2616206206206204,0,0.0,0.0,0,0.0,0.0,0,0.0,0.0,0,0.0,0.0,0,0.0,0.0,0,0.0,0.0,367,0.0,0.0,0,0.0,0.0,163,0.0,0.0,156,0.0,0.0,314,1.127388535031847,0.12429539488410907,1445770145086,1000.0,0.0,100.14499999999995,0.13410910910910892,0.6279999999999994,0.25186786786786786,0.034000000000000016,0.03287687687687692,1.6129999999999982,0.5738048048048053
1445770145326,1000.0,0.0,335.0,0.6200000000000013,0.26386386386386385,0.036000000000000046,0.26386386386386385,0,0.0,0.0,0,0.0,0.0,0,0.0,0.0,0,0.0,0.0,0,0.0,0.0,0,0.0,0.0,361,0.0,0.0,0,0.0,0.0,163,0.0,0.0,157,0.0,0.0,319,1.0501567398119114,0.09810532126732519,1445770146113,1000.0,0.0,100.17000000000002,0.21531531531531628,0.659,0.3250440440440442,0.03300000000000006,0.04395495495495495,1.7039999999999993,0.6129969969969968
1445770146352,1000.0,0.0,342.0,0.6469999999999995,0.3066976976976975,0.05199999999999996,0.3066976976976975,0,0.0,0.0,0,0.0,0.0,0,0.0,0.0,0,0.0,0.0,0,0.0,0.0,0,0.0,0.0,340,0.0,0.0,0,0.0,0.0,161,0.0,0.0,171,0.0,0.0,328,1.0426829268292679,0.12661296337734015,1445770147136,1000.0,0.0,100.178,0.25857457457457467,0.6110000000000002,0.25393293293293295,0.03200000000000003,0.031007007007006992,1.6459999999999981,0.5091931931931932
1445770147375,1000.0,0.0,353.0,0.6020000000000016,0.2498458458458456,0.04499999999999999,0.2498458458458456,0,0.0,0.0,0,0.0,0.0,0,0.0,0.0,0,0.0,0.0,0,0.0,0.0,0,0.0,0.0,324,0.0,0.0,0,0.0,0.0,170,0.005882352941176471,0.005882352941176467,167,0.0,0.0,339,1.0383480825958682,0.08432389031436006,1445770148159,1000.0,0.0,100.1700000000002,0.14324324324324603,0.6889999999999997,0.4927717717717719,0.028000000000000018,0.027243243243243235,1.6759999999999997,0.5655895895895906
1445770148398,1000.0,0.0,350.0,0.6170000000000004,0.23854954954954952,0.032000000000000015,0.23854954954954952,0,0.0,0.0,0,0.0,0.0,0,0.0,0.0,0,0.0,0.0,0,0.0,0.0,0,0.0,0.0,333,0.0,0.0,0,0.0,0.0,165,0.0,0.0,168,0.0,0.0,334,1.0479041916167666,0.08178238118357872,1445770149181,1000.0,0.0,100.14400000000002,0.12739139139139036,0.6239999999999993,0.3269509509509514,0.03099999999999998,0.0300690690690691,1.6380000000000015,0.5755315315315315
1445770149424,1000.0,0.0,345.0,0.5980000000000006,0.2986946946946948,0.03699999999999997,0.2986946946946948,0,0.0,0.0,0,0.0,0.0,0,0.0,0.0,0,0.0,0.0,0,0.0,0.0,0,0.0,0.0,336,0.0,0.0,0,0.0,0.0,162,0.0,0.0,168,0.0,0.0,334,1.032934131736527,0.17608926291561025,1445770150208,1000.0,0.0,100.17600000000014,0.17720120120119953,0.5820000000000006,0.2895655655655658,0.02799999999999999,0.02724324324324325,1.6259999999999992,0.49461861861861794
1445770150448,1000.0,0.0,354.0,0.5920000000000007,0.2577937937937939,0.034,0.2577937937937939,0,0.0,0.0,0,0.0,0.0,0,0.0,0.0,0,0.0,0.0,0,0.0,0.0,0,0.0,0.0,324,0.0,0.0,0,0.0,0.0,176,0.0,0.0,164,0.0,0.0,336,1.0535714285714288,0.0986140724946696,1445770151234,1000.0,0.0,100.16200000000015,0.17993593593593354,0.5669999999999993,0.2597707707707706,0.03300000000000002,0.031942942942942934,1.5400000000000016,0.43883883883883856
1445770151474,1000.0,0.0,332.0,0.5779999999999998,0.2661821821821822,0.04300000000000001,0.2661821821821822,0,0.0,0.0,0,0.0,0.0,0,0.0,0.0,0,0.0,0.0,0,0.0,0.0,0,0.0,0.0,341,0.0,0.0,0,0.0,0.0,160,0.0,0.0,170,0.0,0.0,329,1.0091185410334342,0.08833123285640145,1445770152256,1000.0,0.0,100.15300000000013,0.1297207207207225,0.5700000000000002,0.2713713713713714,0.03200000000000001,0.031007007007006992,1.653,0.9315225225225233
1445770152496,1000.0,0.0,363.0,0.5689999999999996,0.30154054054054086,0.049999999999999954,0.30154054054054086,0,0.0,0.0,0,0.0,0.0,0,0.0,0.0,0,0.0,0.0,0,0.0,0.0,0,0.0,0.0,358,0.0,0.0,0,0.0,0.0,155,0.0,0.0,170,0.0,0.0,317,1.145110410094636,0.7320408896697688,1445770153258,999.0,0.0,100.16816816816834,0.1400278033544573,0.5355355355355353,0.3191267419724332,0.044044044044043995,0.04214635477160525,1.6446446446446437,0.650149147143136
1445770153518,1000.0,0.0,340.0,0.5520000000000012,0.287583583583583,0.04300000000000004,0.287583583583583,0,0.0,0.0,0,0.0,0.0,0,0.0,0.0,0,0.0,0.0,0,0.0,0.0,0,0.0,0.0,346,0.0,0.0,0,0.0,0.0,166,0.0,0.0,160,0.0,0.0,328,1.0365853658536592,0.21272469605429992,1445770154259,979.0,0.0,100.15832482124623,0.15384422567162176,0.6016343207354449,0.3789748313771199,0.03166496424923393,0.030693646327478244,1.5342185903983645,0.4331325942961699
1445770154519,992.0,0.0,333.0,0.5856854838709671,0.29739327333094645,0.031250000000000014,0.29739327333094645,0,0.0,0.0,0,0.0,0.0,0,0.0,0.0,0,0.0,0.0,0,0.0,0.0,0,0.0,0.0,337,0.0,0.0,0,0.0,0.0,160,0.0,0.0,165,0.0,0.0,330,1.0090909090909093,0.09414202818458138,1445770155260,983.0,0.0,100.15259409969478,0.15184407845802364,0.5910478128179041,0.25213973600081213,0.028484231943031534,0.027701060596329062,1.6307222787385542,0.5753077262546802
1445770155521,986.0,0.0,340.0,0.5821501014198788,0.2678637987664873,0.03752535496957403,0.2678637987664873,0,0.0,0.0,0,0.0,0.0,0,0.0,0.0,0,0.0,0.0,0,0.0,0.0,0,0.0,0.0,336,0.0,0.0,0,0.0,0.0,165,0.0,0.0,157,0.006369426751592358,0.006369426751592356,328,1.0335365853658531,0.07532445737301417,1445770156261,953.0,0.0,100.15949632738722,0.14050058638355886,0.5508919202518363,0.2539724179283469,0.02833158447009442,0.02755782270935658,1.5257082896117515,0.4554833475887732
